[
  {
    "link_thumb": "https://live.staticflickr.com/65535/50021410791_0798f4aa5f_n.jpg",
    "id_album": "82558972",
    "description": "GuineaPig_789395",
    "title": "GuineaPig_789395",
    "link_img": "https://live.staticflickr.com/65535/50021410791_f79d8a54d3_o.jpg",
    "id_image": "GuineaPig_789395",
    "count_view": 0
  },
  {
    "link_thumb": "https://live.staticflickr.com/65535/50023736607_04c914d98b_n.jpg",
    "id_album": "-755466332",
    "description": "Sheep_422543",
    "title": "Sheep_422543",
    "link_img": "https://live.staticflickr.com/65535/50023736607_f4790226e0_o.jpg",
    "id_image": "Sheep_422543",
    "count_view": 0
  },
  {
    "link_thumb": "https://live.staticflickr.com/65535/50017599798_c7461266be_n.jpg",
    "id_album": "-462831702",
    "description": "Cat_394639",
    "title": "Cat_394639",
    "link_img": "https://live.staticflickr.com/65535/50017599798_951f6d398a_o.jpg",
    "id_image": "Cat_394639",
    "count_view": 0
  },
  {
    "link_thumb": "https://live.staticflickr.com/65535/50017390897_08deec6428_n.jpg",
    "id_album": "1699594607",
    "description": "Bee_364922",
    "title": "Bee_364922",
    "link_img": "https://live.staticflickr.com/65535/50017390897_d0f11db55d_o.jpg",
    "id_image": "Bee_364922",
    "count_view": 0
  },
  {
    "link_thumb": "https://live.staticflickr.com/65535/50021924466_74019205f9_n.jpg",
    "id_album": "1392348450",
    "description": "Leopard_425899",
    "title": "Leopard_425899",
    "link_img": "https://live.staticflickr.com/65535/50021924466_63ffdbd791_o.jpg",
    "id_image": "Leopard_425899",
    "count_view": 0
  },
  {
    "link_thumb": "https://live.staticflickr.com/65535/50019099663_1066a06a86_n.jpg",
    "id_album": "1889777354",
    "description": "CGI_728232",
    "title": "CGI_728232",
    "link_img": "https://live.staticflickr.com/65535/50019099663_8688c8b53a_o.jpg",
    "id_image": "CGI_728232",
    "count_view": 0
  },
  {
    "link_thumb": "https://live.staticflickr.com/65535/50022644742_3923101bfa_n.jpg",
    "id_album": "-1384601601",
    "description": "Owl_285714",
    "title": "Owl_285714",
    "link_img": "https://live.staticflickr.com/65535/50022644742_bbf0af0541_o.jpg",
    "id_image": "Owl_285714",
    "count_view": 0
  },
  {
    "link_thumb": "https://live.staticflickr.com/65535/50023327051_c20b4a1d3f_n.jpg",
    "id_album": "1512228924",
    "description": "ScarletMacaw_505291",
    "title": "ScarletMacaw_505291",
    "link_img": "https://live.staticflickr.com/65535/50023327051_3a07f1c948_o.jpg",
    "id_image": "ScarletMacaw_505291",
    "count_view": 0
  },
  {
    "link_thumb": "https://live.staticflickr.com/65535/50020511137_947e8148f9_n.jpg",
    "id_album": "-149330232",
    "description": "Dog_331467",
    "title": "Dog_331467",
    "link_img": "https://live.staticflickr.com/65535/50020511137_587ebe3762_o.jpg",
    "id_image": "Dog_331467",
    "count_view": 0
  },
  {
    "link_thumb": "https://live.staticflickr.com/65535/50016592233_177cfa9803_n.jpg",
    "id_album": "1699594607",
    "description": "Bee_213076",
    "title": "Bee_213076",
    "link_img": "https://live.staticflickr.com/65535/50016592233_6936094c4a_o.jpg",
    "id_image": "Bee_213076",
    "count_view": 0
  },
  {
    "link_thumb": "https://live.staticflickr.com/65535/50020887648_f3baac9558_n.jpg",
    "id_album": "1469520430",
    "description": "Hedgehog_353511",
    "title": "Hedgehog_353511",
    "link_img": "https://live.staticflickr.com/65535/50020887648_d5c20c7389_o.jpg",
    "id_image": "Hedgehog_353511",
    "count_view": 0
  },
  {
    "link_thumb": "https://live.staticflickr.com/65535/50019962616_4490bfc103_n.jpg",
    "id_album": "-1783645069",
    "description": "Dalmatian_231331",
    "title": "Dalmatian_231331",
    "link_img": "https://live.staticflickr.com/65535/50019962616_e60b0d9f50_o.jpg",
    "id_image": "Dalmatian_231331",
    "count_view": 0
  },
  {
    "link_thumb": "https://live.staticflickr.com/65535/50023691058_a93e2bfc77_n.jpg",
    "id_album": "405170427",
    "description": "Tiger_905544",
    "title": "Tiger_905544",
    "link_img": "https://live.staticflickr.com/65535/50023691058_8846fbd729_o.jpg",
    "id_image": "Tiger_905544",
    "count_view": 0
  },
  {
    "link_thumb": "https://live.staticflickr.com/65535/50017885607_ccca9e2be6_n.jpg",
    "id_album": "-401151552",
    "description": "Butterfly_546366",
    "title": "Butterfly_546366",
    "link_img": "https://live.staticflickr.com/65535/50017885607_a5ab603827_o.jpg",
    "id_image": "Butterfly_546366",
    "count_view": 0
  },
  {
    "link_thumb": "https://live.staticflickr.com/65535/50019903908_a28fa4ac40_n.jpg",
    "id_album": "-149330231",
    "description": "Dog_472558",
    "title": "Dog_472558",
    "link_img": "https://live.staticflickr.com/65535/50019903908_cb2b6f6deb_o.jpg",
    "id_image": "Dog_472558",
    "count_view": 0
  },
  {
    "link_thumb": "https://live.staticflickr.com/65535/50020340226_6e64a520b2_n.jpg",
    "id_album": "-149330232",
    "description": "Dog_369821",
    "title": "Dog_369821",
    "link_img": "https://live.staticflickr.com/65535/50020340226_5157c19aa8_o.jpg",
    "id_image": "Dog_369821",
    "count_view": 0
  },
  {
    "link_thumb": "https://live.staticflickr.com/65535/50018111291_18ee382448_n.jpg",
    "id_album": "-462831702",
    "description": "Cat_383302",
    "title": "Cat_383302",
    "link_img": "https://live.staticflickr.com/65535/50018111291_801ff4c8af_o.jpg",
    "id_image": "Cat_383302",
    "count_view": 0
  },
  {
    "link_thumb": "https://live.staticflickr.com/65535/50017468971_96f8e35ce7_n.jpg",
    "id_album": "-530283314",
    "description": "BlueandyellowMacaw_591806",
    "title": "BlueandyellowMacaw_591806",
    "link_img": "https://live.staticflickr.com/65535/50017468971_e1f3db816c_o.jpg",
    "id_image": "BlueandyellowMacaw_591806",
    "count_view": 0
  },
  {
    "link_thumb": "https://live.staticflickr.com/65535/50017405162_694255d874_n.jpg",
    "id_album": "1699594607",
    "description": "Bee_535246",
    "title": "Bee_535246",
    "link_img": "https://live.staticflickr.com/65535/50017405162_626da562d3_o.jpg",
    "id_image": "Bee_535246",
    "count_view": 0
  },
  {
    "link_thumb": "https://live.staticflickr.com/65535/50019437681_4e566606a5_n.jpg",
    "id_album": "-462831703",
    "description": "Cat_911512",
    "title": "Cat_911512",
    "link_img": "https://live.staticflickr.com/65535/50019437681_d063f4517a_o.jpg",
    "id_image": "Cat_911512",
    "count_view": 0
  },
  {
    "link_thumb": "https://live.staticflickr.com/65535/50021641583_8aa350c97c_n.jpg",
    "id_album": "-1720012921",
    "description": "Meerkat_347398",
    "title": "Meerkat_347398",
    "link_img": "https://live.staticflickr.com/65535/50021641583_741bd56f36_o.jpg",
    "id_image": "Meerkat_347398",
    "count_view": 0
  },
  {
    "link_thumb": "https://live.staticflickr.com/65535/50021116728_d4821e8fc5_n.jpg",
    "id_album": "1658866795",
    "description": "Insect_229984",
    "title": "Insect_229984",
    "link_img": "https://live.staticflickr.com/65535/50021116728_7086ba6d5c_o.jpg",
    "id_image": "Insect_229984",
    "count_view": 0
  },
  {
    "link_thumb": "https://live.staticflickr.com/65535/50023550358_214ce2bd50_n.jpg",
    "id_album": "405170427",
    "description": "Tiger_374336",
    "title": "Tiger_374336",
    "link_img": "https://live.staticflickr.com/65535/50023550358_36497a04a0_o.jpg",
    "id_image": "Tiger_374336",
    "count_view": 0
  },
  {
    "link_thumb": "https://live.staticflickr.com/65535/50016287123_833ef1ab09_n.jpg",
    "id_album": "-1473450542",
    "description": "Alpaca_548375",
    "title": "Alpaca_548375",
    "link_img": "https://live.staticflickr.com/65535/50016287123_e451311081_o.jpg",
    "id_image": "Alpaca_548375",
    "count_view": 0
  },
  {
    "link_thumb": "https://live.staticflickr.com/65535/50020656673_a487e667a6_n.jpg",
    "id_album": "-462831705",
    "description": "Cat_71660",
    "title": "Cat_71660",
    "link_img": "https://live.staticflickr.com/65535/50020656673_4176cc6532_o.jpg",
    "id_image": "Cat_71660",
    "count_view": 0
  },
  {
    "link_thumb": "https://live.staticflickr.com/65535/50021064697_073d9f0c66_n.jpg",
    "id_album": "822895535",
    "description": "Falcon_360015",
    "title": "Falcon_360015",
    "link_img": "https://live.staticflickr.com/65535/50021064697_0b087fe9f4_o.jpg",
    "id_image": "Falcon_360015",
    "count_view": 0
  },
  {
    "link_thumb": "https://live.staticflickr.com/65535/50017526093_ae8c7e20b5_n.jpg",
    "id_album": "-462831702",
    "description": "Cat_360447",
    "title": "Cat_360447",
    "link_img": "https://live.staticflickr.com/65535/50017526093_1e39384e09_o.jpg",
    "id_image": "Cat_360447",
    "count_view": 0
  },
  {
    "link_thumb": "https://live.staticflickr.com/65535/50017932821_b2cc45b6e2_n.jpg",
    "id_album": "-462831702",
    "description": "Cat_276214",
    "title": "Cat_276214",
    "link_img": "https://live.staticflickr.com/65535/50017932821_107c6f0372_o.jpg",
    "id_image": "Cat_276214",
    "count_view": 0
  },
  {
    "link_thumb": "https://live.staticflickr.com/65535/50023418073_5cdd6301b1_n.jpg",
    "id_album": "702283289",
    "description": "Squirrel_900506",
    "title": "Squirrel_900506",
    "link_img": "https://live.staticflickr.com/65535/50023418073_8cce3dd8e7_o.jpg",
    "id_image": "Squirrel_900506",
    "count_view": 0
  },
  {
    "link_thumb": "https://live.staticflickr.com/65535/50352680171_5b22e820d2_n.jpg",
    "id_album": "-462831702",
    "description": "Cat_105026",
    "title": "Cat_105026",
    "link_img": "https://live.staticflickr.com/65535/50352680171_e466870a90_o.jpg",
    "id_image": "Cat_105026",
    "count_view": 0
  },
  {
    "link_thumb": "https://live.staticflickr.com/65535/50020895747_1d8c067044_n.jpg",
    "id_album": "-405058657",
    "description": "Dragonfly_765745",
    "title": "Dragonfly_765745",
    "link_img": "https://live.staticflickr.com/65535/50020895747_9876579d76_o.jpg",
    "id_image": "Dragonfly_765745",
    "count_view": 0
  },
  {
    "link_thumb": "https://live.staticflickr.com/65535/50020694076_fb32a5e330_n.jpg",
    "id_album": "-39098563",
    "description": "Eagle_346560",
    "title": "Eagle_346560",
    "link_img": "https://live.staticflickr.com/65535/50020694076_24cda6b71d_o.jpg",
    "id_image": "Eagle_346560",
    "count_view": 0
  },
  {
    "link_thumb": "https://live.staticflickr.com/65535/50018155831_43f926821b_n.jpg",
    "id_album": "-462831702",
    "description": "Cat_408353",
    "title": "Cat_408353",
    "link_img": "https://live.staticflickr.com/65535/50018155831_9d36fffa9c_o.jpg",
    "id_image": "Cat_408353",
    "count_view": 0
  },
  {
    "link_thumb": "https://live.staticflickr.com/65535/50016718388_d81d9b5dee_n.jpg",
    "id_album": "-1846011410",
    "description": "Bird_331468",
    "title": "Bird_331468",
    "link_img": "https://live.staticflickr.com/65535/50016718388_2c85a30253_o.jpg",
    "id_image": "Bird_331468",
    "count_view": 0
  },
  {
    "link_thumb": "https://live.staticflickr.com/65535/50016408263_4539e106e4_n.jpg",
    "id_album": "390697200",
    "description": "AustralianShepherd_708793",
    "title": "AustralianShepherd_708793",
    "link_img": "https://live.staticflickr.com/65535/50016408263_282f2bfb1f_o.jpg",
    "id_image": "AustralianShepherd_708793",
    "count_view": 0
  },
  {
    "link_thumb": "https://live.staticflickr.com/65535/50017552698_4918806d81_n.jpg",
    "id_album": "-462831702",
    "description": "Cat_368699",
    "title": "Cat_368699",
    "link_img": "https://live.staticflickr.com/65535/50017552698_5cba1420d0_o.jpg",
    "id_image": "Cat_368699",
    "count_view": 0
  },
  {
    "link_thumb": "https://live.staticflickr.com/65535/50020069972_19cae51eef_n.jpg",
    "id_album": "-1868680171",
    "description": "Cougar_376816",
    "title": "Cougar_376816",
    "link_img": "https://live.staticflickr.com/65535/50020069972_1038381774_o.jpg",
    "id_image": "Cougar_376816",
    "count_view": 0
  },
  {
    "link_thumb": "https://live.staticflickr.com/65535/50021230156_359f7b8771_n.jpg",
    "id_album": "-462831703",
    "description": "Cat_755494",
    "title": "Cat_755494",
    "link_img": "https://live.staticflickr.com/65535/50021230156_51bc1643e8_o.jpg",
    "id_image": "Cat_755494",
    "count_view": 0
  },
  {
    "link_thumb": "https://live.staticflickr.com/65535/50017299491_5138ea4989_n.jpg",
    "id_album": "-1846011410",
    "description": "Bird_394871",
    "title": "Bird_394871",
    "link_img": "https://live.staticflickr.com/65535/50017299491_33a6318eec_o.jpg",
    "id_image": "Bird_394871",
    "count_view": 0
  },
  {
    "link_thumb": "https://live.staticflickr.com/65535/50017019223_646bb81350_n.jpg",
    "id_album": "-401151552",
    "description": "Butterfly_220183",
    "title": "Butterfly_220183",
    "link_img": "https://live.staticflickr.com/65535/50017019223_76d57b167e_o.jpg",
    "id_image": "Butterfly_220183",
    "count_view": 0
  },
  {
    "link_thumb": "https://live.staticflickr.com/65535/50023487997_753c278832_n.jpg",
    "id_album": "332874268",
    "description": "RedPanda_776083",
    "title": "RedPanda_776083",
    "link_img": "https://live.staticflickr.com/65535/50023487997_f397d0904c_o.jpg",
    "id_image": "RedPanda_776083",
    "count_view": 0
  },
  {
    "link_thumb": "https://live.staticflickr.com/65535/50016611833_5749fea8b4_n.jpg",
    "id_album": "1699594607",
    "description": "Bee_441517",
    "title": "Bee_441517",
    "link_img": "https://live.staticflickr.com/65535/50016611833_6487776ed4_o.jpg",
    "id_image": "Bee_441517",
    "count_view": 0
  },
  {
    "link_thumb": "https://live.staticflickr.com/65535/50021116868_b38e8ff53f_n.jpg",
    "id_album": "1658866795",
    "description": "Insect_238898",
    "title": "Insect_238898",
    "link_img": "https://live.staticflickr.com/65535/50021116868_61e638fe90_o.jpg",
    "id_image": "Insect_238898",
    "count_view": 0
  },
  {
    "link_thumb": "https://live.staticflickr.com/65535/50020709596_c4994e18be_n.jpg",
    "id_album": "-39098563",
    "description": "Eagle_430514",
    "title": "Eagle_430514",
    "link_img": "https://live.staticflickr.com/65535/50020709596_610c6dbe0f_o.jpg",
    "id_image": "Eagle_430514",
    "count_view": 0
  },
  {
    "link_thumb": "https://live.staticflickr.com/65535/50017498288_582423b5f9_n.jpg",
    "id_album": "-462831702",
    "description": "Cat_347392",
    "title": "Cat_347392",
    "link_img": "https://live.staticflickr.com/65535/50017498288_ba458d3663_o.jpg",
    "id_image": "Cat_347392",
    "count_view": 0
  },
  {
    "link_thumb": "https://live.staticflickr.com/65535/50022454068_2ae34718c1_n.jpg",
    "id_album": "-353898617",
    "description": "Puppy_436201",
    "title": "Puppy_436201",
    "link_img": "https://live.staticflickr.com/65535/50022454068_c0ab846454_o.jpg",
    "id_image": "Puppy_436201",
    "count_view": 0
  },
  {
    "link_thumb": "https://live.staticflickr.com/65535/50017876406_79fcac47b3_n.jpg",
    "id_album": "-462831705",
    "description": "Cat_228807",
    "title": "Cat_228807",
    "link_img": "https://live.staticflickr.com/65535/50017876406_4a6a403c88_o.jpg",
    "id_image": "Cat_228807",
    "count_view": 0
  },
  {
    "link_thumb": "https://live.staticflickr.com/65535/50024257307_7c6f6a235a_n.jpg",
    "id_album": "1244464375",
    "description": "Starfish_583118",
    "title": "Starfish_583118",
    "link_img": "https://live.staticflickr.com/65535/50024257307_5f55b511eb_o.jpg",
    "id_image": "Starfish_583118",
    "count_view": 0
  },
  {
    "link_thumb": "https://live.staticflickr.com/65535/50019126948_fc06d0e587_n.jpg",
    "id_album": "-766919393",
    "description": "Chameleon_649427",
    "title": "Chameleon_649427",
    "link_img": "https://live.staticflickr.com/65535/50019126948_e76835fe73_o.jpg",
    "id_image": "Chameleon_649427",
    "count_view": 0
  },
  {
    "link_thumb": "https://live.staticflickr.com/65535/50019757392_fac3ca346b_n.jpg",
    "id_album": "-462831703",
    "description": "Cat_941508",
    "title": "Cat_941508",
    "link_img": "https://live.staticflickr.com/65535/50019757392_9b9345ee1b_o.jpg",
    "id_image": "Cat_941508",
    "count_view": 0
  },
  {
    "link_thumb": "https://live.staticflickr.com/65535/50017079277_ec9bd8ea60_n.jpg",
    "id_album": "-1473450542",
    "description": "Alpaca_548411",
    "title": "Alpaca_548411",
    "link_img": "https://live.staticflickr.com/65535/50017079277_b67b995121_o.jpg",
    "id_image": "Alpaca_548411",
    "count_view": 0
  },
  {
    "link_thumb": "https://live.staticflickr.com/65535/50018965488_77ecc35e9e_n.jpg",
    "id_album": "-462831703",
    "description": "Cat_938164",
    "title": "Cat_938164",
    "link_img": "https://live.staticflickr.com/65535/50018965488_6bf45985c7_o.jpg",
    "id_image": "Cat_938164",
    "count_view": 0
  },
  {
    "link_thumb": "https://live.staticflickr.com/65535/50023502077_ca224dc121_n.jpg",
    "id_album": "-2087362619",
    "description": "RedandgreenMacaw_418248",
    "title": "RedandgreenMacaw_418248",
    "link_img": "https://live.staticflickr.com/65535/50023502077_fe681c993f_o.jpg",
    "id_image": "RedandgreenMacaw_418248",
    "count_view": 0
  },
  {
    "link_thumb": "https://live.staticflickr.com/65535/50016950641_f21e9b1172_n.jpg",
    "id_album": "390697200",
    "description": "AustralianShepherd_997674",
    "title": "AustralianShepherd_997674",
    "link_img": "https://live.staticflickr.com/65535/50016950641_3089cb6dfd_o.jpg",
    "id_image": "AustralianShepherd_997674",
    "count_view": 0
  },
  {
    "link_thumb": "https://live.staticflickr.com/65535/50019593742_f9c15a51e9_n.jpg",
    "id_album": "-462831703",
    "description": "Cat_863204",
    "title": "Cat_863204",
    "link_img": "https://live.staticflickr.com/65535/50019593742_21ef33fe01_o.jpg",
    "id_image": "Cat_863204",
    "count_view": 0
  },
  {
    "link_thumb": "https://live.staticflickr.com/65535/50021599228_33884bebba_n.jpg",
    "id_album": "1894617400",
    "description": "Lynx_386100",
    "title": "Lynx_386100",
    "link_img": "https://live.staticflickr.com/65535/50021599228_30f40bef29_o.jpg",
    "id_image": "Lynx_386100",
    "count_view": 0
  },
  {
    "link_thumb": "https://live.staticflickr.com/65535/50024282837_d30e1e9d99_n.jpg",
    "id_album": "405170427",
    "description": "Tiger_104655",
    "title": "Tiger_104655",
    "link_img": "https://live.staticflickr.com/65535/50024282837_d006b5cc2f_o.jpg",
    "id_image": "Tiger_104655",
    "count_view": 0
  },
  {
    "link_thumb": "https://live.staticflickr.com/65535/50024203877_f8b1b597a6_n.jpg",
    "id_album": "702283289",
    "description": "Squirrel_797407",
    "title": "Squirrel_797407",
    "link_img": "https://live.staticflickr.com/65535/50024203877_f78961343c_o.jpg",
    "id_image": "Squirrel_797407",
    "count_view": 0
  },
  {
    "link_thumb": "https://live.staticflickr.com/65535/50020576462_fd16b76f4e_n.jpg",
    "id_album": "-149330232",
    "description": "Dog_361259",
    "title": "Dog_361259",
    "link_img": "https://live.staticflickr.com/65535/50020576462_ba2171283e_o.jpg",
    "id_image": "Dog_361259",
    "count_view": 0
  },
  {
    "link_thumb": "https://live.staticflickr.com/65535/50017274508_1dc545f63a_n.jpg",
    "id_album": "-462831705",
    "description": "Cat_167473",
    "title": "Cat_167473",
    "link_img": "https://live.staticflickr.com/65535/50017274508_f2a1587788_o.jpg",
    "id_image": "Cat_167473",
    "count_view": 0
  },
  {
    "link_thumb": "https://live.staticflickr.com/65535/50018960368_e1ce59101d_n.jpg",
    "id_album": "-462831703",
    "description": "Cat_935975",
    "title": "Cat_935975",
    "link_img": "https://live.staticflickr.com/65535/50018960368_73c7e1a7fe_o.jpg",
    "id_image": "Cat_935975",
    "count_view": 0
  },
  {
    "link_thumb": "https://live.staticflickr.com/65535/50017563446_e239b77bab_n.jpg",
    "id_album": "-401151552",
    "description": "Butterfly_334536",
    "title": "Butterfly_334536",
    "link_img": "https://live.staticflickr.com/65535/50017563446_1659161bc4_o.jpg",
    "id_image": "Butterfly_334536",
    "count_view": 0
  },
  {
    "link_thumb": "https://live.staticflickr.com/65535/50020471191_b5d4b79d50_n.jpg",
    "id_album": "-149330231",
    "description": "Dog_650860",
    "title": "Dog_650860",
    "link_img": "https://live.staticflickr.com/65535/50020471191_6661a9f3b3_o.jpg",
    "id_image": "Dog_650860",
    "count_view": 0
  },
  {
    "link_thumb": "https://live.staticflickr.com/65535/50022860638_7e8a9c5990_n.jpg",
    "id_album": "1961094930",
    "description": "Seal_325954",
    "title": "Seal_325954",
    "link_img": "https://live.staticflickr.com/65535/50022860638_d905944a3a_o.jpg",
    "id_image": "Seal_325954",
    "count_view": 0
  },
  {
    "link_thumb": "https://live.staticflickr.com/65535/50021059126_1fc8d84166_n.jpg",
    "id_album": "844170697",
    "description": "Frog_386551",
    "title": "Frog_386551",
    "link_img": "https://live.staticflickr.com/65535/50021059126_cb04d14af2_o.jpg",
    "id_image": "Frog_386551",
    "count_view": 0
  },
  {
    "link_thumb": "https://live.staticflickr.com/65535/50018119441_7627a14222_n.jpg",
    "id_album": "-462831702",
    "description": "Cat_388126",
    "title": "Cat_388126",
    "link_img": "https://live.staticflickr.com/65535/50018119441_6de0cc0c07_o.jpg",
    "id_image": "Cat_388126",
    "count_view": 0
  },
  {
    "link_thumb": "https://live.staticflickr.com/65535/50022007268_aae1642a9c_n.jpg",
    "id_album": "-358592519",
    "description": "Panda_783592",
    "title": "Panda_783592",
    "link_img": "https://live.staticflickr.com/65535/50022007268_a72fcaf758_o.jpg",
    "id_image": "Panda_783592",
    "count_view": 0
  },
  {
    "link_thumb": "https://live.staticflickr.com/65535/50020224221_f49a7775cc_n.jpg",
    "id_album": "-149330232",
    "description": "Dog_286744",
    "title": "Dog_286744",
    "link_img": "https://live.staticflickr.com/65535/50020224221_7d3456aca3_o.jpg",
    "id_image": "Dog_286744",
    "count_view": 0
  },
  {
    "link_thumb": "https://live.staticflickr.com/65535/50021431647_440f24fea3_n.jpg",
    "id_album": "-462831704",
    "description": "Cat_698270",
    "title": "Cat_698270",
    "link_img": "https://live.staticflickr.com/65535/50021431647_7894cd2a22_o.jpg",
    "id_image": "Cat_698270",
    "count_view": 0
  },
  {
    "link_thumb": "https://live.staticflickr.com/65535/50023627426_bebbec87f3_n.jpg",
    "id_album": "-1131363127",
    "description": "SnowLeopard_292945",
    "title": "SnowLeopard_292945",
    "link_img": "https://live.staticflickr.com/65535/50023627426_e3675046b0_o.jpg",
    "id_image": "SnowLeopard_292945",
    "count_view": 0
  },
  {
    "link_thumb": "https://live.staticflickr.com/65535/50024485402_9a15611700_n.jpg",
    "id_album": "405170427",
    "description": "Tiger_864893",
    "title": "Tiger_864893",
    "link_img": "https://live.staticflickr.com/65535/50024485402_ca7edccb33_o.jpg",
    "id_image": "Tiger_864893",
    "count_view": 0
  },
  {
    "link_thumb": "https://live.staticflickr.com/65535/50021051256_9b592b2bdb_n.jpg",
    "id_album": "844170697",
    "description": "Frog_192251",
    "title": "Frog_192251",
    "link_img": "https://live.staticflickr.com/65535/50021051256_94449a504c_o.jpg",
    "id_image": "Frog_192251",
    "count_view": 0
  },
  {
    "link_thumb": "https://live.staticflickr.com/65535/50023312192_15fbc5be78_n.jpg",
    "id_album": "-353898617",
    "description": "Puppy_724733",
    "title": "Puppy_724733",
    "link_img": "https://live.staticflickr.com/65535/50023312192_0736a0ae07_o.jpg",
    "id_image": "Puppy_724733",
    "count_view": 0
  },
  {
    "link_thumb": "https://live.staticflickr.com/65535/50016521498_70064dd6f2_n.jpg",
    "id_album": "-422187261",
    "description": "Bear_445392",
    "title": "Bear_445392",
    "link_img": "https://live.staticflickr.com/65535/50016521498_6111f801bd_o.jpg",
    "id_image": "Bear_445392",
    "count_view": 0
  },
  {
    "link_thumb": "https://live.staticflickr.com/65535/50022963183_050bfc6eb4_n.jpg",
    "id_album": "-800019164",
    "description": "Snail_110718",
    "title": "Snail_110718",
    "link_img": "https://live.staticflickr.com/65535/50022963183_c905282e4c_o.jpg",
    "id_image": "Snail_110718",
    "count_view": 0
  },
  {
    "link_thumb": "https://live.staticflickr.com/65535/50021837771_89fa946b14_n.jpg",
    "id_album": "1307335982",
    "description": "LabradorRetriever_973468",
    "title": "LabradorRetriever_973468",
    "link_img": "https://live.staticflickr.com/65535/50021837771_fbb06f9050_o.jpg",
    "id_image": "LabradorRetriever_973468",
    "count_view": 0
  },
  {
    "link_thumb": "https://live.staticflickr.com/65535/50021710927_06322d06b0_n.jpg",
    "id_album": "-1933715543",
    "description": "Horse_103281",
    "title": "Horse_103281",
    "link_img": "https://live.staticflickr.com/65535/50021710927_0914ed57b0_o.jpg",
    "id_image": "Horse_103281",
    "count_view": 0
  },
  {
    "link_thumb": "https://live.staticflickr.com/65535/50018822043_7f583a14f5_n.jpg",
    "id_album": "-462831703",
    "description": "Cat_868339",
    "title": "Cat_868339",
    "link_img": "https://live.staticflickr.com/65535/50018822043_5dc5c0d3d5_o.jpg",
    "id_image": "Cat_868339",
    "count_view": 0
  },
  {
    "link_thumb": "https://live.staticflickr.com/65535/50017976297_acfd493c27_n.jpg",
    "id_album": "-401151552",
    "description": "Butterfly_938887",
    "title": "Butterfly_938887",
    "link_img": "https://live.staticflickr.com/65535/50017976297_36b98ea82e_o.jpg",
    "id_image": "Butterfly_938887",
    "count_view": 0
  },
  {
    "link_thumb": "https://live.staticflickr.com/65535/50020697111_f061946420_n.jpg",
    "id_album": "-39098563",
    "description": "Eagle_355703",
    "title": "Eagle_355703",
    "link_img": "https://live.staticflickr.com/65535/50020697111_36ae800789_o.jpg",
    "id_image": "Eagle_355703",
    "count_view": 0
  },
  {
    "link_thumb": "https://live.staticflickr.com/65535/50020228916_20970a15d3_n.jpg",
    "id_album": "-149330232",
    "description": "Dog_301979",
    "title": "Dog_301979",
    "link_img": "https://live.staticflickr.com/65535/50020228916_8032ef81e3_o.jpg",
    "id_image": "Dog_301979",
    "count_view": 0
  },
  {
    "link_thumb": "https://live.staticflickr.com/65535/50352537726_8da3d98aff_n.jpg",
    "id_album": "-462831703",
    "description": "Cat_458825",
    "title": "Cat_458825",
    "link_img": "https://live.staticflickr.com/65535/50352537726_2a8c10d0eb_o.jpg",
    "id_image": "Cat_458825",
    "count_view": 0
  },
  {
    "link_thumb": "https://live.staticflickr.com/65535/50021391512_a75286565a_n.jpg",
    "id_album": "-462831704",
    "description": "Cat_596559",
    "title": "Cat_596559",
    "link_img": "https://live.staticflickr.com/65535/50021391512_7160c60aa7_o.jpg",
    "id_image": "Cat_596559",
    "count_view": 0
  },
  {
    "link_thumb": "https://live.staticflickr.com/65535/50023496731_fbbc9d752c_n.jpg",
    "id_album": "692487763",
    "description": "SiberianHusky_101878",
    "title": "SiberianHusky_101878",
    "link_img": "https://live.staticflickr.com/65535/50023496731_c895499c52_o.jpg",
    "id_image": "SiberianHusky_101878",
    "count_view": 0
  },
  {
    "link_thumb": "https://live.staticflickr.com/65535/50019657526_895010815d_n.jpg",
    "id_album": "-766919393",
    "description": "Chameleon_649416",
    "title": "Chameleon_649416",
    "link_img": "https://live.staticflickr.com/65535/50019657526_4a602498e7_o.jpg",
    "id_image": "Chameleon_649416",
    "count_view": 0
  },
  {
    "link_thumb": "https://live.staticflickr.com/65535/50016830448_bce9e26f16_n.jpg",
    "id_album": "-1846011410",
    "description": "Bird_524575",
    "title": "Bird_524575",
    "link_img": "https://live.staticflickr.com/65535/50016830448_b979ae576a_o.jpg",
    "id_image": "Bird_524575",
    "count_view": 0
  },
  {
    "link_thumb": "https://live.staticflickr.com/65535/50021675486_95c2847ede_n.jpg",
    "id_album": "1658866795",
    "description": "Insect_403296",
    "title": "Insect_403296",
    "link_img": "https://live.staticflickr.com/65535/50021675486_fd50c0b995_o.jpg",
    "id_image": "Insect_403296",
    "count_view": 0
  },
  {
    "link_thumb": "https://live.staticflickr.com/65535/50024232857_bdf5c1e3b8_n.jpg",
    "id_album": "702283289",
    "description": "Squirrel_925234",
    "title": "Squirrel_925234",
    "link_img": "https://live.staticflickr.com/65535/50024232857_3dd77be527_o.jpg",
    "id_image": "Squirrel_925234",
    "count_view": 0
  },
  {
    "link_thumb": "https://live.staticflickr.com/65535/50019533472_25e756d506_n.jpg",
    "id_album": "-462831704",
    "description": "Cat_515671",
    "title": "Cat_515671",
    "link_img": "https://live.staticflickr.com/65535/50019533472_5a60079684_o.jpg",
    "id_image": "Cat_515671",
    "count_view": 0
  },
  {
    "link_thumb": "https://live.staticflickr.com/65535/50023714728_b6d78511aa_n.jpg",
    "id_album": "-809392728",
    "description": "Titmouse_432577",
    "title": "Titmouse_432577",
    "link_img": "https://live.staticflickr.com/65535/50023714728_5d4fb09e38_o.jpg",
    "id_image": "Titmouse_432577",
    "count_view": 0
  },
  {
    "link_thumb": "https://live.staticflickr.com/65535/50022387688_3fb4cabede_n.jpg",
    "id_album": "-356780855",
    "description": "Puffin_813991",
    "title": "Puffin_813991",
    "link_img": "https://live.staticflickr.com/65535/50022387688_01cb85f5c3_o.jpg",
    "id_image": "Puffin_813991",
    "count_view": 0
  },
  {
    "link_thumb": "https://live.staticflickr.com/65535/50019636611_03d9f6404e_n.jpg",
    "id_album": "-766919393",
    "description": "Chameleon_243166",
    "title": "Chameleon_243166",
    "link_img": "https://live.staticflickr.com/65535/50019636611_400f306e09_o.jpg",
    "id_image": "Chameleon_243166",
    "count_view": 0
  },
  {
    "link_thumb": "https://live.staticflickr.com/65535/50019169366_6c8b3e41cd_n.jpg",
    "id_album": "-462831702",
    "description": "Cat_425776",
    "title": "Cat_425776",
    "link_img": "https://live.staticflickr.com/65535/50019169366_4c404b4eb2_o.jpg",
    "id_image": "Cat_425776",
    "count_view": 0
  },
  {
    "link_thumb": "https://live.staticflickr.com/65535/50019155253_25e274aa14_n.jpg",
    "id_album": "-1481843714",
    "description": "Cheetah_249574",
    "title": "Cheetah_249574",
    "link_img": "https://live.staticflickr.com/65535/50019155253_3d4a3b55b2_o.jpg",
    "id_image": "Cheetah_249574",
    "count_view": 0
  },
  {
    "link_thumb": "https://live.staticflickr.com/65535/50022427123_e662bdc6e7_n.jpg",
    "id_album": "-353898617",
    "description": "Puppy_364939",
    "title": "Puppy_364939",
    "link_img": "https://live.staticflickr.com/65535/50022427123_3eca631644_o.jpg",
    "id_image": "Puppy_364939",
    "count_view": 0
  },
  {
    "link_thumb": "https://live.staticflickr.com/65535/50023440042_6897ecf98e_n.jpg",
    "id_album": "-434874555",
    "description": "RainbowLorikeet_900651",
    "title": "RainbowLorikeet_900651",
    "link_img": "https://live.staticflickr.com/65535/50023440042_e6b2602313_o.jpg",
    "id_image": "RainbowLorikeet_900651",
    "count_view": 0
  },
  {
    "link_thumb": "https://live.staticflickr.com/65535/50016459683_d23399b577_n.jpg",
    "id_album": "809937717",
    "description": "Beagle_413263",
    "title": "Beagle_413263",
    "link_img": "https://live.staticflickr.com/65535/50016459683_0161a95395_o.jpg",
    "id_image": "Beagle_413263",
    "count_view": 0
  },
  {
    "link_thumb": "https://live.staticflickr.com/65535/50019971742_40426f1907_n.jpg",
    "id_album": "-1481843714",
    "description": "Cheetah_519338",
    "title": "Cheetah_519338",
    "link_img": "https://live.staticflickr.com/65535/50019971742_3cdbc7d630_o.jpg",
    "id_image": "Cheetah_519338",
    "count_view": 0
  },
  {
    "link_thumb": "https://live.staticflickr.com/65535/50020038877_af21084f0d_n.jpg",
    "id_album": "643379324",
    "description": "Clownfish_407205",
    "title": "Clownfish_407205",
    "link_img": "https://live.staticflickr.com/65535/50020038877_5a217a2d9e_o.jpg",
    "id_image": "Clownfish_407205",
    "count_view": 0
  },
  {
    "link_thumb": "https://live.staticflickr.com/65535/50021645711_8311bb7531_n.jpg",
    "id_album": "-737856092",
    "description": "Iguana_182936",
    "title": "Iguana_182936",
    "link_img": "https://live.staticflickr.com/65535/50021645711_be6caf6ab4_o.jpg",
    "id_image": "Iguana_182936",
    "count_view": 0
  },
  {
    "link_thumb": "https://live.staticflickr.com/65535/50017924722_809fce889a_n.jpg",
    "id_album": "-401151552",
    "description": "Butterfly_773527",
    "title": "Butterfly_773527",
    "link_img": "https://live.staticflickr.com/65535/50017924722_00a38538f1_o.jpg",
    "id_image": "Butterfly_773527",
    "count_view": 0
  },
  {
    "link_thumb": "https://live.staticflickr.com/65535/50019577566_e9d19dbbfa_n.jpg",
    "id_album": "-462831703",
    "description": "Cat_999944",
    "title": "Cat_999944",
    "link_img": "https://live.staticflickr.com/65535/50019577566_5419560dd3_o.jpg",
    "id_image": "Cat_999944",
    "count_view": 0
  },
  {
    "link_thumb": "https://live.staticflickr.com/65535/50017561707_06ca58ed7e_n.jpg",
    "id_album": "-1846011410",
    "description": "Bird_397054",
    "title": "Bird_397054",
    "link_img": "https://live.staticflickr.com/65535/50017561707_8aacf75be8_o.jpg",
    "id_image": "Bird_397054",
    "count_view": 0
  },
  {
    "link_thumb": "https://live.staticflickr.com/65535/50023892408_a3a66ee25a_n.jpg",
    "id_album": "766572659",
    "description": "WhiteTiger_373706",
    "title": "WhiteTiger_373706",
    "link_img": "https://live.staticflickr.com/65535/50023892408_73dd43001c_o.jpg",
    "id_image": "WhiteTiger_373706",
    "count_view": 0
  },
  {
    "link_thumb": "https://live.staticflickr.com/65535/50017796517_604e664175_n.jpg",
    "id_album": "-401151552",
    "description": "Butterfly_124557",
    "title": "Butterfly_124557",
    "link_img": "https://live.staticflickr.com/65535/50017796517_77cbd93d14_o.jpg",
    "id_image": "Butterfly_124557",
    "count_view": 0
  },
  {
    "link_thumb": "https://live.staticflickr.com/65535/50019147488_e23fce10dc_n.jpg",
    "id_album": "-1481843714",
    "description": "Cheetah_115654",
    "title": "Cheetah_115654",
    "link_img": "https://live.staticflickr.com/65535/50019147488_7587e805e4_o.jpg",
    "id_image": "Cheetah_115654",
    "count_view": 0
  },
  {
    "link_thumb": "https://live.staticflickr.com/65535/50021281822_520aa14571_n.jpg",
    "id_album": "-128218148",
    "description": "Fox_936922",
    "title": "Fox_936922",
    "link_img": "https://live.staticflickr.com/65535/50021281822_8ba8d2a8ac_o.jpg",
    "id_image": "Fox_936922",
    "count_view": 0
  },
  {
    "link_thumb": "https://live.staticflickr.com/65535/50018036882_856906de65_n.jpg",
    "id_album": "-462831705",
    "description": "Cat_121108",
    "title": "Cat_121108",
    "link_img": "https://live.staticflickr.com/65535/50018036882_62e79526b5_o.jpg",
    "id_image": "Cat_121108",
    "count_view": 0
  },
  {
    "link_thumb": "https://live.staticflickr.com/65535/50021381287_9694e392b0_n.jpg",
    "id_album": "-462831704",
    "description": "Cat_591285",
    "title": "Cat_591285",
    "link_img": "https://live.staticflickr.com/65535/50021381287_ef6cf283de_o.jpg",
    "id_image": "Cat_591285",
    "count_view": 0
  },
  {
    "link_thumb": "https://live.staticflickr.com/65535/50019190821_db8a76f9e3_n.jpg",
    "id_album": "-462831702",
    "description": "Cat_433225",
    "title": "Cat_433225",
    "link_img": "https://live.staticflickr.com/65535/50019190821_424471c3a4_o.jpg",
    "id_image": "Cat_433225",
    "count_view": 0
  },
  {
    "link_thumb": "https://live.staticflickr.com/65535/50020278236_e6770a877e_n.jpg",
    "id_album": "-149330232",
    "description": "Dog_340541",
    "title": "Dog_340541",
    "link_img": "https://live.staticflickr.com/65535/50020278236_35a568ed6d_o.jpg",
    "id_image": "Dog_340541",
    "count_view": 0
  },
  {
    "link_thumb": "https://live.staticflickr.com/65535/50020575002_5779fc4ffc_n.jpg",
    "id_album": "-149330232",
    "description": "Dog_359730",
    "title": "Dog_359730",
    "link_img": "https://live.staticflickr.com/65535/50020575002_01541ddbe5_o.jpg",
    "id_image": "Dog_359730",
    "count_view": 0
  },
  {
    "link_thumb": "https://live.staticflickr.com/65535/50021812776_21634afec5_n.jpg",
    "id_album": "770105808",
    "description": "Kingfisher_910419",
    "title": "Kingfisher_910419",
    "link_img": "https://live.staticflickr.com/65535/50021812776_bdd1267bdf_o.jpg",
    "id_image": "Kingfisher_910419",
    "count_view": 0
  },
  {
    "link_thumb": "https://live.staticflickr.com/65535/50022136027_f2853170c5_n.jpg",
    "id_album": "1918884325",
    "description": "Lemur_776108",
    "title": "Lemur_776108",
    "link_img": "https://live.staticflickr.com/65535/50022136027_8017905c02_o.jpg",
    "id_image": "Lemur_776108",
    "count_view": 0
  },
  {
    "link_thumb": "https://live.staticflickr.com/65535/50016973703_2d34be626b_n.jpg",
    "id_album": "782930701",
    "description": "BorderCollie_859835",
    "title": "BorderCollie_859835",
    "link_img": "https://live.staticflickr.com/65535/50016973703_73095e0186_o.jpg",
    "id_image": "BorderCollie_859835",
    "count_view": 0
  },
  {
    "link_thumb": "https://live.staticflickr.com/65535/50017723206_d829fb139c_n.jpg",
    "id_album": "-1131161368",
    "description": "Camel_203825",
    "title": "Camel_203825",
    "link_img": "https://live.staticflickr.com/65535/50017723206_e23baf43d8_o.jpg",
    "id_image": "Camel_203825",
    "count_view": 0
  },
  {
    "link_thumb": "https://live.staticflickr.com/65535/50020591572_9fffcc4529_n.jpg",
    "id_album": "-149330232",
    "description": "Dog_367188",
    "title": "Dog_367188",
    "link_img": "https://live.staticflickr.com/65535/50020591572_aaa9894396_o.jpg",
    "id_image": "Dog_367188",
    "count_view": 0
  },
  {
    "link_thumb": "https://live.staticflickr.com/65535/50021282023_e3483cc90b_n.jpg",
    "id_album": "771796001",
    "description": "Koala_825885",
    "title": "Koala_825885",
    "link_img": "https://live.staticflickr.com/65535/50021282023_a761669bcd_o.jpg",
    "id_image": "Koala_825885",
    "count_view": 0
  },
  {
    "link_thumb": "https://live.staticflickr.com/65535/50022172421_5674db60da_n.jpg",
    "id_album": "1894617400",
    "description": "Lynx_984889",
    "title": "Lynx_984889",
    "link_img": "https://live.staticflickr.com/65535/50022172421_d71e434a80_o.jpg",
    "id_image": "Lynx_984889",
    "count_view": 0
  },
  {
    "link_thumb": "https://live.staticflickr.com/65535/50352817982_2c55f97238_n.jpg",
    "id_album": "-462831703",
    "description": "Cat_724226",
    "title": "Cat_724226",
    "link_img": "https://live.staticflickr.com/65535/50352817982_b60778750d_o.jpg",
    "id_image": "Cat_724226",
    "count_view": 0
  },
  {
    "link_thumb": "https://live.staticflickr.com/65535/50017238966_f871f2ec41_n.jpg",
    "id_album": "-1846011410",
    "description": "Bird_326552",
    "title": "Bird_326552",
    "link_img": "https://live.staticflickr.com/65535/50017238966_3880a8a541_o.jpg",
    "id_image": "Bird_326552",
    "count_view": 0
  },
  {
    "link_thumb": "https://live.staticflickr.com/65535/50020735302_4e383fd6e0_n.jpg",
    "id_album": "-149330231",
    "description": "Dog_683464",
    "title": "Dog_683464",
    "link_img": "https://live.staticflickr.com/65535/50020735302_de90303cb9_o.jpg",
    "id_image": "Dog_683464",
    "count_view": 0
  },
  {
    "link_thumb": "https://live.staticflickr.com/65535/50024454342_699615debc_n.jpg",
    "id_album": "405170427",
    "description": "Tiger_698600",
    "title": "Tiger_698600",
    "link_img": "https://live.staticflickr.com/65535/50024454342_459c662560_o.jpg",
    "id_image": "Tiger_698600",
    "count_view": 0
  },
  {
    "link_thumb": "https://live.staticflickr.com/65535/50019649218_e0992e4598_n.jpg",
    "id_album": "-149330232",
    "description": "Dog_249404",
    "title": "Dog_249404",
    "link_img": "https://live.staticflickr.com/65535/50019649218_15280575fd_o.jpg",
    "id_image": "Dog_249404",
    "count_view": 0
  },
  {
    "link_thumb": "https://live.staticflickr.com/65535/50024781267_3bfe088c78_n.jpg",
    "id_album": "-709711865",
    "description": "Wolf_592457",
    "title": "Wolf_592457",
    "link_img": "https://live.staticflickr.com/65535/50024781267_3caaa61c4b_o.jpg",
    "id_image": "Wolf_592457",
    "count_view": 0
  },
  {
    "link_thumb": "https://live.staticflickr.com/65535/50017824291_6694e50d3f_n.jpg",
    "id_album": "-462831705",
    "description": "Cat_181077",
    "title": "Cat_181077",
    "link_img": "https://live.staticflickr.com/65535/50017824291_f6189452e3_o.jpg",
    "id_image": "Cat_181077",
    "count_view": 0
  },
  {
    "link_thumb": "https://live.staticflickr.com/65535/50022565212_9fe484b68e_n.jpg",
    "id_album": "1015034486",
    "description": "Muteswan_239600",
    "title": "Muteswan_239600",
    "link_img": "https://live.staticflickr.com/65535/50022565212_b36358321d_o.jpg",
    "id_image": "Muteswan_239600",
    "count_view": 0
  },
  {
    "link_thumb": "https://live.staticflickr.com/65535/50022960133_30578e919c_n.jpg",
    "id_album": "692487763",
    "description": "SiberianHusky_879168",
    "title": "SiberianHusky_879168",
    "link_img": "https://live.staticflickr.com/65535/50022960133_c5c99cb091_o.jpg",
    "id_image": "SiberianHusky_879168",
    "count_view": 0
  },
  {
    "link_thumb": "https://live.staticflickr.com/65535/50020565976_7a616034e5_n.jpg",
    "id_album": "-54509188",
    "description": "Dolphin_324909",
    "title": "Dolphin_324909",
    "link_img": "https://live.staticflickr.com/65535/50020565976_c599457ee7_o.jpg",
    "id_image": "Dolphin_324909",
    "count_view": 0
  },
  {
    "link_thumb": "https://live.staticflickr.com/65535/50024804507_2e597620a3_n.jpg",
    "id_album": "-709711865",
    "description": "Wolf_779275",
    "title": "Wolf_779275",
    "link_img": "https://live.staticflickr.com/65535/50024804507_492b3be2b3_o.jpg",
    "id_image": "Wolf_779275",
    "count_view": 0
  },
  {
    "link_thumb": "https://live.staticflickr.com/65535/50023643053_c8428e80e1_n.jpg",
    "id_album": "405170427",
    "description": "Tiger_658565",
    "title": "Tiger_658565",
    "link_img": "https://live.staticflickr.com/65535/50023643053_930b46bbaa_o.jpg",
    "id_image": "Tiger_658565",
    "count_view": 0
  },
  {
    "link_thumb": "https://live.staticflickr.com/65535/50020840821_3627a01528_n.jpg",
    "id_album": "-1118073211",
    "description": "Fish_351176",
    "title": "Fish_351176",
    "link_img": "https://live.staticflickr.com/65535/50020840821_ed1b69a8de_o.jpg",
    "id_image": "Fish_351176",
    "count_view": 0
  },
  {
    "link_thumb": "https://live.staticflickr.com/65535/50020580761_886a3622c2_n.jpg",
    "id_album": "-54509188",
    "description": "Dolphin_502647",
    "title": "Dolphin_502647",
    "link_img": "https://live.staticflickr.com/65535/50020580761_2554d58429_o.jpg",
    "id_image": "Dolphin_502647",
    "count_view": 0
  },
  {
    "link_thumb": "https://live.staticflickr.com/65535/50021220186_c7a4a6175a_n.jpg",
    "id_album": "-462831703",
    "description": "Cat_740883",
    "title": "Cat_740883",
    "link_img": "https://live.staticflickr.com/65535/50021220186_de9628ba36_o.jpg",
    "id_image": "Cat_740883",
    "count_view": 0
  },
  {
    "link_thumb": "https://live.staticflickr.com/65535/50022338603_08e6f1d3d5_n.jpg",
    "id_album": "191452764",
    "description": "PrayingMantis_38497",
    "title": "PrayingMantis_38497",
    "link_img": "https://live.staticflickr.com/65535/50022338603_a53959bab0_o.jpg",
    "id_image": "PrayingMantis_38497",
    "count_view": 0
  },
  {
    "link_thumb": "https://live.staticflickr.com/65535/50351783063_b8fece05ab_n.jpg",
    "id_album": "-462831703",
    "description": "Cat_374047",
    "title": "Cat_374047",
    "link_img": "https://live.staticflickr.com/65535/50351783063_017d7011f5_o.jpg",
    "id_image": "Cat_374047",
    "count_view": 0
  },
  {
    "link_thumb": "https://live.staticflickr.com/65535/50017063671_95a3271ca4_n.jpg",
    "id_album": "-422187261",
    "description": "Bear_667839",
    "title": "Bear_667839",
    "link_img": "https://live.staticflickr.com/65535/50017063671_3f10017205_o.jpg",
    "id_image": "Bear_667839",
    "count_view": 0
  },
  {
    "link_thumb": "https://live.staticflickr.com/65535/50021499963_121fa1f813_n.jpg",
    "id_album": "416744915",
    "description": "Lion_685371",
    "title": "Lion_685371",
    "link_img": "https://live.staticflickr.com/65535/50021499963_e731a3a33c_o.jpg",
    "id_image": "Lion_685371",
    "count_view": 0
  },
  {
    "link_thumb": "https://live.staticflickr.com/65535/50023854921_7279f1953b_n.jpg",
    "id_album": "702283289",
    "description": "Squirrel_384976",
    "title": "Squirrel_384976",
    "link_img": "https://live.staticflickr.com/65535/50023854921_bae12dabfb_o.jpg",
    "id_image": "Squirrel_384976",
    "count_view": 0
  },
  {
    "link_thumb": "https://live.staticflickr.com/65535/50022157871_a1feea742f_n.jpg",
    "id_album": "1894617400",
    "description": "Lynx_728959",
    "title": "Lynx_728959",
    "link_img": "https://live.staticflickr.com/65535/50022157871_acda7b6365_o.jpg",
    "id_image": "Lynx_728959",
    "count_view": 0
  },
  {
    "link_thumb": "https://live.staticflickr.com/65535/50352856412_d5cff38550_n.jpg",
    "id_album": "-462831702",
    "description": "Cat_17850",
    "title": "Cat_17850",
    "link_img": "https://live.staticflickr.com/65535/50352856412_20e9c241f1_o.jpg",
    "id_image": "Cat_17850",
    "count_view": 0
  },
  {
    "link_thumb": "https://live.staticflickr.com/65535/50020073293_36bc9a488d_n.jpg",
    "id_album": "-405058657",
    "description": "Dragonfly_26814",
    "title": "Dragonfly_26814",
    "link_img": "https://live.staticflickr.com/65535/50020073293_621b78cf82_o.jpg",
    "id_image": "Dragonfly_26814",
    "count_view": 0
  },
  {
    "link_thumb": "https://live.staticflickr.com/65535/50017975367_f7c42816d8_n.jpg",
    "id_album": "-401151552",
    "description": "Butterfly_93651",
    "title": "Butterfly_93651",
    "link_img": "https://live.staticflickr.com/65535/50017975367_158fe50105_o.jpg",
    "id_image": "Butterfly_93651",
    "count_view": 0
  },
  {
    "link_thumb": "https://live.staticflickr.com/65535/50020118306_845d3bf7f1_n.jpg",
    "id_album": "-149330232",
    "description": "Dog_113659",
    "title": "Dog_113659",
    "link_img": "https://live.staticflickr.com/65535/50020118306_f11d157309_o.jpg",
    "id_image": "Dog_113659",
    "count_view": 0
  },
  {
    "link_thumb": "https://live.staticflickr.com/65535/50351855713_515f4413b0_n.jpg",
    "id_album": "-462831703",
    "description": "Cat_469149",
    "title": "Cat_469149",
    "link_img": "https://live.staticflickr.com/65535/50351855713_251c244109_o.jpg",
    "id_image": "Cat_469149",
    "count_view": 0
  },
  {
    "link_thumb": "https://live.staticflickr.com/65535/50352554611_7cf90fec35_n.jpg",
    "id_album": "-462831703",
    "description": "Cat_471002",
    "title": "Cat_471002",
    "link_img": "https://live.staticflickr.com/65535/50352554611_397b48bac3_o.jpg",
    "id_image": "Cat_471002",
    "count_view": 0
  },
  {
    "link_thumb": "https://live.staticflickr.com/65535/50019397453_8ba8952d73_n.jpg",
    "id_album": "1273365283",
    "description": "Cute_277752",
    "title": "Cute_277752",
    "link_img": "https://live.staticflickr.com/65535/50019397453_0f51e86044_o.jpg",
    "id_image": "Cute_277752",
    "count_view": 0
  },
  {
    "link_thumb": "https://live.staticflickr.com/65535/50019872377_a52d0b50ba_n.jpg",
    "id_album": "-420782796",
    "description": "Caterpillar_927053",
    "title": "Caterpillar_927053",
    "link_img": "https://live.staticflickr.com/65535/50019872377_4304346144_o.jpg",
    "id_image": "Caterpillar_927053",
    "count_view": 0
  },
  {
    "link_thumb": "https://live.staticflickr.com/65535/50018951293_f9ac52dafe_n.jpg",
    "id_album": "-462831703",
    "description": "Cat_930221",
    "title": "Cat_930221",
    "link_img": "https://live.staticflickr.com/65535/50018951293_c1d436c3dd_o.jpg",
    "id_image": "Cat_930221",
    "count_view": 0
  },
  {
    "link_thumb": "https://live.staticflickr.com/65535/50016356783_e3f6b27e09_n.jpg",
    "id_album": "523598895",
    "description": "Artistic_229272",
    "title": "Artistic_229272",
    "link_img": "https://live.staticflickr.com/65535/50016356783_637d30a619_o.jpg",
    "id_image": "Artistic_229272",
    "count_view": 0
  },
  {
    "link_thumb": "https://live.staticflickr.com/65535/50021471092_e04fdece1d_n.jpg",
    "id_album": "-462831703",
    "description": "Cat_738451",
    "title": "Cat_738451",
    "link_img": "https://live.staticflickr.com/65535/50021471092_2e0199532c_o.jpg",
    "id_image": "Cat_738451",
    "count_view": 0
  },
  {
    "link_thumb": "https://live.staticflickr.com/65535/50018348962_753af1f999_n.jpg",
    "id_album": "-462831702",
    "description": "Cat_369258",
    "title": "Cat_369258",
    "link_img": "https://live.staticflickr.com/65535/50018348962_ebc1f91af2_o.jpg",
    "id_image": "Cat_369258",
    "count_view": 0
  },
  {
    "link_thumb": "https://live.staticflickr.com/65535/50022785292_fe4644e382_n.jpg",
    "id_album": "-358592519",
    "description": "Panda_361516",
    "title": "Panda_361516",
    "link_img": "https://live.staticflickr.com/65535/50022785292_b24aa23998_o.jpg",
    "id_image": "Panda_361516",
    "count_view": 0
  },
  {
    "link_thumb": "https://live.staticflickr.com/65535/50021101752_8f8780a092_n.jpg",
    "id_album": "-1118073211",
    "description": "Fish_374151",
    "title": "Fish_374151",
    "link_img": "https://live.staticflickr.com/65535/50021101752_33e72c08a7_o.jpg",
    "id_image": "Fish_374151",
    "count_view": 0
  },
  {
    "link_thumb": "https://live.staticflickr.com/65535/50023399543_9f7e866d23_n.jpg",
    "id_album": "702283289",
    "description": "Squirrel_794878",
    "title": "Squirrel_794878",
    "link_img": "https://live.staticflickr.com/65535/50023399543_f494571799_o.jpg",
    "id_image": "Squirrel_794878",
    "count_view": 0
  },
  {
    "link_thumb": "https://live.staticflickr.com/65535/50021481932_583463cc68_n.jpg",
    "id_album": "-462831703",
    "description": "Cat_751096",
    "title": "Cat_751096",
    "link_img": "https://live.staticflickr.com/65535/50021481932_ac0fd16576_o.jpg",
    "id_image": "Cat_751096",
    "count_view": 0
  },
  {
    "link_thumb": "https://live.staticflickr.com/65535/50023001513_846d758414_n.jpg",
    "id_album": "-800019164",
    "description": "Snail_789054",
    "title": "Snail_789054",
    "link_img": "https://live.staticflickr.com/65535/50023001513_4066a554bf_o.jpg",
    "id_image": "Snail_789054",
    "count_view": 0
  },
  {
    "link_thumb": "https://live.staticflickr.com/65535/50020725777_ecb5699a2c_n.jpg",
    "id_album": "-149330231",
    "description": "Dog_642045",
    "title": "Dog_642045",
    "link_img": "https://live.staticflickr.com/65535/50020725777_cb0e054824_o.jpg",
    "id_image": "Dog_642045",
    "count_view": 0
  },
  {
    "link_thumb": "https://live.staticflickr.com/65535/50024157546_0a5d3a0ba7_n.jpg",
    "id_album": "405170427",
    "description": "Tiger_543903",
    "title": "Tiger_543903",
    "link_img": "https://live.staticflickr.com/65535/50024157546_1ac8c2328c_o.jpg",
    "id_image": "Tiger_543903",
    "count_view": 0
  },
  {
    "link_thumb": "https://live.staticflickr.com/65535/50020500712_6009f4126c_n.jpg",
    "id_album": "-149330232",
    "description": "Dog_324180",
    "title": "Dog_324180",
    "link_img": "https://live.staticflickr.com/65535/50020500712_97676f226e_o.jpg",
    "id_image": "Dog_324180",
    "count_view": 0
  },
  {
    "link_thumb": "https://live.staticflickr.com/65535/50021638306_90afc52c9a_n.jpg",
    "id_album": "-712553376",
    "description": "Husky_592532",
    "title": "Husky_592532",
    "link_img": "https://live.staticflickr.com/65535/50021638306_12074fbeb5_o.jpg",
    "id_image": "Husky_592532",
    "count_view": 0
  },
  {
    "link_thumb": "https://live.staticflickr.com/65535/50023766517_32794109b7_n.jpg",
    "id_album": "-800019164",
    "description": "Snail_276034",
    "title": "Snail_276034",
    "link_img": "https://live.staticflickr.com/65535/50023766517_79f12e467d_o.jpg",
    "id_image": "Snail_276034",
    "count_view": 0
  },
  {
    "link_thumb": "https://live.staticflickr.com/65535/50021470697_f4bcd42e5d_n.jpg",
    "id_album": "-462831703",
    "description": "Cat_738171",
    "title": "Cat_738171",
    "link_img": "https://live.staticflickr.com/65535/50021470697_afaf5ba926_o.jpg",
    "id_image": "Cat_738171",
    "count_view": 0
  },
  {
    "link_thumb": "https://live.staticflickr.com/65535/50017806881_cca4828447_n.jpg",
    "id_album": "-462831705",
    "description": "Cat_169621",
    "title": "Cat_169621",
    "link_img": "https://live.staticflickr.com/65535/50017806881_28774fb437_o.jpg",
    "id_image": "Cat_169621",
    "count_view": 0
  },
  {
    "link_thumb": "https://live.staticflickr.com/65535/50021914716_063e0381c5_n.jpg",
    "id_album": "1392348450",
    "description": "Leopard_379730",
    "title": "Leopard_379730",
    "link_img": "https://live.staticflickr.com/65535/50021914716_00d54e9072_o.jpg",
    "id_image": "Leopard_379730",
    "count_view": 0
  },
  {
    "link_thumb": "https://live.staticflickr.com/65535/50021130716_0bf0fa5d8c_n.jpg",
    "id_album": "-462831704",
    "description": "Cat_592584",
    "title": "Cat_592584",
    "link_img": "https://live.staticflickr.com/65535/50021130716_1c2f4d33f2_o.jpg",
    "id_image": "Cat_592584",
    "count_view": 0
  },
  {
    "link_thumb": "https://live.staticflickr.com/65535/50017607053_a226f29223_n.jpg",
    "id_album": "-462831702",
    "description": "Cat_398752",
    "title": "Cat_398752",
    "link_img": "https://live.staticflickr.com/65535/50017607053_b0772f9130_o.jpg",
    "id_image": "Cat_398752",
    "count_view": 0
  },
  {
    "link_thumb": "https://live.staticflickr.com/65535/50020809338_38f12ef9f8_n.jpg",
    "id_album": "2060159334",
    "description": "GoldenRetriever_650883",
    "title": "GoldenRetriever_650883",
    "link_img": "https://live.staticflickr.com/65535/50020809338_affcfe96af_o.jpg",
    "id_image": "GoldenRetriever_650883",
    "count_view": 0
  },
  {
    "link_thumb": "https://live.staticflickr.com/65535/50020863872_3f4316b4a1_n.jpg",
    "id_album": "-405058657",
    "description": "Dragonfly_290850",
    "title": "Dragonfly_290850",
    "link_img": "https://live.staticflickr.com/65535/50020863872_1d79f41dc5_o.jpg",
    "id_image": "Dragonfly_290850",
    "count_view": 0
  },
  {
    "link_thumb": "https://live.staticflickr.com/65535/50017975267_c680d8217b_n.jpg",
    "id_album": "-401151552",
    "description": "Butterfly_935529",
    "title": "Butterfly_935529",
    "link_img": "https://live.staticflickr.com/65535/50017975267_fc667121e0_o.jpg",
    "id_image": "Butterfly_935529",
    "count_view": 0
  },
  {
    "link_thumb": "https://live.staticflickr.com/65535/50016658378_dc6af01782_n.jpg",
    "id_album": "325287329",
    "description": "Beetle_414132",
    "title": "Beetle_414132",
    "link_img": "https://live.staticflickr.com/65535/50016658378_162a4f360d_o.jpg",
    "id_image": "Beetle_414132",
    "count_view": 0
  },
  {
    "link_thumb": "https://live.staticflickr.com/65535/50021802601_b130e3efd5_n.jpg",
    "id_album": "770105808",
    "description": "Kingfisher_556285",
    "title": "Kingfisher_556285",
    "link_img": "https://live.staticflickr.com/65535/50021802601_1708ec8dec_o.jpg",
    "id_image": "Kingfisher_556285",
    "count_view": 0
  },
  {
    "link_thumb": "https://live.staticflickr.com/65535/50020529926_3b6676111e_n.jpg",
    "id_album": "-149330231",
    "description": "Dog_871664",
    "title": "Dog_871664",
    "link_img": "https://live.staticflickr.com/65535/50020529926_01eca91d7e_o.jpg",
    "id_image": "Dog_871664",
    "count_view": 0
  },
  {
    "link_thumb": "https://live.staticflickr.com/65535/50017159891_78069d163e_n.jpg",
    "id_album": "1699594607",
    "description": "Bee_77166",
    "title": "Bee_77166",
    "link_img": "https://live.staticflickr.com/65535/50017159891_bb92c08096_o.jpg",
    "id_image": "Bee_77166",
    "count_view": 0
  },
  {
    "link_thumb": "https://live.staticflickr.com/65535/50017285322_3d4a9347d3_n.jpg",
    "id_album": "-422187261",
    "description": "Bear_341385",
    "title": "Bear_341385",
    "link_img": "https://live.staticflickr.com/65535/50017285322_077f7e6c9b_o.jpg",
    "id_image": "Bear_341385",
    "count_view": 0
  },
  {
    "link_thumb": "https://live.staticflickr.com/65535/50352435236_53e5b99b5d_n.jpg",
    "id_album": "-462831703",
    "description": "Cat_236351",
    "title": "Cat_236351",
    "link_img": "https://live.staticflickr.com/65535/50352435236_3ef0a3a512_o.jpg",
    "id_image": "Cat_236351",
    "count_view": 0
  },
  {
    "link_thumb": "https://live.staticflickr.com/65535/50019633297_ffe509310d_n.jpg",
    "id_album": "-462831703",
    "description": "Cat_876940",
    "title": "Cat_876940",
    "link_img": "https://live.staticflickr.com/65535/50019633297_aea941efd9_o.jpg",
    "id_image": "Cat_876940",
    "count_view": 0
  },
  {
    "link_thumb": "https://live.staticflickr.com/65535/50017698442_5bdd071c96_n.jpg",
    "id_album": "-1846011410",
    "description": "Bird_879973",
    "title": "Bird_879973",
    "link_img": "https://live.staticflickr.com/65535/50017698442_1b407334ef_o.jpg",
    "id_image": "Bird_879973",
    "count_view": 0
  },
  {
    "link_thumb": "https://live.staticflickr.com/65535/50020472122_2dfde1d930_n.jpg",
    "id_album": "-149330232",
    "description": "Dog_275619",
    "title": "Dog_275619",
    "link_img": "https://live.staticflickr.com/65535/50020472122_7bb123cbb4_o.jpg",
    "id_image": "Dog_275619",
    "count_view": 0
  },
  {
    "link_thumb": "https://live.staticflickr.com/65535/50021845753_378d129d3f_n.jpg",
    "id_album": "-1384601601",
    "description": "Owl_315244",
    "title": "Owl_315244",
    "link_img": "https://live.staticflickr.com/65535/50021845753_11b11ca2e5_o.jpg",
    "id_image": "Owl_315244",
    "count_view": 0
  },
  {
    "link_thumb": "https://live.staticflickr.com/65535/50020004466_179bf0efd5_n.jpg",
    "id_album": "1903411565",
    "description": "Deer_397111",
    "title": "Deer_397111",
    "link_img": "https://live.staticflickr.com/65535/50020004466_6073d492df_o.jpg",
    "id_image": "Deer_397111",
    "count_view": 0
  },
  {
    "link_thumb": "https://live.staticflickr.com/65535/50019785271_81224a080a_n.jpg",
    "id_album": "643379324",
    "description": "Clownfish_684512",
    "title": "Clownfish_684512",
    "link_img": "https://live.staticflickr.com/65535/50019785271_af526de3df_o.jpg",
    "id_image": "Clownfish_684512",
    "count_view": 0
  },
  {
    "link_thumb": "https://live.staticflickr.com/65535/50023925137_f74910055f_n.jpg",
    "id_album": "-1131363127",
    "description": "SnowLeopard_694148",
    "title": "SnowLeopard_694148",
    "link_img": "https://live.staticflickr.com/65535/50023925137_c7b47387ca_o.jpg",
    "id_image": "SnowLeopard_694148",
    "count_view": 0
  },
  {
    "link_thumb": "https://live.staticflickr.com/65535/50352644562_d3b5a94719_n.jpg",
    "id_album": "-462831703",
    "description": "Cat_382538",
    "title": "Cat_382538",
    "link_img": "https://live.staticflickr.com/65535/50352644562_9ac8be3ae3_o.jpg",
    "id_image": "Cat_382538",
    "count_view": 0
  },
  {
    "link_thumb": "https://live.staticflickr.com/65535/50023540246_32c9b5bce6_n.jpg",
    "id_album": "-800019164",
    "description": "Snail_734398",
    "title": "Snail_734398",
    "link_img": "https://live.staticflickr.com/65535/50023540246_021a00a846_o.jpg",
    "id_image": "Snail_734398",
    "count_view": 0
  },
  {
    "link_thumb": "https://live.staticflickr.com/65535/50017048883_0ae30c9b41_n.jpg",
    "id_album": "-401151552",
    "description": "Butterfly_375935",
    "title": "Butterfly_375935",
    "link_img": "https://live.staticflickr.com/65535/50017048883_dbac19874c_o.jpg",
    "id_image": "Butterfly_375935",
    "count_view": 0
  },
  {
    "link_thumb": "https://live.staticflickr.com/65535/50017588133_7194268da7_n.jpg",
    "id_album": "-462831702",
    "description": "Cat_386717",
    "title": "Cat_386717",
    "link_img": "https://live.staticflickr.com/65535/50017588133_ab61ca353b_o.jpg",
    "id_image": "Cat_386717",
    "count_view": 0
  },
  {
    "link_thumb": "https://live.staticflickr.com/65535/50024778152_8aab70bd73_n.jpg",
    "id_album": "-709711865",
    "description": "Wolf_556300",
    "title": "Wolf_556300",
    "link_img": "https://live.staticflickr.com/65535/50024778152_c13b3bc8dc_o.jpg",
    "id_image": "Wolf_556300",
    "count_view": 0
  },
  {
    "link_thumb": "https://live.staticflickr.com/65535/50021433001_5b8a3ed837_n.jpg",
    "id_album": "1469520430",
    "description": "Hedgehog_520280",
    "title": "Hedgehog_520280",
    "link_img": "https://live.staticflickr.com/65535/50021433001_e0e645c06c_o.jpg",
    "id_image": "Hedgehog_520280",
    "count_view": 0
  },
  {
    "link_thumb": "https://live.staticflickr.com/65535/50020249001_f3bd13223e_n.jpg",
    "id_album": "-149330232",
    "description": "Dog_329796",
    "title": "Dog_329796",
    "link_img": "https://live.staticflickr.com/65535/50020249001_1c80153027_o.jpg",
    "id_image": "Dog_329796",
    "count_view": 0
  },
  {
    "link_thumb": "https://live.staticflickr.com/65535/50019211508_27dce904c2_n.jpg",
    "id_album": "1949822052",
    "description": "Chimpanzee_225192",
    "title": "Chimpanzee_225192",
    "link_img": "https://live.staticflickr.com/65535/50019211508_78b02226f7_o.jpg",
    "id_image": "Chimpanzee_225192",
    "count_view": 0
  },
  {
    "link_thumb": "https://live.staticflickr.com/65535/50016918613_22a4a96ab5_n.jpg",
    "id_album": "-1846011410",
    "description": "Bird_992226",
    "title": "Bird_992226",
    "link_img": "https://live.staticflickr.com/65535/50016918613_1aa44651bd_o.jpg",
    "id_image": "Bird_992226",
    "count_view": 0
  },
  {
    "link_thumb": "https://live.staticflickr.com/65535/50023730676_d15bce1ac0_n.jpg",
    "id_album": "-1082521515",
    "description": "Spider_340526",
    "title": "Spider_340526",
    "link_img": "https://live.staticflickr.com/65535/50023730676_539a1f6d36_o.jpg",
    "id_image": "Spider_340526",
    "count_view": 0
  },
  {
    "link_thumb": "https://live.staticflickr.com/65535/50019553571_cd1e99398f_n.jpg",
    "id_album": "-462831703",
    "description": "Cat_983697",
    "title": "Cat_983697",
    "link_img": "https://live.staticflickr.com/65535/50019553571_8ffdf88437_o.jpg",
    "id_image": "Cat_983697",
    "count_view": 0
  },
  {
    "link_thumb": "https://live.staticflickr.com/65535/50017208702_388031d4f6_n.jpg",
    "id_album": "390697200",
    "description": "AustralianShepherd_919693",
    "title": "AustralianShepherd_919693",
    "link_img": "https://live.staticflickr.com/65535/50017208702_c59af2f6ac_o.jpg",
    "id_image": "AustralianShepherd_919693",
    "count_view": 0
  },
  {
    "link_thumb": "https://live.staticflickr.com/65535/50021376738_f2c23b1267_n.jpg",
    "id_album": "1392348450",
    "description": "Leopard_398751",
    "title": "Leopard_398751",
    "link_img": "https://live.staticflickr.com/65535/50021376738_fde0807e6d_o.jpg",
    "id_image": "Leopard_398751",
    "count_view": 0
  },
  {
    "link_thumb": "https://live.staticflickr.com/65535/50022844712_7326fca1cf_n.jpg",
    "id_album": "-801414987",
    "description": "Peacock_368376",
    "title": "Peacock_368376",
    "link_img": "https://live.staticflickr.com/65535/50022844712_7627cbd6e8_o.jpg",
    "id_image": "Peacock_368376",
    "count_view": 0
  },
  {
    "link_thumb": "https://live.staticflickr.com/65535/50016464508_0cc8a2f7ec_n.jpg",
    "id_album": "809937717",
    "description": "Beagle_683432",
    "title": "Beagle_683432",
    "link_img": "https://live.staticflickr.com/65535/50016464508_4029cebd4c_o.jpg",
    "id_image": "Beagle_683432",
    "count_view": 0
  },
  {
    "link_thumb": "https://live.staticflickr.com/65535/50020687123_06d830c60d_n.jpg",
    "id_album": "-462831703",
    "description": "Cat_753811",
    "title": "Cat_753811",
    "link_img": "https://live.staticflickr.com/65535/50020687123_68a187d084_o.jpg",
    "id_image": "Cat_753811",
    "count_view": 0
  },
  {
    "link_thumb": "https://live.staticflickr.com/65535/50022190992_b36820b41a_n.jpg",
    "id_album": "1392348450",
    "description": "Leopard_533726",
    "title": "Leopard_533726",
    "link_img": "https://live.staticflickr.com/65535/50022190992_d5fdb01c2a_o.jpg",
    "id_image": "Leopard_533726",
    "count_view": 0
  },
  {
    "link_thumb": "https://live.staticflickr.com/65535/50023888982_dcd393a32d_n.jpg",
    "id_album": "-1131363127",
    "description": "SnowLeopard_335275",
    "title": "SnowLeopard_335275",
    "link_img": "https://live.staticflickr.com/65535/50023888982_7bd8c5aff8_o.jpg",
    "id_image": "SnowLeopard_335275",
    "count_view": 0
  },
  {
    "link_thumb": "https://live.staticflickr.com/65535/50352683012_88f6941627_n.jpg",
    "id_album": "-462831703",
    "description": "Cat_439362",
    "title": "Cat_439362",
    "link_img": "https://live.staticflickr.com/65535/50352683012_b0732f585b_o.jpg",
    "id_image": "Cat_439362",
    "count_view": 0
  },
  {
    "link_thumb": "https://live.staticflickr.com/65535/50019664458_00c57c6fdf_n.jpg",
    "id_album": "-149330232",
    "description": "Dog_265639",
    "title": "Dog_265639",
    "link_img": "https://live.staticflickr.com/65535/50019664458_4b335c2584_o.jpg",
    "id_image": "Dog_265639",
    "count_view": 0
  },
  {
    "link_thumb": "https://live.staticflickr.com/65535/50021486457_f121e304c3_n.jpg",
    "id_album": "-462831703",
    "description": "Cat_766622",
    "title": "Cat_766622",
    "link_img": "https://live.staticflickr.com/65535/50021486457_10e1c4bc09_o.jpg",
    "id_image": "Cat_766622",
    "count_view": 0
  },
  {
    "link_thumb": "https://live.staticflickr.com/65535/50018083751_6c83408697_n.jpg",
    "id_album": "809937717",
    "description": "Beagle_382596",
    "title": "Beagle_382596",
    "link_img": "https://live.staticflickr.com/65535/50018083751_4b33b8afcd_o.jpg",
    "id_image": "Beagle_382596",
    "count_view": 0
  },
  {
    "link_thumb": "https://live.staticflickr.com/65535/50017406118_3def51da68_n.jpg",
    "id_album": "-462831702",
    "description": "Cat_277976",
    "title": "Cat_277976",
    "link_img": "https://live.staticflickr.com/65535/50017406118_1eaf23f9f9_o.jpg",
    "id_image": "Cat_277976",
    "count_view": 0
  },
  {
    "link_thumb": "https://live.staticflickr.com/65535/50017691041_c649099189_n.jpg",
    "id_album": "-401151552",
    "description": "Butterfly_903343",
    "title": "Butterfly_903343",
    "link_img": "https://live.staticflickr.com/65535/50017691041_a361d3fd20_o.jpg",
    "id_image": "Butterfly_903343",
    "count_view": 0
  },
  {
    "link_thumb": "https://live.staticflickr.com/65535/50017992646_39e528d5b5_n.jpg",
    "id_album": "-462831702",
    "description": "Cat_332186",
    "title": "Cat_332186",
    "link_img": "https://live.staticflickr.com/65535/50017992646_5594f9d9f8_o.jpg",
    "id_image": "Cat_332186",
    "count_view": 0
  },
  {
    "link_thumb": "https://live.staticflickr.com/65535/50019502793_847f3ed19a_n.jpg",
    "id_album": "1903411565",
    "description": "Deer_652318",
    "title": "Deer_652318",
    "link_img": "https://live.staticflickr.com/65535/50019502793_e5aaeb89d4_o.jpg",
    "id_image": "Deer_652318",
    "count_view": 0
  },
  {
    "link_thumb": "https://live.staticflickr.com/65535/50017616628_cd4e3360c3_n.jpg",
    "id_album": "-462831702",
    "description": "Cat_405177",
    "title": "Cat_405177",
    "link_img": "https://live.staticflickr.com/65535/50017616628_fa0c4301dd_o.jpg",
    "id_image": "Cat_405177",
    "count_view": 0
  },
  {
    "link_thumb": "https://live.staticflickr.com/65535/50019665747_dff801eaf1_n.jpg",
    "id_album": "-462831703",
    "description": "Cat_898201",
    "title": "Cat_898201",
    "link_img": "https://live.staticflickr.com/65535/50019665747_1d443d989a_o.jpg",
    "id_image": "Cat_898201",
    "count_view": 0
  },
  {
    "link_thumb": "https://live.staticflickr.com/65535/50017289763_402f87c5c2_n.jpg",
    "id_album": "-462831705",
    "description": "Cat_179272",
    "title": "Cat_179272",
    "link_img": "https://live.staticflickr.com/65535/50017289763_53c09c8c97_o.jpg",
    "id_image": "Cat_179272",
    "count_view": 0
  },
  {
    "link_thumb": "https://live.staticflickr.com/65535/50017453061_3668359f59_n.jpg",
    "id_album": "-1561645279",
    "description": "BlackPanther_409821",
    "title": "BlackPanther_409821",
    "link_img": "https://live.staticflickr.com/65535/50017453061_cb1c5e7056_o.jpg",
    "id_image": "BlackPanther_409821",
    "count_view": 0
  },
  {
    "link_thumb": "https://live.staticflickr.com/65535/50019965457_e7d835dd0b_n.jpg",
    "id_album": "-1481843714",
    "description": "Cheetah_440189",
    "title": "Cheetah_440189",
    "link_img": "https://live.staticflickr.com/65535/50019965457_f1b98ccb23_o.jpg",
    "id_image": "Cheetah_440189",
    "count_view": 0
  },
  {
    "link_thumb": "https://live.staticflickr.com/65535/50020113448_842bf8932b_n.jpg",
    "id_album": "1168627767",
    "description": "Duck_233790",
    "title": "Duck_233790",
    "link_img": "https://live.staticflickr.com/65535/50020113448_cd9f0e8679_o.jpg",
    "id_image": "Duck_233790",
    "count_view": 0
  },
  {
    "link_thumb": "https://live.staticflickr.com/65535/50017056711_ae5276dac8_n.jpg",
    "id_album": "-422187261",
    "description": "Bear_546791",
    "title": "Bear_546791",
    "link_img": "https://live.staticflickr.com/65535/50017056711_e83fce3e0b_o.jpg",
    "id_image": "Bear_546791",
    "count_view": 0
  },
  {
    "link_thumb": "https://live.staticflickr.com/65535/50016911706_a0c9f749bf_n.jpg",
    "id_album": "523598895",
    "description": "Artistic_601426",
    "title": "Artistic_601426",
    "link_img": "https://live.staticflickr.com/65535/50016911706_4726e52db0_o.jpg",
    "id_image": "Artistic_601426",
    "count_view": 0
  },
  {
    "link_thumb": "https://live.staticflickr.com/65535/50020362586_d3394e25c8_n.jpg",
    "id_album": "-149330231",
    "description": "Dog_385125",
    "title": "Dog_385125",
    "link_img": "https://live.staticflickr.com/65535/50020362586_e98ab470e3_o.jpg",
    "id_image": "Dog_385125",
    "count_view": 0
  },
  {
    "link_thumb": "https://live.staticflickr.com/65535/50018648468_4131b4d108_n.jpg",
    "id_album": "-462831702",
    "description": "Cat_427657",
    "title": "Cat_427657",
    "link_img": "https://live.staticflickr.com/65535/50018648468_cd59591afc_o.jpg",
    "id_image": "Cat_427657",
    "count_view": 0
  },
  {
    "link_thumb": "https://live.staticflickr.com/65535/50017109451_428192601e_n.jpg",
    "id_album": "-422187261",
    "description": "Bear_956939",
    "title": "Bear_956939",
    "link_img": "https://live.staticflickr.com/65535/50017109451_9e9e1cb808_o.jpg",
    "id_image": "Bear_956939",
    "count_view": 0
  },
  {
    "link_thumb": "https://live.staticflickr.com/65535/50021598441_6deae01779_n.jpg",
    "id_album": "773713550",
    "description": "Hoverfly_706631",
    "title": "Hoverfly_706631",
    "link_img": "https://live.staticflickr.com/65535/50021598441_b03cf48373_o.jpg",
    "id_image": "Hoverfly_706631",
    "count_view": 0
  },
  {
    "link_thumb": "https://live.staticflickr.com/65535/50017947631_8edfee266b_n.jpg",
    "id_album": "-462831702",
    "description": "Cat_300660",
    "title": "Cat_300660",
    "link_img": "https://live.staticflickr.com/65535/50017947631_b709f7e495_o.jpg",
    "id_image": "Cat_300660",
    "count_view": 0
  },
  {
    "link_thumb": "https://live.staticflickr.com/65535/50016812068_d3b02ff196_n.jpg",
    "id_album": "-1846011410",
    "description": "Bird_440756",
    "title": "Bird_440756",
    "link_img": "https://live.staticflickr.com/65535/50016812068_4cbb87e606_o.jpg",
    "id_image": "Bird_440756",
    "count_view": 0
  },
  {
    "link_thumb": "https://live.staticflickr.com/65535/50020306898_42db170de3_n.jpg",
    "id_album": "-1118073211",
    "description": "Fish_355249",
    "title": "Fish_355249",
    "link_img": "https://live.staticflickr.com/65535/50020306898_d20bcea02e_o.jpg",
    "id_image": "Fish_355249",
    "count_view": 0
  },
  {
    "link_thumb": "https://live.staticflickr.com/65535/50021304323_4401603f41_n.jpg",
    "id_album": "-1882491687",
    "description": "Ladybug_38498",
    "title": "Ladybug_38498",
    "link_img": "https://live.staticflickr.com/65535/50021304323_ec62560ca6_o.jpg",
    "id_image": "Ladybug_38498",
    "count_view": 0
  },
  {
    "link_thumb": "https://live.staticflickr.com/65535/50022954837_d332209546_n.jpg",
    "id_album": "392248205",
    "description": "Penguin_404050",
    "title": "Penguin_404050",
    "link_img": "https://live.staticflickr.com/65535/50022954837_d1e0feb9c1_o.jpg",
    "id_image": "Penguin_404050",
    "count_view": 0
  },
  {
    "link_thumb": "https://live.staticflickr.com/65535/50017235837_f968999d2c_n.jpg",
    "id_album": "231236068",
    "description": "BaldEagle_998157",
    "title": "BaldEagle_998157",
    "link_img": "https://live.staticflickr.com/65535/50017235837_00b337eed5_o.jpg",
    "id_image": "BaldEagle_998157",
    "count_view": 0
  },
  {
    "link_thumb": "https://live.staticflickr.com/65535/50017428851_18e733e122_n.jpg",
    "id_album": "-1846011410",
    "description": "Bird_815943",
    "title": "Bird_815943",
    "link_img": "https://live.staticflickr.com/65535/50017428851_c7abfe5a6d_o.jpg",
    "id_image": "Bird_815943",
    "count_view": 0
  },
  {
    "link_thumb": "https://live.staticflickr.com/65535/50018931088_8171f2991f_n.jpg",
    "id_album": "-462831705",
    "description": "Cat_91510",
    "title": "Cat_91510",
    "link_img": "https://live.staticflickr.com/65535/50018931088_93f8821600_o.jpg",
    "id_image": "Cat_91510",
    "count_view": 0
  },
  {
    "link_thumb": "https://live.staticflickr.com/65535/50020434887_171b127f7c_n.jpg",
    "id_album": "-149330232",
    "description": "Dog_245826",
    "title": "Dog_245826",
    "link_img": "https://live.staticflickr.com/65535/50020434887_8587cf0cc0_o.jpg",
    "id_image": "Dog_245826",
    "count_view": 0
  },
  {
    "link_thumb": "https://live.staticflickr.com/65535/50017890447_f19944d11c_n.jpg",
    "id_album": "-401151552",
    "description": "Butterfly_571541",
    "title": "Butterfly_571541",
    "link_img": "https://live.staticflickr.com/65535/50017890447_faae424503_o.jpg",
    "id_image": "Butterfly_571541",
    "count_view": 0
  },
  {
    "link_thumb": "https://live.staticflickr.com/65535/50024744647_8e1ca4f594_n.jpg",
    "id_album": "-709711865",
    "description": "Wolf_351432",
    "title": "Wolf_351432",
    "link_img": "https://live.staticflickr.com/65535/50024744647_ce747f6ed7_o.jpg",
    "id_image": "Wolf_351432",
    "count_view": 0
  },
  {
    "link_thumb": "https://live.staticflickr.com/65535/50351873268_24d9394edd_n.jpg",
    "id_album": "-462831703",
    "description": "Cat_499076",
    "title": "Cat_499076",
    "link_img": "https://live.staticflickr.com/65535/50351873268_ef0bcb4dc1_o.jpg",
    "id_image": "Cat_499076",
    "count_view": 0
  },
  {
    "link_thumb": "https://live.staticflickr.com/65535/50020379003_e6dbfd5a38_n.jpg",
    "id_album": "-1694105481",
    "description": "Fly_44362",
    "title": "Fly_44362",
    "link_img": "https://live.staticflickr.com/65535/50020379003_dfa868b219_o.jpg",
    "id_image": "Fly_44362",
    "count_view": 0
  },
  {
    "link_thumb": "https://live.staticflickr.com/65535/50021692396_5642c11d3a_n.jpg",
    "id_album": "1658866795",
    "description": "Insect_404788",
    "title": "Insect_404788",
    "link_img": "https://live.staticflickr.com/65535/50021692396_128d98d6de_o.jpg",
    "id_image": "Insect_404788",
    "count_view": 0
  },
  {
    "link_thumb": "https://live.staticflickr.com/65535/50020877263_3c0752f670_n.jpg",
    "id_album": "-1513987841",
    "description": "Hawk_336106",
    "title": "Hawk_336106",
    "link_img": "https://live.staticflickr.com/65535/50020877263_d4e725e24d_o.jpg",
    "id_image": "Hawk_336106",
    "count_view": 0
  },
  {
    "link_thumb": "https://live.staticflickr.com/65535/50021411071_11dccd8a5e_n.jpg",
    "id_album": "82558972",
    "description": "GuineaPig_822777",
    "title": "GuineaPig_822777",
    "link_img": "https://live.staticflickr.com/65535/50021411071_2ffe5fe9ea_o.jpg",
    "id_image": "GuineaPig_822777",
    "count_view": 0
  },
  {
    "link_thumb": "https://live.staticflickr.com/65535/50022430807_ba0ec5f882_n.jpg",
    "id_album": "1894617400",
    "description": "Lynx_962534",
    "title": "Lynx_962534",
    "link_img": "https://live.staticflickr.com/65535/50022430807_707e9c8de6_o.jpg",
    "id_image": "Lynx_962534",
    "count_view": 0
  },
  {
    "link_thumb": "https://live.staticflickr.com/65535/50021179418_2cef404d49_n.jpg",
    "id_album": "-843028318",
    "description": "Jaguar_388129",
    "title": "Jaguar_388129",
    "link_img": "https://live.staticflickr.com/65535/50021179418_e2dbb972c7_o.jpg",
    "id_image": "Jaguar_388129",
    "count_view": 0
  },
  {
    "link_thumb": "https://live.staticflickr.com/65535/50019079308_e76b056a0c_n.jpg",
    "id_album": "-420782796",
    "description": "Caterpillar_527223",
    "title": "Caterpillar_527223",
    "link_img": "https://live.staticflickr.com/65535/50019079308_f6642b4768_o.jpg",
    "id_image": "Caterpillar_527223",
    "count_view": 0
  },
  {
    "link_thumb": "https://live.staticflickr.com/65535/50020481337_f85935bf72_n.jpg",
    "id_album": "-149330232",
    "description": "Dog_286196",
    "title": "Dog_286196",
    "link_img": "https://live.staticflickr.com/65535/50020481337_5a0bd711d9_o.jpg",
    "id_image": "Dog_286196",
    "count_view": 0
  },
  {
    "link_thumb": "https://live.staticflickr.com/65535/50024215197_3ff7f81043_n.jpg",
    "id_album": "702283289",
    "description": "Squirrel_876486",
    "title": "Squirrel_876486",
    "link_img": "https://live.staticflickr.com/65535/50024215197_da3bae8a67_o.jpg",
    "id_image": "Squirrel_876486",
    "count_view": 0
  },
  {
    "link_thumb": "https://live.staticflickr.com/65535/50022389058_18457dcc40_n.jpg",
    "id_album": "-356780855",
    "description": "Puffin_870155",
    "title": "Puffin_870155",
    "link_img": "https://live.staticflickr.com/65535/50022389058_6c9b443dd8_o.jpg",
    "id_image": "Puffin_870155",
    "count_view": 0
  },
  {
    "link_thumb": "https://live.staticflickr.com/65535/50017302268_a2931773b9_n.jpg",
    "id_album": "-462831705",
    "description": "Cat_185385",
    "title": "Cat_185385",
    "link_img": "https://live.staticflickr.com/65535/50017302268_98af9d492b_o.jpg",
    "id_image": "Cat_185385",
    "count_view": 0
  },
  {
    "link_thumb": "https://live.staticflickr.com/65535/50020607233_6dbea72aac_n.jpg",
    "id_album": "-462831705",
    "description": "Cat_65078",
    "title": "Cat_65078",
    "link_img": "https://live.staticflickr.com/65535/50020607233_f3a73890e8_o.jpg",
    "id_image": "Cat_65078",
    "count_view": 0
  },
  {
    "link_thumb": "https://live.staticflickr.com/65535/50022165818_67d5567487_n.jpg",
    "id_album": "392248205",
    "description": "Penguin_638294",
    "title": "Penguin_638294",
    "link_img": "https://live.staticflickr.com/65535/50022165818_9d3093b6b4_o.jpg",
    "id_image": "Penguin_638294",
    "count_view": 0
  },
  {
    "link_thumb": "https://live.staticflickr.com/65535/50352701311_229bb9228c_n.jpg",
    "id_album": "-462831702",
    "description": "Cat_28510",
    "title": "Cat_28510",
    "link_img": "https://live.staticflickr.com/65535/50352701311_93422f1c33_o.jpg",
    "id_image": "Cat_28510",
    "count_view": 0
  },
  {
    "link_thumb": "https://live.staticflickr.com/65535/50018931198_de1ff6da53_n.jpg",
    "id_album": "-462831705",
    "description": "Cat_91511",
    "title": "Cat_91511",
    "link_img": "https://live.staticflickr.com/65535/50018931198_bc4b0b6f20_o.jpg",
    "id_image": "Cat_91511",
    "count_view": 0
  },
  {
    "link_thumb": "https://live.staticflickr.com/65535/50017863856_d876a68e54_n.jpg",
    "id_album": "-462831705",
    "description": "Cat_215975",
    "title": "Cat_215975",
    "link_img": "https://live.staticflickr.com/65535/50017863856_cbd1bab08d_o.jpg",
    "id_image": "Cat_215975",
    "count_view": 0
  },
  {
    "link_thumb": "https://live.staticflickr.com/65535/50351758068_7bcaf88bc9_n.jpg",
    "id_album": "-462831703",
    "description": "Cat_317176",
    "title": "Cat_317176",
    "link_img": "https://live.staticflickr.com/65535/50351758068_cf2574aa74_o.jpg",
    "id_image": "Cat_317176",
    "count_view": 0
  },
  {
    "link_thumb": "https://live.staticflickr.com/65535/50022969252_6a567e6fba_n.jpg",
    "id_album": "392248205",
    "description": "Penguin_660795",
    "title": "Penguin_660795",
    "link_img": "https://live.staticflickr.com/65535/50022969252_ae8ba3774f_o.jpg",
    "id_image": "Penguin_660795",
    "count_view": 0
  },
  {
    "link_thumb": "https://live.staticflickr.com/65535/50021193727_a85ef4a293_n.jpg",
    "id_album": "-128218148",
    "description": "Fox_266521",
    "title": "Fox_266521",
    "link_img": "https://live.staticflickr.com/65535/50021193727_b0678d388f_o.jpg",
    "id_image": "Fox_266521",
    "count_view": 0
  },
  {
    "link_thumb": "https://live.staticflickr.com/65535/50021636971_cb0a860fae_n.jpg",
    "id_album": "-712553376",
    "description": "Husky_540715",
    "title": "Husky_540715",
    "link_img": "https://live.staticflickr.com/65535/50021636971_713b5ce88b_o.jpg",
    "id_image": "Husky_540715",
    "count_view": 0
  },
  {
    "link_thumb": "https://live.staticflickr.com/65535/50351902523_06c07386dc_n.jpg",
    "id_album": "-462831703",
    "description": "Cat_548758",
    "title": "Cat_548758",
    "link_img": "https://live.staticflickr.com/65535/50351902523_1d31d822bf_o.jpg",
    "id_image": "Cat_548758",
    "count_view": 0
  },
  {
    "link_thumb": "https://live.staticflickr.com/65535/50018801218_cec79638d9_n.jpg",
    "id_album": "-462831703",
    "description": "Cat_859483",
    "title": "Cat_859483",
    "link_img": "https://live.staticflickr.com/65535/50018801218_d245746052_o.jpg",
    "id_image": "Cat_859483",
    "count_view": 0
  },
  {
    "link_thumb": "https://live.staticflickr.com/65535/50019648122_b087feb18c_n.jpg",
    "id_album": "-462831703",
    "description": "Cat_881780",
    "title": "Cat_881780",
    "link_img": "https://live.staticflickr.com/65535/50019648122_b8d5c0956e_o.jpg",
    "id_image": "Cat_881780",
    "count_view": 0
  },
  {
    "link_thumb": "https://live.staticflickr.com/65535/50018318357_fa991e7a35_n.jpg",
    "id_album": "-462831702",
    "description": "Cat_361852",
    "title": "Cat_361852",
    "link_img": "https://live.staticflickr.com/65535/50018318357_d51aa77e8c_o.jpg",
    "id_image": "Cat_361852",
    "count_view": 0
  },
  {
    "link_thumb": "https://live.staticflickr.com/65535/50020414973_f1c467af68_n.jpg",
    "id_album": "-128218148",
    "description": "Fox_384320",
    "title": "Fox_384320",
    "link_img": "https://live.staticflickr.com/65535/50020414973_33b1de8e35_o.jpg",
    "id_image": "Fox_384320",
    "count_view": 0
  },
  {
    "link_thumb": "https://live.staticflickr.com/65535/50017254061_b81b75863c_n.jpg",
    "id_album": "-1846011410",
    "description": "Bird_343919",
    "title": "Bird_343919",
    "link_img": "https://live.staticflickr.com/65535/50017254061_cdebfc87a5_o.jpg",
    "id_image": "Bird_343919",
    "count_view": 0
  },
  {
    "link_thumb": "https://live.staticflickr.com/65535/50017354743_df88178ca7_n.jpg",
    "id_album": "-462831705",
    "description": "Cat_236180",
    "title": "Cat_236180",
    "link_img": "https://live.staticflickr.com/65535/50017354743_54e35b8dbb_o.jpg",
    "id_image": "Cat_236180",
    "count_view": 0
  },
  {
    "link_thumb": "https://live.staticflickr.com/65535/50017521668_69b3ce14ec_n.jpg",
    "id_album": "-462831702",
    "description": "Cat_359121",
    "title": "Cat_359121",
    "link_img": "https://live.staticflickr.com/65535/50017521668_827c119f4f_o.jpg",
    "id_image": "Cat_359121",
    "count_view": 0
  },
  {
    "link_thumb": "https://live.staticflickr.com/65535/50021650411_bf9caeb78e_n.jpg",
    "id_album": "-737856092",
    "description": "Iguana_425216",
    "title": "Iguana_425216",
    "link_img": "https://live.staticflickr.com/65535/50021650411_a7349926cb_o.jpg",
    "id_image": "Iguana_425216",
    "count_view": 0
  },
  {
    "link_thumb": "https://live.staticflickr.com/65535/50017093401_01528523fc_n.jpg",
    "id_album": "-422187261",
    "description": "Bear_871287",
    "title": "Bear_871287",
    "link_img": "https://live.staticflickr.com/65535/50017093401_1c69be2114_o.jpg",
    "id_image": "Bear_871287",
    "count_view": 0
  },
  {
    "link_thumb": "https://live.staticflickr.com/65535/50016930828_1789ccf53e_n.jpg",
    "id_album": "-1561645279",
    "description": "BlackPanther_542313",
    "title": "BlackPanther_542313",
    "link_img": "https://live.staticflickr.com/65535/50016930828_56456c0971_o.jpg",
    "id_image": "BlackPanther_542313",
    "count_view": 0
  },
  {
    "link_thumb": "https://live.staticflickr.com/65535/50020921726_b925d7ef53_n.jpg",
    "id_album": "-1694105481",
    "description": "Fly_449471",
    "title": "Fly_449471",
    "link_img": "https://live.staticflickr.com/65535/50020921726_cc08ebc30e_o.jpg",
    "id_image": "Fly_449471",
    "count_view": 0
  },
  {
    "link_thumb": "https://live.staticflickr.com/65535/50017202638_76cc1996b8_n.jpg",
    "id_album": "189994021",
    "description": "Cardinal_228853",
    "title": "Cardinal_228853",
    "link_img": "https://live.staticflickr.com/65535/50017202638_ea84a1e69e_o.jpg",
    "id_image": "Cardinal_228853",
    "count_view": 0
  },
  {
    "link_thumb": "https://live.staticflickr.com/65535/50020679232_b7c8444740_n.jpg",
    "id_album": "-149330231",
    "description": "Dog_456056",
    "title": "Dog_456056",
    "link_img": "https://live.staticflickr.com/65535/50020679232_0e80f009f7_o.jpg",
    "id_image": "Dog_456056",
    "count_view": 0
  },
  {
    "link_thumb": "https://live.staticflickr.com/65535/50020817461_b6db7db5eb_n.jpg",
    "id_album": "822895535",
    "description": "Falcon_591716",
    "title": "Falcon_591716",
    "link_img": "https://live.staticflickr.com/65535/50020817461_1b1a9b847d_o.jpg",
    "id_image": "Falcon_591716",
    "count_view": 0
  },
  {
    "link_thumb": "https://live.staticflickr.com/65535/50352449551_7059c138f5_n.jpg",
    "id_album": "-462831703",
    "description": "Cat_270867",
    "title": "Cat_270867",
    "link_img": "https://live.staticflickr.com/65535/50352449551_b093e0125f_o.jpg",
    "id_image": "Cat_270867",
    "count_view": 0
  },
  {
    "link_thumb": "https://live.staticflickr.com/65535/50021589417_6c1e108108_n.jpg",
    "id_album": "713572662",
    "description": "Giraffe_908986",
    "title": "Giraffe_908986",
    "link_img": "https://live.staticflickr.com/65535/50021589417_89618c7552_o.jpg",
    "id_image": "Giraffe_908986",
    "count_view": 0
  },
  {
    "link_thumb": "https://live.staticflickr.com/65535/50021368266_39afc68e07_n.jpg",
    "id_album": "2060159334",
    "description": "GoldenRetriever_909797",
    "title": "GoldenRetriever_909797",
    "link_img": "https://live.staticflickr.com/65535/50021368266_42a20d1bf3_o.jpg",
    "id_image": "GoldenRetriever_909797",
    "count_view": 0
  },
  {
    "link_thumb": "https://live.staticflickr.com/65535/50017017548_a291057547_n.jpg",
    "id_album": "-401151552",
    "description": "Butterfly_216809",
    "title": "Butterfly_216809",
    "link_img": "https://live.staticflickr.com/65535/50017017548_543e79649f_o.jpg",
    "id_image": "Butterfly_216809",
    "count_view": 0
  },
  {
    "link_thumb": "https://live.staticflickr.com/65535/50018213012_9040387657_n.jpg",
    "id_album": "-462831702",
    "description": "Cat_309641",
    "title": "Cat_309641",
    "link_img": "https://live.staticflickr.com/65535/50018213012_76d9fde8c5_o.jpg",
    "id_image": "Cat_309641",
    "count_view": 0
  },
  {
    "link_thumb": "https://live.staticflickr.com/65535/50351749853_1712316899_n.jpg",
    "id_album": "-462831703",
    "description": "Cat_262824",
    "title": "Cat_262824",
    "link_img": "https://live.staticflickr.com/65535/50351749853_7cf7f1d701_o.jpg",
    "id_image": "Cat_262824",
    "count_view": 0
  },
  {
    "link_thumb": "https://live.staticflickr.com/65535/50022786352_9be4cbd134_n.jpg",
    "id_album": "-358592519",
    "description": "Panda_363021",
    "title": "Panda_363021",
    "link_img": "https://live.staticflickr.com/65535/50022786352_995a645f52_o.jpg",
    "id_image": "Panda_363021",
    "count_view": 0
  },
  {
    "link_thumb": "https://live.staticflickr.com/65535/50017715556_3c426fbf19_n.jpg",
    "id_album": "-401151552",
    "description": "Butterfly_940139",
    "title": "Butterfly_940139",
    "link_img": "https://live.staticflickr.com/65535/50017715556_04ff403e73_o.jpg",
    "id_image": "Butterfly_940139",
    "count_view": 0
  },
  {
    "link_thumb": "https://live.staticflickr.com/65535/50018383437_7004d19955_n.jpg",
    "id_album": "-462831702",
    "description": "Cat_390708",
    "title": "Cat_390708",
    "link_img": "https://live.staticflickr.com/65535/50018383437_c0e77cddb5_o.jpg",
    "id_image": "Cat_390708",
    "count_view": 0
  },
  {
    "link_thumb": "https://live.staticflickr.com/65535/50019242566_aaa34034ff_n.jpg",
    "id_album": "-462831704",
    "description": "Cat_470080",
    "title": "Cat_470080",
    "link_img": "https://live.staticflickr.com/65535/50019242566_5b731a2062_o.jpg",
    "id_image": "Cat_470080",
    "count_view": 0
  },
  {
    "link_thumb": "https://live.staticflickr.com/65535/50017551881_ede009ba6b_n.jpg",
    "id_album": "-401151552",
    "description": "Butterfly_244291",
    "title": "Butterfly_244291",
    "link_img": "https://live.staticflickr.com/65535/50017551881_bbded90f26_o.jpg",
    "id_image": "Butterfly_244291",
    "count_view": 0
  },
  {
    "link_thumb": "https://live.staticflickr.com/65535/50020618717_9ae66bd886_n.jpg",
    "id_album": "-149330231",
    "description": "Dog_383167",
    "title": "Dog_383167",
    "link_img": "https://live.staticflickr.com/65535/50020618717_273a14ab2f_o.jpg",
    "id_image": "Dog_383167",
    "count_view": 0
  },
  {
    "link_thumb": "https://live.staticflickr.com/65535/50020733392_b4cb5db81a_n.jpg",
    "id_album": "-149330231",
    "description": "Dog_679541",
    "title": "Dog_679541",
    "link_img": "https://live.staticflickr.com/65535/50020733392_7db412c886_o.jpg",
    "id_image": "Dog_679541",
    "count_view": 0
  },
  {
    "link_thumb": "https://live.staticflickr.com/65535/50021893351_279596c1c1_n.jpg",
    "id_album": "1392348450",
    "description": "Leopard_247663",
    "title": "Leopard_247663",
    "link_img": "https://live.staticflickr.com/65535/50021893351_0ee97b6bf1_o.jpg",
    "id_image": "Leopard_247663",
    "count_view": 0
  },
  {
    "link_thumb": "https://live.staticflickr.com/65535/50022176832_7cfebc4d1a_n.jpg",
    "id_album": "1392348450",
    "description": "Leopard_400630",
    "title": "Leopard_400630",
    "link_img": "https://live.staticflickr.com/65535/50022176832_55d1c22f2c_o.jpg",
    "id_image": "Leopard_400630",
    "count_view": 0
  },
  {
    "link_thumb": "https://live.staticflickr.com/65535/50021110641_eb72238b4b_n.jpg",
    "id_album": "-462831704",
    "description": "Cat_552450",
    "title": "Cat_552450",
    "link_img": "https://live.staticflickr.com/65535/50021110641_d68b129391_o.jpg",
    "id_image": "Cat_552450",
    "count_view": 0
  },
  {
    "link_thumb": "https://live.staticflickr.com/65535/50021243906_de4afc90a0_n.jpg",
    "id_album": "-462831703",
    "description": "Cat_782437",
    "title": "Cat_782437",
    "link_img": "https://live.staticflickr.com/65535/50021243906_1a889342b8_o.jpg",
    "id_image": "Cat_782437",
    "count_view": 0
  },
  {
    "link_thumb": "https://live.staticflickr.com/65535/50020501703_5f8d3da15c_n.jpg",
    "id_album": "704811092",
    "description": "FrenchBulldog_711849",
    "title": "FrenchBulldog_711849",
    "link_img": "https://live.staticflickr.com/65535/50020501703_5ac2324e62_o.jpg",
    "id_image": "FrenchBulldog_711849",
    "count_view": 0
  },
  {
    "link_thumb": "https://live.staticflickr.com/65535/50021887311_d69b4c6be0_n.jpg",
    "id_album": "1392348450",
    "description": "Leopard_209918",
    "title": "Leopard_209918",
    "link_img": "https://live.staticflickr.com/65535/50021887311_58611fa731_o.jpg",
    "id_image": "Leopard_209918",
    "count_view": 0
  },
  {
    "link_thumb": "https://live.staticflickr.com/65535/50017793846_4bc18083ff_n.jpg",
    "id_album": "-462831705",
    "description": "Cat_165859",
    "title": "Cat_165859",
    "link_img": "https://live.staticflickr.com/65535/50017793846_999b416bf2_o.jpg",
    "id_image": "Cat_165859",
    "count_view": 0
  },
  {
    "link_thumb": "https://live.staticflickr.com/65535/50021426986_e66164d6a3_n.jpg",
    "id_album": "-1513987841",
    "description": "Hawk_860894",
    "title": "Hawk_860894",
    "link_img": "https://live.staticflickr.com/65535/50021426986_dae178cf0e_o.jpg",
    "id_image": "Hawk_860894",
    "count_view": 0
  },
  {
    "link_thumb": "https://live.staticflickr.com/65535/50022297822_0da23fd26e_n.jpg",
    "id_album": "416744915",
    "description": "Lion_669406",
    "title": "Lion_669406",
    "link_img": "https://live.staticflickr.com/65535/50022297822_becda79793_o.jpg",
    "id_image": "Lion_669406",
    "count_view": 0
  },
  {
    "link_thumb": "https://live.staticflickr.com/65535/50019987211_5ef3336b20_n.jpg",
    "id_album": "1903411565",
    "description": "Deer_285600",
    "title": "Deer_285600",
    "link_img": "https://live.staticflickr.com/65535/50019987211_8038c611c0_o.jpg",
    "id_image": "Deer_285600",
    "count_view": 0
  },
  {
    "link_thumb": "https://live.staticflickr.com/65535/50022638662_2fa616db37_n.jpg",
    "id_album": "-1384601601",
    "description": "Owl_218825",
    "title": "Owl_218825",
    "link_img": "https://live.staticflickr.com/65535/50022638662_fc6652fa79_o.jpg",
    "id_image": "Owl_218825",
    "count_view": 0
  },
  {
    "link_thumb": "https://live.staticflickr.com/65535/50020967252_4efd94c1b2_n.jpg",
    "id_album": "-39098563",
    "description": "Eagle_450310",
    "title": "Eagle_450310",
    "link_img": "https://live.staticflickr.com/65535/50020967252_323b2322e2_o.jpg",
    "id_image": "Eagle_450310",
    "count_view": 0
  },
  {
    "link_thumb": "https://live.staticflickr.com/65535/50022486013_8cb3266065_n.jpg",
    "id_album": "-353898617",
    "description": "Puppy_588532",
    "title": "Puppy_588532",
    "link_img": "https://live.staticflickr.com/65535/50022486013_670a6812e2_o.jpg",
    "id_image": "Puppy_588532",
    "count_view": 0
  },
  {
    "link_thumb": "https://live.staticflickr.com/65535/50021021231_07525d2aa4_n.jpg",
    "id_album": "-128218148",
    "description": "Fox_904923",
    "title": "Fox_904923",
    "link_img": "https://live.staticflickr.com/65535/50021021231_065e370288_o.jpg",
    "id_image": "Fox_904923",
    "count_view": 0
  },
  {
    "link_thumb": "https://live.staticflickr.com/65535/50019654872_d78df3a920_n.jpg",
    "id_album": "-462831703",
    "description": "Cat_887011",
    "title": "Cat_887011",
    "link_img": "https://live.staticflickr.com/65535/50019654872_69819ae88e_o.jpg",
    "id_image": "Cat_887011",
    "count_view": 0
  },
  {
    "link_thumb": "https://live.staticflickr.com/65535/50019520797_9d0d37de1a_n.jpg",
    "id_album": "-462831704",
    "description": "Cat_500409",
    "title": "Cat_500409",
    "link_img": "https://live.staticflickr.com/65535/50019520797_433af2105d_o.jpg",
    "id_image": "Cat_500409",
    "count_view": 0
  },
  {
    "link_thumb": "https://live.staticflickr.com/65535/50351718063_d00a9013fc_n.jpg",
    "id_album": "-462831703",
    "description": "Cat_190694",
    "title": "Cat_190694",
    "link_img": "https://live.staticflickr.com/65535/50351718063_b4752c0d94_o.jpg",
    "id_image": "Cat_190694",
    "count_view": 0
  },
  {
    "link_thumb": "https://live.staticflickr.com/65535/50020333021_3eb96489e7_n.jpg",
    "id_album": "-149330232",
    "description": "Dog_366727",
    "title": "Dog_366727",
    "link_img": "https://live.staticflickr.com/65535/50020333021_57c2808655_o.jpg",
    "id_image": "Dog_366727",
    "count_view": 0
  },
  {
    "link_thumb": "https://live.staticflickr.com/65535/50019424643_5d5e5919d6_n.jpg",
    "id_album": "1831085598",
    "description": "Dachshund_778975",
    "title": "Dachshund_778975",
    "link_img": "https://live.staticflickr.com/65535/50019424643_7f6c2dfb55_o.jpg",
    "id_image": "Dachshund_778975",
    "count_view": 0
  }
]