[
  {
    "link_thumb": "https://live.staticflickr.com/65535/50023567258_6d356f80fa_n.jpg",
    "id_album": "405170427",
    "description": "Tiger_394951",
    "title": "Tiger_394951",
    "link_img": "https://live.staticflickr.com/65535/50023567258_898a1f4a2f_o.jpg",
    "id_image": "Tiger_394951",
    "count_view": 0
  },
  {
    "link_thumb": "https://live.staticflickr.com/65535/50017719907_aa0fefae44_n.jpg",
    "id_album": "-1561645279",
    "description": "BlackPanther_870167",
    "title": "BlackPanther_870167",
    "link_img": "https://live.staticflickr.com/65535/50017719907_8b319d906c_o.jpg",
    "id_image": "BlackPanther_870167",
    "count_view": 0
  },
  {
    "link_thumb": "https://live.staticflickr.com/65535/50020345293_5561de1477_n.jpg",
    "id_album": "-1758557371",
    "description": "Flamingo_113727",
    "title": "Flamingo_113727",
    "link_img": "https://live.staticflickr.com/65535/50020345293_5df23dba40_o.jpg",
    "id_image": "Flamingo_113727",
    "count_view": 0
  },
  {
    "link_thumb": "https://live.staticflickr.com/65535/50024261591_102defc132_n.jpg",
    "id_album": "-809392728",
    "description": "Titmouse_690400",
    "title": "Titmouse_690400",
    "link_img": "https://live.staticflickr.com/65535/50024261591_a85971324e_o.jpg",
    "id_image": "Titmouse_690400",
    "count_view": 0
  },
  {
    "link_thumb": "https://live.staticflickr.com/65535/50017218547_46ba9046c3_n.jpg",
    "id_album": "231236068",
    "description": "BaldEagle_432595",
    "title": "BaldEagle_432595",
    "link_img": "https://live.staticflickr.com/65535/50017218547_bf08e84f7b_o.jpg",
    "id_image": "BaldEagle_432595",
    "count_view": 0
  },
  {
    "link_thumb": "https://live.staticflickr.com/65535/50017853066_7241cb8b28_n.jpg",
    "id_album": "-462831705",
    "description": "Cat_209091",
    "title": "Cat_209091",
    "link_img": "https://live.staticflickr.com/65535/50017853066_5fddf541df_o.jpg",
    "id_image": "Cat_209091",
    "count_view": 0
  },
  {
    "link_thumb": "https://live.staticflickr.com/65535/50020618391_6a7e2525b6_n.jpg",
    "id_album": "-405058657",
    "description": "Dragonfly_392920",
    "title": "Dragonfly_392920",
    "link_img": "https://live.staticflickr.com/65535/50020618391_f0a53696d7_o.jpg",
    "id_image": "Dragonfly_392920",
    "count_view": 0
  },
  {
    "link_thumb": "https://live.staticflickr.com/65535/50019453218_82feebba34_n.jpg",
    "id_album": "1903411565",
    "description": "Deer_264658",
    "title": "Deer_264658",
    "link_img": "https://live.staticflickr.com/65535/50019453218_1e9433d4c3_o.jpg",
    "id_image": "Deer_264658",
    "count_view": 0
  },
  {
    "link_thumb": "https://live.staticflickr.com/65535/50020805518_01b81b2e45_n.jpg",
    "id_album": "2060159334",
    "description": "GoldenRetriever_416104",
    "title": "GoldenRetriever_416104",
    "link_img": "https://live.staticflickr.com/65535/50020805518_1289cc63bf_o.jpg",
    "id_image": "GoldenRetriever_416104",
    "count_view": 0
  },
  {
    "link_thumb": "https://live.staticflickr.com/65535/50022698746_90eb9a65e2_n.jpg",
    "id_album": "392248205",
    "description": "Penguin_441887",
    "title": "Penguin_441887",
    "link_img": "https://live.staticflickr.com/65535/50022698746_895eeaffbd_o.jpg",
    "id_image": "Penguin_441887",
    "count_view": 0
  },
  {
    "link_thumb": "https://live.staticflickr.com/65535/50019607516_ce4172fe07_n.jpg",
    "id_album": "-420782796",
    "description": "Caterpillar_403650",
    "title": "Caterpillar_403650",
    "link_img": "https://live.staticflickr.com/65535/50019607516_bb1c3e22e0_o.jpg",
    "id_image": "Caterpillar_403650",
    "count_view": 0
  },
  {
    "link_thumb": "https://live.staticflickr.com/65535/50017346278_e361caac5f_n.jpg",
    "id_album": "-462831705",
    "description": "Cat_224199",
    "title": "Cat_224199",
    "link_img": "https://live.staticflickr.com/65535/50017346278_94d9a03529_o.jpg",
    "id_image": "Cat_224199",
    "count_view": 0
  },
  {
    "link_thumb": "https://live.staticflickr.com/65535/50352770762_80f4cc1500_n.jpg",
    "id_album": "-462831703",
    "description": "Cat_567614",
    "title": "Cat_567614",
    "link_img": "https://live.staticflickr.com/65535/50352770762_9cb5df545c_o.jpg",
    "id_image": "Cat_567614",
    "count_view": 0
  },
  {
    "link_thumb": "https://live.staticflickr.com/65535/50020519468_783a63989e_n.jpg",
    "id_album": "844170697",
    "description": "Frog_410293",
    "title": "Frog_410293",
    "link_img": "https://live.staticflickr.com/65535/50020519468_893393347b_o.jpg",
    "id_image": "Frog_410293",
    "count_view": 0
  },
  {
    "link_thumb": "https://live.staticflickr.com/65535/50021430578_d63de9c4a6_n.jpg",
    "id_album": "416744915",
    "description": "Lion_207854",
    "title": "Lion_207854",
    "link_img": "https://live.staticflickr.com/65535/50021430578_24cd93e064_o.jpg",
    "id_image": "Lion_207854",
    "count_view": 0
  },
  {
    "link_thumb": "https://live.staticflickr.com/65535/50022747202_5f7e552b50_n.jpg",
    "id_album": "-1384601601",
    "description": "Owl_853206",
    "title": "Owl_853206",
    "link_img": "https://live.staticflickr.com/65535/50022747202_0befe3811d_o.jpg",
    "id_image": "Owl_853206",
    "count_view": 0
  },
  {
    "link_thumb": "https://live.staticflickr.com/65535/50023391322_31b173ca5e_n.jpg",
    "id_album": "-1940643173",
    "description": "Rabbit_917721",
    "title": "Rabbit_917721",
    "link_img": "https://live.staticflickr.com/65535/50023391322_7eb020d01a_o.jpg",
    "id_image": "Rabbit_917721",
    "count_view": 0
  },
  {
    "link_thumb": "https://live.staticflickr.com/65535/50021924192_a7a8b7a9e5_n.jpg",
    "id_album": "1658866795",
    "description": "Insect_392921",
    "title": "Insect_392921",
    "link_img": "https://live.staticflickr.com/65535/50021924192_b6022c6217_o.jpg",
    "id_image": "Insect_392921",
    "count_view": 0
  },
  {
    "link_thumb": "https://live.staticflickr.com/65535/50022558898_b0395504f7_n.jpg",
    "id_album": "-1940643173",
    "description": "Rabbit_375258",
    "title": "Rabbit_375258",
    "link_img": "https://live.staticflickr.com/65535/50022558898_7324d9dbcd_o.jpg",
    "id_image": "Rabbit_375258",
    "count_view": 0
  },
  {
    "link_thumb": "https://live.staticflickr.com/65535/50021234771_d3f64dd6f2_n.jpg",
    "id_album": "-462831703",
    "description": "Cat_769398",
    "title": "Cat_769398",
    "link_img": "https://live.staticflickr.com/65535/50021234771_4706e2a531_o.jpg",
    "id_image": "Cat_769398",
    "count_view": 0
  },
  {
    "link_thumb": "https://live.staticflickr.com/65535/50021981926_64d699fbf4_n.jpg",
    "id_album": "416744915",
    "description": "Lion_259801",
    "title": "Lion_259801",
    "link_img": "https://live.staticflickr.com/65535/50021981926_d0142189c2_o.jpg",
    "id_image": "Lion_259801",
    "count_view": 0
  },
  {
    "link_thumb": "https://live.staticflickr.com/65535/50021083641_ebce1a3f61_n.jpg",
    "id_album": "844170697",
    "description": "Frog_898839",
    "title": "Frog_898839",
    "link_img": "https://live.staticflickr.com/65535/50021083641_381088b792_o.jpg",
    "id_image": "Frog_898839",
    "count_view": 0
  },
  {
    "link_thumb": "https://live.staticflickr.com/65535/50019703096_5888ffb932_n.jpg",
    "id_album": "-1481843714",
    "description": "Cheetah_402855",
    "title": "Cheetah_402855",
    "link_img": "https://live.staticflickr.com/65535/50019703096_9ae2cf680c_o.jpg",
    "id_image": "Cheetah_402855",
    "count_view": 0
  },
  {
    "link_thumb": "https://live.staticflickr.com/65535/50021264753_9b0c408c92_n.jpg",
    "id_album": "770105808",
    "description": "Kingfisher_693075",
    "title": "Kingfisher_693075",
    "link_img": "https://live.staticflickr.com/65535/50021264753_b5b3ca9847_o.jpg",
    "id_image": "Kingfisher_693075",
    "count_view": 0
  },
  {
    "link_thumb": "https://live.staticflickr.com/65535/50019662346_9529a6c66b_n.jpg",
    "id_album": "-766919393",
    "description": "Chameleon_760574",
    "title": "Chameleon_760574",
    "link_img": "https://live.staticflickr.com/65535/50019662346_66be62523e_o.jpg",
    "id_image": "Chameleon_760574",
    "count_view": 0
  },
  {
    "link_thumb": "https://live.staticflickr.com/65535/50351749853_1712316899_n.jpg",
    "id_album": "-462831703",
    "description": "Cat_262824",
    "title": "Cat_262824",
    "link_img": "https://live.staticflickr.com/65535/50351749853_7cf7f1d701_o.jpg",
    "id_image": "Cat_262824",
    "count_view": 0
  },
  {
    "link_thumb": "https://live.staticflickr.com/65535/50021364138_37a36ca15c_n.jpg",
    "id_album": "1392348450",
    "description": "Leopard_365010",
    "title": "Leopard_365010",
    "link_img": "https://live.staticflickr.com/65535/50021364138_7f4f99165c_o.jpg",
    "id_image": "Leopard_365010",
    "count_view": 0
  },
  {
    "link_thumb": "https://live.staticflickr.com/65535/50016998066_c55e6e07f2_n.jpg",
    "id_album": "809937717",
    "description": "Beagle_872353",
    "title": "Beagle_872353",
    "link_img": "https://live.staticflickr.com/65535/50016998066_5141474c7f_o.jpg",
    "id_image": "Beagle_872353",
    "count_view": 0
  },
  {
    "link_thumb": "https://live.staticflickr.com/65535/50020504396_663579cd58_n.jpg",
    "id_album": "-149330231",
    "description": "Dog_743260",
    "title": "Dog_743260",
    "link_img": "https://live.staticflickr.com/65535/50020504396_551332a6ba_o.jpg",
    "id_image": "Dog_743260",
    "count_view": 0
  },
  {
    "link_thumb": "https://live.staticflickr.com/65535/50022956508_a15eee98ce_n.jpg",
    "id_album": "692487763",
    "description": "SiberianHusky_498799",
    "title": "SiberianHusky_498799",
    "link_img": "https://live.staticflickr.com/65535/50022956508_f2314cb356_o.jpg",
    "id_image": "SiberianHusky_498799",
    "count_view": 0
  },
  {
    "link_thumb": "https://live.staticflickr.com/65535/50020429478_3530c2f56a_n.jpg",
    "id_album": "-128218148",
    "description": "Fox_534020",
    "title": "Fox_534020",
    "link_img": "https://live.staticflickr.com/65535/50020429478_bfd083c636_o.jpg",
    "id_image": "Fox_534020",
    "count_view": 0
  },
  {
    "link_thumb": "https://live.staticflickr.com/65535/50352461361_c27d4bc92f_n.jpg",
    "id_album": "-462831703",
    "description": "Cat_357706",
    "title": "Cat_357706",
    "link_img": "https://live.staticflickr.com/65535/50352461361_534b8a6934_o.jpg",
    "id_image": "Cat_357706",
    "count_view": 0
  },
  {
    "link_thumb": "https://live.staticflickr.com/65535/50020218037_a15b8ee561_n.jpg",
    "id_album": "1831085598",
    "description": "Dachshund_877976",
    "title": "Dachshund_877976",
    "link_img": "https://live.staticflickr.com/65535/50020218037_cb2bf0829c_o.jpg",
    "id_image": "Dachshund_877976",
    "count_view": 0
  },
  {
    "link_thumb": "https://live.staticflickr.com/65535/50019353113_03748e3ddf_n.jpg",
    "id_album": "815329026",
    "description": "Crab_848578",
    "title": "Crab_848578",
    "link_img": "https://live.staticflickr.com/65535/50019353113_785edfa4e8_o.jpg",
    "id_image": "Crab_848578",
    "count_view": 0
  },
  {
    "link_thumb": "https://live.staticflickr.com/65535/50019510327_5c4a73746c_n.jpg",
    "id_album": "-462831704",
    "description": "Cat_485915",
    "title": "Cat_485915",
    "link_img": "https://live.staticflickr.com/65535/50019510327_9af08a5d86_o.jpg",
    "id_image": "Cat_485915",
    "count_view": 0
  },
  {
    "link_thumb": "https://live.staticflickr.com/65535/50019617313_8ff72dddaa_n.jpg",
    "id_album": "-149330232",
    "description": "Dog_207460",
    "title": "Dog_207460",
    "link_img": "https://live.staticflickr.com/65535/50019617313_3264cf906a_o.jpg",
    "id_image": "Dog_207460",
    "count_view": 0
  },
  {
    "link_thumb": "https://live.staticflickr.com/65535/50021799913_6080414068_n.jpg",
    "id_album": "1015034486",
    "description": "Muteswan_881929",
    "title": "Muteswan_881929",
    "link_img": "https://live.staticflickr.com/65535/50021799913_6dab8f039d_o.jpg",
    "id_image": "Muteswan_881929",
    "count_view": 0
  },
  {
    "link_thumb": "https://live.staticflickr.com/65535/50018378982_a650ac320e_n.jpg",
    "id_album": "-462831702",
    "description": "Cat_386806",
    "title": "Cat_386806",
    "link_img": "https://live.staticflickr.com/65535/50018378982_060f40b437_o.jpg",
    "id_image": "Cat_386806",
    "count_view": 0
  },
  {
    "link_thumb": "https://live.staticflickr.com/65535/50024549501_29d5fc6e77_n.jpg",
    "id_album": "-709711865",
    "description": "Wolf_841901",
    "title": "Wolf_841901",
    "link_img": "https://live.staticflickr.com/65535/50024549501_5236593f7c_o.jpg",
    "id_image": "Wolf_841901",
    "count_view": 0
  },
  {
    "link_thumb": "https://live.staticflickr.com/65535/50021604627_6212acdfc9_n.jpg",
    "id_album": "2060159334",
    "description": "GoldenRetriever_572309",
    "title": "GoldenRetriever_572309",
    "link_img": "https://live.staticflickr.com/65535/50021604627_beeeaae8d3_o.jpg",
    "id_image": "GoldenRetriever_572309",
    "count_view": 0
  },
  {
    "link_thumb": "https://live.staticflickr.com/65535/50017283346_23e77c5786_n.jpg",
    "id_album": "-1846011410",
    "description": "Bird_368693",
    "title": "Bird_368693",
    "link_img": "https://live.staticflickr.com/65535/50017283346_4719a962d5_o.jpg",
    "id_image": "Bird_368693",
    "count_view": 0
  },
  {
    "link_thumb": "https://live.staticflickr.com/65535/50017248967_f6f1fc26bc_n.jpg",
    "id_album": "809937717",
    "description": "Beagle_471883",
    "title": "Beagle_471883",
    "link_img": "https://live.staticflickr.com/65535/50017248967_8105afab06_o.jpg",
    "id_image": "Beagle_471883",
    "count_view": 0
  },
  {
    "link_thumb": "https://live.staticflickr.com/65535/50019047503_d2cb4b64b8_n.jpg",
    "id_album": "-1930903528",
    "description": "CatDog_369674",
    "title": "CatDog_369674",
    "link_img": "https://live.staticflickr.com/65535/50019047503_8067c4e1a6_o.jpg",
    "id_image": "CatDog_369674",
    "count_view": 0
  },
  {
    "link_thumb": "https://live.staticflickr.com/65535/50020374472_a527cc2068_n.jpg",
    "id_album": "-149330232",
    "description": "Dog_110352",
    "title": "Dog_110352",
    "link_img": "https://live.staticflickr.com/65535/50020374472_2e2f5d4506_o.jpg",
    "id_image": "Dog_110352",
    "count_view": 0
  },
  {
    "link_thumb": "https://live.staticflickr.com/65535/50017219102_6eff550a01_n.jpg",
    "id_album": "231236068",
    "description": "BaldEagle_436000",
    "title": "BaldEagle_436000",
    "link_img": "https://live.staticflickr.com/65535/50017219102_b82aaab4cf_o.jpg",
    "id_image": "BaldEagle_436000",
    "count_view": 0
  },
  {
    "link_thumb": "https://live.staticflickr.com/65535/50023282938_5409a0d7d8_n.jpg",
    "id_album": "702283289",
    "description": "Squirrel_329646",
    "title": "Squirrel_329646",
    "link_img": "https://live.staticflickr.com/65535/50023282938_a54fd65995_o.jpg",
    "id_image": "Squirrel_329646",
    "count_view": 0
  },
  {
    "link_thumb": "https://live.staticflickr.com/65535/50020392457_96f6fb39f7_n.jpg",
    "id_album": "-149330232",
    "description": "Dog_177045",
    "title": "Dog_177045",
    "link_img": "https://live.staticflickr.com/65535/50020392457_8a95b16f3f_o.jpg",
    "id_image": "Dog_177045",
    "count_view": 0
  },
  {
    "link_thumb": "https://live.staticflickr.com/65535/50020665587_ecb50a43dc_n.jpg",
    "id_album": "-149330231",
    "description": "Dog_430571",
    "title": "Dog_430571",
    "link_img": "https://live.staticflickr.com/65535/50020665587_f0f63099d1_o.jpg",
    "id_image": "Dog_430571",
    "count_view": 0
  },
  {
    "link_thumb": "https://live.staticflickr.com/65535/50017620982_5fc4902f09_n.jpg",
    "id_album": "-1846011410",
    "description": "Bird_535241",
    "title": "Bird_535241",
    "link_img": "https://live.staticflickr.com/65535/50017620982_66591011ab_o.jpg",
    "id_image": "Bird_535241",
    "count_view": 0
  },
  {
    "link_thumb": "https://live.staticflickr.com/65535/50020999307_2872b5fc51_n.jpg",
    "id_album": "1270947998",
    "description": "Elephant_342827",
    "title": "Elephant_342827",
    "link_img": "https://live.staticflickr.com/65535/50020999307_0176ea72f6_o.jpg",
    "id_image": "Elephant_342827",
    "count_view": 0
  },
  {
    "link_thumb": "https://live.staticflickr.com/65535/50022474713_3e310609ab_n.jpg",
    "id_album": "-353898617",
    "description": "Puppy_548553",
    "title": "Puppy_548553",
    "link_img": "https://live.staticflickr.com/65535/50022474713_66c924b909_o.jpg",
    "id_image": "Puppy_548553",
    "count_view": 0
  },
  {
    "link_thumb": "https://live.staticflickr.com/65535/50019878048_29fec9fed7_n.jpg",
    "id_album": "-149330231",
    "description": "Dog_433382",
    "title": "Dog_433382",
    "link_img": "https://live.staticflickr.com/65535/50019878048_511e464f90_o.jpg",
    "id_image": "Dog_433382",
    "count_view": 0
  },
  {
    "link_thumb": "https://live.staticflickr.com/65535/50017366768_7fe430c147_n.jpg",
    "id_album": "-462831705",
    "description": "Cat_240495",
    "title": "Cat_240495",
    "link_img": "https://live.staticflickr.com/65535/50017366768_4f4b343eb7_o.jpg",
    "id_image": "Cat_240495",
    "count_view": 0
  },
  {
    "link_thumb": "https://live.staticflickr.com/65535/50020623973_74aa04af04_n.jpg",
    "id_album": "-462831704",
    "description": "Cat_683503",
    "title": "Cat_683503",
    "link_img": "https://live.staticflickr.com/65535/50020623973_be24816f42_o.jpg",
    "id_image": "Cat_683503",
    "count_view": 0
  },
  {
    "link_thumb": "https://live.staticflickr.com/65535/50020169878_391de40cab_n.jpg",
    "id_album": "-39098563",
    "description": "Eagle_397951",
    "title": "Eagle_397951",
    "link_img": "https://live.staticflickr.com/65535/50020169878_a1b9c96f9b_o.jpg",
    "id_image": "Eagle_397951",
    "count_view": 0
  },
  {
    "link_thumb": "https://live.staticflickr.com/65535/50017781147_f5edf3011a_n.jpg",
    "id_album": "1696155652",
    "description": "Boxer_744656",
    "title": "Boxer_744656",
    "link_img": "https://live.staticflickr.com/65535/50017781147_c612dac771_o.jpg",
    "id_image": "Boxer_744656",
    "count_view": 0
  },
  {
    "link_thumb": "https://live.staticflickr.com/65535/50020977512_b4161bbd9d_n.jpg",
    "id_album": "-39098563",
    "description": "Eagle_724370",
    "title": "Eagle_724370",
    "link_img": "https://live.staticflickr.com/65535/50020977512_79ff3753b1_o.jpg",
    "id_image": "Eagle_724370",
    "count_view": 0
  },
  {
    "link_thumb": "https://live.staticflickr.com/65535/50018745753_a91e49cd23_n.jpg",
    "id_album": "-462831704",
    "description": "Cat_516117",
    "title": "Cat_516117",
    "link_img": "https://live.staticflickr.com/65535/50018745753_71156ba0ce_o.jpg",
    "id_image": "Cat_516117",
    "count_view": 0
  },
  {
    "link_thumb": "https://live.staticflickr.com/65535/50022119387_a25cce7c71_n.jpg",
    "id_album": "-1882491687",
    "description": "Ladybug_766521",
    "title": "Ladybug_766521",
    "link_img": "https://live.staticflickr.com/65535/50022119387_9faa3e52a2_o.jpg",
    "id_image": "Ladybug_766521",
    "count_view": 0
  },
  {
    "link_thumb": "https://live.staticflickr.com/65535/50021749776_e6430e99ec_n.jpg",
    "id_album": "665694624",
    "description": "JapaneseMacaque_390683",
    "title": "JapaneseMacaque_390683",
    "link_img": "https://live.staticflickr.com/65535/50021749776_187ca8aba7_o.jpg",
    "id_image": "JapaneseMacaque_390683",
    "count_view": 0
  },
  {
    "link_thumb": "https://live.staticflickr.com/65535/50352647326_4c4855eb53_n.jpg",
    "id_album": "-462831703",
    "description": "Cat_690376",
    "title": "Cat_690376",
    "link_img": "https://live.staticflickr.com/65535/50352647326_a840346912_o.jpg",
    "id_image": "Cat_690376",
    "count_view": 0
  },
  {
    "link_thumb": "https://live.staticflickr.com/65535/50021560667_dc37e0a1c5_n.jpg",
    "id_album": "-405626519",
    "description": "GermanShepherd_875699",
    "title": "GermanShepherd_875699",
    "link_img": "https://live.staticflickr.com/65535/50021560667_4fb6887d99_o.jpg",
    "id_image": "GermanShepherd_875699",
    "count_view": 0
  },
  {
    "link_thumb": "https://live.staticflickr.com/65535/50021360783_e3bec4ded5_n.jpg",
    "id_album": "1392348450",
    "description": "Leopard_352199",
    "title": "Leopard_352199",
    "link_img": "https://live.staticflickr.com/65535/50021360783_bdd76de256_o.jpg",
    "id_image": "Leopard_352199",
    "count_view": 0
  },
  {
    "link_thumb": "https://live.staticflickr.com/65535/50021682897_5fef559c1c_n.jpg",
    "id_album": "1469520430",
    "description": "Hedgehog_364587",
    "title": "Hedgehog_364587",
    "link_img": "https://live.staticflickr.com/65535/50021682897_c512fbc8fd_o.jpg",
    "id_image": "Hedgehog_364587",
    "count_view": 0
  },
  {
    "link_thumb": "https://live.staticflickr.com/65535/50021903747_9da10698c8_n.jpg",
    "id_album": "-737856092",
    "description": "Iguana_438517",
    "title": "Iguana_438517",
    "link_img": "https://live.staticflickr.com/65535/50021903747_1ec1ff7219_o.jpg",
    "id_image": "Iguana_438517",
    "count_view": 0
  },
  {
    "link_thumb": "https://live.staticflickr.com/65535/50352627142_58a3976564_n.jpg",
    "id_album": "-462831703",
    "description": "Cat_365172",
    "title": "Cat_365172",
    "link_img": "https://live.staticflickr.com/65535/50352627142_2ab18df409_o.jpg",
    "id_image": "Cat_365172",
    "count_view": 0
  },
  {
    "link_thumb": "https://live.staticflickr.com/65535/50020526093_66f9e1c00e_n.jpg",
    "id_album": "844170697",
    "description": "Frog_556330",
    "title": "Frog_556330",
    "link_img": "https://live.staticflickr.com/65535/50020526093_9e548121a0_o.jpg",
    "id_image": "Frog_556330",
    "count_view": 0
  },
  {
    "link_thumb": "https://live.staticflickr.com/65535/50020016293_a764554ed8_n.jpg",
    "id_album": "-149330231",
    "description": "Dog_943987",
    "title": "Dog_943987",
    "link_img": "https://live.staticflickr.com/65535/50020016293_755438ee39_o.jpg",
    "id_image": "Dog_943987",
    "count_view": 0
  },
  {
    "link_thumb": "https://live.staticflickr.com/65535/50017358976_312d3e86a2_n.jpg",
    "id_album": "-1846011410",
    "description": "Bird_534614",
    "title": "Bird_534614",
    "link_img": "https://live.staticflickr.com/65535/50017358976_6eae09ef38_o.jpg",
    "id_image": "Bird_534614",
    "count_view": 0
  },
  {
    "link_thumb": "https://live.staticflickr.com/65535/50018117586_73e28a0bd8_n.jpg",
    "id_album": "-462831702",
    "description": "Cat_386847",
    "title": "Cat_386847",
    "link_img": "https://live.staticflickr.com/65535/50018117586_525f0f4b43_o.jpg",
    "id_image": "Cat_386847",
    "count_view": 0
  },
  {
    "link_thumb": "https://live.staticflickr.com/65535/50020066592_8febf1eb3a_n.jpg",
    "id_album": "-1868680171",
    "description": "Cougar_367684",
    "title": "Cougar_367684",
    "link_img": "https://live.staticflickr.com/65535/50020066592_43fb9efd6f_o.jpg",
    "id_image": "Cougar_367684",
    "count_view": 0
  },
  {
    "link_thumb": "https://live.staticflickr.com/65535/50020631487_6ca380e016_n.jpg",
    "id_album": "-149330231",
    "description": "Dog_398788",
    "title": "Dog_398788",
    "link_img": "https://live.staticflickr.com/65535/50020631487_c9fc5fef06_o.jpg",
    "id_image": "Dog_398788",
    "count_view": 0
  },
  {
    "link_thumb": "https://live.staticflickr.com/65535/50024324917_b32cd485fb_n.jpg",
    "id_album": "405170427",
    "description": "Tiger_335348",
    "title": "Tiger_335348",
    "link_img": "https://live.staticflickr.com/65535/50024324917_d0909ac41a_o.jpg",
    "id_image": "Tiger_335348",
    "count_view": 0
  },
  {
    "link_thumb": "https://live.staticflickr.com/65535/50019360666_8c559e228f_n.jpg",
    "id_album": "-462831703",
    "description": "Cat_872504",
    "title": "Cat_872504",
    "link_img": "https://live.staticflickr.com/65535/50019360666_bd0bbe209e_o.jpg",
    "id_image": "Cat_872504",
    "count_view": 0
  },
  {
    "link_thumb": "https://live.staticflickr.com/65535/50020592738_3855cdff87_n.jpg",
    "id_album": "-462831704",
    "description": "Cat_595662",
    "title": "Cat_595662",
    "link_img": "https://live.staticflickr.com/65535/50020592738_5fbb8995cf_o.jpg",
    "id_image": "Cat_595662",
    "count_view": 0
  },
  {
    "link_thumb": "https://live.staticflickr.com/65535/50021222197_98bff63c2f_n.jpg",
    "id_album": "-128218148",
    "description": "Fox_461731",
    "title": "Fox_461731",
    "link_img": "https://live.staticflickr.com/65535/50021222197_1fddb3bfc7_o.jpg",
    "id_image": "Fox_461731",
    "count_view": 0
  },
  {
    "link_thumb": "https://live.staticflickr.com/65535/50021372533_d733766107_n.jpg",
    "id_album": "1392348450",
    "description": "Leopard_380955",
    "title": "Leopard_380955",
    "link_img": "https://live.staticflickr.com/65535/50021372533_9f07430256_o.jpg",
    "id_image": "Leopard_380955",
    "count_view": 0
  },
  {
    "link_thumb": "https://live.staticflickr.com/65535/50021403371_eae9a9913e_n.jpg",
    "id_album": "-1168906494",
    "description": "Grasshopper_682379",
    "title": "Grasshopper_682379",
    "link_img": "https://live.staticflickr.com/65535/50021403371_ec40bae474_o.jpg",
    "id_image": "Grasshopper_682379",
    "count_view": 0
  },
  {
    "link_thumb": "https://live.staticflickr.com/65535/50022435688_0bba7d004d_n.jpg",
    "id_album": "-353898617",
    "description": "Puppy_371086",
    "title": "Puppy_371086",
    "link_img": "https://live.staticflickr.com/65535/50022435688_dc2540cf30_o.jpg",
    "id_image": "Puppy_371086",
    "count_view": 0
  },
  {
    "link_thumb": "https://live.staticflickr.com/65535/50021899771_20325ee6e2_n.jpg",
    "id_album": "1392348450",
    "description": "Leopard_342067",
    "title": "Leopard_342067",
    "link_img": "https://live.staticflickr.com/65535/50021899771_6fd5fc42a3_o.jpg",
    "id_image": "Leopard_342067",
    "count_view": 0
  },
  {
    "link_thumb": "https://live.staticflickr.com/65535/50016803138_09542219d9_n.jpg",
    "id_album": "-1846011410",
    "description": "Bird_430419",
    "title": "Bird_430419",
    "link_img": "https://live.staticflickr.com/65535/50016803138_e598683463_o.jpg",
    "id_image": "Bird_430419",
    "count_view": 0
  },
  {
    "link_thumb": "https://live.staticflickr.com/65535/50023088041_68365d3322_n.jpg",
    "id_album": "-1940643173",
    "description": "Rabbit_182106",
    "title": "Rabbit_182106",
    "link_img": "https://live.staticflickr.com/65535/50023088041_6bf714afe3_o.jpg",
    "id_image": "Rabbit_182106",
    "count_view": 0
  },
  {
    "link_thumb": "https://live.staticflickr.com/65535/50019468053_49de1bef32_n.jpg",
    "id_album": "1903411565",
    "description": "Deer_363739",
    "title": "Deer_363739",
    "link_img": "https://live.staticflickr.com/65535/50019468053_0783b9163a_o.jpg",
    "id_image": "Deer_363739",
    "count_view": 0
  },
  {
    "link_thumb": "https://live.staticflickr.com/65535/50020440722_072ab77ceb_n.jpg",
    "id_album": "-149330232",
    "description": "Dog_254120",
    "title": "Dog_254120",
    "link_img": "https://live.staticflickr.com/65535/50020440722_27f76b1f26_o.jpg",
    "id_image": "Dog_254120",
    "count_view": 0
  },
  {
    "link_thumb": "https://live.staticflickr.com/65535/50016727128_8dc094ca7c_n.jpg",
    "id_album": "-1846011410",
    "description": "Bird_342819",
    "title": "Bird_342819",
    "link_img": "https://live.staticflickr.com/65535/50016727128_1d4a569ae1_o.jpg",
    "id_image": "Bird_342819",
    "count_view": 0
  },
  {
    "link_thumb": "https://live.staticflickr.com/65535/50017556186_c7a9454429_n.jpg",
    "id_album": "-401151552",
    "description": "Butterfly_282680",
    "title": "Butterfly_282680",
    "link_img": "https://live.staticflickr.com/65535/50017556186_93918ff799_o.jpg",
    "id_image": "Butterfly_282680",
    "count_view": 0
  },
  {
    "link_thumb": "https://live.staticflickr.com/65535/50019154588_b2345f7c6f_n.jpg",
    "id_album": "-1481843714",
    "description": "Cheetah_246386",
    "title": "Cheetah_246386",
    "link_img": "https://live.staticflickr.com/65535/50019154588_da0d827208_o.jpg",
    "id_image": "Cheetah_246386",
    "count_view": 0
  },
  {
    "link_thumb": "https://live.staticflickr.com/65535/50021546996_397e9a906d_n.jpg",
    "id_album": "-1933715543",
    "description": "Horse_60316",
    "title": "Horse_60316",
    "link_img": "https://live.staticflickr.com/65535/50021546996_1ebbc443ef_o.jpg",
    "id_image": "Horse_60316",
    "count_view": 0
  },
  {
    "link_thumb": "https://live.staticflickr.com/65535/50017385591_fe5d4570d4_n.jpg",
    "id_album": "-1846011410",
    "description": "Bird_597261",
    "title": "Bird_597261",
    "link_img": "https://live.staticflickr.com/65535/50017385591_8c5fc27f14_o.jpg",
    "id_image": "Bird_597261",
    "count_view": 0
  },
  {
    "link_thumb": "https://live.staticflickr.com/65535/50018647513_86652aef2e_n.jpg",
    "id_album": "-462831702",
    "description": "Cat_427492",
    "title": "Cat_427492",
    "link_img": "https://live.staticflickr.com/65535/50018647513_d27ceb8e19_o.jpg",
    "id_image": "Cat_427492",
    "count_view": 0
  },
  {
    "link_thumb": "https://live.staticflickr.com/65535/50022948957_88c4939ecd_n.jpg",
    "id_album": "392248205",
    "description": "Penguin_367227",
    "title": "Penguin_367227",
    "link_img": "https://live.staticflickr.com/65535/50022948957_6b5d61d260_o.jpg",
    "id_image": "Penguin_367227",
    "count_view": 0
  },
  {
    "link_thumb": "https://live.staticflickr.com/65535/50022119257_7a11d37bde_n.jpg",
    "id_album": "-1882491687",
    "description": "Ladybug_761642",
    "title": "Ladybug_761642",
    "link_img": "https://live.staticflickr.com/65535/50022119257_6d001e3148_o.jpg",
    "id_image": "Ladybug_761642",
    "count_view": 0
  },
  {
    "link_thumb": "https://live.staticflickr.com/65535/50020584833_6e4a247cba_n.jpg",
    "id_album": "-462831704",
    "description": "Cat_588542",
    "title": "Cat_588542",
    "link_img": "https://live.staticflickr.com/65535/50020584833_735b94e1c0_o.jpg",
    "id_image": "Cat_588542",
    "count_view": 0
  },
  {
    "link_thumb": "https://live.staticflickr.com/65535/50020573003_6b18b354f7_n.jpg",
    "id_album": "-462831704",
    "description": "Cat_564734",
    "title": "Cat_564734",
    "link_img": "https://live.staticflickr.com/65535/50020573003_055400116b_o.jpg",
    "id_image": "Cat_564734",
    "count_view": 0
  },
  {
    "link_thumb": "https://live.staticflickr.com/65535/50017627956_46ba591665_n.jpg",
    "id_album": "-401151552",
    "description": "Butterfly_570087",
    "title": "Butterfly_570087",
    "link_img": "https://live.staticflickr.com/65535/50017627956_fce9b7a82e_o.jpg",
    "id_image": "Butterfly_570087",
    "count_view": 0
  },
  {
    "link_thumb": "https://live.staticflickr.com/65535/50021105102_6631ec55ab_n.jpg",
    "id_album": "-1118073211",
    "description": "Fish_406072",
    "title": "Fish_406072",
    "link_img": "https://live.staticflickr.com/65535/50021105102_43e3fa9a92_o.jpg",
    "id_image": "Fish_406072",
    "count_view": 0
  },
  {
    "link_thumb": "https://live.staticflickr.com/65535/50020184818_1a2bbffda2_n.jpg",
    "id_album": "-39098563",
    "description": "Eagle_596661",
    "title": "Eagle_596661",
    "link_img": "https://live.staticflickr.com/65535/50020184818_0b66c3d4a6_o.jpg",
    "id_image": "Eagle_596661",
    "count_view": 0
  },
  {
    "link_thumb": "https://live.staticflickr.com/65535/50020420067_7df6cdeb11_n.jpg",
    "id_album": "-149330232",
    "description": "Dog_224026",
    "title": "Dog_224026",
    "link_img": "https://live.staticflickr.com/65535/50020420067_b139b3242f_o.jpg",
    "id_image": "Dog_224026",
    "count_view": 0
  },
  {
    "link_thumb": "https://live.staticflickr.com/65535/50021398037_c36c3b01bb_n.jpg",
    "id_album": "-462831704",
    "description": "Cat_614564",
    "title": "Cat_614564",
    "link_img": "https://live.staticflickr.com/65535/50021398037_9695287806_o.jpg",
    "id_image": "Cat_614564",
    "count_view": 0
  },
  {
    "link_thumb": "https://live.staticflickr.com/65535/50023249751_c499ed7fc3_n.jpg",
    "id_album": "-2087362619",
    "description": "RedandgreenMacaw_533703",
    "title": "RedandgreenMacaw_533703",
    "link_img": "https://live.staticflickr.com/65535/50023249751_409aa7b03e_o.jpg",
    "id_image": "RedandgreenMacaw_533703",
    "count_view": 0
  },
  {
    "link_thumb": "https://live.staticflickr.com/65535/50023818906_f50111c197_n.jpg",
    "id_album": "702283289",
    "description": "Squirrel_264472",
    "title": "Squirrel_264472",
    "link_img": "https://live.staticflickr.com/65535/50023818906_cfc8531692_o.jpg",
    "id_image": "Squirrel_264472",
    "count_view": 0
  },
  {
    "link_thumb": "https://live.staticflickr.com/65535/50020287801_e6d0ccd03c_n.jpg",
    "id_album": "-149330232",
    "description": "Dog_344046",
    "title": "Dog_344046",
    "link_img": "https://live.staticflickr.com/65535/50020287801_8fef517a11_o.jpg",
    "id_image": "Dog_344046",
    "count_view": 0
  },
  {
    "link_thumb": "https://live.staticflickr.com/65535/50019766213_905127c5ea_n.jpg",
    "id_album": "-149330232",
    "description": "Dog_350205",
    "title": "Dog_350205",
    "link_img": "https://live.staticflickr.com/65535/50019766213_4d64946953_o.jpg",
    "id_image": "Dog_350205",
    "count_view": 0
  },
  {
    "link_thumb": "https://live.staticflickr.com/65535/50021241196_064902829e_n.jpg",
    "id_album": "-462831703",
    "description": "Cat_779282",
    "title": "Cat_779282",
    "link_img": "https://live.staticflickr.com/65535/50021241196_7b0f4cfd18_o.jpg",
    "id_image": "Cat_779282",
    "count_view": 0
  },
  {
    "link_thumb": "https://live.staticflickr.com/65535/50020983341_e11e687e32_n.jpg",
    "id_album": "-128218148",
    "description": "Fox_638321",
    "title": "Fox_638321",
    "link_img": "https://live.staticflickr.com/65535/50020983341_33055b7205_o.jpg",
    "id_image": "Fox_638321",
    "count_view": 0
  },
  {
    "link_thumb": "https://live.staticflickr.com/65535/50017084081_33926bf730_n.jpg",
    "id_album": "-422187261",
    "description": "Bear_803452",
    "title": "Bear_803452",
    "link_img": "https://live.staticflickr.com/65535/50017084081_e9a1ffd57e_o.jpg",
    "id_image": "Bear_803452",
    "count_view": 0
  },
  {
    "link_thumb": "https://live.staticflickr.com/65535/50021831526_c6a45d01a7_n.jpg",
    "id_album": "1307335982",
    "description": "LabradorRetriever_714992",
    "title": "LabradorRetriever_714992",
    "link_img": "https://live.staticflickr.com/65535/50021831526_31ae40d319_o.jpg",
    "id_image": "LabradorRetriever_714992",
    "count_view": 0
  },
  {
    "link_thumb": "https://live.staticflickr.com/65535/50023499916_05dbdd4cda_n.jpg",
    "id_album": "692487763",
    "description": "SiberianHusky_379694",
    "title": "SiberianHusky_379694",
    "link_img": "https://live.staticflickr.com/65535/50023499916_4301b802dd_o.jpg",
    "id_image": "SiberianHusky_379694",
    "count_view": 0
  },
  {
    "link_thumb": "https://live.staticflickr.com/65535/50020691721_094bfc732a_n.jpg",
    "id_album": "-39098563",
    "description": "Eagle_334030",
    "title": "Eagle_334030",
    "link_img": "https://live.staticflickr.com/65535/50020691721_eacaef183b_o.jpg",
    "id_image": "Eagle_334030",
    "count_view": 0
  },
  {
    "link_thumb": "https://live.staticflickr.com/65535/50019888446_04cfe9fde0_n.jpg",
    "id_album": "1475096665",
    "description": "Crocodile_345498",
    "title": "Crocodile_345498",
    "link_img": "https://live.staticflickr.com/65535/50019888446_2bc964297a_o.jpg",
    "id_image": "Crocodile_345498",
    "count_view": 0
  },
  {
    "link_thumb": "https://live.staticflickr.com/65535/50023038582_15cb368c1e_n.jpg",
    "id_album": "1008910300",
    "description": "PolarBear_116966",
    "title": "PolarBear_116966",
    "link_img": "https://live.staticflickr.com/65535/50023038582_73b1ab27b1_o.jpg",
    "id_image": "PolarBear_116966",
    "count_view": 0
  },
  {
    "link_thumb": "https://live.staticflickr.com/65535/50022869196_a41148f2dc_n.jpg",
    "id_album": "1008910300",
    "description": "PolarBear_911649",
    "title": "PolarBear_911649",
    "link_img": "https://live.staticflickr.com/65535/50022869196_c87d450987_o.jpg",
    "id_image": "PolarBear_911649",
    "count_view": 0
  },
  {
    "link_thumb": "https://live.staticflickr.com/65535/50022951676_fe0fec95c6_n.jpg",
    "id_album": "-1431524681",
    "description": "Pug_501037",
    "title": "Pug_501037",
    "link_img": "https://live.staticflickr.com/65535/50022951676_537d703ae6_o.jpg",
    "id_image": "Pug_501037",
    "count_view": 0
  },
  {
    "link_thumb": "https://live.staticflickr.com/65535/50019695851_360ea07af2_n.jpg",
    "id_album": "-1481843714",
    "description": "Cheetah_360296",
    "title": "Cheetah_360296",
    "link_img": "https://live.staticflickr.com/65535/50019695851_5318fca25e_o.jpg",
    "id_image": "Cheetah_360296",
    "count_view": 0
  },
  {
    "link_thumb": "https://live.staticflickr.com/65535/50016469663_257e184aa7_n.jpg",
    "id_album": "809937717",
    "description": "Beagle_863412",
    "title": "Beagle_863412",
    "link_img": "https://live.staticflickr.com/65535/50016469663_ae64a3d48b_o.jpg",
    "id_image": "Beagle_863412",
    "count_view": 0
  },
  {
    "link_thumb": "https://live.staticflickr.com/65535/50352821972_fba6c2cdf4_n.jpg",
    "id_album": "-462831703",
    "description": "Cat_777669",
    "title": "Cat_777669",
    "link_img": "https://live.staticflickr.com/65535/50352821972_aa44021117_o.jpg",
    "id_image": "Cat_777669",
    "count_view": 0
  },
  {
    "link_thumb": "https://live.staticflickr.com/65535/50019511788_0b1d80b861_n.jpg",
    "id_album": "1903411565",
    "description": "Deer_709389",
    "title": "Deer_709389",
    "link_img": "https://live.staticflickr.com/65535/50019511788_3fb9de6f94_o.jpg",
    "id_image": "Deer_709389",
    "count_view": 0
  },
  {
    "link_thumb": "https://live.staticflickr.com/65535/50019784428_55b2f11e6a_n.jpg",
    "id_album": "-149330232",
    "description": "Dog_359604",
    "title": "Dog_359604",
    "link_img": "https://live.staticflickr.com/65535/50019784428_0392edf284_o.jpg",
    "id_image": "Dog_359604",
    "count_view": 0
  },
  {
    "link_thumb": "https://live.staticflickr.com/65535/50018051836_62de64244e_n.jpg",
    "id_album": "-462831702",
    "description": "Cat_359980",
    "title": "Cat_359980",
    "link_img": "https://live.staticflickr.com/65535/50018051836_7d136e15b7_o.jpg",
    "id_image": "Cat_359980",
    "count_view": 0
  },
  {
    "link_thumb": "https://live.staticflickr.com/65535/50019758738_7f082a707e_n.jpg",
    "id_album": "-149330232",
    "description": "Dog_346179",
    "title": "Dog_346179",
    "link_img": "https://live.staticflickr.com/65535/50019758738_5978dff824_o.jpg",
    "id_image": "Dog_346179",
    "count_view": 0
  },
  {
    "link_thumb": "https://live.staticflickr.com/65535/50019363606_0865a55062_n.jpg",
    "id_album": "-462831703",
    "description": "Cat_873356",
    "title": "Cat_873356",
    "link_img": "https://live.staticflickr.com/65535/50019363606_6c783a7790_o.jpg",
    "id_image": "Cat_873356",
    "count_view": 0
  },
  {
    "link_thumb": "https://live.staticflickr.com/65535/50022196747_2e22861eaa_n.jpg",
    "id_album": "1392348450",
    "description": "Leopard_592847",
    "title": "Leopard_592847",
    "link_img": "https://live.staticflickr.com/65535/50022196747_3afc99b35c_o.jpg",
    "id_image": "Leopard_592847",
    "count_view": 0
  },
  {
    "link_thumb": "https://live.staticflickr.com/65535/50352457496_b82128184f_n.jpg",
    "id_album": "-462831703",
    "description": "Cat_337766",
    "title": "Cat_337766",
    "link_img": "https://live.staticflickr.com/65535/50352457496_0560cd6634_o.jpg",
    "id_image": "Cat_337766",
    "count_view": 0
  },
  {
    "link_thumb": "https://live.staticflickr.com/65535/50351733353_69abe3a663_n.jpg",
    "id_album": "-462831703",
    "description": "Cat_220760",
    "title": "Cat_220760",
    "link_img": "https://live.staticflickr.com/65535/50351733353_9770e1a409_o.jpg",
    "id_image": "Cat_220760",
    "count_view": 0
  },
  {
    "link_thumb": "https://live.staticflickr.com/65535/50021997097_7d5dcae2c0_n.jpg",
    "id_album": "-843028318",
    "description": "Jaguar_879218",
    "title": "Jaguar_879218",
    "link_img": "https://live.staticflickr.com/65535/50021997097_fa1ab937ca_o.jpg",
    "id_image": "Jaguar_879218",
    "count_view": 0
  },
  {
    "link_thumb": "https://live.staticflickr.com/65535/50352642141_697abccfeb_n.jpg",
    "id_album": "-462831703",
    "description": "Cat_680307",
    "title": "Cat_680307",
    "link_img": "https://live.staticflickr.com/65535/50352642141_f2ccdfb942_o.jpg",
    "id_image": "Cat_680307",
    "count_view": 0
  },
  {
    "link_thumb": "https://live.staticflickr.com/65535/50021023916_e6f3834020_n.jpg",
    "id_album": "-128218148",
    "description": "Fox_913673",
    "title": "Fox_913673",
    "link_img": "https://live.staticflickr.com/65535/50021023916_5a23de3c3f_o.jpg",
    "id_image": "Fox_913673",
    "count_view": 0
  },
  {
    "link_thumb": "https://live.staticflickr.com/65535/50023705438_c9be596d1a_n.jpg",
    "id_album": "405170427",
    "description": "Tiger_949110",
    "title": "Tiger_949110",
    "link_img": "https://live.staticflickr.com/65535/50023705438_e6a160d7fd_o.jpg",
    "id_image": "Tiger_949110",
    "count_view": 0
  },
  {
    "link_thumb": "https://live.staticflickr.com/65535/50021892792_6834c87e5c_n.jpg",
    "id_album": "-712553376",
    "description": "Husky_737421",
    "title": "Husky_737421",
    "link_img": "https://live.staticflickr.com/65535/50021892792_9cce4c0a5c_o.jpg",
    "id_image": "Husky_737421",
    "count_view": 0
  },
  {
    "link_thumb": "https://live.staticflickr.com/65535/50017284363_6f51591896_n.jpg",
    "id_album": "-462831705",
    "description": "Cat_174583",
    "title": "Cat_174583",
    "link_img": "https://live.staticflickr.com/65535/50017284363_f79a7706c9_o.jpg",
    "id_image": "Cat_174583",
    "count_view": 0
  },
  {
    "link_thumb": "https://live.staticflickr.com/65535/50017995966_a782185b07_n.jpg",
    "id_album": "-462831702",
    "description": "Cat_333622",
    "title": "Cat_333622",
    "link_img": "https://live.staticflickr.com/65535/50017995966_f174a5611e_o.jpg",
    "id_image": "Cat_333622",
    "count_view": 0
  },
  {
    "link_thumb": "https://live.staticflickr.com/65535/50019023728_9d7711d1b2_n.jpg",
    "id_album": "-462831703",
    "description": "Cat_984187",
    "title": "Cat_984187",
    "link_img": "https://live.staticflickr.com/65535/50019023728_1def6328e2_o.jpg",
    "id_image": "Cat_984187",
    "count_view": 0
  },
  {
    "link_thumb": "https://live.staticflickr.com/65535/50019540528_bbd77f64c5_n.jpg",
    "id_album": "1903411565",
    "description": "Deer_993528",
    "title": "Deer_993528",
    "link_img": "https://live.staticflickr.com/65535/50019540528_bcf32aacb0_o.jpg",
    "id_image": "Deer_993528",
    "count_view": 0
  },
  {
    "link_thumb": "https://live.staticflickr.com/65535/50022099766_a5a32236c0_n.jpg",
    "id_album": "-656526748",
    "description": "Lizard_149924",
    "title": "Lizard_149924",
    "link_img": "https://live.staticflickr.com/65535/50022099766_38a0735760_o.jpg",
    "id_image": "Lizard_149924",
    "count_view": 0
  },
  {
    "link_thumb": "https://live.staticflickr.com/65535/50018866663_c6eecfd9c1_n.jpg",
    "id_album": "-462831703",
    "description": "Cat_885249",
    "title": "Cat_885249",
    "link_img": "https://live.staticflickr.com/65535/50018866663_2a80ed70c1_o.jpg",
    "id_image": "Cat_885249",
    "count_view": 0
  },
  {
    "link_thumb": "https://live.staticflickr.com/65535/50021240011_662febe705_n.jpg",
    "id_album": "-462831703",
    "description": "Cat_778257",
    "title": "Cat_778257",
    "link_img": "https://live.staticflickr.com/65535/50021240011_01205e692f_o.jpg",
    "id_image": "Cat_778257",
    "count_view": 0
  },
  {
    "link_thumb": "https://live.staticflickr.com/65535/50017585631_4168ac85ee_n.jpg",
    "id_album": "-401151552",
    "description": "Butterfly_408912",
    "title": "Butterfly_408912",
    "link_img": "https://live.staticflickr.com/65535/50017585631_522c050fb8_o.jpg",
    "id_image": "Butterfly_408912",
    "count_view": 0
  },
  {
    "link_thumb": "https://live.staticflickr.com/65535/50021152696_35f666e6e0_n.jpg",
    "id_album": "-462831704",
    "description": "Cat_655407",
    "title": "Cat_655407",
    "link_img": "https://live.staticflickr.com/65535/50021152696_52915b52fd_o.jpg",
    "id_image": "Cat_655407",
    "count_view": 0
  },
  {
    "link_thumb": "https://live.staticflickr.com/65535/50020279586_a7beabdc82_n.jpg",
    "id_album": "-149330232",
    "description": "Dog_341465",
    "title": "Dog_341465",
    "link_img": "https://live.staticflickr.com/65535/50020279586_2dd740c5b2_o.jpg",
    "id_image": "Dog_341465",
    "count_view": 0
  },
  {
    "link_thumb": "https://live.staticflickr.com/65535/50020940942_4ecc7afac5_n.jpg",
    "id_album": "-39098563",
    "description": "Eagle_225210",
    "title": "Eagle_225210",
    "link_img": "https://live.staticflickr.com/65535/50020940942_4639344091_o.jpg",
    "id_image": "Eagle_225210",
    "count_view": 0
  },
  {
    "link_thumb": "https://live.staticflickr.com/65535/50022934651_3231e4f36d_n.jpg",
    "id_album": "-356780855",
    "description": "Puffin_874512",
    "title": "Puffin_874512",
    "link_img": "https://live.staticflickr.com/65535/50022934651_2da16f96c7_o.jpg",
    "id_image": "Puffin_874512",
    "count_view": 0
  },
  {
    "link_thumb": "https://live.staticflickr.com/65535/50017736047_ff713302b7_n.jpg",
    "id_album": "-530283314",
    "description": "BlueandyellowMacaw_774633",
    "title": "BlueandyellowMacaw_774633",
    "link_img": "https://live.staticflickr.com/65535/50017736047_619ed6df92_o.jpg",
    "id_image": "BlueandyellowMacaw_774633",
    "count_view": 0
  },
  {
    "link_thumb": "https://live.staticflickr.com/65535/50021924466_74019205f9_n.jpg",
    "id_album": "1392348450",
    "description": "Leopard_425899",
    "title": "Leopard_425899",
    "link_img": "https://live.staticflickr.com/65535/50021924466_63ffdbd791_o.jpg",
    "id_image": "Leopard_425899",
    "count_view": 0
  },
  {
    "link_thumb": "https://live.staticflickr.com/65535/50018002552_de3f066a0a_n.jpg",
    "id_album": "-462831703",
    "description": "Cat_1001231",
    "title": "Cat_1001231",
    "link_img": "https://live.staticflickr.com/65535/50018002552_5c00b16791_o.jpg",
    "id_image": "Cat_1001231",
    "count_view": 0
  },
  {
    "link_thumb": "https://live.staticflickr.com/65535/50020236611_54a84ff492_n.jpg",
    "id_album": "-149330232",
    "description": "Dog_323365",
    "title": "Dog_323365",
    "link_img": "https://live.staticflickr.com/65535/50020236611_5c93c8db10_o.jpg",
    "id_image": "Dog_323365",
    "count_view": 0
  },
  {
    "link_thumb": "https://live.staticflickr.com/65535/50352526366_b66b8b0df6_n.jpg",
    "id_album": "-462831703",
    "description": "Cat_441556",
    "title": "Cat_441556",
    "link_img": "https://live.staticflickr.com/65535/50352526366_bbb3f7e3c0_o.jpg",
    "id_image": "Cat_441556",
    "count_view": 0
  },
  {
    "link_thumb": "https://live.staticflickr.com/65535/50019642517_9cc7b4e3f2_n.jpg",
    "id_album": "-462831703",
    "description": "Cat_879332",
    "title": "Cat_879332",
    "link_img": "https://live.staticflickr.com/65535/50019642517_82aaa49f2b_o.jpg",
    "id_image": "Cat_879332",
    "count_view": 0
  },
  {
    "link_thumb": "https://live.staticflickr.com/65535/50017161416_44ba49604a_n.jpg",
    "id_album": "1699594607",
    "description": "Bee_790222",
    "title": "Bee_790222",
    "link_img": "https://live.staticflickr.com/65535/50017161416_e62c117544_o.jpg",
    "id_image": "Bee_790222",
    "count_view": 0
  },
  {
    "link_thumb": "https://live.staticflickr.com/65535/50022453453_65fb633d64_n.jpg",
    "id_album": "-353898617",
    "description": "Puppy_435151",
    "title": "Puppy_435151",
    "link_img": "https://live.staticflickr.com/65535/50022453453_b68442b109_o.jpg",
    "id_image": "Puppy_435151",
    "count_view": 0
  },
  {
    "link_thumb": "https://live.staticflickr.com/65535/50352695171_4dedbc0dd6_n.jpg",
    "id_album": "-462831702",
    "description": "Cat_160945",
    "title": "Cat_160945",
    "link_img": "https://live.staticflickr.com/65535/50352695171_9bfa93330f_o.jpg",
    "id_image": "Cat_160945",
    "count_view": 0
  },
  {
    "link_thumb": "https://live.staticflickr.com/65535/50019331386_df39e69fbb_n.jpg",
    "id_album": "-462831703",
    "description": "Cat_859738",
    "title": "Cat_859738",
    "link_img": "https://live.staticflickr.com/65535/50019331386_95d3a5bb91_o.jpg",
    "id_image": "Cat_859738",
    "count_view": 0
  },
  {
    "link_thumb": "https://live.staticflickr.com/65535/50021337643_c674e0ecf8_n.jpg",
    "id_album": "1918884325",
    "description": "Lemur_789727",
    "title": "Lemur_789727",
    "link_img": "https://live.staticflickr.com/65535/50021337643_e517f72c3f_o.jpg",
    "id_image": "Lemur_789727",
    "count_view": 0
  },
  {
    "link_thumb": "https://live.staticflickr.com/65535/50020649621_093abbcba3_n.jpg",
    "id_album": "1168627767",
    "description": "Duck_328026",
    "title": "Duck_328026",
    "link_img": "https://live.staticflickr.com/65535/50020649621_538f2c6c4e_o.jpg",
    "id_image": "Duck_328026",
    "count_view": 0
  },
  {
    "link_thumb": "https://live.staticflickr.com/65535/50021906017_8cc3c903af_n.jpg",
    "id_album": "-737856092",
    "description": "Iguana_595729",
    "title": "Iguana_595729",
    "link_img": "https://live.staticflickr.com/65535/50021906017_5196f6b60c_o.jpg",
    "id_image": "Iguana_595729",
    "count_view": 0
  },
  {
    "link_thumb": "https://live.staticflickr.com/65535/50020458858_8a23ea3ac0_n.jpg",
    "id_album": "-128218148",
    "description": "Fox_767524",
    "title": "Fox_767524",
    "link_img": "https://live.staticflickr.com/65535/50020458858_81bae20ba1_o.jpg",
    "id_image": "Fox_767524",
    "count_view": 0
  },
  {
    "link_thumb": "https://live.staticflickr.com/65535/50021609833_924158b52a_n.jpg",
    "id_album": "1894617400",
    "description": "Lynx_535217",
    "title": "Lynx_535217",
    "link_img": "https://live.staticflickr.com/65535/50021609833_8b221da2bf_o.jpg",
    "id_image": "Lynx_535217",
    "count_view": 0
  },
  {
    "link_thumb": "https://live.staticflickr.com/65535/50017480108_3a7dd9981e_n.jpg",
    "id_album": "-462831702",
    "description": "Cat_338233",
    "title": "Cat_338233",
    "link_img": "https://live.staticflickr.com/65535/50017480108_4190191284_o.jpg",
    "id_image": "Cat_338233",
    "count_view": 0
  },
  {
    "link_thumb": "https://live.staticflickr.com/65535/50020358816_389e43d4ba_n.jpg",
    "id_album": "-149330231",
    "description": "Dog_381590",
    "title": "Dog_381590",
    "link_img": "https://live.staticflickr.com/65535/50020358816_d602fc0aac_o.jpg",
    "id_image": "Dog_381590",
    "count_view": 0
  },
  {
    "link_thumb": "https://live.staticflickr.com/65535/50022016842_7ae8ff68fb_n.jpg",
    "id_album": "1562047127",
    "description": "Jellyfish_292393",
    "title": "Jellyfish_292393",
    "link_img": "https://live.staticflickr.com/65535/50022016842_7f97f380c1_o.jpg",
    "id_image": "Jellyfish_292393",
    "count_view": 0
  },
  {
    "link_thumb": "https://live.staticflickr.com/65535/50017022321_afce0c75a8_n.jpg",
    "id_album": "-422187261",
    "description": "Bear_337891",
    "title": "Bear_337891",
    "link_img": "https://live.staticflickr.com/65535/50017022321_cb700f6715_o.jpg",
    "id_image": "Bear_337891",
    "count_view": 0
  },
  {
    "link_thumb": "https://live.staticflickr.com/65535/50021503521_1367628173_n.jpg",
    "id_album": "-1933715543",
    "description": "Horse_364983",
    "title": "Horse_364983",
    "link_img": "https://live.staticflickr.com/65535/50021503521_fefefaf2e9_o.jpg",
    "id_image": "Horse_364983",
    "count_view": 0
  },
  {
    "link_thumb": "https://live.staticflickr.com/65535/50022476348_c5a23fca39_n.jpg",
    "id_album": "-353898617",
    "description": "Puppy_549944",
    "title": "Puppy_549944",
    "link_img": "https://live.staticflickr.com/65535/50022476348_8308d824cd_o.jpg",
    "id_image": "Puppy_549944",
    "count_view": 0
  },
  {
    "link_thumb": "https://live.staticflickr.com/65535/50022354496_7e2dd50759_n.jpg",
    "id_album": "588679857",
    "description": "Orangutan_766847",
    "title": "Orangutan_766847",
    "link_img": "https://live.staticflickr.com/65535/50022354496_8e0af0610d_o.jpg",
    "id_image": "Orangutan_766847",
    "count_view": 0
  },
  {
    "link_thumb": "https://live.staticflickr.com/65535/50022624063_0a1f4e62be_n.jpg",
    "id_album": "248289288",
    "description": "Raccoon_879716",
    "title": "Raccoon_879716",
    "link_img": "https://live.staticflickr.com/65535/50022624063_20f385da09_o.jpg",
    "id_image": "Raccoon_879716",
    "count_view": 0
  },
  {
    "link_thumb": "https://live.staticflickr.com/65535/50017517788_92b1080ae7_n.jpg",
    "id_album": "-462831702",
    "description": "Cat_357738",
    "title": "Cat_357738",
    "link_img": "https://live.staticflickr.com/65535/50017517788_3874448b71_o.jpg",
    "id_image": "Cat_357738",
    "count_view": 0
  },
  {
    "link_thumb": "https://live.staticflickr.com/65535/50017834617_169101ea93_n.jpg",
    "id_album": "-401151552",
    "description": "Butterfly_367345",
    "title": "Butterfly_367345",
    "link_img": "https://live.staticflickr.com/65535/50017834617_5b08a7b016_o.jpg",
    "id_image": "Butterfly_367345",
    "count_view": 0
  },
  {
    "link_thumb": "https://live.staticflickr.com/65535/50016901998_b175771408_n.jpg",
    "id_album": "-1846011410",
    "description": "Bird_811193",
    "title": "Bird_811193",
    "link_img": "https://live.staticflickr.com/65535/50016901998_d72d0d438c_o.jpg",
    "id_image": "Bird_811193",
    "count_view": 0
  },
  {
    "link_thumb": "https://live.staticflickr.com/65535/50020240138_30a06de4dd_n.jpg",
    "id_album": "1270947998",
    "description": "Elephant_637142",
    "title": "Elephant_637142",
    "link_img": "https://live.staticflickr.com/65535/50020240138_0be5c50826_o.jpg",
    "id_image": "Elephant_637142",
    "count_view": 0
  },
  {
    "link_thumb": "https://live.staticflickr.com/65535/50022963183_050bfc6eb4_n.jpg",
    "id_album": "-800019164",
    "description": "Snail_110718",
    "title": "Snail_110718",
    "link_img": "https://live.staticflickr.com/65535/50022963183_c905282e4c_o.jpg",
    "id_image": "Snail_110718",
    "count_view": 0
  },
  {
    "link_thumb": "https://live.staticflickr.com/65535/50019482087_8be7f76abe_n.jpg",
    "id_album": "-462831704",
    "description": "Cat_454436",
    "title": "Cat_454436",
    "link_img": "https://live.staticflickr.com/65535/50019482087_1bd681db68_o.jpg",
    "id_image": "Cat_454436",
    "count_view": 0
  },
  {
    "link_thumb": "https://live.staticflickr.com/65535/50020140878_62f159389f_n.jpg",
    "id_album": "1168627767",
    "description": "Duck_853666",
    "title": "Duck_853666",
    "link_img": "https://live.staticflickr.com/65535/50020140878_4258a769a2_o.jpg",
    "id_image": "Duck_853666",
    "count_view": 0
  },
  {
    "link_thumb": "https://live.staticflickr.com/65535/50019790561_5337eba6fb_n.jpg",
    "id_album": "-1462118852",
    "description": "Corgi_339453",
    "title": "Corgi_339453",
    "link_img": "https://live.staticflickr.com/65535/50019790561_7136d555e0_o.jpg",
    "id_image": "Corgi_339453",
    "count_view": 0
  },
  {
    "link_thumb": "https://live.staticflickr.com/65535/50022171001_8369025dc4_n.jpg",
    "id_album": "1894617400",
    "description": "Lynx_972911",
    "title": "Lynx_972911",
    "link_img": "https://live.staticflickr.com/65535/50022171001_26214f8f3b_o.jpg",
    "id_image": "Lynx_972911",
    "count_view": 0
  },
  {
    "link_thumb": "https://live.staticflickr.com/65535/50020703323_6016786003_n.jpg",
    "id_album": "-462831703",
    "description": "Cat_785681",
    "title": "Cat_785681",
    "link_img": "https://live.staticflickr.com/65535/50020703323_e82bb71923_o.jpg",
    "id_image": "Cat_785681",
    "count_view": 0
  },
  {
    "link_thumb": "https://live.staticflickr.com/65535/50020615061_7eef45cdcb_n.jpg",
    "id_album": "-405058657",
    "description": "Dragonfly_373214",
    "title": "Dragonfly_373214",
    "link_img": "https://live.staticflickr.com/65535/50020615061_082c3e28a6_o.jpg",
    "id_image": "Dragonfly_373214",
    "count_view": 0
  },
  {
    "link_thumb": "https://live.staticflickr.com/65535/50024774832_603162a1db_n.jpg",
    "id_album": "-709711865",
    "description": "Wolf_542543",
    "title": "Wolf_542543",
    "link_img": "https://live.staticflickr.com/65535/50024774832_44ec8857c9_o.jpg",
    "id_image": "Wolf_542543",
    "count_view": 0
  },
  {
    "link_thumb": "https://live.staticflickr.com/65535/50024022633_9fe2b7216f_n.jpg",
    "id_album": "1104421803",
    "description": "Zebra_206775",
    "title": "Zebra_206775",
    "link_img": "https://live.staticflickr.com/65535/50024022633_b56357f999_o.jpg",
    "id_image": "Zebra_206775",
    "count_view": 0
  },
  {
    "link_thumb": "https://live.staticflickr.com/65535/50018143176_c8a84a147f_n.jpg",
    "id_album": "-462831702",
    "description": "Cat_402841",
    "title": "Cat_402841",
    "link_img": "https://live.staticflickr.com/65535/50018143176_28793c0d71_o.jpg",
    "id_image": "Cat_402841",
    "count_view": 0
  },
  {
    "link_thumb": "https://live.staticflickr.com/65535/50020248208_2fac421664_n.jpg",
    "id_album": "1270947998",
    "description": "Elephant_721472",
    "title": "Elephant_721472",
    "link_img": "https://live.staticflickr.com/65535/50020248208_6db9a43350_o.jpg",
    "id_image": "Elephant_721472",
    "count_view": 0
  },
  {
    "link_thumb": "https://live.staticflickr.com/65535/50019154771_68fbf2802c_n.jpg",
    "id_album": "-462831702",
    "description": "Cat_419592",
    "title": "Cat_419592",
    "link_img": "https://live.staticflickr.com/65535/50019154771_e92d02172e_o.jpg",
    "id_image": "Cat_419592",
    "count_view": 0
  },
  {
    "link_thumb": "https://live.staticflickr.com/65535/50352618341_a075db9214_n.jpg",
    "id_album": "-462831703",
    "description": "Cat_593661",
    "title": "Cat_593661",
    "link_img": "https://live.staticflickr.com/65535/50352618341_78f9f34115_o.jpg",
    "id_image": "Cat_593661",
    "count_view": 0
  },
  {
    "link_thumb": "https://live.staticflickr.com/65535/50016770008_39e3296545_n.jpg",
    "id_album": "-1846011410",
    "description": "Bird_390900",
    "title": "Bird_390900",
    "link_img": "https://live.staticflickr.com/65535/50016770008_2be908afe6_o.jpg",
    "id_image": "Bird_390900",
    "count_view": 0
  },
  {
    "link_thumb": "https://live.staticflickr.com/65535/50018953073_4e2a067e8f_n.jpg",
    "id_album": "-462831703",
    "description": "Cat_931139",
    "title": "Cat_931139",
    "link_img": "https://live.staticflickr.com/65535/50018953073_411ca66e92_o.jpg",
    "id_image": "Cat_931139",
    "count_view": 0
  },
  {
    "link_thumb": "https://live.staticflickr.com/65535/50016857213_2fc86da307_n.jpg",
    "id_album": "-1846011410",
    "description": "Bird_596506",
    "title": "Bird_596506",
    "link_img": "https://live.staticflickr.com/65535/50016857213_717100e419_o.jpg",
    "id_image": "Bird_596506",
    "count_view": 0
  },
  {
    "link_thumb": "https://live.staticflickr.com/65535/50022948661_0a5bda4b5a_n.jpg",
    "id_album": "-1431524681",
    "description": "Pug_383674",
    "title": "Pug_383674",
    "link_img": "https://live.staticflickr.com/65535/50022948661_10619bda74_o.jpg",
    "id_image": "Pug_383674",
    "count_view": 0
  },
  {
    "link_thumb": "https://live.staticflickr.com/65535/50021678817_712c601f2b_n.jpg",
    "id_album": "-1513987841",
    "description": "Hawk_719654",
    "title": "Hawk_719654",
    "link_img": "https://live.staticflickr.com/65535/50021678817_c3576b78a2_o.jpg",
    "id_image": "Hawk_719654",
    "count_view": 0
  },
  {
    "link_thumb": "https://live.staticflickr.com/65535/50020709497_c9e3f28bd6_n.jpg",
    "id_album": "-149330231",
    "description": "Dog_530222",
    "title": "Dog_530222",
    "link_img": "https://live.staticflickr.com/65535/50020709497_5957832cff_o.jpg",
    "id_image": "Dog_530222",
    "count_view": 0
  },
  {
    "link_thumb": "https://live.staticflickr.com/65535/50022666913_a2b1e515b8_n.jpg",
    "id_album": "332874268",
    "description": "RedPanda_363259",
    "title": "RedPanda_363259",
    "link_img": "https://live.staticflickr.com/65535/50022666913_21bdca2e48_o.jpg",
    "id_image": "RedPanda_363259",
    "count_view": 0
  },
  {
    "link_thumb": "https://live.staticflickr.com/65535/50021720848_539fae7720_n.jpg",
    "id_album": "-784970094",
    "description": "Monkey_759441",
    "title": "Monkey_759441",
    "link_img": "https://live.staticflickr.com/65535/50021720848_49db328a20_o.jpg",
    "id_image": "Monkey_759441",
    "count_view": 0
  },
  {
    "link_thumb": "https://live.staticflickr.com/65535/50020810127_30f45ce3d9_n.jpg",
    "id_album": "-149330231",
    "description": "Dog_976309",
    "title": "Dog_976309",
    "link_img": "https://live.staticflickr.com/65535/50020810127_35f60bb142_o.jpg",
    "id_image": "Dog_976309",
    "count_view": 0
  },
  {
    "link_thumb": "https://live.staticflickr.com/65535/50016343913_2ea3aa0cf4_n.jpg",
    "id_album": "523598895",
    "description": "Artistic_158845",
    "title": "Artistic_158845",
    "link_img": "https://live.staticflickr.com/65535/50016343913_ba4055edb2_o.jpg",
    "id_image": "Artistic_158845",
    "count_view": 0
  },
  {
    "link_thumb": "https://live.staticflickr.com/65535/50021768633_ec8fb182d8_n.jpg",
    "id_album": "1015034486",
    "description": "Muteswan_334588",
    "title": "Muteswan_334588",
    "link_img": "https://live.staticflickr.com/65535/50021768633_ea99904c38_o.jpg",
    "id_image": "Muteswan_334588",
    "count_view": 0
  },
  {
    "link_thumb": "https://live.staticflickr.com/65535/50019411796_f90bd42976_n.jpg",
    "id_album": "-462831703",
    "description": "Cat_899621",
    "title": "Cat_899621",
    "link_img": "https://live.staticflickr.com/65535/50019411796_31a8eed9f4_o.jpg",
    "id_image": "Cat_899621",
    "count_view": 0
  },
  {
    "link_thumb": "https://live.staticflickr.com/65535/50022617388_d92b26a5cd_n.jpg",
    "id_album": "248289288",
    "description": "Raccoon_708890",
    "title": "Raccoon_708890",
    "link_img": "https://live.staticflickr.com/65535/50022617388_23a3b6a06d_o.jpg",
    "id_image": "Raccoon_708890",
    "count_view": 0
  },
  {
    "link_thumb": "https://live.staticflickr.com/65535/50020169468_ef5b966d9c_n.jpg",
    "id_album": "-39098563",
    "description": "Eagle_397597",
    "title": "Eagle_397597",
    "link_img": "https://live.staticflickr.com/65535/50020169468_b582ee5306_o.jpg",
    "id_image": "Eagle_397597",
    "count_view": 0
  },
  {
    "link_thumb": "https://live.staticflickr.com/65535/50021854892_9c58367291_n.jpg",
    "id_album": "2144294979",
    "description": "Hummingbird_24961",
    "title": "Hummingbird_24961",
    "link_img": "https://live.staticflickr.com/65535/50021854892_5371319d1e_o.jpg",
    "id_image": "Hummingbird_24961",
    "count_view": 0
  },
  {
    "link_thumb": "https://live.staticflickr.com/65535/50020780637_0c0038651c_n.jpg",
    "id_album": "-149330231",
    "description": "Dog_853829",
    "title": "Dog_853829",
    "link_img": "https://live.staticflickr.com/65535/50020780637_5bc9c6711a_o.jpg",
    "id_image": "Dog_853829",
    "count_view": 0
  },
  {
    "link_thumb": "https://live.staticflickr.com/65535/50019372026_d87e987316_n.jpg",
    "id_album": "-462831703",
    "description": "Cat_875864",
    "title": "Cat_875864",
    "link_img": "https://live.staticflickr.com/65535/50019372026_36c15873dc_o.jpg",
    "id_image": "Cat_875864",
    "count_view": 0
  },
  {
    "link_thumb": "https://live.staticflickr.com/65535/50024466022_fe278af85d_n.jpg",
    "id_album": "405170427",
    "description": "Tiger_74673",
    "title": "Tiger_74673",
    "link_img": "https://live.staticflickr.com/65535/50024466022_9ed6451732_o.jpg",
    "id_image": "Tiger_74673",
    "count_view": 0
  },
  {
    "link_thumb": "https://live.staticflickr.com/65535/50017039336_ecdc8c79c4_n.jpg",
    "id_album": "-422187261",
    "description": "Bear_404013",
    "title": "Bear_404013",
    "link_img": "https://live.staticflickr.com/65535/50017039336_ebbe11dfe5_o.jpg",
    "id_image": "Bear_404013",
    "count_view": 0
  },
  {
    "link_thumb": "https://live.staticflickr.com/65535/50020317158_b298116836_n.jpg",
    "id_album": "-1118073211",
    "description": "Fish_423907",
    "title": "Fish_423907",
    "link_img": "https://live.staticflickr.com/65535/50020317158_8252e2106e_o.jpg",
    "id_image": "Fish_423907",
    "count_view": 0
  },
  {
    "link_thumb": "https://live.staticflickr.com/65535/50017591873_1c03d56280_n.jpg",
    "id_album": "-462831702",
    "description": "Cat_390242",
    "title": "Cat_390242",
    "link_img": "https://live.staticflickr.com/65535/50017591873_20a771d816_o.jpg",
    "id_image": "Cat_390242",
    "count_view": 0
  },
  {
    "link_thumb": "https://live.staticflickr.com/65535/50022173468_d45532a214_n.jpg",
    "id_album": "392248205",
    "description": "Penguin_72629",
    "title": "Penguin_72629",
    "link_img": "https://live.staticflickr.com/65535/50022173468_b2637425a2_o.jpg",
    "id_image": "Penguin_72629",
    "count_view": 0
  },
  {
    "link_thumb": "https://live.staticflickr.com/65535/50018249892_acc200abae_n.jpg",
    "id_album": "-462831702",
    "description": "Cat_331064",
    "title": "Cat_331064",
    "link_img": "https://live.staticflickr.com/65535/50018249892_a41deb6ce9_o.jpg",
    "id_image": "Cat_331064",
    "count_view": 0
  },
  {
    "link_thumb": "https://live.staticflickr.com/65535/50023936167_9dfed4a2dc_n.jpg",
    "id_album": "-1131363127",
    "description": "SnowLeopard_924791",
    "title": "SnowLeopard_924791",
    "link_img": "https://live.staticflickr.com/65535/50023936167_3e515136e2_o.jpg",
    "id_image": "SnowLeopard_924791",
    "count_view": 0
  },
  {
    "link_thumb": "https://live.staticflickr.com/65535/50016649873_4cfc2fac04_n.jpg",
    "id_album": "172748811",
    "description": "Beeeater_693348",
    "title": "Beeeater_693348",
    "link_img": "https://live.staticflickr.com/65535/50016649873_3d812f5f9e_o.jpg",
    "id_image": "Beeeater_693348",
    "count_view": 0
  },
  {
    "link_thumb": "https://live.staticflickr.com/65535/50021719371_f1652d91a5_n.jpg",
    "id_album": "-843028318",
    "description": "Jaguar_278752",
    "title": "Jaguar_278752",
    "link_img": "https://live.staticflickr.com/65535/50021719371_fb6bbec459_o.jpg",
    "id_image": "Jaguar_278752",
    "count_view": 0
  },
  {
    "link_thumb": "https://live.staticflickr.com/65535/50019361651_fddc7c0ef9_n.jpg",
    "id_album": "-462831703",
    "description": "Cat_872928",
    "title": "Cat_872928",
    "link_img": "https://live.staticflickr.com/65535/50019361651_d3f9632d84_o.jpg",
    "id_image": "Cat_872928",
    "count_view": 0
  },
  {
    "link_thumb": "https://live.staticflickr.com/65535/50021301833_df7c38dfc6_n.jpg",
    "id_album": "-1882491687",
    "description": "Ladybug_343157",
    "title": "Ladybug_343157",
    "link_img": "https://live.staticflickr.com/65535/50021301833_fb0a396504_o.jpg",
    "id_image": "Ladybug_343157",
    "count_view": 0
  },
  {
    "link_thumb": "https://live.staticflickr.com/65535/50017521741_f772f6f873_n.jpg",
    "id_album": "1696155652",
    "description": "Boxer_899408",
    "title": "Boxer_899408",
    "link_img": "https://live.staticflickr.com/65535/50017521741_65e5a65dcb_o.jpg",
    "id_image": "Boxer_899408",
    "count_view": 0
  },
  {
    "link_thumb": "https://live.staticflickr.com/65535/50020493397_fa1d888041_n.jpg",
    "id_album": "-149330232",
    "description": "Dog_314476",
    "title": "Dog_314476",
    "link_img": "https://live.staticflickr.com/65535/50020493397_41ab305583_o.jpg",
    "id_image": "Dog_314476",
    "count_view": 0
  },
  {
    "link_thumb": "https://live.staticflickr.com/65535/50020283431_237af89bf6_n.jpg",
    "id_album": "-149330232",
    "description": "Dog_342708",
    "title": "Dog_342708",
    "link_img": "https://live.staticflickr.com/65535/50020283431_5f44382664_o.jpg",
    "id_image": "Dog_342708",
    "count_view": 0
  },
  {
    "link_thumb": "https://live.staticflickr.com/65535/50016843396_5397cd57b8_n.jpg",
    "id_album": "-834314226",
    "description": "ArcticFox_346941",
    "title": "ArcticFox_346941",
    "link_img": "https://live.staticflickr.com/65535/50016843396_74a7ca4a20_o.jpg",
    "id_image": "ArcticFox_346941",
    "count_view": 0
  },
  {
    "link_thumb": "https://live.staticflickr.com/65535/50017553536_cc86746d43_n.jpg",
    "id_album": "-401151552",
    "description": "Butterfly_263893",
    "title": "Butterfly_263893",
    "link_img": "https://live.staticflickr.com/65535/50017553536_34c33847c6_o.jpg",
    "id_image": "Butterfly_263893",
    "count_view": 0
  },
  {
    "link_thumb": "https://live.staticflickr.com/65535/50021306536_56067ec33d_n.jpg",
    "id_album": "-405626519",
    "description": "GermanShepherd_875893",
    "title": "GermanShepherd_875893",
    "link_img": "https://live.staticflickr.com/65535/50021306536_9f3439f7c4_o.jpg",
    "id_image": "GermanShepherd_875893",
    "count_view": 0
  },
  {
    "link_thumb": "https://live.staticflickr.com/65535/50017830592_52120bea4f_n.jpg",
    "id_album": "-401151552",
    "description": "Butterfly_358461",
    "title": "Butterfly_358461",
    "link_img": "https://live.staticflickr.com/65535/50017830592_dbd8bff018_o.jpg",
    "id_image": "Butterfly_358461",
    "count_view": 0
  },
  {
    "link_thumb": "https://live.staticflickr.com/65535/50021988126_fdb0325e9a_n.jpg",
    "id_album": "416744915",
    "description": "Lion_311719",
    "title": "Lion_311719",
    "link_img": "https://live.staticflickr.com/65535/50021988126_1274d13035_o.jpg",
    "id_image": "Lion_311719",
    "count_view": 0
  },
  {
    "link_thumb": "https://live.staticflickr.com/65535/50019772032_0323a4a6b3_n.jpg",
    "id_album": "-462831703",
    "description": "Cat_952272",
    "title": "Cat_952272",
    "link_img": "https://live.staticflickr.com/65535/50019772032_ec96400859_o.jpg",
    "id_image": "Cat_952272",
    "count_view": 0
  },
  {
    "link_thumb": "https://live.staticflickr.com/65535/50017328451_3913baf100_n.jpg",
    "id_album": "-1846011410",
    "description": "Bird_430242",
    "title": "Bird_430242",
    "link_img": "https://live.staticflickr.com/65535/50017328451_6312f2d347_o.jpg",
    "id_image": "Bird_430242",
    "count_view": 0
  },
  {
    "link_thumb": "https://live.staticflickr.com/65535/50018739003_7b9e6edf82_n.jpg",
    "id_album": "-462831704",
    "description": "Cat_510080",
    "title": "Cat_510080",
    "link_img": "https://live.staticflickr.com/65535/50018739003_e53fd52c44_o.jpg",
    "id_image": "Cat_510080",
    "count_view": 0
  },
  {
    "link_thumb": "https://live.staticflickr.com/65535/50018060311_712e05e1e8_n.jpg",
    "id_album": "-462831702",
    "description": "Cat_362874",
    "title": "Cat_362874",
    "link_img": "https://live.staticflickr.com/65535/50018060311_18773f56cf_o.jpg",
    "id_image": "Cat_362874",
    "count_view": 0
  },
  {
    "link_thumb": "https://live.staticflickr.com/65535/50017336431_76ed4c1395_n.jpg",
    "id_album": "-1846011410",
    "description": "Bird_439424",
    "title": "Bird_439424",
    "link_img": "https://live.staticflickr.com/65535/50017336431_8e10ed7b02_o.jpg",
    "id_image": "Bird_439424",
    "count_view": 0
  },
  {
    "link_thumb": "https://live.staticflickr.com/65535/50020211313_0c57ae613a_n.jpg",
    "id_album": "1270947998",
    "description": "Elephant_344812",
    "title": "Elephant_344812",
    "link_img": "https://live.staticflickr.com/65535/50020211313_81c75ee2de_o.jpg",
    "id_image": "Elephant_344812",
    "count_view": 0
  },
  {
    "link_thumb": "https://live.staticflickr.com/65535/50020921637_53f104311a_n.jpg",
    "id_album": "1168627767",
    "description": "Duck_595656",
    "title": "Duck_595656",
    "link_img": "https://live.staticflickr.com/65535/50020921637_582de1d993_o.jpg",
    "id_image": "Duck_595656",
    "count_view": 0
  },
  {
    "link_thumb": "https://live.staticflickr.com/65535/50020389482_a98f87caa3_n.jpg",
    "id_album": "-149330232",
    "description": "Dog_177028",
    "title": "Dog_177028",
    "link_img": "https://live.staticflickr.com/65535/50020389482_653707592e_o.jpg",
    "id_image": "Dog_177028",
    "count_view": 0
  },
  {
    "link_thumb": "https://live.staticflickr.com/65535/50021900212_ebe93ab45f_n.jpg",
    "id_album": "-737856092",
    "description": "Iguana_346907",
    "title": "Iguana_346907",
    "link_img": "https://live.staticflickr.com/65535/50021900212_661e552d60_o.jpg",
    "id_image": "Iguana_346907",
    "count_view": 0
  },
  {
    "link_thumb": "https://live.staticflickr.com/65535/50017579161_be6f8a8aa7_n.jpg",
    "id_album": "-401151552",
    "description": "Butterfly_385761",
    "title": "Butterfly_385761",
    "link_img": "https://live.staticflickr.com/65535/50017579161_8cd8901511_o.jpg",
    "id_image": "Butterfly_385761",
    "count_view": 0
  },
  {
    "link_thumb": "https://live.staticflickr.com/65535/50024469212_6819ba596a_n.jpg",
    "id_album": "405170427",
    "description": "Tiger_770961",
    "title": "Tiger_770961",
    "link_img": "https://live.staticflickr.com/65535/50024469212_a1a2ce5222_o.jpg",
    "id_image": "Tiger_770961",
    "count_view": 0
  },
  {
    "link_thumb": "https://live.staticflickr.com/65535/50017620371_5594c70f8a_n.jpg",
    "id_album": "-401151552",
    "description": "Butterfly_528324",
    "title": "Butterfly_528324",
    "link_img": "https://live.staticflickr.com/65535/50017620371_392fe98652_o.jpg",
    "id_image": "Butterfly_528324",
    "count_view": 0
  },
  {
    "link_thumb": "https://live.staticflickr.com/65535/50017514003_a39e24deed_n.jpg",
    "id_album": "-462831702",
    "description": "Cat_355109",
    "title": "Cat_355109",
    "link_img": "https://live.staticflickr.com/65535/50017514003_1f45cd34ac_o.jpg",
    "id_image": "Cat_355109",
    "count_view": 0
  },
  {
    "link_thumb": "https://live.staticflickr.com/65535/50023035076_070bcb67cd_n.jpg",
    "id_album": "-353898617",
    "description": "Puppy_591924",
    "title": "Puppy_591924",
    "link_img": "https://live.staticflickr.com/65535/50023035076_6134090e0e_o.jpg",
    "id_image": "Puppy_591924",
    "count_view": 0
  },
  {
    "link_thumb": "https://live.staticflickr.com/65535/50017053548_6c285bbb42_n.jpg",
    "id_album": "-401151552",
    "description": "Butterfly_386780",
    "title": "Butterfly_386780",
    "link_img": "https://live.staticflickr.com/65535/50017053548_cc71f17c44_o.jpg",
    "id_image": "Butterfly_386780",
    "count_view": 0
  },
  {
    "link_thumb": "https://live.staticflickr.com/65535/50020420751_d3133a4118_n.jpg",
    "id_album": "-149330231",
    "description": "Dog_453382",
    "title": "Dog_453382",
    "link_img": "https://live.staticflickr.com/65535/50020420751_ff1235efa3_o.jpg",
    "id_image": "Dog_453382",
    "count_view": 0
  },
  {
    "link_thumb": "https://live.staticflickr.com/65535/50017389488_f35e1a3402_n.jpg",
    "id_album": "-462831705",
    "description": "Cat_26499",
    "title": "Cat_26499",
    "link_img": "https://live.staticflickr.com/65535/50017389488_d52fee2ee0_o.jpg",
    "id_image": "Cat_26499",
    "count_view": 0
  },
  {
    "link_thumb": "https://live.staticflickr.com/65535/50020587743_9fa302d897_n.jpg",
    "id_album": "-462831704",
    "description": "Cat_592472",
    "title": "Cat_592472",
    "link_img": "https://live.staticflickr.com/65535/50020587743_190d08f336_o.jpg",
    "id_image": "Cat_592472",
    "count_view": 0
  },
  {
    "link_thumb": "https://live.staticflickr.com/65535/50016506603_249a792fe1_n.jpg",
    "id_album": "-422187261",
    "description": "Bear_363632",
    "title": "Bear_363632",
    "link_img": "https://live.staticflickr.com/65535/50016506603_4fa434467a_o.jpg",
    "id_image": "Bear_363632",
    "count_view": 0
  },
  {
    "link_thumb": "https://live.staticflickr.com/65535/50021445631_d35020c91d_n.jpg",
    "id_album": "54253492",
    "description": "Heron_597274",
    "title": "Heron_597274",
    "link_img": "https://live.staticflickr.com/65535/50021445631_8d9fcc0b14_o.jpg",
    "id_image": "Heron_597274",
    "count_view": 0
  },
  {
    "link_thumb": "https://live.staticflickr.com/65535/50021185142_b8d5e987a7_n.jpg",
    "id_album": "-1694105481",
    "description": "Fly_926089",
    "title": "Fly_926089",
    "link_img": "https://live.staticflickr.com/65535/50021185142_18640a2a84_o.jpg",
    "id_image": "Fly_926089",
    "count_view": 0
  },
  {
    "link_thumb": "https://live.staticflickr.com/65535/50351868608_373d1f2713_n.jpg",
    "id_album": "-462831703",
    "description": "Cat_494104",
    "title": "Cat_494104",
    "link_img": "https://live.staticflickr.com/65535/50351868608_f61ab3fd2b_o.jpg",
    "id_image": "Cat_494104",
    "count_view": 0
  },
  {
    "link_thumb": "https://live.staticflickr.com/65535/50024418067_8bb858ffa0_n.jpg",
    "id_album": "405170427",
    "description": "Tiger_543447",
    "title": "Tiger_543447",
    "link_img": "https://live.staticflickr.com/65535/50024418067_2718c17ee3_o.jpg",
    "id_image": "Tiger_543447",
    "count_view": 0
  },
  {
    "link_thumb": "https://live.staticflickr.com/65535/50021354787_5ca238e1fc_n.jpg",
    "id_album": "-462831704",
    "description": "Cat_543681",
    "title": "Cat_543681",
    "link_img": "https://live.staticflickr.com/65535/50021354787_1f847dfaf2_o.jpg",
    "id_image": "Cat_543681",
    "count_view": 0
  },
  {
    "link_thumb": "https://live.staticflickr.com/65535/50022045087_b1858cfda0_n.jpg",
    "id_album": "-649286029",
    "description": "Kangaroo_174616",
    "title": "Kangaroo_174616",
    "link_img": "https://live.staticflickr.com/65535/50022045087_304095e83b_o.jpg",
    "id_image": "Kangaroo_174616",
    "count_view": 0
  },
  {
    "link_thumb": "https://live.staticflickr.com/65535/50016513133_821950d036_n.jpg",
    "id_album": "-422187261",
    "description": "Bear_396668",
    "title": "Bear_396668",
    "link_img": "https://live.staticflickr.com/65535/50016513133_53664363b0_o.jpg",
    "id_image": "Bear_396668",
    "count_view": 0
  },
  {
    "link_thumb": "https://live.staticflickr.com/65535/50021601582_14c74f454b_n.jpg",
    "id_album": "2060159334",
    "description": "GoldenRetriever_393373",
    "title": "GoldenRetriever_393373",
    "link_img": "https://live.staticflickr.com/65535/50021601582_fd4eb21699_o.jpg",
    "id_image": "GoldenRetriever_393373",
    "count_view": 0
  },
  {
    "link_thumb": "https://live.staticflickr.com/65535/50019738163_a62cbd5c82_n.jpg",
    "id_album": "-149330232",
    "description": "Dog_337143",
    "title": "Dog_337143",
    "link_img": "https://live.staticflickr.com/65535/50019738163_621ee3f3ca_o.jpg",
    "id_image": "Dog_337143",
    "count_view": 0
  },
  {
    "link_thumb": "https://live.staticflickr.com/65535/50017823057_ba5e5543c6_n.jpg",
    "id_album": "-401151552",
    "description": "Butterfly_326778",
    "title": "Butterfly_326778",
    "link_img": "https://live.staticflickr.com/65535/50017823057_1536c9bdd5_o.jpg",
    "id_image": "Butterfly_326778",
    "count_view": 0
  },
  {
    "link_thumb": "https://live.staticflickr.com/65535/50019571738_87ce0413b0_n.jpg",
    "id_album": "297232732",
    "description": "Dinosaur_739322",
    "title": "Dinosaur_739322",
    "link_img": "https://live.staticflickr.com/65535/50019571738_7951076a7c_o.jpg",
    "id_image": "Dinosaur_739322",
    "count_view": 0
  },
  {
    "link_thumb": "https://live.staticflickr.com/65535/50351944468_8d4400d907_n.jpg",
    "id_album": "-462831703",
    "description": "Cat_679545",
    "title": "Cat_679545",
    "link_img": "https://live.staticflickr.com/65535/50351944468_6ee451a4b5_o.jpg",
    "id_image": "Cat_679545",
    "count_view": 0
  },
  {
    "link_thumb": "https://live.staticflickr.com/65535/50021626337_1798d25440_n.jpg",
    "id_album": "2060159334",
    "description": "GoldenRetriever_943833",
    "title": "GoldenRetriever_943833",
    "link_img": "https://live.staticflickr.com/65535/50021626337_034e03f500_o.jpg",
    "id_image": "GoldenRetriever_943833",
    "count_view": 0
  },
  {
    "link_thumb": "https://live.staticflickr.com/65535/50022126982_fde7ece9b3_n.jpg",
    "id_album": "1918884325",
    "description": "Lemur_276184",
    "title": "Lemur_276184",
    "link_img": "https://live.staticflickr.com/65535/50022126982_b8040d5f07_o.jpg",
    "id_image": "Lemur_276184",
    "count_view": 0
  }
]