[
  {
    "link_thumb": "https://live.staticflickr.com/65535/50021338406_3eb9255911_n.jpg",
    "id_album": "-804131074",
    "description": "Goat_289215",
    "title": "Goat_289215",
    "link_img": "https://live.staticflickr.com/65535/50021338406_a581e04cc7_o.jpg",
    "id_image": "Goat_289215",
    "count_view": 0
  },
  {
    "link_thumb": "https://live.staticflickr.com/65535/50022874102_efefaedf05_n.jpg",
    "id_album": "1146438617",
    "description": "Pelican_351541",
    "title": "Pelican_351541",
    "link_img": "https://live.staticflickr.com/65535/50022874102_f01832df00_o.jpg",
    "id_image": "Pelican_351541",
    "count_view": 0
  },
  {
    "link_thumb": "https://live.staticflickr.com/65535/50019528171_69cf83da06_n.jpg",
    "id_album": "-462831705",
    "description": "Cat_96311",
    "title": "Cat_96311",
    "link_img": "https://live.staticflickr.com/65535/50019528171_c0c20a743b_o.jpg",
    "id_image": "Cat_96311",
    "count_view": 0
  },
  {
    "link_thumb": "https://live.staticflickr.com/65535/50019927952_320068bd3c_n.jpg",
    "id_album": "-766919393",
    "description": "Chameleon_865691",
    "title": "Chameleon_865691",
    "link_img": "https://live.staticflickr.com/65535/50019927952_c9abc33ee1_o.jpg",
    "id_image": "Chameleon_865691",
    "count_view": 0
  },
  {
    "link_thumb": "https://live.staticflickr.com/65535/50020710503_8bf93af3b7_n.jpg",
    "id_album": "-462831703",
    "description": "Cat_792713",
    "title": "Cat_792713",
    "link_img": "https://live.staticflickr.com/65535/50020710503_ee520ab915_o.jpg",
    "id_image": "Cat_792713",
    "count_view": 0
  },
  {
    "link_thumb": "https://live.staticflickr.com/65535/50352602056_57fded3438_n.jpg",
    "id_album": "-462831703",
    "description": "Cat_548987",
    "title": "Cat_548987",
    "link_img": "https://live.staticflickr.com/65535/50352602056_01ea2c20e7_o.jpg",
    "id_image": "Cat_548987",
    "count_view": 0
  },
  {
    "link_thumb": "https://live.staticflickr.com/65535/50018693473_5e585d0b26_n.jpg",
    "id_album": "-462831704",
    "description": "Cat_454163",
    "title": "Cat_454163",
    "link_img": "https://live.staticflickr.com/65535/50018693473_8101381585_o.jpg",
    "id_image": "Cat_454163",
    "count_view": 0
  },
  {
    "link_thumb": "https://live.staticflickr.com/65535/50019925332_df195b3cb9_n.jpg",
    "id_album": "-766919393",
    "description": "Chameleon_831467",
    "title": "Chameleon_831467",
    "link_img": "https://live.staticflickr.com/65535/50019925332_fb291cbd47_o.jpg",
    "id_image": "Chameleon_831467",
    "count_view": 0
  },
  {
    "link_thumb": "https://live.staticflickr.com/65535/50024507127_ff6dd82f61_n.jpg",
    "id_album": "405170427",
    "description": "Tiger_942846",
    "title": "Tiger_942846",
    "link_img": "https://live.staticflickr.com/65535/50024507127_c882267eea_o.jpg",
    "id_image": "Tiger_942846",
    "count_view": 0
  },
  {
    "link_thumb": "https://live.staticflickr.com/65535/50016996126_f2beaa48d4_n.jpg",
    "id_album": "809937717",
    "description": "Beagle_811853",
    "title": "Beagle_811853",
    "link_img": "https://live.staticflickr.com/65535/50016996126_af15187232_o.jpg",
    "id_image": "Beagle_811853",
    "count_view": 0
  },
  {
    "link_thumb": "https://live.staticflickr.com/65535/50021410758_004d7252ef_n.jpg",
    "id_album": "1392348450",
    "description": "Leopard_858372",
    "title": "Leopard_858372",
    "link_img": "https://live.staticflickr.com/65535/50021410758_23da205e69_o.jpg",
    "id_image": "Leopard_858372",
    "count_view": 0
  },
  {
    "link_thumb": "https://live.staticflickr.com/65535/50020414751_36397261c9_n.jpg",
    "id_album": "-149330231",
    "description": "Dog_438505",
    "title": "Dog_438505",
    "link_img": "https://live.staticflickr.com/65535/50020414751_67cf713ded_o.jpg",
    "id_image": "Dog_438505",
    "count_view": 0
  },
  {
    "link_thumb": "https://live.staticflickr.com/65535/50022228642_b3b91be1d2_n.jpg",
    "id_album": "416744915",
    "description": "Lion_193524",
    "title": "Lion_193524",
    "link_img": "https://live.staticflickr.com/65535/50022228642_72d791db57_o.jpg",
    "id_image": "Lion_193524",
    "count_view": 0
  },
  {
    "link_thumb": "https://live.staticflickr.com/65535/50019344398_73d50909af_n.jpg",
    "id_album": "815329026",
    "description": "Crab_276157",
    "title": "Crab_276157",
    "link_img": "https://live.staticflickr.com/65535/50019344398_954d80b1e8_o.jpg",
    "id_image": "Crab_276157",
    "count_view": 0
  },
  {
    "link_thumb": "https://live.staticflickr.com/65535/50021013366_3856975ca4_n.jpg",
    "id_album": "-128218148",
    "description": "Fox_852604",
    "title": "Fox_852604",
    "link_img": "https://live.staticflickr.com/65535/50021013366_347523f1f2_o.jpg",
    "id_image": "Fox_852604",
    "count_view": 0
  },
  {
    "link_thumb": "https://live.staticflickr.com/65535/50351920338_4f57dfa514_n.jpg",
    "id_album": "-462831703",
    "description": "Cat_592869",
    "title": "Cat_592869",
    "link_img": "https://live.staticflickr.com/65535/50351920338_4c97aac8f4_o.jpg",
    "id_image": "Cat_592869",
    "count_view": 0
  },
  {
    "link_thumb": "https://live.staticflickr.com/65535/50019475283_1bf44fc285_n.jpg",
    "id_album": "1903411565",
    "description": "Deer_406090",
    "title": "Deer_406090",
    "link_img": "https://live.staticflickr.com/65535/50019475283_0fe4d976bf_o.jpg",
    "id_image": "Deer_406090",
    "count_view": 0
  },
  {
    "link_thumb": "https://live.staticflickr.com/65535/50020543577_e164d00f8f_n.jpg",
    "id_album": "-149330232",
    "description": "Dog_343412",
    "title": "Dog_343412",
    "link_img": "https://live.staticflickr.com/65535/50020543577_fa6697df39_o.jpg",
    "id_image": "Dog_343412",
    "count_view": 0
  },
  {
    "link_thumb": "https://live.staticflickr.com/65535/50020907972_6729b4a4d8_n.jpg",
    "id_album": "1168627767",
    "description": "Duck_341081",
    "title": "Duck_341081",
    "link_img": "https://live.staticflickr.com/65535/50020907972_cb2a7c318c_o.jpg",
    "id_image": "Duck_341081",
    "count_view": 0
  },
  {
    "link_thumb": "https://live.staticflickr.com/65535/50022637197_4d76b6b848_n.jpg",
    "id_album": "-1384601601",
    "description": "Owl_191495",
    "title": "Owl_191495",
    "link_img": "https://live.staticflickr.com/65535/50022637197_84f043e26b_o.jpg",
    "id_image": "Owl_191495",
    "count_view": 0
  },
  {
    "link_thumb": "https://live.staticflickr.com/65535/50022769767_dfb0994204_n.jpg",
    "id_album": "-1384601601",
    "description": "Owl_977322",
    "title": "Owl_977322",
    "link_img": "https://live.staticflickr.com/65535/50022769767_23b5f1b901_o.jpg",
    "id_image": "Owl_977322",
    "count_view": 0
  },
  {
    "link_thumb": "https://live.staticflickr.com/65535/50023127488_d9f99efa96_n.jpg",
    "id_album": "-1131363127",
    "description": "SnowLeopard_770980",
    "title": "SnowLeopard_770980",
    "link_img": "https://live.staticflickr.com/65535/50023127488_70d33c74ea_o.jpg",
    "id_image": "SnowLeopard_770980",
    "count_view": 0
  },
  {
    "link_thumb": "https://live.staticflickr.com/65535/50017806432_512f5b91ed_n.jpg",
    "id_album": "-401151552",
    "description": "Butterfly_217950",
    "title": "Butterfly_217950",
    "link_img": "https://live.staticflickr.com/65535/50017806432_768fcf28f0_o.jpg",
    "id_image": "Butterfly_217950",
    "count_view": 0
  },
  {
    "link_thumb": "https://live.staticflickr.com/65535/50016898578_167d4886d8_n.jpg",
    "id_album": "-1846011410",
    "description": "Bird_785282",
    "title": "Bird_785282",
    "link_img": "https://live.staticflickr.com/65535/50016898578_208f85a285_o.jpg",
    "id_image": "Bird_785282",
    "count_view": 0
  },
  {
    "link_thumb": "https://live.staticflickr.com/65535/50023101746_38ec475081_n.jpg",
    "id_album": "-1940643173",
    "description": "Rabbit_380902",
    "title": "Rabbit_380902",
    "link_img": "https://live.staticflickr.com/65535/50023101746_d04be7b1f6_o.jpg",
    "id_image": "Rabbit_380902",
    "count_view": 0
  },
  {
    "link_thumb": "https://live.staticflickr.com/65535/50022605711_f879151634_n.jpg",
    "id_album": "-801414987",
    "description": "Peacock_817938",
    "title": "Peacock_817938",
    "link_img": "https://live.staticflickr.com/65535/50022605711_8e627c215f_o.jpg",
    "id_image": "Peacock_817938",
    "count_view": 0
  },
  {
    "link_thumb": "https://live.staticflickr.com/65535/50017150892_f141686b71_n.jpg",
    "id_album": "523598895",
    "description": "Artistic_278540",
    "title": "Artistic_278540",
    "link_img": "https://live.staticflickr.com/65535/50017150892_f283fbdfcd_o.jpg",
    "id_image": "Artistic_278540",
    "count_view": 0
  },
  {
    "link_thumb": "https://live.staticflickr.com/65535/50018194692_2b48cf699b_n.jpg",
    "id_album": "-462831702",
    "description": "Cat_278322",
    "title": "Cat_278322",
    "link_img": "https://live.staticflickr.com/65535/50018194692_07aa555ea7_o.jpg",
    "id_image": "Cat_278322",
    "count_view": 0
  },
  {
    "link_thumb": "https://live.staticflickr.com/65535/50020984146_c05797751a_n.jpg",
    "id_album": "-128218148",
    "description": "Fox_653423",
    "title": "Fox_653423",
    "link_img": "https://live.staticflickr.com/65535/50020984146_d4925052fa_o.jpg",
    "id_image": "Fox_653423",
    "count_view": 0
  },
  {
    "link_thumb": "https://live.staticflickr.com/65535/50021060536_87f06755e2_n.jpg",
    "id_album": "844170697",
    "description": "Frog_397657",
    "title": "Frog_397657",
    "link_img": "https://live.staticflickr.com/65535/50021060536_f8999212da_o.jpg",
    "id_image": "Frog_397657",
    "count_view": 0
  },
  {
    "link_thumb": "https://live.staticflickr.com/65535/50021413633_5f7511c185_n.jpg",
    "id_album": "1392348450",
    "description": "Leopard_89302",
    "title": "Leopard_89302",
    "link_img": "https://live.staticflickr.com/65535/50021413633_98693bcf78_o.jpg",
    "id_image": "Leopard_89302",
    "count_view": 0
  },
  {
    "link_thumb": "https://live.staticflickr.com/65535/50019709548_88f774838d_n.jpg",
    "id_album": "-149330232",
    "description": "Dog_323420",
    "title": "Dog_323420",
    "link_img": "https://live.staticflickr.com/65535/50019709548_741a70df5b_o.jpg",
    "id_image": "Dog_323420",
    "count_view": 0
  },
  {
    "link_thumb": "https://live.staticflickr.com/65535/50019880216_d49ab9fde6_n.jpg",
    "id_album": "815329026",
    "description": "Crab_511029",
    "title": "Crab_511029",
    "link_img": "https://live.staticflickr.com/65535/50019880216_ec3cae0579_o.jpg",
    "id_image": "Crab_511029",
    "count_view": 0
  },
  {
    "link_thumb": "https://live.staticflickr.com/65535/50021910397_8d06525e5b_n.jpg",
    "id_album": "-737856092",
    "description": "Iguana_886704",
    "title": "Iguana_886704",
    "link_img": "https://live.staticflickr.com/65535/50021910397_35a0443c82_o.jpg",
    "id_image": "Iguana_886704",
    "count_view": 0
  },
  {
    "link_thumb": "https://live.staticflickr.com/65535/50022564307_a394393db9_n.jpg",
    "id_album": "1015034486",
    "description": "Muteswan_149915",
    "title": "Muteswan_149915",
    "link_img": "https://live.staticflickr.com/65535/50022564307_e684525f0a_o.jpg",
    "id_image": "Muteswan_149915",
    "count_view": 0
  },
  {
    "link_thumb": "https://live.staticflickr.com/65535/50019179513_cb448f8722_n.jpg",
    "id_album": "-1481843714",
    "description": "Cheetah_439885",
    "title": "Cheetah_439885",
    "link_img": "https://live.staticflickr.com/65535/50019179513_a05ff8b204_o.jpg",
    "id_image": "Cheetah_439885",
    "count_view": 0
  },
  {
    "link_thumb": "https://live.staticflickr.com/65535/50021918416_9fcb418741_n.jpg",
    "id_album": "1392348450",
    "description": "Leopard_396306",
    "title": "Leopard_396306",
    "link_img": "https://live.staticflickr.com/65535/50021918416_d0599af3b6_o.jpg",
    "id_image": "Leopard_396306",
    "count_view": 0
  },
  {
    "link_thumb": "https://live.staticflickr.com/65535/50021230222_f86ab71285_n.jpg",
    "id_album": "-128218148",
    "description": "Fox_556308",
    "title": "Fox_556308",
    "link_img": "https://live.staticflickr.com/65535/50021230222_baf3161636_o.jpg",
    "id_image": "Fox_556308",
    "count_view": 0
  },
  {
    "link_thumb": "https://live.staticflickr.com/65535/50020513666_09e265d643_n.jpg",
    "id_album": "-149330232",
    "description": "Dog_7873",
    "title": "Dog_7873",
    "link_img": "https://live.staticflickr.com/65535/50020513666_fd62e33900_o.jpg",
    "id_image": "Dog_7873",
    "count_view": 0
  },
  {
    "link_thumb": "https://live.staticflickr.com/65535/50017290706_97c0a6f5b2_n.jpg",
    "id_album": "-1846011410",
    "description": "Bird_384749",
    "title": "Bird_384749",
    "link_img": "https://live.staticflickr.com/65535/50017290706_9ecfac87bc_o.jpg",
    "id_image": "Bird_384749",
    "count_view": 0
  },
  {
    "link_thumb": "https://live.staticflickr.com/65535/50020235103_9f8e293d7a_n.jpg",
    "id_album": "1270947998",
    "description": "Elephant_565134",
    "title": "Elephant_565134",
    "link_img": "https://live.staticflickr.com/65535/50020235103_c0a62379c3_o.jpg",
    "id_image": "Elephant_565134",
    "count_view": 0
  },
  {
    "link_thumb": "https://live.staticflickr.com/65535/50018145392_1e0b1eb8a8_n.jpg",
    "id_album": "-462831705",
    "description": "Cat_236374",
    "title": "Cat_236374",
    "link_img": "https://live.staticflickr.com/65535/50018145392_7d44742fc6_o.jpg",
    "id_image": "Cat_236374",
    "count_view": 0
  },
  {
    "link_thumb": "https://live.staticflickr.com/65535/50020664302_f6968afe20_n.jpg",
    "id_album": "-149330231",
    "description": "Dog_428345",
    "title": "Dog_428345",
    "link_img": "https://live.staticflickr.com/65535/50020664302_fce7166d7b_o.jpg",
    "id_image": "Dog_428345",
    "count_view": 0
  },
  {
    "link_thumb": "https://live.staticflickr.com/65535/50021146231_32e661a85b_n.jpg",
    "id_album": "-462831704",
    "description": "Cat_635640",
    "title": "Cat_635640",
    "link_img": "https://live.staticflickr.com/65535/50021146231_a1ba54ed48_o.jpg",
    "id_image": "Cat_635640",
    "count_view": 0
  },
  {
    "link_thumb": "https://live.staticflickr.com/65535/50351768533_de7c906bd9_n.jpg",
    "id_album": "-462831703",
    "description": "Cat_363039",
    "title": "Cat_363039",
    "link_img": "https://live.staticflickr.com/65535/50351768533_ea385bf4cc_o.jpg",
    "id_image": "Cat_363039",
    "count_view": 0
  },
  {
    "link_thumb": "https://live.staticflickr.com/65535/50020824233_cd585a9d34_n.jpg",
    "id_album": "2060159334",
    "description": "GoldenRetriever_895816",
    "title": "GoldenRetriever_895816",
    "link_img": "https://live.staticflickr.com/65535/50020824233_415144e12c_o.jpg",
    "id_image": "GoldenRetriever_895816",
    "count_view": 0
  },
  {
    "link_thumb": "https://live.staticflickr.com/65535/50023655797_9fd3ef862f_n.jpg",
    "id_album": "1961094930",
    "description": "Seal_235844",
    "title": "Seal_235844",
    "link_img": "https://live.staticflickr.com/65535/50023655797_e5d73a1769_o.jpg",
    "id_image": "Seal_235844",
    "count_view": 0
  },
  {
    "link_thumb": "https://live.staticflickr.com/65535/50017127693_6b8cf4cfb3_n.jpg",
    "id_album": "-401151552",
    "description": "Butterfly_718929",
    "title": "Butterfly_718929",
    "link_img": "https://live.staticflickr.com/65535/50017127693_6d21e53d11_o.jpg",
    "id_image": "Butterfly_718929",
    "count_view": 0
  },
  {
    "link_thumb": "https://live.staticflickr.com/65535/50021647861_0fb851e8c3_n.jpg",
    "id_album": "-737856092",
    "description": "Iguana_350868",
    "title": "Iguana_350868",
    "link_img": "https://live.staticflickr.com/65535/50021647861_b88ed2b779_o.jpg",
    "id_image": "Iguana_350868",
    "count_view": 0
  },
  {
    "link_thumb": "https://live.staticflickr.com/65535/50022166832_e7ac562c5a_n.jpg",
    "id_album": "1392348450",
    "description": "Leopard_369598",
    "title": "Leopard_369598",
    "link_img": "https://live.staticflickr.com/65535/50022166832_2615d6d0f4_o.jpg",
    "id_image": "Leopard_369598",
    "count_view": 0
  },
  {
    "link_thumb": "https://live.staticflickr.com/65535/50017427431_90c168d247_n.jpg",
    "id_album": "-1846011410",
    "description": "Bird_808240",
    "title": "Bird_808240",
    "link_img": "https://live.staticflickr.com/65535/50017427431_14047cd062_o.jpg",
    "id_image": "Bird_808240",
    "count_view": 0
  },
  {
    "link_thumb": "https://live.staticflickr.com/65535/50020744737_ea17c4fe15_n.jpg",
    "id_album": "-149330231",
    "description": "Dog_707651",
    "title": "Dog_707651",
    "link_img": "https://live.staticflickr.com/65535/50020744737_d7b0c6423b_o.jpg",
    "id_image": "Dog_707651",
    "count_view": 0
  },
  {
    "link_thumb": "https://live.staticflickr.com/65535/50020203016_e0859376e4_n.jpg",
    "id_album": "-149330232",
    "description": "Dog_272127",
    "title": "Dog_272127",
    "link_img": "https://live.staticflickr.com/65535/50020203016_804c964049_o.jpg",
    "id_image": "Dog_272127",
    "count_view": 0
  },
  {
    "link_thumb": "https://live.staticflickr.com/65535/50022600142_08f19e5e85_n.jpg",
    "id_album": "1015034486",
    "description": "Muteswan_865342",
    "title": "Muteswan_865342",
    "link_img": "https://live.staticflickr.com/65535/50022600142_7e1d57f8c9_o.jpg",
    "id_image": "Muteswan_865342",
    "count_view": 0
  },
  {
    "link_thumb": "https://live.staticflickr.com/65535/50021916152_87fb47dd32_n.jpg",
    "id_album": "1658866795",
    "description": "Insect_316313",
    "title": "Insect_316313",
    "link_img": "https://live.staticflickr.com/65535/50021916152_69b3948f12_o.jpg",
    "id_image": "Insect_316313",
    "count_view": 0
  },
  {
    "link_thumb": "https://live.staticflickr.com/65535/50018094761_b2c4135171_n.jpg",
    "id_album": "-462831702",
    "description": "Cat_372143",
    "title": "Cat_372143",
    "link_img": "https://live.staticflickr.com/65535/50018094761_46b9ab7203_o.jpg",
    "id_image": "Cat_372143",
    "count_view": 0
  },
  {
    "link_thumb": "https://live.staticflickr.com/65535/50023142886_b8160d5e76_n.jpg",
    "id_album": "248289288",
    "description": "Raccoon_339820",
    "title": "Raccoon_339820",
    "link_img": "https://live.staticflickr.com/65535/50023142886_793f3db57b_o.jpg",
    "id_image": "Raccoon_339820",
    "count_view": 0
  },
  {
    "link_thumb": "https://live.staticflickr.com/65535/50019367918_743f474275_n.jpg",
    "id_album": "1475096665",
    "description": "Crocodile_753958",
    "title": "Crocodile_753958",
    "link_img": "https://live.staticflickr.com/65535/50019367918_440ae1f68c_o.jpg",
    "id_image": "Crocodile_753958",
    "count_view": 0
  },
  {
    "link_thumb": "https://live.staticflickr.com/65535/50016972351_834890f675_n.jpg",
    "id_album": "231236068",
    "description": "BaldEagle_913438",
    "title": "BaldEagle_913438",
    "link_img": "https://live.staticflickr.com/65535/50016972351_cb41344edc_o.jpg",
    "id_image": "BaldEagle_913438",
    "count_view": 0
  },
  {
    "link_thumb": "https://live.staticflickr.com/65535/50017862977_1051c21316_n.jpg",
    "id_album": "-401151552",
    "description": "Butterfly_453825",
    "title": "Butterfly_453825",
    "link_img": "https://live.staticflickr.com/65535/50017862977_d71337ecba_o.jpg",
    "id_image": "Butterfly_453825",
    "count_view": 0
  },
  {
    "link_thumb": "https://live.staticflickr.com/65535/50022166216_fde3e9b8e0_n.jpg",
    "id_album": "1894617400",
    "description": "Lynx_902175",
    "title": "Lynx_902175",
    "link_img": "https://live.staticflickr.com/65535/50022166216_08f9644597_o.jpg",
    "id_image": "Lynx_902175",
    "count_view": 0
  },
  {
    "link_thumb": "https://live.staticflickr.com/65535/50021257412_da05c05e4c_n.jpg",
    "id_album": "-128218148",
    "description": "Fox_785784",
    "title": "Fox_785784",
    "link_img": "https://live.staticflickr.com/65535/50021257412_7a10cd12ea_o.jpg",
    "id_image": "Fox_785784",
    "count_view": 0
  },
  {
    "link_thumb": "https://live.staticflickr.com/65535/50022221557_54e002dddf_n.jpg",
    "id_album": "1392348450",
    "description": "Leopard_995839",
    "title": "Leopard_995839",
    "link_img": "https://live.staticflickr.com/65535/50022221557_1eaecf447e_o.jpg",
    "id_image": "Leopard_995839",
    "count_view": 0
  },
  {
    "link_thumb": "https://live.staticflickr.com/65535/50019299356_bd5f3f6cc4_n.jpg",
    "id_album": "-462831704",
    "description": "Cat_532998",
    "title": "Cat_532998",
    "link_img": "https://live.staticflickr.com/65535/50019299356_f002b54e3d_o.jpg",
    "id_image": "Cat_532998",
    "count_view": 0
  },
  {
    "link_thumb": "https://live.staticflickr.com/65535/50351956463_0d554d12fd_n.jpg",
    "id_album": "-462831703",
    "description": "Cat_699958",
    "title": "Cat_699958",
    "link_img": "https://live.staticflickr.com/65535/50351956463_65883b3a21_o.jpg",
    "id_image": "Cat_699958",
    "count_view": 0
  },
  {
    "link_thumb": "https://live.staticflickr.com/65535/50017294443_e6b2480537_n.jpg",
    "id_album": "-462831705",
    "description": "Cat_181056",
    "title": "Cat_181056",
    "link_img": "https://live.staticflickr.com/65535/50017294443_0795ff225d_o.jpg",
    "id_image": "Cat_181056",
    "count_view": 0
  },
  {
    "link_thumb": "https://live.staticflickr.com/65535/50018086742_51a333495a_n.jpg",
    "id_album": "-462831705",
    "description": "Cat_181920",
    "title": "Cat_181920",
    "link_img": "https://live.staticflickr.com/65535/50018086742_3ef5191d84_o.jpg",
    "id_image": "Cat_181920",
    "count_view": 0
  },
  {
    "link_thumb": "https://live.staticflickr.com/65535/50019649282_44088da1b4_n.jpg",
    "id_album": "-462831703",
    "description": "Cat_882435",
    "title": "Cat_882435",
    "link_img": "https://live.staticflickr.com/65535/50019649282_6c7fc76c37_o.jpg",
    "id_image": "Cat_882435",
    "count_view": 0
  },
  {
    "link_thumb": "https://live.staticflickr.com/65535/50022126708_62a0e1d5c3_n.jpg",
    "id_album": "1146438617",
    "description": "Pelican_914582",
    "title": "Pelican_914582",
    "link_img": "https://live.staticflickr.com/65535/50022126708_31d68828cd_o.jpg",
    "id_image": "Pelican_914582",
    "count_view": 0
  },
  {
    "link_thumb": "https://live.staticflickr.com/65535/50017589886_5941620382_n.jpg",
    "id_album": "-401151552",
    "description": "Butterfly_419831",
    "title": "Butterfly_419831",
    "link_img": "https://live.staticflickr.com/65535/50017589886_c7e2c028fa_o.jpg",
    "id_image": "Butterfly_419831",
    "count_view": 0
  },
  {
    "link_thumb": "https://live.staticflickr.com/65535/50023272898_555ae658bb_n.jpg",
    "id_album": "702283289",
    "description": "Squirrel_225203",
    "title": "Squirrel_225203",
    "link_img": "https://live.staticflickr.com/65535/50023272898_f5cb10e8d9_o.jpg",
    "id_image": "Squirrel_225203",
    "count_view": 0
  },
  {
    "link_thumb": "https://live.staticflickr.com/65535/50022240837_170c192b2f_n.jpg",
    "id_album": "416744915",
    "description": "Lion_26824",
    "title": "Lion_26824",
    "link_img": "https://live.staticflickr.com/65535/50022240837_88a38e31b6_o.jpg",
    "id_image": "Lion_26824",
    "count_view": 0
  },
  {
    "link_thumb": "https://live.staticflickr.com/65535/50021154676_7d94c9ff43_n.jpg",
    "id_album": "-462831704",
    "description": "Cat_659154",
    "title": "Cat_659154",
    "link_img": "https://live.staticflickr.com/65535/50021154676_883668fb71_o.jpg",
    "id_image": "Cat_659154",
    "count_view": 0
  },
  {
    "link_thumb": "https://live.staticflickr.com/65535/50020565976_7a616034e5_n.jpg",
    "id_album": "-54509188",
    "description": "Dolphin_324909",
    "title": "Dolphin_324909",
    "link_img": "https://live.staticflickr.com/65535/50020565976_c599457ee7_o.jpg",
    "id_image": "Dolphin_324909",
    "count_view": 0
  },
  {
    "link_thumb": "https://live.staticflickr.com/65535/50019397822_5bdedfb977_n.jpg",
    "id_album": "-462831702",
    "description": "Cat_411422",
    "title": "Cat_411422",
    "link_img": "https://live.staticflickr.com/65535/50019397822_79fb10a88a_o.jpg",
    "id_image": "Cat_411422",
    "count_view": 0
  },
  {
    "link_thumb": "https://live.staticflickr.com/65535/50016876526_11f0c1eb1b_n.jpg",
    "id_album": "523598895",
    "description": "Artistic_182558",
    "title": "Artistic_182558",
    "link_img": "https://live.staticflickr.com/65535/50016876526_35c9358b32_o.jpg",
    "id_image": "Artistic_182558",
    "count_view": 0
  },
  {
    "link_thumb": "https://live.staticflickr.com/65535/50020828681_17a77aee9d_n.jpg",
    "id_album": "-1118073211",
    "description": "Fish_237152",
    "title": "Fish_237152",
    "link_img": "https://live.staticflickr.com/65535/50020828681_1c01701dec_o.jpg",
    "id_image": "Fish_237152",
    "count_view": 0
  },
  {
    "link_thumb": "https://live.staticflickr.com/65535/50018696488_1931139c87_n.jpg",
    "id_album": "-462831704",
    "description": "Cat_456740",
    "title": "Cat_456740",
    "link_img": "https://live.staticflickr.com/65535/50018696488_6c14529df6_o.jpg",
    "id_image": "Cat_456740",
    "count_view": 0
  },
  {
    "link_thumb": "https://live.staticflickr.com/65535/50020697111_f061946420_n.jpg",
    "id_album": "-39098563",
    "description": "Eagle_355703",
    "title": "Eagle_355703",
    "link_img": "https://live.staticflickr.com/65535/50020697111_36ae800789_o.jpg",
    "id_image": "Eagle_355703",
    "count_view": 0
  },
  {
    "link_thumb": "https://live.staticflickr.com/65535/50017477071_6a4b6a7655_n.jpg",
    "id_album": "-530283314",
    "description": "BlueandyellowMacaw_974799",
    "title": "BlueandyellowMacaw_974799",
    "link_img": "https://live.staticflickr.com/65535/50017477071_fe5902c97e_o.jpg",
    "id_image": "BlueandyellowMacaw_974799",
    "count_view": 0
  },
  {
    "link_thumb": "https://live.staticflickr.com/65535/50021519406_e5ea309c17_n.jpg",
    "id_album": "-1933715543",
    "description": "Horse_436309",
    "title": "Horse_436309",
    "link_img": "https://live.staticflickr.com/65535/50021519406_2cb60d0be1_o.jpg",
    "id_image": "Horse_436309",
    "count_view": 0
  },
  {
    "link_thumb": "https://live.staticflickr.com/65535/50016584558_c8e0f8122d_n.jpg",
    "id_album": "-422187261",
    "description": "Bear_965746",
    "title": "Bear_965746",
    "link_img": "https://live.staticflickr.com/65535/50016584558_a547c97672_o.jpg",
    "id_image": "Bear_965746",
    "count_view": 0
  },
  {
    "link_thumb": "https://live.staticflickr.com/65535/50023934442_0ef35f4c79_n.jpg",
    "id_album": "-1131363127",
    "description": "SnowLeopard_899414",
    "title": "SnowLeopard_899414",
    "link_img": "https://live.staticflickr.com/65535/50023934442_6c02c4cf17_o.jpg",
    "id_image": "SnowLeopard_899414",
    "count_view": 0
  },
  {
    "link_thumb": "https://live.staticflickr.com/65535/50020617528_7d78a170af_n.jpg",
    "id_album": "-462831704",
    "description": "Cat_672822",
    "title": "Cat_672822",
    "link_img": "https://live.staticflickr.com/65535/50020617528_4f46eb253c_o.jpg",
    "id_image": "Cat_672822",
    "count_view": 0
  },
  {
    "link_thumb": "https://live.staticflickr.com/65535/50017323397_04ca85257b_n.jpg",
    "id_album": "-422187261",
    "description": "Bear_596394",
    "title": "Bear_596394",
    "link_img": "https://live.staticflickr.com/65535/50017323397_74d008680e_o.jpg",
    "id_image": "Bear_596394",
    "count_view": 0
  },
  {
    "link_thumb": "https://live.staticflickr.com/65535/50022963421_a89f48e2e3_n.jpg",
    "id_album": "-353898617",
    "description": "Puppy_356055",
    "title": "Puppy_356055",
    "link_img": "https://live.staticflickr.com/65535/50022963421_5bb2590bb8_o.jpg",
    "id_image": "Puppy_356055",
    "count_view": 0
  },
  {
    "link_thumb": "https://live.staticflickr.com/65535/50017820782_da3b585458_n.jpg",
    "id_album": "-401151552",
    "description": "Butterfly_304214",
    "title": "Butterfly_304214",
    "link_img": "https://live.staticflickr.com/65535/50017820782_6161262263_o.jpg",
    "id_image": "Butterfly_304214",
    "count_view": 0
  },
  {
    "link_thumb": "https://live.staticflickr.com/65535/50021268591_04ef4ea219_n.jpg",
    "id_album": "-462831703",
    "description": "Cat_830101",
    "title": "Cat_830101",
    "link_img": "https://live.staticflickr.com/65535/50021268591_03920af90e_o.jpg",
    "id_image": "Cat_830101",
    "count_view": 0
  },
  {
    "link_thumb": "https://live.staticflickr.com/65535/50021457653_56c3671f8c_n.jpg",
    "id_album": "416744915",
    "description": "Lion_360066",
    "title": "Lion_360066",
    "link_img": "https://live.staticflickr.com/65535/50021457653_b3c46fba7d_o.jpg",
    "id_image": "Lion_360066",
    "count_view": 0
  },
  {
    "link_thumb": "https://live.staticflickr.com/65535/50021307703_d083745d96_n.jpg",
    "id_album": "-1882491687",
    "description": "Ladybug_413431",
    "title": "Ladybug_413431",
    "link_img": "https://live.staticflickr.com/65535/50021307703_00e07ffa9d_o.jpg",
    "id_image": "Ladybug_413431",
    "count_view": 0
  },
  {
    "link_thumb": "https://live.staticflickr.com/65535/50022409658_5d6298ef76_n.jpg",
    "id_album": "-1431524681",
    "description": "Pug_591623",
    "title": "Pug_591623",
    "link_img": "https://live.staticflickr.com/65535/50022409658_8e731cfaaa_o.jpg",
    "id_image": "Pug_591623",
    "count_view": 0
  },
  {
    "link_thumb": "https://live.staticflickr.com/65535/50021265888_592edf5998_n.jpg",
    "id_album": "770105808",
    "description": "Kingfisher_744035",
    "title": "Kingfisher_744035",
    "link_img": "https://live.staticflickr.com/65535/50021265888_6f8b9371d4_o.jpg",
    "id_image": "Kingfisher_744035",
    "count_view": 0
  },
  {
    "link_thumb": "https://live.staticflickr.com/65535/50021400741_1ec49a156e_n.jpg",
    "id_album": "-1168906494",
    "description": "Grasshopper_393091",
    "title": "Grasshopper_393091",
    "link_img": "https://live.staticflickr.com/65535/50021400741_e32d3ebc7c_o.jpg",
    "id_image": "Grasshopper_393091",
    "count_view": 0
  },
  {
    "link_thumb": "https://live.staticflickr.com/65535/50017099496_394b84e6bf_n.jpg",
    "id_album": "-422187261",
    "description": "Bear_910412",
    "title": "Bear_910412",
    "link_img": "https://live.staticflickr.com/65535/50017099496_4edbdc4642_o.jpg",
    "id_image": "Bear_910412",
    "count_view": 0
  },
  {
    "link_thumb": "https://live.staticflickr.com/65535/50020861537_8cb7282fbe_n.jpg",
    "id_album": "-405058657",
    "description": "Dragonfly_114624",
    "title": "Dragonfly_114624",
    "link_img": "https://live.staticflickr.com/65535/50020861537_2c48c415af_o.jpg",
    "id_image": "Dragonfly_114624",
    "count_view": 0
  },
  {
    "link_thumb": "https://live.staticflickr.com/65535/50017190326_3dfa11d4d9_n.jpg",
    "id_album": "-1846011410",
    "description": "Bird_104399",
    "title": "Bird_104399",
    "link_img": "https://live.staticflickr.com/65535/50017190326_baf360938e_o.jpg",
    "id_image": "Bird_104399",
    "count_view": 0
  },
  {
    "link_thumb": "https://live.staticflickr.com/65535/50023073051_eb4b267812_n.jpg",
    "id_album": "-353898617",
    "description": "Puppy_943798",
    "title": "Puppy_943798",
    "link_img": "https://live.staticflickr.com/65535/50023073051_a9dd639701_o.jpg",
    "id_image": "Puppy_943798",
    "count_view": 0
  },
  {
    "link_thumb": "https://live.staticflickr.com/65535/50022099766_a5a32236c0_n.jpg",
    "id_album": "-656526748",
    "description": "Lizard_149924",
    "title": "Lizard_149924",
    "link_img": "https://live.staticflickr.com/65535/50022099766_38a0735760_o.jpg",
    "id_image": "Lizard_149924",
    "count_view": 0
  },
  {
    "link_thumb": "https://live.staticflickr.com/65535/50020260046_3b262e5647_n.jpg",
    "id_album": "-149330232",
    "description": "Dog_333106",
    "title": "Dog_333106",
    "link_img": "https://live.staticflickr.com/65535/50020260046_9f69afdd11_o.jpg",
    "id_image": "Dog_333106",
    "count_view": 0
  },
  {
    "link_thumb": "https://live.staticflickr.com/65535/50020760468_f75b27f8a3_n.jpg",
    "id_album": "-405626519",
    "description": "GermanShepherd_798039",
    "title": "GermanShepherd_798039",
    "link_img": "https://live.staticflickr.com/65535/50020760468_e748360ced_o.jpg",
    "id_image": "GermanShepherd_798039",
    "count_view": 0
  },
  {
    "link_thumb": "https://live.staticflickr.com/65535/50017249028_f16c54d247_n.jpg",
    "id_album": "-462831705",
    "description": "Cat_121519",
    "title": "Cat_121519",
    "link_img": "https://live.staticflickr.com/65535/50017249028_6b07dd1a64_o.jpg",
    "id_image": "Cat_121519",
    "count_view": 0
  },
  {
    "link_thumb": "https://live.staticflickr.com/65535/50019891847_cee94d99ec_n.jpg",
    "id_album": "-766919393",
    "description": "Chameleon_191200",
    "title": "Chameleon_191200",
    "link_img": "https://live.staticflickr.com/65535/50019891847_7e2120e2b8_o.jpg",
    "id_image": "Chameleon_191200",
    "count_view": 0
  },
  {
    "link_thumb": "https://live.staticflickr.com/65535/50017377176_712d7c371d_n.jpg",
    "id_album": "-1846011410",
    "description": "Bird_587906",
    "title": "Bird_587906",
    "link_img": "https://live.staticflickr.com/65535/50017377176_59629881fd_o.jpg",
    "id_image": "Bird_587906",
    "count_view": 0
  },
  {
    "link_thumb": "https://live.staticflickr.com/65535/50022149017_21e59f6cbb_n.jpg",
    "id_album": "1392348450",
    "description": "Leopard_247234",
    "title": "Leopard_247234",
    "link_img": "https://live.staticflickr.com/65535/50022149017_29a0987be3_o.jpg",
    "id_image": "Leopard_247234",
    "count_view": 0
  },
  {
    "link_thumb": "https://live.staticflickr.com/65535/50018420952_d12526febc_n.jpg",
    "id_album": "-462831702",
    "description": "Cat_410552",
    "title": "Cat_410552",
    "link_img": "https://live.staticflickr.com/65535/50018420952_4fc607fd36_o.jpg",
    "id_image": "Cat_410552",
    "count_view": 0
  },
  {
    "link_thumb": "https://live.staticflickr.com/65535/50352781977_5b7796c6fe_n.jpg",
    "id_album": "-462831703",
    "description": "Cat_596700",
    "title": "Cat_596700",
    "link_img": "https://live.staticflickr.com/65535/50352781977_eeb1727c0a_o.jpg",
    "id_image": "Cat_596700",
    "count_view": 0
  },
  {
    "link_thumb": "https://live.staticflickr.com/65535/50017526773_ee1efdca0f_n.jpg",
    "id_album": "-462831702",
    "description": "Cat_360885",
    "title": "Cat_360885",
    "link_img": "https://live.staticflickr.com/65535/50017526773_5e470fc51b_o.jpg",
    "id_image": "Cat_360885",
    "count_view": 0
  },
  {
    "link_thumb": "https://live.staticflickr.com/65535/50018086731_a9a48231b0_n.jpg",
    "id_album": "-462831702",
    "description": "Cat_369234",
    "title": "Cat_369234",
    "link_img": "https://live.staticflickr.com/65535/50018086731_304b67aa08_o.jpg",
    "id_image": "Cat_369234",
    "count_view": 0
  },
  {
    "link_thumb": "https://live.staticflickr.com/65535/50017438477_59401740ab_n.jpg",
    "id_album": "172748811",
    "description": "Beeeater_848581",
    "title": "Beeeater_848581",
    "link_img": "https://live.staticflickr.com/65535/50017438477_3efa075eaa_o.jpg",
    "id_image": "Beeeater_848581",
    "count_view": 0
  },
  {
    "link_thumb": "https://live.staticflickr.com/65535/50017411781_81238f3411_n.jpg",
    "id_album": "-1846011410",
    "description": "Bird_718380",
    "title": "Bird_718380",
    "link_img": "https://live.staticflickr.com/65535/50017411781_4e99bc120e_o.jpg",
    "id_image": "Bird_718380",
    "count_view": 0
  },
  {
    "link_thumb": "https://live.staticflickr.com/65535/50022052057_9e9c588008_n.jpg",
    "id_album": "770105808",
    "description": "Kingfisher_262426",
    "title": "Kingfisher_262426",
    "link_img": "https://live.staticflickr.com/65535/50022052057_729448168b_o.jpg",
    "id_image": "Kingfisher_262426",
    "count_view": 0
  },
  {
    "link_thumb": "https://live.staticflickr.com/65535/50016762073_553134ed5a_n.jpg",
    "id_album": "-1846011410",
    "description": "Bird_379585",
    "title": "Bird_379585",
    "link_img": "https://live.staticflickr.com/65535/50016762073_a762b3ea14_o.jpg",
    "id_image": "Bird_379585",
    "count_view": 0
  },
  {
    "link_thumb": "https://live.staticflickr.com/65535/50021567247_f44e5fbdcb_n.jpg",
    "id_album": "-405626519",
    "description": "GermanShepherd_951100",
    "title": "GermanShepherd_951100",
    "link_img": "https://live.staticflickr.com/65535/50021567247_b4fa8f3c12_o.jpg",
    "id_image": "GermanShepherd_951100",
    "count_view": 0
  },
  {
    "link_thumb": "https://live.staticflickr.com/65535/50022159501_208fc2caff_n.jpg",
    "id_album": "1894617400",
    "description": "Lynx_762325",
    "title": "Lynx_762325",
    "link_img": "https://live.staticflickr.com/65535/50022159501_1371fd8fa1_o.jpg",
    "id_image": "Lynx_762325",
    "count_view": 0
  },
  {
    "link_thumb": "https://live.staticflickr.com/65535/50019893517_34ae842abc_n.jpg",
    "id_album": "-766919393",
    "description": "Chameleon_235903",
    "title": "Chameleon_235903",
    "link_img": "https://live.staticflickr.com/65535/50019893517_a10276d4c0_o.jpg",
    "id_image": "Chameleon_235903",
    "count_view": 0
  },
  {
    "link_thumb": "https://live.staticflickr.com/65535/50016365718_04d1686164_n.jpg",
    "id_album": "523598895",
    "description": "Artistic_294654",
    "title": "Artistic_294654",
    "link_img": "https://live.staticflickr.com/65535/50016365718_7d44e59072_o.jpg",
    "id_image": "Artistic_294654",
    "count_view": 0
  },
  {
    "link_thumb": "https://live.staticflickr.com/65535/50021900151_399f528a09_n.jpg",
    "id_album": "1392348450",
    "description": "Leopard_345334",
    "title": "Leopard_345334",
    "link_img": "https://live.staticflickr.com/65535/50021900151_e74a51e657_o.jpg",
    "id_image": "Leopard_345334",
    "count_view": 0
  },
  {
    "link_thumb": "https://live.staticflickr.com/65535/50022626306_6479832878_n.jpg",
    "id_album": "1146438617",
    "description": "Pelican_454778",
    "title": "Pelican_454778",
    "link_img": "https://live.staticflickr.com/65535/50022626306_8b18574468_o.jpg",
    "id_image": "Pelican_454778",
    "count_view": 0
  },
  {
    "link_thumb": "https://live.staticflickr.com/65535/50021742806_223aa08733_n.jpg",
    "id_album": "-843028318",
    "description": "Jaguar_876788",
    "title": "Jaguar_876788",
    "link_img": "https://live.staticflickr.com/65535/50021742806_97c8845df3_o.jpg",
    "id_image": "Jaguar_876788",
    "count_view": 0
  },
  {
    "link_thumb": "https://live.staticflickr.com/65535/50021931196_f9a68c54ec_n.jpg",
    "id_album": "1392348450",
    "description": "Leopard_523562",
    "title": "Leopard_523562",
    "link_img": "https://live.staticflickr.com/65535/50021931196_6124c06b55_o.jpg",
    "id_image": "Leopard_523562",
    "count_view": 0
  },
  {
    "link_thumb": "https://live.staticflickr.com/65535/50020801448_4b9d900d12_n.jpg",
    "id_album": "-804131074",
    "description": "Goat_572363",
    "title": "Goat_572363",
    "link_img": "https://live.staticflickr.com/65535/50020801448_f3e9e10560_o.jpg",
    "id_image": "Goat_572363",
    "count_view": 0
  },
  {
    "link_thumb": "https://live.staticflickr.com/65535/50021985967_398ccab853_n.jpg",
    "id_album": "-843028318",
    "description": "Jaguar_535349",
    "title": "Jaguar_535349",
    "link_img": "https://live.staticflickr.com/65535/50021985967_812b48d608_o.jpg",
    "id_image": "Jaguar_535349",
    "count_view": 0
  },
  {
    "link_thumb": "https://live.staticflickr.com/65535/50019560121_5245af7e3d_n.jpg",
    "id_album": "-462831703",
    "description": "Cat_986623",
    "title": "Cat_986623",
    "link_img": "https://live.staticflickr.com/65535/50019560121_c6fba4d5bf_o.jpg",
    "id_image": "Cat_986623",
    "count_view": 0
  },
  {
    "link_thumb": "https://live.staticflickr.com/65535/50017026908_a920b7abfe_n.jpg",
    "id_album": "-401151552",
    "description": "Butterfly_260621",
    "title": "Butterfly_260621",
    "link_img": "https://live.staticflickr.com/65535/50017026908_812f4f9e7b_o.jpg",
    "id_image": "Butterfly_260621",
    "count_view": 0
  },
  {
    "link_thumb": "https://live.staticflickr.com/65535/50352660826_834999963e_n.jpg",
    "id_album": "-462831703",
    "description": "Cat_734404",
    "title": "Cat_734404",
    "link_img": "https://live.staticflickr.com/65535/50352660826_69748a96df_o.jpg",
    "id_image": "Cat_734404",
    "count_view": 0
  },
  {
    "link_thumb": "https://live.staticflickr.com/65535/50023355796_577be82dd6_n.jpg",
    "id_album": "1656131695",
    "description": "Seagull_353093",
    "title": "Seagull_353093",
    "link_img": "https://live.staticflickr.com/65535/50023355796_e41b9f2eaa_o.jpg",
    "id_image": "Seagull_353093",
    "count_view": 0
  },
  {
    "link_thumb": "https://live.staticflickr.com/65535/50016408263_4539e106e4_n.jpg",
    "id_album": "390697200",
    "description": "AustralianShepherd_708793",
    "title": "AustralianShepherd_708793",
    "link_img": "https://live.staticflickr.com/65535/50016408263_282f2bfb1f_o.jpg",
    "id_image": "AustralianShepherd_708793",
    "count_view": 0
  },
  {
    "link_thumb": "https://live.staticflickr.com/65535/50021235837_9534355083_n.jpg",
    "id_album": "-128218148",
    "description": "Fox_59998",
    "title": "Fox_59998",
    "link_img": "https://live.staticflickr.com/65535/50021235837_f8db73dc85_o.jpg",
    "id_image": "Fox_59998",
    "count_view": 0
  },
  {
    "link_thumb": "https://live.staticflickr.com/65535/50021099143_3aa843d507_n.jpg",
    "id_album": "-712553376",
    "description": "Husky_874892",
    "title": "Husky_874892",
    "link_img": "https://live.staticflickr.com/65535/50021099143_a729a5bbb2_o.jpg",
    "id_image": "Husky_874892",
    "count_view": 0
  },
  {
    "link_thumb": "https://live.staticflickr.com/65535/50018027356_8e3e6bb23f_n.jpg",
    "id_album": "-462831702",
    "description": "Cat_347971",
    "title": "Cat_347971",
    "link_img": "https://live.staticflickr.com/65535/50018027356_97d34ce321_o.jpg",
    "id_image": "Cat_347971",
    "count_view": 0
  },
  {
    "link_thumb": "https://live.staticflickr.com/65535/50020665233_ab67bec6f4_n.jpg",
    "id_album": "-462831704",
    "description": "Cat_725680",
    "title": "Cat_725680",
    "link_img": "https://live.staticflickr.com/65535/50020665233_53302ae438_o.jpg",
    "id_image": "Cat_725680",
    "count_view": 0
  },
  {
    "link_thumb": "https://live.staticflickr.com/65535/50016532648_f90ee300c8_n.jpg",
    "id_album": "-422187261",
    "description": "Bear_588517",
    "title": "Bear_588517",
    "link_img": "https://live.staticflickr.com/65535/50016532648_6505ec625f_o.jpg",
    "id_image": "Bear_588517",
    "count_view": 0
  },
  {
    "link_thumb": "https://live.staticflickr.com/65535/50017647616_00a338e034_n.jpg",
    "id_album": "-401151552",
    "description": "Butterfly_703578",
    "title": "Butterfly_703578",
    "link_img": "https://live.staticflickr.com/65535/50017647616_27d34f8c16_o.jpg",
    "id_image": "Butterfly_703578",
    "count_view": 0
  },
  {
    "link_thumb": "https://live.staticflickr.com/65535/50022778903_81696d85f2_n.jpg",
    "id_album": "1512228924",
    "description": "ScarletMacaw_353640",
    "title": "ScarletMacaw_353640",
    "link_img": "https://live.staticflickr.com/65535/50022778903_d071dcd3fd_o.jpg",
    "id_image": "ScarletMacaw_353640",
    "count_view": 0
  },
  {
    "link_thumb": "https://live.staticflickr.com/65535/50021877532_318d25d6ca_n.jpg",
    "id_album": "2144294979",
    "description": "Hummingbird_930341",
    "title": "Hummingbird_930341",
    "link_img": "https://live.staticflickr.com/65535/50021877532_156e0cb12a_o.jpg",
    "id_image": "Hummingbird_930341",
    "count_view": 0
  },
  {
    "link_thumb": "https://live.staticflickr.com/65535/50021481932_583463cc68_n.jpg",
    "id_album": "-462831703",
    "description": "Cat_751096",
    "title": "Cat_751096",
    "link_img": "https://live.staticflickr.com/65535/50021481932_ac0fd16576_o.jpg",
    "id_image": "Cat_751096",
    "count_view": 0
  },
  {
    "link_thumb": "https://live.staticflickr.com/65535/50018023561_c5eb65848d_n.jpg",
    "id_album": "-462831702",
    "description": "Cat_346533",
    "title": "Cat_346533",
    "link_img": "https://live.staticflickr.com/65535/50018023561_5d2191be0c_o.jpg",
    "id_image": "Cat_346533",
    "count_view": 0
  },
  {
    "link_thumb": "https://live.staticflickr.com/65535/50019425553_3927442328_n.jpg",
    "id_album": "1831085598",
    "description": "Dachshund_783234",
    "title": "Dachshund_783234",
    "link_img": "https://live.staticflickr.com/65535/50019425553_f6ff1a5b8b_o.jpg",
    "id_image": "Dachshund_783234",
    "count_view": 0
  },
  {
    "link_thumb": "https://live.staticflickr.com/65535/50017976776_ab1eaf9e04_n.jpg",
    "id_album": "-462831702",
    "description": "Cat_326190",
    "title": "Cat_326190",
    "link_img": "https://live.staticflickr.com/65535/50017976776_3f1cd93396_o.jpg",
    "id_image": "Cat_326190",
    "count_view": 0
  },
  {
    "link_thumb": "https://live.staticflickr.com/65535/50018386387_cd4fdf4c3a_n.jpg",
    "id_album": "-462831702",
    "description": "Cat_393539",
    "title": "Cat_393539",
    "link_img": "https://live.staticflickr.com/65535/50018386387_1a61b37fe1_o.jpg",
    "id_image": "Cat_393539",
    "count_view": 0
  },
  {
    "link_thumb": "https://live.staticflickr.com/65535/50352568807_f8243fab6b_n.jpg",
    "id_album": "-462831703",
    "description": "Cat_175982",
    "title": "Cat_175982",
    "link_img": "https://live.staticflickr.com/65535/50352568807_a3e85dc8e2_o.jpg",
    "id_image": "Cat_175982",
    "count_view": 0
  },
  {
    "link_thumb": "https://live.staticflickr.com/65535/50016854326_571fb7d5a8_n.jpg",
    "id_album": "-834314226",
    "description": "ArcticFox_984884",
    "title": "ArcticFox_984884",
    "link_img": "https://live.staticflickr.com/65535/50016854326_06045302cc_o.jpg",
    "id_image": "ArcticFox_984884",
    "count_view": 0
  },
  {
    "link_thumb": "https://live.staticflickr.com/65535/50024546077_c1435b02d2_n.jpg",
    "id_album": "-1103743486",
    "description": "Toucan_887482",
    "title": "Toucan_887482",
    "link_img": "https://live.staticflickr.com/65535/50024546077_d617f3dff7_o.jpg",
    "id_image": "Toucan_887482",
    "count_view": 0
  },
  {
    "link_thumb": "https://live.staticflickr.com/65535/50352865532_4577277c31_n.jpg",
    "id_album": "-462831702",
    "description": "Cat_86543",
    "title": "Cat_86543",
    "link_img": "https://live.staticflickr.com/65535/50352865532_c5db6e8b08_o.jpg",
    "id_image": "Cat_86543",
    "count_view": 0
  },
  {
    "link_thumb": "https://live.staticflickr.com/65535/50019223181_86cf3b4c86_n.jpg",
    "id_album": "-462831704",
    "description": "Cat_453884",
    "title": "Cat_453884",
    "link_img": "https://live.staticflickr.com/65535/50019223181_c9563441b4_o.jpg",
    "id_image": "Cat_453884",
    "count_view": 0
  },
  {
    "link_thumb": "https://live.staticflickr.com/65535/50020455003_50e76e6849_n.jpg",
    "id_album": "-128218148",
    "description": "Fox_741837",
    "title": "Fox_741837",
    "link_img": "https://live.staticflickr.com/65535/50020455003_4b6497cb45_o.jpg",
    "id_image": "Fox_741837",
    "count_view": 0
  },
  {
    "link_thumb": "https://live.staticflickr.com/65535/50017960031_951ed4ca85_n.jpg",
    "id_album": "-462831702",
    "description": "Cat_315369",
    "title": "Cat_315369",
    "link_img": "https://live.staticflickr.com/65535/50017960031_5754e6e5e4_o.jpg",
    "id_image": "Cat_315369",
    "count_view": 0
  },
  {
    "link_thumb": "https://live.staticflickr.com/65535/50017485662_bfbf1e882d_n.jpg",
    "id_album": "-1846011410",
    "description": "Bird_271704",
    "title": "Bird_271704",
    "link_img": "https://live.staticflickr.com/65535/50017485662_6254f68265_o.jpg",
    "id_image": "Bird_271704",
    "count_view": 0
  },
  {
    "link_thumb": "https://live.staticflickr.com/65535/50019967216_2ed2b5d3a1_n.jpg",
    "id_album": "-1783645069",
    "description": "Dalmatian_681478",
    "title": "Dalmatian_681478",
    "link_img": "https://live.staticflickr.com/65535/50019967216_fe4fc09387_o.jpg",
    "id_image": "Dalmatian_681478",
    "count_view": 0
  },
  {
    "link_thumb": "https://live.staticflickr.com/65535/50016557833_d45d37a73e_n.jpg",
    "id_album": "-422187261",
    "description": "Bear_802541",
    "title": "Bear_802541",
    "link_img": "https://live.staticflickr.com/65535/50016557833_be61f85c67_o.jpg",
    "id_image": "Bear_802541",
    "count_view": 0
  },
  {
    "link_thumb": "https://live.staticflickr.com/65535/50018934923_4eab7866b1_n.jpg",
    "id_album": "-462831703",
    "description": "Cat_917425",
    "title": "Cat_917425",
    "link_img": "https://live.staticflickr.com/65535/50018934923_f54eccf045_o.jpg",
    "id_image": "Cat_917425",
    "count_view": 0
  },
  {
    "link_thumb": "https://live.staticflickr.com/65535/50021355422_99132162f8_n.jpg",
    "id_album": "-462831704",
    "description": "Cat_543751",
    "title": "Cat_543751",
    "link_img": "https://live.staticflickr.com/65535/50021355422_1b88222fef_o.jpg",
    "id_image": "Cat_543751",
    "count_view": 0
  },
  {
    "link_thumb": "https://live.staticflickr.com/65535/50019748593_97c681e649_n.jpg",
    "id_album": "-149330232",
    "description": "Dog_341609",
    "title": "Dog_341609",
    "link_img": "https://live.staticflickr.com/65535/50019748593_2237b20bf1_o.jpg",
    "id_image": "Dog_341609",
    "count_view": 0
  },
  {
    "link_thumb": "https://live.staticflickr.com/65535/50352599676_dd16694fd9_n.jpg",
    "id_album": "-462831703",
    "description": "Cat_548970",
    "title": "Cat_548970",
    "link_img": "https://live.staticflickr.com/65535/50352599676_b1fcbe09b5_o.jpg",
    "id_image": "Cat_548970",
    "count_view": 0
  },
  {
    "link_thumb": "https://live.staticflickr.com/65535/50019655502_44dfd791a9_n.jpg",
    "id_album": "-462831703",
    "description": "Cat_887817",
    "title": "Cat_887817",
    "link_img": "https://live.staticflickr.com/65535/50019655502_e53fbfe906_o.jpg",
    "id_image": "Cat_887817",
    "count_view": 0
  },
  {
    "link_thumb": "https://live.staticflickr.com/65535/50023563683_d48fbf3fca_n.jpg",
    "id_album": "405170427",
    "description": "Tiger_388134",
    "title": "Tiger_388134",
    "link_img": "https://live.staticflickr.com/65535/50023563683_254c9dbbb3_o.jpg",
    "id_image": "Tiger_388134",
    "count_view": 0
  },
  {
    "link_thumb": "https://live.staticflickr.com/65535/50021359626_127184f489_n.jpg",
    "id_album": "2060159334",
    "description": "GoldenRetriever_801741",
    "title": "GoldenRetriever_801741",
    "link_img": "https://live.staticflickr.com/65535/50021359626_e76cfbd404_o.jpg",
    "id_image": "GoldenRetriever_801741",
    "count_view": 0
  },
  {
    "link_thumb": "https://live.staticflickr.com/65535/50016646033_c67c784266_n.jpg",
    "id_album": "172748811",
    "description": "Beeeater_379783",
    "title": "Beeeater_379783",
    "link_img": "https://live.staticflickr.com/65535/50016646033_3f793aae98_o.jpg",
    "id_image": "Beeeater_379783",
    "count_view": 0
  },
  {
    "link_thumb": "https://live.staticflickr.com/65535/50021957957_00f3eab0ab_n.jpg",
    "id_album": "1658866795",
    "description": "Insect_574364",
    "title": "Insect_574364",
    "link_img": "https://live.staticflickr.com/65535/50021957957_dbb0a4df64_o.jpg",
    "id_image": "Insect_574364",
    "count_view": 0
  },
  {
    "link_thumb": "https://live.staticflickr.com/65535/50017663406_3e5544ca71_n.jpg",
    "id_album": "-401151552",
    "description": "Butterfly_772257",
    "title": "Butterfly_772257",
    "link_img": "https://live.staticflickr.com/65535/50017663406_94ee431fa3_o.jpg",
    "id_image": "Butterfly_772257",
    "count_view": 0
  },
  {
    "link_thumb": "https://live.staticflickr.com/65535/50017812172_1dd3051c4c_n.jpg",
    "id_album": "-401151552",
    "description": "Butterfly_242109",
    "title": "Butterfly_242109",
    "link_img": "https://live.staticflickr.com/65535/50017812172_5ddb3e5469_o.jpg",
    "id_image": "Butterfly_242109",
    "count_view": 0
  },
  {
    "link_thumb": "https://live.staticflickr.com/65535/50020067468_635908e617_n.jpg",
    "id_album": "-1859457960",
    "description": "Dove_547477",
    "title": "Dove_547477",
    "link_img": "https://live.staticflickr.com/65535/50020067468_907e071402_o.jpg",
    "id_image": "Dove_547477",
    "count_view": 0
  },
  {
    "link_thumb": "https://live.staticflickr.com/65535/50351978378_e9eef93962_n.jpg",
    "id_album": "-462831703",
    "description": "Cat_983105",
    "title": "Cat_983105",
    "link_img": "https://live.staticflickr.com/65535/50351978378_52d5330e52_o.jpg",
    "id_image": "Cat_983105",
    "count_view": 0
  },
  {
    "link_thumb": "https://live.staticflickr.com/65535/50019586111_329b549456_n.jpg",
    "id_album": "-1930903528",
    "description": "CatDog_739523",
    "title": "CatDog_739523",
    "link_img": "https://live.staticflickr.com/65535/50019586111_09ee5a23a5_o.jpg",
    "id_image": "CatDog_739523",
    "count_view": 0
  },
  {
    "link_thumb": "https://live.staticflickr.com/65535/50023192496_efaed5465e_n.jpg",
    "id_album": "-1862965835",
    "description": "RedEyedTreeFrog_671553",
    "title": "RedEyedTreeFrog_671553",
    "link_img": "https://live.staticflickr.com/65535/50023192496_a7dc3f94c7_o.jpg",
    "id_image": "RedEyedTreeFrog_671553",
    "count_view": 0
  },
  {
    "link_thumb": "https://live.staticflickr.com/65535/50018104496_01ca4600e2_n.jpg",
    "id_album": "-462831702",
    "description": "Cat_379099",
    "title": "Cat_379099",
    "link_img": "https://live.staticflickr.com/65535/50018104496_11971d04bd_o.jpg",
    "id_image": "Cat_379099",
    "count_view": 0
  },
  {
    "link_thumb": "https://live.staticflickr.com/65535/50017111092_ac0d773960_n.jpg",
    "id_album": "-834314226",
    "description": "ArcticFox_735515",
    "title": "ArcticFox_735515",
    "link_img": "https://live.staticflickr.com/65535/50017111092_d7796fdcf8_o.jpg",
    "id_image": "ArcticFox_735515",
    "count_view": 0
  },
  {
    "link_thumb": "https://live.staticflickr.com/65535/50020860047_417838dedb_n.jpg",
    "id_album": "-1859457960",
    "description": "Dove_954524",
    "title": "Dove_954524",
    "link_img": "https://live.staticflickr.com/65535/50020860047_93a49e4d66_o.jpg",
    "id_image": "Dove_954524",
    "count_view": 0
  },
  {
    "link_thumb": "https://live.staticflickr.com/65535/50021089742_aca9881440_n.jpg",
    "id_album": "-1118073211",
    "description": "Fish_311905",
    "title": "Fish_311905",
    "link_img": "https://live.staticflickr.com/65535/50021089742_fe801c6534_o.jpg",
    "id_image": "Fish_311905",
    "count_view": 0
  },
  {
    "link_thumb": "https://live.staticflickr.com/65535/50017385147_2a2b6e5dc3_n.jpg",
    "id_album": "1699594607",
    "description": "Bee_327793",
    "title": "Bee_327793",
    "link_img": "https://live.staticflickr.com/65535/50017385147_3365f34cf5_o.jpg",
    "id_image": "Bee_327793",
    "count_view": 0
  },
  {
    "link_thumb": "https://live.staticflickr.com/65535/50018346487_7a82164f6b_n.jpg",
    "id_album": "-462831705",
    "description": "Cat_146810",
    "title": "Cat_146810",
    "link_img": "https://live.staticflickr.com/65535/50018346487_f72b983f88_o.jpg",
    "id_image": "Cat_146810",
    "count_view": 0
  },
  {
    "link_thumb": "https://live.staticflickr.com/65535/50022644742_3923101bfa_n.jpg",
    "id_album": "-1384601601",
    "description": "Owl_285714",
    "title": "Owl_285714",
    "link_img": "https://live.staticflickr.com/65535/50022644742_bbf0af0541_o.jpg",
    "id_image": "Owl_285714",
    "count_view": 0
  },
  {
    "link_thumb": "https://live.staticflickr.com/65535/50016327633_aeb04ec44b_n.jpg",
    "id_album": "523598895",
    "description": "Artistic_103445",
    "title": "Artistic_103445",
    "link_img": "https://live.staticflickr.com/65535/50016327633_713b560ecc_o.jpg",
    "id_image": "Artistic_103445",
    "count_view": 0
  },
  {
    "link_thumb": "https://live.staticflickr.com/65535/50022126307_03650320f2_n.jpg",
    "id_album": "1918884325",
    "description": "Lemur_104105",
    "title": "Lemur_104105",
    "link_img": "https://live.staticflickr.com/65535/50022126307_772119a19c_o.jpg",
    "id_image": "Lemur_104105",
    "count_view": 0
  },
  {
    "link_thumb": "https://live.staticflickr.com/65535/50022385287_84d2e67437_n.jpg",
    "id_album": "-656526748",
    "description": "Lizard_835214",
    "title": "Lizard_835214",
    "link_img": "https://live.staticflickr.com/65535/50022385287_5a4243e87c_o.jpg",
    "id_image": "Lizard_835214",
    "count_view": 0
  },
  {
    "link_thumb": "https://live.staticflickr.com/65535/50021116178_053f54dab8_n.jpg",
    "id_album": "1658866795",
    "description": "Insect_207692",
    "title": "Insect_207692",
    "link_img": "https://live.staticflickr.com/65535/50021116178_9631f1e04b_o.jpg",
    "id_image": "Insect_207692",
    "count_view": 0
  },
  {
    "link_thumb": "https://live.staticflickr.com/65535/50021906017_8cc3c903af_n.jpg",
    "id_album": "-737856092",
    "description": "Iguana_595729",
    "title": "Iguana_595729",
    "link_img": "https://live.staticflickr.com/65535/50021906017_5196f6b60c_o.jpg",
    "id_image": "Iguana_595729",
    "count_view": 0
  },
  {
    "link_thumb": "https://live.staticflickr.com/65535/50021942896_37bbf95bdb_n.jpg",
    "id_album": "1392348450",
    "description": "Leopard_685360",
    "title": "Leopard_685360",
    "link_img": "https://live.staticflickr.com/65535/50021942896_9a8fbe363a_o.jpg",
    "id_image": "Leopard_685360",
    "count_view": 0
  },
  {
    "link_thumb": "https://live.staticflickr.com/65535/50023312192_15fbc5be78_n.jpg",
    "id_album": "-353898617",
    "description": "Puppy_724733",
    "title": "Puppy_724733",
    "link_img": "https://live.staticflickr.com/65535/50023312192_0736a0ae07_o.jpg",
    "id_image": "Puppy_724733",
    "count_view": 0
  },
  {
    "link_thumb": "https://live.staticflickr.com/65535/50019420106_fba83c3881_n.jpg",
    "id_album": "-462831705",
    "description": "Cat_90252",
    "title": "Cat_90252",
    "link_img": "https://live.staticflickr.com/65535/50019420106_3df97b3b56_o.jpg",
    "id_image": "Cat_90252",
    "count_view": 0
  },
  {
    "link_thumb": "https://live.staticflickr.com/65535/50021911976_f2dc29f97d_n.jpg",
    "id_album": "1392348450",
    "description": "Leopard_374209",
    "title": "Leopard_374209",
    "link_img": "https://live.staticflickr.com/65535/50021911976_e06edee478_o.jpg",
    "id_image": "Leopard_374209",
    "count_view": 0
  },
  {
    "link_thumb": "https://live.staticflickr.com/65535/50016603773_9dfb26cb44_n.jpg",
    "id_album": "1699594607",
    "description": "Bee_364921",
    "title": "Bee_364921",
    "link_img": "https://live.staticflickr.com/65535/50016603773_7c46d13d82_o.jpg",
    "id_image": "Bee_364921",
    "count_view": 0
  },
  {
    "link_thumb": "https://live.staticflickr.com/65535/50020313282_9aeaa62139_n.jpg",
    "id_album": "1903411565",
    "description": "Deer_803283",
    "title": "Deer_803283",
    "link_img": "https://live.staticflickr.com/65535/50020313282_7337b0fb6e_o.jpg",
    "id_image": "Deer_803283",
    "count_view": 0
  },
  {
    "link_thumb": "https://live.staticflickr.com/65535/50023197623_a89556fcb6_n.jpg",
    "id_album": "-1082521515",
    "description": "Spider_390203",
    "title": "Spider_390203",
    "link_img": "https://live.staticflickr.com/65535/50023197623_c635f0ce5a_o.jpg",
    "id_image": "Spider_390203",
    "count_view": 0
  },
  {
    "link_thumb": "https://live.staticflickr.com/65535/50020566952_5da94e90f4_n.jpg",
    "id_album": "-149330232",
    "description": "Dog_355542",
    "title": "Dog_355542",
    "link_img": "https://live.staticflickr.com/65535/50020566952_8787debb3d_o.jpg",
    "id_image": "Dog_355542",
    "count_view": 0
  },
  {
    "link_thumb": "https://live.staticflickr.com/65535/50020619852_740613ca54_n.jpg",
    "id_album": "-149330231",
    "description": "Dog_385106",
    "title": "Dog_385106",
    "link_img": "https://live.staticflickr.com/65535/50020619852_61d91028b5_o.jpg",
    "id_image": "Dog_385106",
    "count_view": 0
  },
  {
    "link_thumb": "https://live.staticflickr.com/65535/50022011447_c8f7bfae08_n.jpg",
    "id_album": "665694624",
    "description": "JapaneseMacaque_826129",
    "title": "JapaneseMacaque_826129",
    "link_img": "https://live.staticflickr.com/65535/50022011447_87e8870456_o.jpg",
    "id_image": "JapaneseMacaque_826129",
    "count_view": 0
  },
  {
    "link_thumb": "https://live.staticflickr.com/65535/50022787052_422c74d9a6_n.jpg",
    "id_album": "-358592519",
    "description": "Panda_363071",
    "title": "Panda_363071",
    "link_img": "https://live.staticflickr.com/65535/50022787052_ce91185285_o.jpg",
    "id_image": "Panda_363071",
    "count_view": 0
  },
  {
    "link_thumb": "https://live.staticflickr.com/65535/50020726318_a31ae1772a_n.jpg",
    "id_album": "-462831703",
    "description": "Cat_829647",
    "title": "Cat_829647",
    "link_img": "https://live.staticflickr.com/65535/50020726318_1a8a03e0c0_o.jpg",
    "id_image": "Cat_829647",
    "count_view": 0
  },
  {
    "link_thumb": "https://live.staticflickr.com/65535/50017765867_3eba6d340f_n.jpg",
    "id_album": "782930701",
    "description": "BorderCollie_874174",
    "title": "BorderCollie_874174",
    "link_img": "https://live.staticflickr.com/65535/50017765867_aba1c426b0_o.jpg",
    "id_image": "BorderCollie_874174",
    "count_view": 0
  },
  {
    "link_thumb": "https://live.staticflickr.com/65535/50022740468_f14b59cca5_n.jpg",
    "id_album": "48367914",
    "description": "Rhino_431799",
    "title": "Rhino_431799",
    "link_img": "https://live.staticflickr.com/65535/50022740468_1e25eff835_o.jpg",
    "id_image": "Rhino_431799",
    "count_view": 0
  },
  {
    "link_thumb": "https://live.staticflickr.com/65535/50022597488_2ca6990c24_n.jpg",
    "id_album": "248289288",
    "description": "Raccoon_271161",
    "title": "Raccoon_271161",
    "link_img": "https://live.staticflickr.com/65535/50022597488_598d825ba1_o.jpg",
    "id_image": "Raccoon_271161",
    "count_view": 0
  },
  {
    "link_thumb": "https://live.staticflickr.com/65535/50017495856_bb66eea465_n.jpg",
    "id_album": "782930701",
    "description": "BorderCollie_829632",
    "title": "BorderCollie_829632",
    "link_img": "https://live.staticflickr.com/65535/50017495856_c0dced184c_o.jpg",
    "id_image": "BorderCollie_829632",
    "count_view": 0
  },
  {
    "link_thumb": "https://live.staticflickr.com/65535/50023224671_c176835ee4_n.jpg",
    "id_album": "332874268",
    "description": "RedPanda_682189",
    "title": "RedPanda_682189",
    "link_img": "https://live.staticflickr.com/65535/50023224671_facf56f363_o.jpg",
    "id_image": "RedPanda_682189",
    "count_view": 0
  },
  {
    "link_thumb": "https://live.staticflickr.com/65535/50016772353_7dd730b631_n.jpg",
    "id_album": "-1846011410",
    "description": "Bird_392966",
    "title": "Bird_392966",
    "link_img": "https://live.staticflickr.com/65535/50016772353_f6ef76e22c_o.jpg",
    "id_image": "Bird_392966",
    "count_view": 0
  },
  {
    "link_thumb": "https://live.staticflickr.com/65535/50352509016_1c5b1c9a57_n.jpg",
    "id_album": "-462831703",
    "description": "Cat_423288",
    "title": "Cat_423288",
    "link_img": "https://live.staticflickr.com/65535/50352509016_9b5e00b99a_o.jpg",
    "id_image": "Cat_423288",
    "count_view": 0
  },
  {
    "link_thumb": "https://live.staticflickr.com/65535/50023610438_d4f0ba9e46_n.jpg",
    "id_album": "405170427",
    "description": "Tiger_541989",
    "title": "Tiger_541989",
    "link_img": "https://live.staticflickr.com/65535/50023610438_573a6e3cb4_o.jpg",
    "id_image": "Tiger_541989",
    "count_view": 0
  },
  {
    "link_thumb": "https://live.staticflickr.com/65535/50017583613_eeee7ac045_n.jpg",
    "id_album": "-462831702",
    "description": "Cat_383807",
    "title": "Cat_383807",
    "link_img": "https://live.staticflickr.com/65535/50017583613_e5a261f361_o.jpg",
    "id_image": "Cat_383807",
    "count_view": 0
  },
  {
    "link_thumb": "https://live.staticflickr.com/65535/50024411372_ced386883f_n.jpg",
    "id_album": "405170427",
    "description": "Tiger_528047",
    "title": "Tiger_528047",
    "link_img": "https://live.staticflickr.com/65535/50024411372_ba16332b67_o.jpg",
    "id_image": "Tiger_528047",
    "count_view": 0
  },
  {
    "link_thumb": "https://live.staticflickr.com/65535/50023270436_a412cb9f50_n.jpg",
    "id_album": "48367914",
    "description": "Rhino_337762",
    "title": "Rhino_337762",
    "link_img": "https://live.staticflickr.com/65535/50023270436_f9c6b3e291_o.jpg",
    "id_image": "Rhino_337762",
    "count_view": 0
  },
  {
    "link_thumb": "https://live.staticflickr.com/65535/50019719201_109b6e840d_n.jpg",
    "id_album": "-1481843714",
    "description": "Cheetah_581447",
    "title": "Cheetah_581447",
    "link_img": "https://live.staticflickr.com/65535/50019719201_d66cf7295d_o.jpg",
    "id_image": "Cheetah_581447",
    "count_view": 0
  },
  {
    "link_thumb": "https://live.staticflickr.com/65535/50020069972_19cae51eef_n.jpg",
    "id_album": "-1868680171",
    "description": "Cougar_376816",
    "title": "Cougar_376816",
    "link_img": "https://live.staticflickr.com/65535/50020069972_1038381774_o.jpg",
    "id_image": "Cougar_376816",
    "count_view": 0
  },
  {
    "link_thumb": "https://live.staticflickr.com/65535/50020222996_43121a4431_n.jpg",
    "id_album": "-149330232",
    "description": "Dog_286359",
    "title": "Dog_286359",
    "link_img": "https://live.staticflickr.com/65535/50020222996_e1a2d02eeb_o.jpg",
    "id_image": "Dog_286359",
    "count_view": 0
  },
  {
    "link_thumb": "https://live.staticflickr.com/65535/50022298046_ef7a653c12_n.jpg",
    "id_album": "1957967135",
    "description": "Mouse_877313",
    "title": "Mouse_877313",
    "link_img": "https://live.staticflickr.com/65535/50022298046_bee8c4d51d_o.jpg",
    "id_image": "Mouse_877313",
    "count_view": 0
  },
  {
    "link_thumb": "https://live.staticflickr.com/65535/50021143882_525486f16e_n.jpg",
    "id_album": "-1758557371",
    "description": "Flamingo_390681",
    "title": "Flamingo_390681",
    "link_img": "https://live.staticflickr.com/65535/50021143882_fab5476ed4_o.jpg",
    "id_image": "Flamingo_390681",
    "count_view": 0
  },
  {
    "link_thumb": "https://live.staticflickr.com/65535/50017221201_0f576b0c81_n.jpg",
    "id_album": "-1846011410",
    "description": "Bird_262205",
    "title": "Bird_262205",
    "link_img": "https://live.staticflickr.com/65535/50017221201_daa0d7c6ea_o.jpg",
    "id_image": "Bird_262205",
    "count_view": 0
  },
  {
    "link_thumb": "https://live.staticflickr.com/65535/50022142262_385e05eeea_n.jpg",
    "id_album": "1392348450",
    "description": "Leopard_204341",
    "title": "Leopard_204341",
    "link_img": "https://live.staticflickr.com/65535/50022142262_7215f28d66_o.jpg",
    "id_image": "Leopard_204341",
    "count_view": 0
  },
  {
    "link_thumb": "https://live.staticflickr.com/65535/50024054266_6969c7a661_n.jpg",
    "id_album": "405170427",
    "description": "Tiger_269660",
    "title": "Tiger_269660",
    "link_img": "https://live.staticflickr.com/65535/50024054266_2b7485c7ea_o.jpg",
    "id_image": "Tiger_269660",
    "count_view": 0
  },
  {
    "link_thumb": "https://live.staticflickr.com/65535/50020363061_9660fde5eb_n.jpg",
    "id_album": "-149330231",
    "description": "Dog_385780",
    "title": "Dog_385780",
    "link_img": "https://live.staticflickr.com/65535/50020363061_c6b451a756_o.jpg",
    "id_image": "Dog_385780",
    "count_view": 0
  },
  {
    "link_thumb": "https://live.staticflickr.com/65535/50021462037_1e86eae221_n.jpg",
    "id_album": "-462831704",
    "description": "Cat_727487",
    "title": "Cat_727487",
    "link_img": "https://live.staticflickr.com/65535/50021462037_d0d60bedc9_o.jpg",
    "id_image": "Cat_727487",
    "count_view": 0
  },
  {
    "link_thumb": "https://live.staticflickr.com/65535/50020580761_886a3622c2_n.jpg",
    "id_album": "-54509188",
    "description": "Dolphin_502647",
    "title": "Dolphin_502647",
    "link_img": "https://live.staticflickr.com/65535/50020580761_2554d58429_o.jpg",
    "id_image": "Dolphin_502647",
    "count_view": 0
  },
  {
    "link_thumb": "https://live.staticflickr.com/65535/50021322903_2b55b9cfdd_n.jpg",
    "id_album": "-1882491687",
    "description": "Ladybug_78922",
    "title": "Ladybug_78922",
    "link_img": "https://live.staticflickr.com/65535/50021322903_040059f83b_o.jpg",
    "id_image": "Ladybug_78922",
    "count_view": 0
  },
  {
    "link_thumb": "https://live.staticflickr.com/65535/50021555386_de4354bfb6_n.jpg",
    "id_album": "-1933715543",
    "description": "Horse_707729",
    "title": "Horse_707729",
    "link_img": "https://live.staticflickr.com/65535/50021555386_dc72de3be3_o.jpg",
    "id_image": "Horse_707729",
    "count_view": 0
  },
  {
    "link_thumb": "https://live.staticflickr.com/65535/50022510351_aa12a467b8_n.jpg",
    "id_album": "-1384601601",
    "description": "Owl_97982",
    "title": "Owl_97982",
    "link_img": "https://live.staticflickr.com/65535/50022510351_b4dbd46075_o.jpg",
    "id_image": "Owl_97982",
    "count_view": 0
  },
  {
    "link_thumb": "https://live.staticflickr.com/65535/50017274813_dee5c38d91_n.jpg",
    "id_album": "-462831705",
    "description": "Cat_167505",
    "title": "Cat_167505",
    "link_img": "https://live.staticflickr.com/65535/50017274813_57eccc420c_o.jpg",
    "id_image": "Cat_167505",
    "count_view": 0
  },
  {
    "link_thumb": "https://live.staticflickr.com/65535/50352419881_2a1433b689_n.jpg",
    "id_album": "-462831703",
    "description": "Cat_203687",
    "title": "Cat_203687",
    "link_img": "https://live.staticflickr.com/65535/50352419881_a4d1413311_o.jpg",
    "id_image": "Cat_203687",
    "count_view": 0
  },
  {
    "link_thumb": "https://live.staticflickr.com/65535/50017616283_4715e9294c_n.jpg",
    "id_album": "-462831702",
    "description": "Cat_405105",
    "title": "Cat_405105",
    "link_img": "https://live.staticflickr.com/65535/50017616283_4afd69f54f_o.jpg",
    "id_image": "Cat_405105",
    "count_view": 0
  },
  {
    "link_thumb": "https://live.staticflickr.com/65535/50023213192_ef1fbac22c_n.jpg",
    "id_album": "-1431524681",
    "description": "Pug_717056",
    "title": "Pug_717056",
    "link_img": "https://live.staticflickr.com/65535/50023213192_828b1fff45_o.jpg",
    "id_image": "Pug_717056",
    "count_view": 0
  },
  {
    "link_thumb": "https://live.staticflickr.com/65535/50021472677_ecde65574b_n.jpg",
    "id_album": "-462831703",
    "description": "Cat_740057",
    "title": "Cat_740057",
    "link_img": "https://live.staticflickr.com/65535/50021472677_f1a8b8277f_o.jpg",
    "id_image": "Cat_740057",
    "count_view": 0
  },
  {
    "link_thumb": "https://live.staticflickr.com/65535/50016987663_4ccd12a222_n.jpg",
    "id_album": "782930701",
    "description": "BorderCollie_978402",
    "title": "BorderCollie_978402",
    "link_img": "https://live.staticflickr.com/65535/50016987663_94d4918316_o.jpg",
    "id_image": "BorderCollie_978402",
    "count_view": 0
  },
  {
    "link_thumb": "https://live.staticflickr.com/65535/50020487162_993bed2725_n.jpg",
    "id_album": "-149330232",
    "description": "Dog_301766",
    "title": "Dog_301766",
    "link_img": "https://live.staticflickr.com/65535/50020487162_c2c8073425_o.jpg",
    "id_image": "Dog_301766",
    "count_view": 0
  },
  {
    "link_thumb": "https://live.staticflickr.com/65535/50017226633_8c89f7cb5a_n.jpg",
    "id_album": "-462831705",
    "description": "Cat_111529",
    "title": "Cat_111529",
    "link_img": "https://live.staticflickr.com/65535/50017226633_32babc9b86_o.jpg",
    "id_image": "Cat_111529",
    "count_view": 0
  },
  {
    "link_thumb": "https://live.staticflickr.com/65535/50020102898_ca4de4f394_n.jpg",
    "id_album": "-405058657",
    "description": "Dragonfly_706243",
    "title": "Dragonfly_706243",
    "link_img": "https://live.staticflickr.com/65535/50020102898_3be220a902_o.jpg",
    "id_image": "Dragonfly_706243",
    "count_view": 0
  },
  {
    "link_thumb": "https://live.staticflickr.com/65535/50020453162_19bd4ea9cc_n.jpg",
    "id_album": "-149330232",
    "description": "Dog_264686",
    "title": "Dog_264686",
    "link_img": "https://live.staticflickr.com/65535/50020453162_8bc297a17f_o.jpg",
    "id_image": "Dog_264686",
    "count_view": 0
  },
  {
    "link_thumb": "https://live.staticflickr.com/65535/50024217546_2b22460fc0_n.jpg",
    "id_album": "405170427",
    "description": "Tiger_804943",
    "title": "Tiger_804943",
    "link_img": "https://live.staticflickr.com/65535/50024217546_e3f2709051_o.jpg",
    "id_image": "Tiger_804943",
    "count_view": 0
  },
  {
    "link_thumb": "https://live.staticflickr.com/65535/50016505908_e30c23f596_n.jpg",
    "id_album": "-422187261",
    "description": "Bear_362757",
    "title": "Bear_362757",
    "link_img": "https://live.staticflickr.com/65535/50016505908_2da92470be_o.jpg",
    "id_image": "Bear_362757",
    "count_view": 0
  },
  {
    "link_thumb": "https://live.staticflickr.com/65535/50023474722_46832e2913_n.jpg",
    "id_album": "332874268",
    "description": "RedPanda_650159",
    "title": "RedPanda_650159",
    "link_img": "https://live.staticflickr.com/65535/50023474722_8a81da96b1_o.jpg",
    "id_image": "RedPanda_650159",
    "count_view": 0
  },
  {
    "link_thumb": "https://live.staticflickr.com/65535/50023285323_26c6ef7a42_n.jpg",
    "id_album": "702283289",
    "description": "Squirrel_333487",
    "title": "Squirrel_333487",
    "link_img": "https://live.staticflickr.com/65535/50023285323_8de28b5d85_o.jpg",
    "id_image": "Squirrel_333487",
    "count_view": 0
  },
  {
    "link_thumb": "https://live.staticflickr.com/65535/50020169031_fb9c9341e8_n.jpg",
    "id_album": "-149330232",
    "description": "Dog_236277",
    "title": "Dog_236277",
    "link_img": "https://live.staticflickr.com/65535/50020169031_a0f80184a4_o.jpg",
    "id_image": "Dog_236277",
    "count_view": 0
  },
  {
    "link_thumb": "https://live.staticflickr.com/65535/50022167341_a2c6b800a7_n.jpg",
    "id_album": "1894617400",
    "description": "Lynx_916083",
    "title": "Lynx_916083",
    "link_img": "https://live.staticflickr.com/65535/50022167341_dcac0390d7_o.jpg",
    "id_image": "Lynx_916083",
    "count_view": 0
  },
  {
    "link_thumb": "https://live.staticflickr.com/65535/50019646872_6ee2af356a_n.jpg",
    "id_album": "-462831703",
    "description": "Cat_881037",
    "title": "Cat_881037",
    "link_img": "https://live.staticflickr.com/65535/50019646872_64ca435b62_o.jpg",
    "id_image": "Cat_881037",
    "count_view": 0
  },
  {
    "link_thumb": "https://live.staticflickr.com/65535/50021681556_83fbbcc5e6_n.jpg",
    "id_album": "1658866795",
    "description": "Insect_403690",
    "title": "Insect_403690",
    "link_img": "https://live.staticflickr.com/65535/50021681556_fca029f77f_o.jpg",
    "id_image": "Insect_403690",
    "count_view": 0
  },
  {
    "link_thumb": "https://live.staticflickr.com/65535/50016871813_1f21562f14_n.jpg",
    "id_album": "-1846011410",
    "description": "Bird_652308",
    "title": "Bird_652308",
    "link_img": "https://live.staticflickr.com/65535/50016871813_8eda678b63_o.jpg",
    "id_image": "Bird_652308",
    "count_view": 0
  },
  {
    "link_thumb": "https://live.staticflickr.com/65535/50021737966_dd8d0f0d77_n.jpg",
    "id_album": "-843028318",
    "description": "Jaguar_698681",
    "title": "Jaguar_698681",
    "link_img": "https://live.staticflickr.com/65535/50021737966_00066ce5ec_o.jpg",
    "id_image": "Jaguar_698681",
    "count_view": 0
  },
  {
    "link_thumb": "https://live.staticflickr.com/65535/50017446827_f625fd5d9c_n.jpg",
    "id_album": "325287329",
    "description": "Beetle_503825",
    "title": "Beetle_503825",
    "link_img": "https://live.staticflickr.com/65535/50017446827_bb46d89fe3_o.jpg",
    "id_image": "Beetle_503825",
    "count_view": 0
  },
  {
    "link_thumb": "https://live.staticflickr.com/65535/50021302058_4dc675bbaa_n.jpg",
    "id_album": "-1882491687",
    "description": "Ladybug_349027",
    "title": "Ladybug_349027",
    "link_img": "https://live.staticflickr.com/65535/50021302058_e4ea86fccd_o.jpg",
    "id_image": "Ladybug_349027",
    "count_view": 0
  },
  {
    "link_thumb": "https://live.staticflickr.com/65535/50017384122_c6f3cdf592_n.jpg",
    "id_album": "1699594607",
    "description": "Bee_312872",
    "title": "Bee_312872",
    "link_img": "https://live.staticflickr.com/65535/50017384122_f526f95c51_o.jpg",
    "id_image": "Bee_312872",
    "count_view": 0
  },
  {
    "link_thumb": "https://live.staticflickr.com/65535/50017129372_0a738e561d_n.jpg",
    "id_album": "523598895",
    "description": "Artistic_131529",
    "title": "Artistic_131529",
    "link_img": "https://live.staticflickr.com/65535/50017129372_9f8ff44176_o.jpg",
    "id_image": "Artistic_131529",
    "count_view": 0
  },
  {
    "link_thumb": "https://live.staticflickr.com/65535/50020096396_226016b6dc_n.jpg",
    "id_album": "297232732",
    "description": "Dinosaur_635391",
    "title": "Dinosaur_635391",
    "link_img": "https://live.staticflickr.com/65535/50020096396_513915aca7_o.jpg",
    "id_image": "Dinosaur_635391",
    "count_view": 0
  },
  {
    "link_thumb": "https://live.staticflickr.com/65535/50022078377_0ce19210e0_n.jpg",
    "id_album": "771796001",
    "description": "Koala_731871",
    "title": "Koala_731871",
    "link_img": "https://live.staticflickr.com/65535/50022078377_b1a90b1af5_o.jpg",
    "id_image": "Koala_731871",
    "count_view": 0
  },
  {
    "link_thumb": "https://live.staticflickr.com/65535/50017777242_c840d3e9e9_n.jpg",
    "id_album": "782930701",
    "description": "BorderCollie_992878",
    "title": "BorderCollie_992878",
    "link_img": "https://live.staticflickr.com/65535/50017777242_1b631262f7_o.jpg",
    "id_image": "BorderCollie_992878",
    "count_view": 0
  },
  {
    "link_thumb": "https://live.staticflickr.com/65535/50017094441_b93230c00b_n.jpg",
    "id_album": "-422187261",
    "description": "Bear_874513",
    "title": "Bear_874513",
    "link_img": "https://live.staticflickr.com/65535/50017094441_9c954b4abf_o.jpg",
    "id_image": "Bear_874513",
    "count_view": 0
  },
  {
    "link_thumb": "https://live.staticflickr.com/65535/50019288883_2ee8eb8fe6_n.jpg",
    "id_album": "-1868680171",
    "description": "Cougar_439889",
    "title": "Cougar_439889",
    "link_img": "https://live.staticflickr.com/65535/50019288883_c5880e59db_o.jpg",
    "id_image": "Cougar_439889",
    "count_view": 0
  },
  {
    "link_thumb": "https://live.staticflickr.com/65535/50021297391_f2c07d7b42_n.jpg",
    "id_album": "-405626519",
    "description": "GermanShepherd_727495",
    "title": "GermanShepherd_727495",
    "link_img": "https://live.staticflickr.com/65535/50021297391_593e93b9c8_o.jpg",
    "id_image": "GermanShepherd_727495",
    "count_view": 0
  },
  {
    "link_thumb": "https://live.staticflickr.com/65535/50021128403_7ee33c8452_n.jpg",
    "id_album": "1658866795",
    "description": "Insect_393094",
    "title": "Insect_393094",
    "link_img": "https://live.staticflickr.com/65535/50021128403_6caab125c0_o.jpg",
    "id_image": "Insect_393094",
    "count_view": 0
  },
  {
    "link_thumb": "https://live.staticflickr.com/65535/50020370791_e0e17e52e1_n.jpg",
    "id_album": "-149330231",
    "description": "Dog_393395",
    "title": "Dog_393395",
    "link_img": "https://live.staticflickr.com/65535/50020370791_c4b000e50f_o.jpg",
    "id_image": "Dog_393395",
    "count_view": 0
  },
  {
    "link_thumb": "https://live.staticflickr.com/65535/50352793847_b6f7b9f560_n.jpg",
    "id_album": "-462831703",
    "description": "Cat_656572",
    "title": "Cat_656572",
    "link_img": "https://live.staticflickr.com/65535/50352793847_f79385d560_o.jpg",
    "id_image": "Cat_656572",
    "count_view": 0
  },
  {
    "link_thumb": "https://live.staticflickr.com/65535/50021308801_6bf9a326a1_n.jpg",
    "id_album": "-405626519",
    "description": "GermanShepherd_900356",
    "title": "GermanShepherd_900356",
    "link_img": "https://live.staticflickr.com/65535/50021308801_ede5e64843_o.jpg",
    "id_image": "GermanShepherd_900356",
    "count_view": 0
  },
  {
    "link_thumb": "https://live.staticflickr.com/65535/50023760031_4822d3e8dd_n.jpg",
    "id_album": "-1082521515",
    "description": "Spider_417987",
    "title": "Spider_417987",
    "link_img": "https://live.staticflickr.com/65535/50023760031_563124a4e6_o.jpg",
    "id_image": "Spider_417987",
    "count_view": 0
  },
  {
    "link_thumb": "https://live.staticflickr.com/65535/50020845611_49207a1d36_n.jpg",
    "id_album": "-1118073211",
    "description": "Fish_367255",
    "title": "Fish_367255",
    "link_img": "https://live.staticflickr.com/65535/50020845611_d4932ccd63_o.jpg",
    "id_image": "Fish_367255",
    "count_view": 0
  },
  {
    "link_thumb": "https://live.staticflickr.com/65535/50022857037_659e848b07_n.jpg",
    "id_album": "-801414987",
    "description": "Peacock_643788",
    "title": "Peacock_643788",
    "link_img": "https://live.staticflickr.com/65535/50022857037_1cee8c727e_o.jpg",
    "id_image": "Peacock_643788",
    "count_view": 0
  },
  {
    "link_thumb": "https://live.staticflickr.com/65535/50019653808_8e2b216dc4_n.jpg",
    "id_album": "-149330232",
    "description": "Dog_256956",
    "title": "Dog_256956",
    "link_img": "https://live.staticflickr.com/65535/50019653808_d19b4ec955_o.jpg",
    "id_image": "Dog_256956",
    "count_view": 0
  },
  {
    "link_thumb": "https://live.staticflickr.com/65535/50022474713_3e310609ab_n.jpg",
    "id_album": "-353898617",
    "description": "Puppy_548553",
    "title": "Puppy_548553",
    "link_img": "https://live.staticflickr.com/65535/50022474713_66c924b909_o.jpg",
    "id_image": "Puppy_548553",
    "count_view": 0
  },
  {
    "link_thumb": "https://live.staticflickr.com/65535/50016996411_20e12b270d_n.jpg",
    "id_album": "809937717",
    "description": "Beagle_845444",
    "title": "Beagle_845444",
    "link_img": "https://live.staticflickr.com/65535/50016996411_c0bae422b3_o.jpg",
    "id_image": "Beagle_845444",
    "count_view": 0
  },
  {
    "link_thumb": "https://live.staticflickr.com/65535/50020407148_66d8a0fc35_n.jpg",
    "id_album": "-128218148",
    "description": "Fox_346621",
    "title": "Fox_346621",
    "link_img": "https://live.staticflickr.com/65535/50020407148_206ce758c4_o.jpg",
    "id_image": "Fox_346621",
    "count_view": 0
  },
  {
    "link_thumb": "https://live.staticflickr.com/65535/50018615953_bf24de97ee_n.jpg",
    "id_album": "-462831702",
    "description": "Cat_414804",
    "title": "Cat_414804",
    "link_img": "https://live.staticflickr.com/65535/50018615953_c11611287c_o.jpg",
    "id_image": "Cat_414804",
    "count_view": 0
  },
  {
    "link_thumb": "https://live.staticflickr.com/65535/50017749207_30fb558f26_n.jpg",
    "id_album": "782930701",
    "description": "BorderCollie_715228",
    "title": "BorderCollie_715228",
    "link_img": "https://live.staticflickr.com/65535/50017749207_240e82d0b8_o.jpg",
    "id_image": "BorderCollie_715228",
    "count_view": 0
  },
  {
    "link_thumb": "https://live.staticflickr.com/65535/50019888307_afba23752f_n.jpg",
    "id_album": "1889777354",
    "description": "CGI_779448",
    "title": "CGI_779448",
    "link_img": "https://live.staticflickr.com/65535/50019888307_f27c1a1e11_o.jpg",
    "id_image": "CGI_779448",
    "count_view": 0
  },
  {
    "link_thumb": "https://live.staticflickr.com/65535/50351940093_42fdce9729_n.jpg",
    "id_album": "-462831703",
    "description": "Cat_667884",
    "title": "Cat_667884",
    "link_img": "https://live.staticflickr.com/65535/50351940093_66b3575723_o.jpg",
    "id_image": "Cat_667884",
    "count_view": 0
  },
  {
    "link_thumb": "https://live.staticflickr.com/65535/50020943777_5d971a4bb2_n.jpg",
    "id_album": "-39098563",
    "description": "Eagle_274859",
    "title": "Eagle_274859",
    "link_img": "https://live.staticflickr.com/65535/50020943777_53eb0b055b_o.jpg",
    "id_image": "Eagle_274859",
    "count_view": 0
  },
  {
    "link_thumb": "https://live.staticflickr.com/65535/50020833973_25ba025c89_n.jpg",
    "id_album": "-975314166",
    "description": "Goldfish_328133",
    "title": "Goldfish_328133",
    "link_img": "https://live.staticflickr.com/65535/50020833973_a6a2646eea_o.jpg",
    "id_image": "Goldfish_328133",
    "count_view": 0
  },
  {
    "link_thumb": "https://live.staticflickr.com/65535/50021630436_db2eed1477_n.jpg",
    "id_album": "-712553376",
    "description": "Husky_365130",
    "title": "Husky_365130",
    "link_img": "https://live.staticflickr.com/65535/50021630436_8b5553b86a_o.jpg",
    "id_image": "Husky_365130",
    "count_view": 0
  },
  {
    "link_thumb": "https://live.staticflickr.com/65535/50021161313_2532d39bb4_n.jpg",
    "id_album": "1658866795",
    "description": "Insect_574368",
    "title": "Insect_574368",
    "link_img": "https://live.staticflickr.com/65535/50021161313_8d6e24da68_o.jpg",
    "id_image": "Insect_574368",
    "count_view": 0
  },
  {
    "link_thumb": "https://live.staticflickr.com/65535/50019337781_8ac7a1050a_n.jpg",
    "id_album": "-462831703",
    "description": "Cat_864335",
    "title": "Cat_864335",
    "link_img": "https://live.staticflickr.com/65535/50019337781_7aee861d3d_o.jpg",
    "id_image": "Cat_864335",
    "count_view": 0
  },
  {
    "link_thumb": "https://live.staticflickr.com/65535/50022422971_297a036115_n.jpg",
    "id_album": "-1384601601",
    "description": "Owl_430959",
    "title": "Owl_430959",
    "link_img": "https://live.staticflickr.com/65535/50022422971_37e6a55978_o.jpg",
    "id_image": "Owl_430959",
    "count_view": 0
  },
  {
    "link_thumb": "https://live.staticflickr.com/65535/50022151656_ca5dbec103_n.jpg",
    "id_album": "1894617400",
    "description": "Lynx_538939",
    "title": "Lynx_538939",
    "link_img": "https://live.staticflickr.com/65535/50022151656_97e23cdf19_o.jpg",
    "id_image": "Lynx_538939",
    "count_view": 0
  },
  {
    "link_thumb": "https://live.staticflickr.com/65535/50021477753_21600d75d7_n.jpg",
    "id_album": "416744915",
    "description": "Lion_432399",
    "title": "Lion_432399",
    "link_img": "https://live.staticflickr.com/65535/50021477753_a62a22d375_o.jpg",
    "id_image": "Lion_432399",
    "count_view": 0
  },
  {
    "link_thumb": "https://live.staticflickr.com/65535/50019575177_05a4450d5e_n.jpg",
    "id_album": "-462831703",
    "description": "Cat_848282",
    "title": "Cat_848282",
    "link_img": "https://live.staticflickr.com/65535/50019575177_8c738d4e86_o.jpg",
    "id_image": "Cat_848282",
    "count_view": 0
  },
  {
    "link_thumb": "https://live.staticflickr.com/65535/50019793693_7b6e5f258e_n.jpg",
    "id_album": "-149330232",
    "description": "Dog_364862",
    "title": "Dog_364862",
    "link_img": "https://live.staticflickr.com/65535/50019793693_dd58a7aa39_o.jpg",
    "id_image": "Dog_364862",
    "count_view": 0
  },
  {
    "link_thumb": "https://live.staticflickr.com/65535/50020021098_f0816b8dab_n.jpg",
    "id_album": "-149330231",
    "description": "Dog_978405",
    "title": "Dog_978405",
    "link_img": "https://live.staticflickr.com/65535/50020021098_befc8ce1fa_o.jpg",
    "id_image": "Dog_978405",
    "count_view": 0
  },
  {
    "link_thumb": "https://live.staticflickr.com/65535/50019013133_a90d1ac471_n.jpg",
    "id_album": "-462831703",
    "description": "Cat_976133",
    "title": "Cat_976133",
    "link_img": "https://live.staticflickr.com/65535/50019013133_99b5e1d0fe_o.jpg",
    "id_image": "Cat_976133",
    "count_view": 0
  },
  {
    "link_thumb": "https://live.staticflickr.com/65535/50018297177_81d659c297_n.jpg",
    "id_album": "-462831702",
    "description": "Cat_352643",
    "title": "Cat_352643",
    "link_img": "https://live.staticflickr.com/65535/50018297177_34e2ef2244_o.jpg",
    "id_image": "Cat_352643",
    "count_view": 0
  },
  {
    "link_thumb": "https://live.staticflickr.com/65535/50020330181_5acecc7b78_n.jpg",
    "id_album": "-149330232",
    "description": "Dog_365316",
    "title": "Dog_365316",
    "link_img": "https://live.staticflickr.com/65535/50020330181_7678258f4d_o.jpg",
    "id_image": "Dog_365316",
    "count_view": 0
  },
  {
    "link_thumb": "https://live.staticflickr.com/65535/50022257977_b7ce753a07_n.jpg",
    "id_album": "416744915",
    "description": "Lion_361672",
    "title": "Lion_361672",
    "link_img": "https://live.staticflickr.com/65535/50022257977_de6a008eab_o.jpg",
    "id_image": "Lion_361672",
    "count_view": 0
  },
  {
    "link_thumb": "https://live.staticflickr.com/65535/50019425027_60915af6be_n.jpg",
    "id_album": "-462831702",
    "description": "Cat_425356",
    "title": "Cat_425356",
    "link_img": "https://live.staticflickr.com/65535/50019425027_9295587738_o.jpg",
    "id_image": "Cat_425356",
    "count_view": 0
  },
  {
    "link_thumb": "https://live.staticflickr.com/65535/50017093597_7677cec77b_n.jpg",
    "id_album": "-1741290715",
    "description": "Ant_391519",
    "title": "Ant_391519",
    "link_img": "https://live.staticflickr.com/65535/50017093597_110c076f10_o.jpg",
    "id_image": "Ant_391519",
    "count_view": 0
  },
  {
    "link_thumb": "https://live.staticflickr.com/65535/50018414377_e26e609e82_n.jpg",
    "id_album": "-462831702",
    "description": "Cat_407995",
    "title": "Cat_407995",
    "link_img": "https://live.staticflickr.com/65535/50018414377_646cb1c9ff_o.jpg",
    "id_image": "Cat_407995",
    "count_view": 0
  },
  {
    "link_thumb": "https://live.staticflickr.com/65535/50021430578_d63de9c4a6_n.jpg",
    "id_album": "416744915",
    "description": "Lion_207854",
    "title": "Lion_207854",
    "link_img": "https://live.staticflickr.com/65535/50021430578_24cd93e064_o.jpg",
    "id_image": "Lion_207854",
    "count_view": 0
  },
  {
    "link_thumb": "https://live.staticflickr.com/65535/50016599223_c93eafbc6d_n.jpg",
    "id_album": "1699594607",
    "description": "Bee_340522",
    "title": "Bee_340522",
    "link_img": "https://live.staticflickr.com/65535/50016599223_12f77f20d2_o.jpg",
    "id_image": "Bee_340522",
    "count_view": 0
  },
  {
    "link_thumb": "https://live.staticflickr.com/65535/50022273293_754c81c35a_n.jpg",
    "id_album": "1008910300",
    "description": "PolarBear_351430",
    "title": "PolarBear_351430",
    "link_img": "https://live.staticflickr.com/65535/50022273293_1b4851a504_o.jpg",
    "id_image": "PolarBear_351430",
    "count_view": 0
  },
  {
    "link_thumb": "https://live.staticflickr.com/65535/50020509598_1f19d5497f_n.jpg",
    "id_album": "844170697",
    "description": "Frog_231323",
    "title": "Frog_231323",
    "link_img": "https://live.staticflickr.com/65535/50020509598_91850540b4_o.jpg",
    "id_image": "Frog_231323",
    "count_view": 0
  },
  {
    "link_thumb": "https://live.staticflickr.com/65535/50018028497_5d457f0b18_n.jpg",
    "id_album": "-462831705",
    "description": "Cat_117250",
    "title": "Cat_117250",
    "link_img": "https://live.staticflickr.com/65535/50018028497_cafa34fa6f_o.jpg",
    "id_image": "Cat_117250",
    "count_view": 0
  },
  {
    "link_thumb": "https://live.staticflickr.com/65535/50020211168_6ea963af70_n.jpg",
    "id_album": "1270947998",
    "description": "Elephant_344769",
    "title": "Elephant_344769",
    "link_img": "https://live.staticflickr.com/65535/50020211168_85a08d87a4_o.jpg",
    "id_image": "Elephant_344769",
    "count_view": 0
  },
  {
    "link_thumb": "https://live.staticflickr.com/65535/50022937368_4eee9ee6f5_n.jpg",
    "id_album": "-755466332",
    "description": "Sheep_490664",
    "title": "Sheep_490664",
    "link_img": "https://live.staticflickr.com/65535/50022937368_0aae4f352b_o.jpg",
    "id_image": "Sheep_490664",
    "count_view": 0
  },
  {
    "link_thumb": "https://live.staticflickr.com/65535/50018868948_3bb703b6a2_n.jpg",
    "id_album": "-462831703",
    "description": "Cat_888551",
    "title": "Cat_888551",
    "link_img": "https://live.staticflickr.com/65535/50018868948_4deb444d88_o.jpg",
    "id_image": "Cat_888551",
    "count_view": 0
  },
  {
    "link_thumb": "https://live.staticflickr.com/65535/50022062927_f111342af8_n.jpg",
    "id_album": "770105808",
    "description": "Kingfisher_707902",
    "title": "Kingfisher_707902",
    "link_img": "https://live.staticflickr.com/65535/50022062927_2100b45f67_o.jpg",
    "id_image": "Kingfisher_707902",
    "count_view": 0
  },
  {
    "link_thumb": "https://live.staticflickr.com/65535/50023643053_c8428e80e1_n.jpg",
    "id_album": "405170427",
    "description": "Tiger_658565",
    "title": "Tiger_658565",
    "link_img": "https://live.staticflickr.com/65535/50023643053_930b46bbaa_o.jpg",
    "id_image": "Tiger_658565",
    "count_view": 0
  },
  {
    "link_thumb": "https://live.staticflickr.com/65535/50019758301_c755a4c406_n.jpg",
    "id_album": "791455625",
    "description": "Chipmunk_358284",
    "title": "Chipmunk_358284",
    "link_img": "https://live.staticflickr.com/65535/50019758301_7ec914a87c_o.jpg",
    "id_image": "Chipmunk_358284",
    "count_view": 0
  },
  {
    "link_thumb": "https://live.staticflickr.com/65535/50017172397_9d49001657_n.jpg",
    "id_album": "523598895",
    "description": "Artistic_607840",
    "title": "Artistic_607840",
    "link_img": "https://live.staticflickr.com/65535/50017172397_aca7c645e9_o.jpg",
    "id_image": "Artistic_607840",
    "count_view": 0
  },
  {
    "link_thumb": "https://live.staticflickr.com/65535/50017755502_23cd12d88a_n.jpg",
    "id_album": "782930701",
    "description": "BorderCollie_815542",
    "title": "BorderCollie_815542",
    "link_img": "https://live.staticflickr.com/65535/50017755502_9ba95022b9_o.jpg",
    "id_image": "BorderCollie_815542",
    "count_view": 0
  },
  {
    "link_thumb": "https://live.staticflickr.com/65535/50020773333_1b2e63dfba_n.jpg",
    "id_album": "-405626519",
    "description": "GermanShepherd_993606",
    "title": "GermanShepherd_993606",
    "link_img": "https://live.staticflickr.com/65535/50020773333_949e3e5b76_o.jpg",
    "id_image": "GermanShepherd_993606",
    "count_view": 0
  },
  {
    "link_thumb": "https://live.staticflickr.com/65535/50017830592_52120bea4f_n.jpg",
    "id_album": "-401151552",
    "description": "Butterfly_358461",
    "title": "Butterfly_358461",
    "link_img": "https://live.staticflickr.com/65535/50017830592_dbd8bff018_o.jpg",
    "id_image": "Butterfly_358461",
    "count_view": 0
  },
  {
    "link_thumb": "https://live.staticflickr.com/65535/50021647211_a19395ee91_n.jpg",
    "id_album": "-737856092",
    "description": "Iguana_333038",
    "title": "Iguana_333038",
    "link_img": "https://live.staticflickr.com/65535/50021647211_79e0694d49_o.jpg",
    "id_image": "Iguana_333038",
    "count_view": 0
  },
  {
    "link_thumb": "https://live.staticflickr.com/65535/50024442126_6251c2eb43_n.jpg",
    "id_album": "766572659",
    "description": "WhiteTiger_504539",
    "title": "WhiteTiger_504539",
    "link_img": "https://live.staticflickr.com/65535/50024442126_8b947a8003_o.jpg",
    "id_image": "WhiteTiger_504539",
    "count_view": 0
  },
  {
    "link_thumb": "https://live.staticflickr.com/65535/50021346318_3f30fca7ca_n.jpg",
    "id_album": "1392348450",
    "description": "Leopard_213914",
    "title": "Leopard_213914",
    "link_img": "https://live.staticflickr.com/65535/50021346318_af790dc636_o.jpg",
    "id_image": "Leopard_213914",
    "count_view": 0
  },
  {
    "link_thumb": "https://live.staticflickr.com/65535/50021594653_54959dd054_n.jpg",
    "id_album": "1894617400",
    "description": "Lynx_358871",
    "title": "Lynx_358871",
    "link_img": "https://live.staticflickr.com/65535/50021594653_584509625e_o.jpg",
    "id_image": "Lynx_358871",
    "count_view": 0
  },
  {
    "link_thumb": "https://live.staticflickr.com/65535/50016409713_8deb7f1c71_n.jpg",
    "id_album": "390697200",
    "description": "AustralianShepherd_774299",
    "title": "AustralianShepherd_774299",
    "link_img": "https://live.staticflickr.com/65535/50016409713_eeb8bcdd8c_o.jpg",
    "id_image": "AustralianShepherd_774299",
    "count_view": 0
  },
  {
    "link_thumb": "https://live.staticflickr.com/65535/50023735172_19b430c0f8_n.jpg",
    "id_album": "-755466332",
    "description": "Sheep_404947",
    "title": "Sheep_404947",
    "link_img": "https://live.staticflickr.com/65535/50023735172_3b8b90ffcb_o.jpg",
    "id_image": "Sheep_404947",
    "count_view": 0
  },
  {
    "link_thumb": "https://live.staticflickr.com/65535/50022397557_0a17f60752_n.jpg",
    "id_album": "1894617400",
    "description": "Lynx_368603",
    "title": "Lynx_368603",
    "link_img": "https://live.staticflickr.com/65535/50022397557_84c85e8e27_o.jpg",
    "id_image": "Lynx_368603",
    "count_view": 0
  },
  {
    "link_thumb": "https://live.staticflickr.com/65535/50017275196_5732269669_n.jpg",
    "id_album": "-1846011410",
    "description": "Bird_364707",
    "title": "Bird_364707",
    "link_img": "https://live.staticflickr.com/65535/50017275196_b87471aaed_o.jpg",
    "id_image": "Bird_364707",
    "count_view": 0
  }
]