[
  {
    "link_thumb": "https://live.staticflickr.com/65535/50019148531_d79d9425a0_n.jpg",
    "id_album": "-462831702",
    "description": "Cat_415222",
    "title": "Cat_415222",
    "link_img": "https://live.staticflickr.com/65535/50019148531_8fa2c4efe2_o.jpg",
    "id_image": "Cat_415222",
    "count_view": 0
  },
  {
    "link_thumb": "https://live.staticflickr.com/65535/50022099307_566ef91e2b_n.jpg",
    "id_album": "-1882491687",
    "description": "Ladybug_322592",
    "title": "Ladybug_322592",
    "link_img": "https://live.staticflickr.com/65535/50022099307_638aa2c4e7_o.jpg",
    "id_image": "Ladybug_322592",
    "count_view": 0
  },
  {
    "link_thumb": "https://live.staticflickr.com/65535/50019766213_905127c5ea_n.jpg",
    "id_album": "-149330232",
    "description": "Dog_350205",
    "title": "Dog_350205",
    "link_img": "https://live.staticflickr.com/65535/50019766213_4d64946953_o.jpg",
    "id_image": "Dog_350205",
    "count_view": 0
  },
  {
    "link_thumb": "https://live.staticflickr.com/65535/50019660748_8dc5e9bfb1_n.jpg",
    "id_album": "-149330232",
    "description": "Dog_263556",
    "title": "Dog_263556",
    "link_img": "https://live.staticflickr.com/65535/50019660748_07928369f9_o.jpg",
    "id_image": "Dog_263556",
    "count_view": 0
  },
  {
    "link_thumb": "https://live.staticflickr.com/65535/50019918372_ac30609422_n.jpg",
    "id_album": "-766919393",
    "description": "Chameleon_727706",
    "title": "Chameleon_727706",
    "link_img": "https://live.staticflickr.com/65535/50019918372_b92932ff67_o.jpg",
    "id_image": "Chameleon_727706",
    "count_view": 0
  },
  {
    "link_thumb": "https://live.staticflickr.com/65535/50017230226_92897131d5_n.jpg",
    "id_album": "-1846011410",
    "description": "Bird_282565",
    "title": "Bird_282565",
    "link_img": "https://live.staticflickr.com/65535/50017230226_49fa45097d_o.jpg",
    "id_image": "Bird_282565",
    "count_view": 0
  },
  {
    "link_thumb": "https://live.staticflickr.com/65535/50020593616_23d30344bd_n.jpg",
    "id_album": "-1859457960",
    "description": "Dove_103170",
    "title": "Dove_103170",
    "link_img": "https://live.staticflickr.com/65535/50020593616_38e052947f_o.jpg",
    "id_image": "Dove_103170",
    "count_view": 0
  },
  {
    "link_thumb": "https://live.staticflickr.com/65535/50017160643_5130af167b_n.jpg",
    "id_album": "-401151552",
    "description": "Butterfly_884775",
    "title": "Butterfly_884775",
    "link_img": "https://live.staticflickr.com/65535/50017160643_fd85e77d3b_o.jpg",
    "id_image": "Butterfly_884775",
    "count_view": 0
  },
  {
    "link_thumb": "https://live.staticflickr.com/65535/50022451868_4633d2f96c_n.jpg",
    "id_album": "-353898617",
    "description": "Puppy_430566",
    "title": "Puppy_430566",
    "link_img": "https://live.staticflickr.com/65535/50022451868_493ea8aff2_o.jpg",
    "id_image": "Puppy_430566",
    "count_view": 0
  },
  {
    "link_thumb": "https://live.staticflickr.com/65535/50018364707_34fd5c01b5_n.jpg",
    "id_album": "-462831702",
    "description": "Cat_377961",
    "title": "Cat_377961",
    "link_img": "https://live.staticflickr.com/65535/50018364707_f8642285f1_o.jpg",
    "id_image": "Cat_377961",
    "count_view": 0
  },
  {
    "link_thumb": "https://live.staticflickr.com/65535/50351751058_be3348ba63_n.jpg",
    "id_album": "-462831703",
    "description": "Cat_265742",
    "title": "Cat_265742",
    "link_img": "https://live.staticflickr.com/65535/50351751058_2f6c515e9b_o.jpg",
    "id_image": "Cat_265742",
    "count_view": 0
  },
  {
    "link_thumb": "https://live.staticflickr.com/65535/50019132243_9c79e6e104_n.jpg",
    "id_album": "-766919393",
    "description": "Chameleon_765804",
    "title": "Chameleon_765804",
    "link_img": "https://live.staticflickr.com/65535/50019132243_74a95622cb_o.jpg",
    "id_image": "Chameleon_765804",
    "count_view": 0
  },
  {
    "link_thumb": "https://live.staticflickr.com/65535/50017619838_333347fa30_n.jpg",
    "id_album": "-462831702",
    "description": "Cat_407059",
    "title": "Cat_407059",
    "link_img": "https://live.staticflickr.com/65535/50017619838_954eb8e07b_o.jpg",
    "id_image": "Cat_407059",
    "count_view": 0
  },
  {
    "link_thumb": "https://live.staticflickr.com/65535/50018026357_1b12a17794_n.jpg",
    "id_album": "-462831705",
    "description": "Cat_117105",
    "title": "Cat_117105",
    "link_img": "https://live.staticflickr.com/65535/50018026357_4725d30248_o.jpg",
    "id_image": "Cat_117105",
    "count_view": 0
  },
  {
    "link_thumb": "https://live.staticflickr.com/65535/50017563446_e239b77bab_n.jpg",
    "id_album": "-401151552",
    "description": "Butterfly_334536",
    "title": "Butterfly_334536",
    "link_img": "https://live.staticflickr.com/65535/50017563446_1659161bc4_o.jpg",
    "id_image": "Butterfly_334536",
    "count_view": 0
  },
  {
    "link_thumb": "https://live.staticflickr.com/65535/50019770586_000236e53b_n.jpg",
    "id_album": "791455625",
    "description": "Chipmunk_799618",
    "title": "Chipmunk_799618",
    "link_img": "https://live.staticflickr.com/65535/50019770586_956d2916cd_o.jpg",
    "id_image": "Chipmunk_799618",
    "count_view": 0
  },
  {
    "link_thumb": "https://live.staticflickr.com/65535/50022968031_75749091e1_n.jpg",
    "id_album": "-353898617",
    "description": "Puppy_364766",
    "title": "Puppy_364766",
    "link_img": "https://live.staticflickr.com/65535/50022968031_971267c191_o.jpg",
    "id_image": "Puppy_364766",
    "count_view": 0
  },
  {
    "link_thumb": "https://live.staticflickr.com/65535/50021914716_063e0381c5_n.jpg",
    "id_album": "1392348450",
    "description": "Leopard_379730",
    "title": "Leopard_379730",
    "link_img": "https://live.staticflickr.com/65535/50021914716_00d54e9072_o.jpg",
    "id_image": "Leopard_379730",
    "count_view": 0
  },
  {
    "link_thumb": "https://live.staticflickr.com/65535/50020024748_e1216d5360_n.jpg",
    "id_album": "-149330231",
    "description": "Dog_996566",
    "title": "Dog_996566",
    "link_img": "https://live.staticflickr.com/65535/50020024748_e67a23c40f_o.jpg",
    "id_image": "Dog_996566",
    "count_view": 0
  },
  {
    "link_thumb": "https://live.staticflickr.com/65535/50016346168_9218f22a5f_n.jpg",
    "id_album": "523598895",
    "description": "Artistic_169830",
    "title": "Artistic_169830",
    "link_img": "https://live.staticflickr.com/65535/50016346168_072c05472c_o.jpg",
    "id_image": "Artistic_169830",
    "count_view": 0
  },
  {
    "link_thumb": "https://live.staticflickr.com/65535/50024562156_f0f936059a_n.jpg",
    "id_album": "-709711865",
    "description": "Wolf_96294",
    "title": "Wolf_96294",
    "link_img": "https://live.staticflickr.com/65535/50024562156_7d122e2790_o.jpg",
    "id_image": "Wolf_96294",
    "count_view": 0
  },
  {
    "link_thumb": "https://live.staticflickr.com/65535/50021292911_f8a2195734_n.jpg",
    "id_album": "-405626519",
    "description": "GermanShepherd_570863",
    "title": "GermanShepherd_570863",
    "link_img": "https://live.staticflickr.com/65535/50021292911_8182519d60_o.jpg",
    "id_image": "GermanShepherd_570863",
    "count_view": 0
  },
  {
    "link_thumb": "https://live.staticflickr.com/65535/50020626323_bee268a2bf_n.jpg",
    "id_album": "-462831704",
    "description": "Cat_686933",
    "title": "Cat_686933",
    "link_img": "https://live.staticflickr.com/65535/50020626323_45cb58a548_o.jpg",
    "id_image": "Cat_686933",
    "count_view": 0
  },
  {
    "link_thumb": "https://live.staticflickr.com/65535/50018227057_96e3c236cb_n.jpg",
    "id_album": "-462831702",
    "description": "Cat_323682",
    "title": "Cat_323682",
    "link_img": "https://live.staticflickr.com/65535/50018227057_d05ac6a96d_o.jpg",
    "id_image": "Cat_323682",
    "count_view": 0
  },
  {
    "link_thumb": "https://live.staticflickr.com/65535/50024776862_c4b8e4e322_n.jpg",
    "id_album": "-709711865",
    "description": "Wolf_550507",
    "title": "Wolf_550507",
    "link_img": "https://live.staticflickr.com/65535/50024776862_44200e6f7a_o.jpg",
    "id_image": "Wolf_550507",
    "count_view": 0
  },
  {
    "link_thumb": "https://live.staticflickr.com/65535/50022353923_6ff16b6156_n.jpg",
    "id_album": "191452764",
    "description": "PrayingMantis_591579",
    "title": "PrayingMantis_591579",
    "link_img": "https://live.staticflickr.com/65535/50022353923_bc27d17b0b_o.jpg",
    "id_image": "PrayingMantis_591579",
    "count_view": 0
  },
  {
    "link_thumb": "https://live.staticflickr.com/65535/50020571033_8a6cd9bc9c_n.jpg",
    "id_album": "-462831704",
    "description": "Cat_555937",
    "title": "Cat_555937",
    "link_img": "https://live.staticflickr.com/65535/50020571033_3418abec87_o.jpg",
    "id_image": "Cat_555937",
    "count_view": 0
  },
  {
    "link_thumb": "https://live.staticflickr.com/65535/50022559607_361de5a787_n.jpg",
    "id_album": "1957967135",
    "description": "Mouse_922494",
    "title": "Mouse_922494",
    "link_img": "https://live.staticflickr.com/65535/50022559607_fde07fb215_o.jpg",
    "id_image": "Mouse_922494",
    "count_view": 0
  },
  {
    "link_thumb": "https://live.staticflickr.com/65535/50018090097_31369ab735_n.jpg",
    "id_album": "-462831705",
    "description": "Cat_185193",
    "title": "Cat_185193",
    "link_img": "https://live.staticflickr.com/65535/50018090097_603e165919_o.jpg",
    "id_image": "Cat_185193",
    "count_view": 0
  },
  {
    "link_thumb": "https://live.staticflickr.com/65535/50017340757_834880a5b2_n.jpg",
    "id_album": "-422187261",
    "description": "Bear_765893",
    "title": "Bear_765893",
    "link_img": "https://live.staticflickr.com/65535/50017340757_b8c3d987e7_o.jpg",
    "id_image": "Bear_765893",
    "count_view": 0
  },
  {
    "link_thumb": "https://live.staticflickr.com/65535/50020429838_7206baedf1_n.jpg",
    "id_album": "-128218148",
    "description": "Fox_534713",
    "title": "Fox_534713",
    "link_img": "https://live.staticflickr.com/65535/50020429838_693f492099_o.jpg",
    "id_image": "Fox_534713",
    "count_view": 0
  },
  {
    "link_thumb": "https://live.staticflickr.com/65535/50023885808_a9fde33437_n.jpg",
    "id_album": "766572659",
    "description": "WhiteTiger_277016",
    "title": "WhiteTiger_277016",
    "link_img": "https://live.staticflickr.com/65535/50023885808_28dfda4a71_o.jpg",
    "id_image": "WhiteTiger_277016",
    "count_view": 0
  },
  {
    "link_thumb": "https://live.staticflickr.com/65535/50017568451_055c81876f_n.jpg",
    "id_album": "-401151552",
    "description": "Butterfly_355990",
    "title": "Butterfly_355990",
    "link_img": "https://live.staticflickr.com/65535/50017568451_5258304568_o.jpg",
    "id_image": "Butterfly_355990",
    "count_view": 0
  },
  {
    "link_thumb": "https://live.staticflickr.com/65535/50016394473_6449478dd8_n.jpg",
    "id_album": "523598895",
    "description": "Artistic_838426",
    "title": "Artistic_838426",
    "link_img": "https://live.staticflickr.com/65535/50016394473_ab889ec6f3_o.jpg",
    "id_image": "Artistic_838426",
    "count_view": 0
  },
  {
    "link_thumb": "https://live.staticflickr.com/65535/50020503377_ef30bc51f4_n.jpg",
    "id_album": "-149330232",
    "description": "Dog_326129",
    "title": "Dog_326129",
    "link_img": "https://live.staticflickr.com/65535/50020503377_fdbfda22f9_o.jpg",
    "id_image": "Dog_326129",
    "count_view": 0
  },
  {
    "link_thumb": "https://live.staticflickr.com/65535/50017589886_5941620382_n.jpg",
    "id_album": "-401151552",
    "description": "Butterfly_419831",
    "title": "Butterfly_419831",
    "link_img": "https://live.staticflickr.com/65535/50017589886_c7e2c028fa_o.jpg",
    "id_image": "Butterfly_419831",
    "count_view": 0
  },
  {
    "link_thumb": "https://live.staticflickr.com/65535/50023168591_07abc74a4e_n.jpg",
    "id_album": "248289288",
    "description": "Raccoon_975054",
    "title": "Raccoon_975054",
    "link_img": "https://live.staticflickr.com/65535/50023168591_1db53e9efa_o.jpg",
    "id_image": "Raccoon_975054",
    "count_view": 0
  },
  {
    "link_thumb": "https://live.staticflickr.com/65535/50023352251_dc75db1207_n.jpg",
    "id_album": "1656131695",
    "description": "Seagull_327286",
    "title": "Seagull_327286",
    "link_img": "https://live.staticflickr.com/65535/50023352251_c938876755_o.jpg",
    "id_image": "Seagull_327286",
    "count_view": 0
  },
  {
    "link_thumb": "https://live.staticflickr.com/65535/50020533808_d7dc2a31e0_n.jpg",
    "id_album": "844170697",
    "description": "Frog_81306",
    "title": "Frog_81306",
    "link_img": "https://live.staticflickr.com/65535/50020533808_99febccffb_o.jpg",
    "id_image": "Frog_81306",
    "count_view": 0
  },
  {
    "link_thumb": "https://live.staticflickr.com/65535/50017051061_ab6a6b20c3_n.jpg",
    "id_album": "-422187261",
    "description": "Bear_501734",
    "title": "Bear_501734",
    "link_img": "https://live.staticflickr.com/65535/50017051061_a15da489de_o.jpg",
    "id_image": "Bear_501734",
    "count_view": 0
  },
  {
    "link_thumb": "https://live.staticflickr.com/65535/50017574753_9dbc6213a5_n.jpg",
    "id_album": "-462831702",
    "description": "Cat_377315",
    "title": "Cat_377315",
    "link_img": "https://live.staticflickr.com/65535/50017574753_8513d3e802_o.jpg",
    "id_image": "Cat_377315",
    "count_view": 0
  },
  {
    "link_thumb": "https://live.staticflickr.com/65535/50020799577_a97a2b664c_n.jpg",
    "id_album": "-149330231",
    "description": "Dog_915227",
    "title": "Dog_915227",
    "link_img": "https://live.staticflickr.com/65535/50020799577_6052eedd59_o.jpg",
    "id_image": "Dog_915227",
    "count_view": 0
  },
  {
    "link_thumb": "https://live.staticflickr.com/65535/50016574503_67a00be73d_n.jpg",
    "id_album": "-422187261",
    "description": "Bear_921633",
    "title": "Bear_921633",
    "link_img": "https://live.staticflickr.com/65535/50016574503_4033b6312b_o.jpg",
    "id_image": "Bear_921633",
    "count_view": 0
  },
  {
    "link_thumb": "https://live.staticflickr.com/65535/50021794767_3bbf09fc4b_n.jpg",
    "id_album": "-1933715543",
    "description": "Horse_582182",
    "title": "Horse_582182",
    "link_img": "https://live.staticflickr.com/65535/50021794767_cb62700089_o.jpg",
    "id_image": "Horse_582182",
    "count_view": 0
  },
  {
    "link_thumb": "https://live.staticflickr.com/65535/50022806893_fc5a00d347_n.jpg",
    "id_album": "1656131695",
    "description": "Seagull_270335",
    "title": "Seagull_270335",
    "link_img": "https://live.staticflickr.com/65535/50022806893_e60a1b7428_o.jpg",
    "id_image": "Seagull_270335",
    "count_view": 0
  },
  {
    "link_thumb": "https://live.staticflickr.com/65535/50024547816_6b618bb1ed_n.jpg",
    "id_album": "-709711865",
    "description": "Wolf_814662",
    "title": "Wolf_814662",
    "link_img": "https://live.staticflickr.com/65535/50024547816_52104a285c_o.jpg",
    "id_image": "Wolf_814662",
    "count_view": 0
  },
  {
    "link_thumb": "https://live.staticflickr.com/65535/50020554323_3e6a311f3d_n.jpg",
    "id_album": "-462831704",
    "description": "Cat_535392",
    "title": "Cat_535392",
    "link_img": "https://live.staticflickr.com/65535/50020554323_0c63fea230_o.jpg",
    "id_image": "Cat_535392",
    "count_view": 0
  },
  {
    "link_thumb": "https://live.staticflickr.com/65535/50019607778_cd8c166335_n.jpg",
    "id_album": "-149330232",
    "description": "Dog_190233",
    "title": "Dog_190233",
    "link_img": "https://live.staticflickr.com/65535/50019607778_1b6326b858_o.jpg",
    "id_image": "Dog_190233",
    "count_view": 0
  },
  {
    "link_thumb": "https://live.staticflickr.com/65535/50019945503_b1f1740973_n.jpg",
    "id_album": "-149330231",
    "description": "Dog_682668",
    "title": "Dog_682668",
    "link_img": "https://live.staticflickr.com/65535/50019945503_7c93489660_o.jpg",
    "id_image": "Dog_682668",
    "count_view": 0
  },
  {
    "link_thumb": "https://live.staticflickr.com/65535/50018898838_9740073690_n.jpg",
    "id_album": "-462831703",
    "description": "Cat_905579",
    "title": "Cat_905579",
    "link_img": "https://live.staticflickr.com/65535/50018898838_c665b5a768_o.jpg",
    "id_image": "Cat_905579",
    "count_view": 0
  },
  {
    "link_thumb": "https://live.staticflickr.com/65535/50023572657_f83a454839_n.jpg",
    "id_album": "1926701726",
    "description": "Robin_707177",
    "title": "Robin_707177",
    "link_img": "https://live.staticflickr.com/65535/50023572657_6150f30dbb_o.jpg",
    "id_image": "Robin_707177",
    "count_view": 0
  },
  {
    "link_thumb": "https://live.staticflickr.com/65535/50017976776_ab1eaf9e04_n.jpg",
    "id_album": "-462831702",
    "description": "Cat_326190",
    "title": "Cat_326190",
    "link_img": "https://live.staticflickr.com/65535/50017976776_3f1cd93396_o.jpg",
    "id_image": "Cat_326190",
    "count_view": 0
  },
  {
    "link_thumb": "https://live.staticflickr.com/65535/50022414678_bc03c0e098_n.jpg",
    "id_album": "-353898617",
    "description": "Puppy_1002231",
    "title": "Puppy_1002231",
    "link_img": "https://live.staticflickr.com/65535/50022414678_c8da5a46c2_o.jpg",
    "id_image": "Puppy_1002231",
    "count_view": 0
  },
  {
    "link_thumb": "https://live.staticflickr.com/65535/50023609788_97db088eb3_n.jpg",
    "id_album": "405170427",
    "description": "Tiger_540994",
    "title": "Tiger_540994",
    "link_img": "https://live.staticflickr.com/65535/50023609788_fd5189bdb0_o.jpg",
    "id_image": "Tiger_540994",
    "count_view": 0
  },
  {
    "link_thumb": "https://live.staticflickr.com/65535/50019259293_62089bd045_n.jpg",
    "id_album": "643379324",
    "description": "Clownfish_836892",
    "title": "Clownfish_836892",
    "link_img": "https://live.staticflickr.com/65535/50019259293_4dc7b9de6f_o.jpg",
    "id_image": "Clownfish_836892",
    "count_view": 0
  },
  {
    "link_thumb": "https://live.staticflickr.com/65535/50020851358_cc12a9be4e_n.jpg",
    "id_album": "1950225324",
    "description": "Gorilla_528082",
    "title": "Gorilla_528082",
    "link_img": "https://live.staticflickr.com/65535/50020851358_96893d473f_o.jpg",
    "id_image": "Gorilla_528082",
    "count_view": 0
  },
  {
    "link_thumb": "https://live.staticflickr.com/65535/50021354592_25b9697ff5_n.jpg",
    "id_album": "-462831704",
    "description": "Cat_543337",
    "title": "Cat_543337",
    "link_img": "https://live.staticflickr.com/65535/50021354592_451cac289b_o.jpg",
    "id_image": "Cat_543337",
    "count_view": 0
  },
  {
    "link_thumb": "https://live.staticflickr.com/65535/50019220761_e93c83663b_n.jpg",
    "id_album": "-462831704",
    "description": "Cat_453847",
    "title": "Cat_453847",
    "link_img": "https://live.staticflickr.com/65535/50019220761_871bd6febd_o.jpg",
    "id_image": "Cat_453847",
    "count_view": 0
  },
  {
    "link_thumb": "https://live.staticflickr.com/65535/50351767653_a34c4109d3_n.jpg",
    "id_album": "-462831703",
    "description": "Cat_360996",
    "title": "Cat_360996",
    "link_img": "https://live.staticflickr.com/65535/50351767653_dbd0bf2713_o.jpg",
    "id_image": "Cat_360996",
    "count_view": 0
  },
  {
    "link_thumb": "https://live.staticflickr.com/65535/50022481933_2781a809c6_n.jpg",
    "id_album": "-353898617",
    "description": "Puppy_570530",
    "title": "Puppy_570530",
    "link_img": "https://live.staticflickr.com/65535/50022481933_2ac99aebb8_o.jpg",
    "id_image": "Puppy_570530",
    "count_view": 0
  },
  {
    "link_thumb": "https://live.staticflickr.com/65535/50020819818_19b5f69d36_n.jpg",
    "id_album": "2060159334",
    "description": "GoldenRetriever_864052",
    "title": "GoldenRetriever_864052",
    "link_img": "https://live.staticflickr.com/65535/50020819818_56828de1a4_o.jpg",
    "id_image": "GoldenRetriever_864052",
    "count_view": 0
  },
  {
    "link_thumb": "https://live.staticflickr.com/65535/50016665843_fa7109e900_n.jpg",
    "id_album": "-1846011410",
    "description": "Bird_105990",
    "title": "Bird_105990",
    "link_img": "https://live.staticflickr.com/65535/50016665843_f84964df3d_o.jpg",
    "id_image": "Bird_105990",
    "count_view": 0
  },
  {
    "link_thumb": "https://live.staticflickr.com/65535/50020298918_d2638e7e7a_n.jpg",
    "id_album": "-1118073211",
    "description": "Fish_311940",
    "title": "Fish_311940",
    "link_img": "https://live.staticflickr.com/65535/50020298918_a4af8c3eb3_o.jpg",
    "id_image": "Fish_311940",
    "count_view": 0
  },
  {
    "link_thumb": "https://live.staticflickr.com/65535/50022240412_1f435d0df2_n.jpg",
    "id_album": "416744915",
    "description": "Lion_260669",
    "title": "Lion_260669",
    "link_img": "https://live.staticflickr.com/65535/50022240412_4ae5a0feaa_o.jpg",
    "id_image": "Lion_260669",
    "count_view": 0
  },
  {
    "link_thumb": "https://live.staticflickr.com/65535/50020926283_7913accff9_n.jpg",
    "id_album": "-1933715543",
    "description": "Horse_212989",
    "title": "Horse_212989",
    "link_img": "https://live.staticflickr.com/65535/50020926283_3c654610db_o.jpg",
    "id_image": "Horse_212989",
    "count_view": 0
  },
  {
    "link_thumb": "https://live.staticflickr.com/65535/50021846716_bf2b32e572_n.jpg",
    "id_album": "-1882491687",
    "description": "Ladybug_385377",
    "title": "Ladybug_385377",
    "link_img": "https://live.staticflickr.com/65535/50021846716_818b5ec6cf_o.jpg",
    "id_image": "Ladybug_385377",
    "count_view": 0
  },
  {
    "link_thumb": "https://live.staticflickr.com/65535/50022506313_970eb188ce_n.jpg",
    "id_album": "-353898617",
    "description": "Puppy_678460",
    "title": "Puppy_678460",
    "link_img": "https://live.staticflickr.com/65535/50022506313_3e867f8581_o.jpg",
    "id_image": "Puppy_678460",
    "count_view": 0
  },
  {
    "link_thumb": "https://live.staticflickr.com/65535/50352563032_76d08773b2_n.jpg",
    "id_album": "-462831703",
    "description": "Cat_168415",
    "title": "Cat_168415",
    "link_img": "https://live.staticflickr.com/65535/50352563032_ec74e2075f_o.jpg",
    "id_image": "Cat_168415",
    "count_view": 0
  },
  {
    "link_thumb": "https://live.staticflickr.com/65535/50020974683_208e0018b1_n.jpg",
    "id_album": "-1933715543",
    "description": "Horse_428592",
    "title": "Horse_428592",
    "link_img": "https://live.staticflickr.com/65535/50020974683_b11e80cdb9_o.jpg",
    "id_image": "Horse_428592",
    "count_view": 0
  },
  {
    "link_thumb": "https://live.staticflickr.com/65535/50017984042_d2a194df4e_n.jpg",
    "id_album": "-1131161368",
    "description": "Camel_192112",
    "title": "Camel_192112",
    "link_img": "https://live.staticflickr.com/65535/50017984042_04eaca7cb6_o.jpg",
    "id_image": "Camel_192112",
    "count_view": 0
  },
  {
    "link_thumb": "https://live.staticflickr.com/65535/50021250558_c9ce413e76_n.jpg",
    "id_album": "-649286029",
    "description": "Kangaroo_589305",
    "title": "Kangaroo_589305",
    "link_img": "https://live.staticflickr.com/65535/50021250558_929e13c7cc_o.jpg",
    "id_image": "Kangaroo_589305",
    "count_view": 0
  },
  {
    "link_thumb": "https://live.staticflickr.com/65535/50019646587_de795ed4d5_n.jpg",
    "id_album": "-462831703",
    "description": "Cat_880951",
    "title": "Cat_880951",
    "link_img": "https://live.staticflickr.com/65535/50019646587_771164ec81_o.jpg",
    "id_image": "Cat_880951",
    "count_view": 0
  },
  {
    "link_thumb": "https://live.staticflickr.com/65535/50351897603_9ffbcc051c_n.jpg",
    "id_album": "-462831703",
    "description": "Cat_536190",
    "title": "Cat_536190",
    "link_img": "https://live.staticflickr.com/65535/50351897603_560b7ed67b_o.jpg",
    "id_image": "Cat_536190",
    "count_view": 0
  },
  {
    "link_thumb": "https://live.staticflickr.com/65535/50021417223_7a41017cbf_n.jpg",
    "id_album": "1392348450",
    "description": "Leopard_925438",
    "title": "Leopard_925438",
    "link_img": "https://live.staticflickr.com/65535/50021417223_11963e53a7_o.jpg",
    "id_image": "Leopard_925438",
    "count_view": 0
  },
  {
    "link_thumb": "https://live.staticflickr.com/65535/50019209473_d804e786c9_n.jpg",
    "id_album": "-1481843714",
    "description": "Cheetah_960627",
    "title": "Cheetah_960627",
    "link_img": "https://live.staticflickr.com/65535/50019209473_7bc59bb227_o.jpg",
    "id_image": "Cheetah_960627",
    "count_view": 0
  },
  {
    "link_thumb": "https://live.staticflickr.com/65535/50020408667_0080ede43c_n.jpg",
    "id_album": "-149330232",
    "description": "Dog_209849",
    "title": "Dog_209849",
    "link_img": "https://live.staticflickr.com/65535/50020408667_032853bd6d_o.jpg",
    "id_image": "Dog_209849",
    "count_view": 0
  },
  {
    "link_thumb": "https://live.staticflickr.com/65535/50016476003_597be97d35_n.jpg",
    "id_album": "-422187261",
    "description": "Bear_124155",
    "title": "Bear_124155",
    "link_img": "https://live.staticflickr.com/65535/50016476003_a955464f39_o.jpg",
    "id_image": "Bear_124155",
    "count_view": 0
  },
  {
    "link_thumb": "https://live.staticflickr.com/65535/50021426517_d42ed1310c_n.jpg",
    "id_album": "-462831704",
    "description": "Cat_694151",
    "title": "Cat_694151",
    "link_img": "https://live.staticflickr.com/65535/50021426517_20cb5f265d_o.jpg",
    "id_image": "Cat_694151",
    "count_view": 0
  },
  {
    "link_thumb": "https://live.staticflickr.com/65535/50021959136_08204804b2_n.jpg",
    "id_album": "1392348450",
    "description": "Leopard_927135",
    "title": "Leopard_927135",
    "link_img": "https://live.staticflickr.com/65535/50021959136_5e188b421d_o.jpg",
    "id_image": "Leopard_927135",
    "count_view": 0
  },
  {
    "link_thumb": "https://live.staticflickr.com/65535/50021101201_9678fc981c_n.jpg",
    "id_album": "-462831704",
    "description": "Cat_543333",
    "title": "Cat_543333",
    "link_img": "https://live.staticflickr.com/65535/50021101201_6f7e018a5f_o.jpg",
    "id_image": "Cat_543333",
    "count_view": 0
  },
  {
    "link_thumb": "https://live.staticflickr.com/65535/50020873548_528b1ca1d4_n.jpg",
    "id_album": "109779448",
    "description": "Hare_561712",
    "title": "Hare_561712",
    "link_img": "https://live.staticflickr.com/65535/50020873548_d8e2708bf1_o.jpg",
    "id_image": "Hare_561712",
    "count_view": 0
  },
  {
    "link_thumb": "https://live.staticflickr.com/65535/50016565963_7f12efa793_n.jpg",
    "id_album": "-422187261",
    "description": "Bear_868714",
    "title": "Bear_868714",
    "link_img": "https://live.staticflickr.com/65535/50016565963_8f4cb1cd8c_o.jpg",
    "id_image": "Bear_868714",
    "count_view": 0
  },
  {
    "link_thumb": "https://live.staticflickr.com/65535/50016992996_17109ef0f0_n.jpg",
    "id_album": "809937717",
    "description": "Beagle_714960",
    "title": "Beagle_714960",
    "link_img": "https://live.staticflickr.com/65535/50016992996_eef062f08a_o.jpg",
    "id_image": "Beagle_714960",
    "count_view": 0
  },
  {
    "link_thumb": "https://live.staticflickr.com/65535/50021363706_d036c5916a_n.jpg",
    "id_album": "2060159334",
    "description": "GoldenRetriever_873619",
    "title": "GoldenRetriever_873619",
    "link_img": "https://live.staticflickr.com/65535/50021363706_c944e0d255_o.jpg",
    "id_image": "GoldenRetriever_873619",
    "count_view": 0
  },
  {
    "link_thumb": "https://live.staticflickr.com/65535/50020691627_cde059af5e_n.jpg",
    "id_album": "-149330231",
    "description": "Dog_469872",
    "title": "Dog_469872",
    "link_img": "https://live.staticflickr.com/65535/50020691627_ed3d5f779b_o.jpg",
    "id_image": "Dog_469872",
    "count_view": 0
  },
  {
    "link_thumb": "https://live.staticflickr.com/65535/50352862257_35dc72345a_n.jpg",
    "id_album": "-462831702",
    "description": "Cat_59939",
    "title": "Cat_59939",
    "link_img": "https://live.staticflickr.com/65535/50352862257_5d037281fc_o.jpg",
    "id_image": "Cat_59939",
    "count_view": 0
  },
  {
    "link_thumb": "https://live.staticflickr.com/65535/50017640821_169c37db20_n.jpg",
    "id_album": "-401151552",
    "description": "Butterfly_681263",
    "title": "Butterfly_681263",
    "link_img": "https://live.staticflickr.com/65535/50017640821_d938c1f560_o.jpg",
    "id_image": "Butterfly_681263",
    "count_view": 0
  },
  {
    "link_thumb": "https://live.staticflickr.com/65535/50019419673_c410900142_n.jpg",
    "id_album": "1831085598",
    "description": "Dachshund_391505",
    "title": "Dachshund_391505",
    "link_img": "https://live.staticflickr.com/65535/50019419673_8473063037_o.jpg",
    "id_image": "Dachshund_391505",
    "count_view": 0
  },
  {
    "link_thumb": "https://live.staticflickr.com/65535/50020174396_17f21d21e5_n.jpg",
    "id_album": "-149330232",
    "description": "Dog_244008",
    "title": "Dog_244008",
    "link_img": "https://live.staticflickr.com/65535/50020174396_7103ddfdd9_o.jpg",
    "id_image": "Dog_244008",
    "count_view": 0
  },
  {
    "link_thumb": "https://live.staticflickr.com/65535/50017975842_3897557a06_n.jpg",
    "id_album": "-401151552",
    "description": "Butterfly_938200",
    "title": "Butterfly_938200",
    "link_img": "https://live.staticflickr.com/65535/50017975842_f40c40b5e7_o.jpg",
    "id_image": "Butterfly_938200",
    "count_view": 0
  },
  {
    "link_thumb": "https://live.staticflickr.com/65535/50018354892_e2032cb4ac_n.jpg",
    "id_album": "-462831702",
    "description": "Cat_370803",
    "title": "Cat_370803",
    "link_img": "https://live.staticflickr.com/65535/50018354892_cac7a8d744_o.jpg",
    "id_image": "Cat_370803",
    "count_view": 0
  },
  {
    "link_thumb": "https://live.staticflickr.com/65535/50018344742_dae6ab2ac4_n.jpg",
    "id_album": "231236068",
    "description": "BaldEagle_700942",
    "title": "BaldEagle_700942",
    "link_img": "https://live.staticflickr.com/65535/50018344742_e466875d13_o.jpg",
    "id_image": "BaldEagle_700942",
    "count_view": 0
  },
  {
    "link_thumb": "https://live.staticflickr.com/65535/50020123122_1f965082ea_n.jpg",
    "id_album": "-2144640780",
    "description": "Cow_833771",
    "title": "Cow_833771",
    "link_img": "https://live.staticflickr.com/65535/50020123122_52180a85e6_o.jpg",
    "id_image": "Cow_833771",
    "count_view": 0
  },
  {
    "link_thumb": "https://live.staticflickr.com/65535/50021858051_be0f896140_n.jpg",
    "id_album": "-1882491687",
    "description": "Ladybug_603741",
    "title": "Ladybug_603741",
    "link_img": "https://live.staticflickr.com/65535/50021858051_48e987d0ab_o.jpg",
    "id_image": "Ladybug_603741",
    "count_view": 0
  },
  {
    "link_thumb": "https://live.staticflickr.com/65535/50022756606_e11b7da9fd_n.jpg",
    "id_album": "407660898",
    "description": "Pigeon_384411",
    "title": "Pigeon_384411",
    "link_img": "https://live.staticflickr.com/65535/50022756606_618f7fa3de_o.jpg",
    "id_image": "Pigeon_384411",
    "count_view": 0
  },
  {
    "link_thumb": "https://live.staticflickr.com/65535/50021005041_9083f02d37_n.jpg",
    "id_album": "-128218148",
    "description": "Fox_788761",
    "title": "Fox_788761",
    "link_img": "https://live.staticflickr.com/65535/50021005041_7877165e77_o.jpg",
    "id_image": "Fox_788761",
    "count_view": 0
  },
  {
    "link_thumb": "https://live.staticflickr.com/65535/50017303971_ebf19843b0_n.jpg",
    "id_album": "-1846011410",
    "description": "Bird_399391",
    "title": "Bird_399391",
    "link_img": "https://live.staticflickr.com/65535/50017303971_c135152d3d_o.jpg",
    "id_image": "Bird_399391",
    "count_view": 0
  },
  {
    "link_thumb": "https://live.staticflickr.com/65535/50019806696_b217041bd8_n.jpg",
    "id_album": "-1868680171",
    "description": "Cougar_354667",
    "title": "Cougar_354667",
    "link_img": "https://live.staticflickr.com/65535/50019806696_0235442dff_o.jpg",
    "id_image": "Cougar_354667",
    "count_view": 0
  },
  {
    "link_thumb": "https://live.staticflickr.com/65535/50352449066_f7b5c804b0_n.jpg",
    "id_album": "-462831703",
    "description": "Cat_270403",
    "title": "Cat_270403",
    "link_img": "https://live.staticflickr.com/65535/50352449066_6766ee57cf_o.jpg",
    "id_image": "Cat_270403",
    "count_view": 0
  },
  {
    "link_thumb": "https://live.staticflickr.com/65535/50021012806_31f1b66e1a_n.jpg",
    "id_album": "-128218148",
    "description": "Fox_846387",
    "title": "Fox_846387",
    "link_img": "https://live.staticflickr.com/65535/50021012806_1257683ede_o.jpg",
    "id_image": "Fox_846387",
    "count_view": 0
  },
  {
    "link_thumb": "https://live.staticflickr.com/65535/50016699763_0d6a1aa144_n.jpg",
    "id_album": "-1846011410",
    "description": "Bird_271917",
    "title": "Bird_271917",
    "link_img": "https://live.staticflickr.com/65535/50016699763_6a12d8505e_o.jpg",
    "id_image": "Bird_271917",
    "count_view": 0
  },
  {
    "link_thumb": "https://live.staticflickr.com/65535/50020757158_7e34190517_n.jpg",
    "id_album": "-405626519",
    "description": "GermanShepherd_734384",
    "title": "GermanShepherd_734384",
    "link_img": "https://live.staticflickr.com/65535/50020757158_b18222be6d_o.jpg",
    "id_image": "GermanShepherd_734384",
    "count_view": 0
  },
  {
    "link_thumb": "https://live.staticflickr.com/65535/50019680307_d3e5a41177_n.jpg",
    "id_album": "-462831703",
    "description": "Cat_903787",
    "title": "Cat_903787",
    "link_img": "https://live.staticflickr.com/65535/50019680307_f7876aba5c_o.jpg",
    "id_image": "Cat_903787",
    "count_view": 0
  },
  {
    "link_thumb": "https://live.staticflickr.com/65535/50020129836_98ca6c9de3_n.jpg",
    "id_album": "-149330232",
    "description": "Dog_171921",
    "title": "Dog_171921",
    "link_img": "https://live.staticflickr.com/65535/50020129836_78b803fa32_o.jpg",
    "id_image": "Dog_171921",
    "count_view": 0
  },
  {
    "link_thumb": "https://live.staticflickr.com/65535/50019977562_ce9d317645_n.jpg",
    "id_album": "-1481843714",
    "description": "Cheetah_687017",
    "title": "Cheetah_687017",
    "link_img": "https://live.staticflickr.com/65535/50019977562_86297927f1_o.jpg",
    "id_image": "Cheetah_687017",
    "count_view": 0
  },
  {
    "link_thumb": "https://live.staticflickr.com/65535/50022188316_e02290bb7f_n.jpg",
    "id_album": "-1720012921",
    "description": "Meerkat_732718",
    "title": "Meerkat_732718",
    "link_img": "https://live.staticflickr.com/65535/50022188316_edc255f876_o.jpg",
    "id_image": "Meerkat_732718",
    "count_view": 0
  },
  {
    "link_thumb": "https://live.staticflickr.com/65535/50021526462_2f54673748_n.jpg",
    "id_album": "-462831703",
    "description": "Cat_837327",
    "title": "Cat_837327",
    "link_img": "https://live.staticflickr.com/65535/50021526462_124b45e3b8_o.jpg",
    "id_image": "Cat_837327",
    "count_view": 0
  },
  {
    "link_thumb": "https://live.staticflickr.com/65535/50021313368_fcdd7f9605_n.jpg",
    "id_album": "-1882491687",
    "description": "Ladybug_506548",
    "title": "Ladybug_506548",
    "link_img": "https://live.staticflickr.com/65535/50021313368_92ff686623_o.jpg",
    "id_image": "Ladybug_506548",
    "count_view": 0
  },
  {
    "link_thumb": "https://live.staticflickr.com/65535/50020514901_f5b07d3eec_n.jpg",
    "id_album": "-149330231",
    "description": "Dog_792582",
    "title": "Dog_792582",
    "link_img": "https://live.staticflickr.com/65535/50020514901_cedc9d48cb_o.jpg",
    "id_image": "Dog_792582",
    "count_view": 0
  },
  {
    "link_thumb": "https://live.staticflickr.com/65535/50016693773_f2172fb318_n.jpg",
    "id_album": "-1846011410",
    "description": "Bird_243280",
    "title": "Bird_243280",
    "link_img": "https://live.staticflickr.com/65535/50016693773_93320c983d_o.jpg",
    "id_image": "Bird_243280",
    "count_view": 0
  },
  {
    "link_thumb": "https://live.staticflickr.com/65535/50019154588_b2345f7c6f_n.jpg",
    "id_album": "-1481843714",
    "description": "Cheetah_246386",
    "title": "Cheetah_246386",
    "link_img": "https://live.staticflickr.com/65535/50019154588_da0d827208_o.jpg",
    "id_image": "Cheetah_246386",
    "count_view": 0
  },
  {
    "link_thumb": "https://live.staticflickr.com/65535/50021848361_8b7225e5f7_n.jpg",
    "id_album": "-1882491687",
    "description": "Ladybug_403648",
    "title": "Ladybug_403648",
    "link_img": "https://live.staticflickr.com/65535/50021848361_db326d8888_o.jpg",
    "id_image": "Ladybug_403648",
    "count_view": 0
  },
  {
    "link_thumb": "https://live.staticflickr.com/65535/50016622578_8f47eca0f8_n.jpg",
    "id_album": "1699594607",
    "description": "Bee_584283",
    "title": "Bee_584283",
    "link_img": "https://live.staticflickr.com/65535/50016622578_658d837951_o.jpg",
    "id_image": "Bee_584283",
    "count_view": 0
  },
  {
    "link_thumb": "https://live.staticflickr.com/65535/50021946117_08ac21f99d_n.jpg",
    "id_album": "1658866795",
    "description": "Insect_404785",
    "title": "Insect_404785",
    "link_img": "https://live.staticflickr.com/65535/50021946117_6b2e0d40a2_o.jpg",
    "id_image": "Insect_404785",
    "count_view": 0
  },
  {
    "link_thumb": "https://live.staticflickr.com/65535/50352590386_4c41a794d4_n.jpg",
    "id_album": "-462831703",
    "description": "Cat_529355",
    "title": "Cat_529355",
    "link_img": "https://live.staticflickr.com/65535/50352590386_ff31ba8815_o.jpg",
    "id_image": "Cat_529355",
    "count_view": 0
  },
  {
    "link_thumb": "https://live.staticflickr.com/65535/50019728488_dc1bdb8287_n.jpg",
    "id_album": "-149330232",
    "description": "Dog_333119",
    "title": "Dog_333119",
    "link_img": "https://live.staticflickr.com/65535/50019728488_7a4316174c_o.jpg",
    "id_image": "Dog_333119",
    "count_view": 0
  },
  {
    "link_thumb": "https://live.staticflickr.com/65535/50022947981_3a0b734c67_n.jpg",
    "id_album": "-1431524681",
    "description": "Pug_376053",
    "title": "Pug_376053",
    "link_img": "https://live.staticflickr.com/65535/50022947981_2e355253c0_o.jpg",
    "id_image": "Pug_376053",
    "count_view": 0
  },
  {
    "link_thumb": "https://live.staticflickr.com/65535/50020503333_e85e684a61_n.jpg",
    "id_album": "704811092",
    "description": "FrenchBulldog_766839",
    "title": "FrenchBulldog_766839",
    "link_img": "https://live.staticflickr.com/65535/50020503333_07ecdd62fe_o.jpg",
    "id_image": "FrenchBulldog_766839",
    "count_view": 0
  },
  {
    "link_thumb": "https://live.staticflickr.com/65535/50017979891_62198213cf_n.jpg",
    "id_album": "-462831702",
    "description": "Cat_327096",
    "title": "Cat_327096",
    "link_img": "https://live.staticflickr.com/65535/50017979891_9a899fd1c2_o.jpg",
    "id_image": "Cat_327096",
    "count_view": 0
  },
  {
    "link_thumb": "https://live.staticflickr.com/65535/50022605678_17f667b7d3_n.jpg",
    "id_album": "248289288",
    "description": "Raccoon_444071",
    "title": "Raccoon_444071",
    "link_img": "https://live.staticflickr.com/65535/50022605678_48cd77b3fe_o.jpg",
    "id_image": "Raccoon_444071",
    "count_view": 0
  },
  {
    "link_thumb": "https://live.staticflickr.com/65535/50017817032_2995c6472a_n.jpg",
    "id_album": "-401151552",
    "description": "Butterfly_274705",
    "title": "Butterfly_274705",
    "link_img": "https://live.staticflickr.com/65535/50017817032_f708128734_o.jpg",
    "id_image": "Butterfly_274705",
    "count_view": 0
  },
  {
    "link_thumb": "https://live.staticflickr.com/65535/50020536033_ff13369201_n.jpg",
    "id_album": "844170697",
    "description": "Frog_845420",
    "title": "Frog_845420",
    "link_img": "https://live.staticflickr.com/65535/50020536033_03f4e08847_o.jpg",
    "id_image": "Frog_845420",
    "count_view": 0
  },
  {
    "link_thumb": "https://live.staticflickr.com/65535/50019576357_cdcc7ebbeb_n.jpg",
    "id_album": "-462831703",
    "description": "Cat_849060",
    "title": "Cat_849060",
    "link_img": "https://live.staticflickr.com/65535/50019576357_079000d14d_o.jpg",
    "id_image": "Cat_849060",
    "count_view": 0
  },
  {
    "link_thumb": "https://live.staticflickr.com/65535/50020088492_d77dec5238_n.jpg",
    "id_album": "-1868680171",
    "description": "Cougar_885988",
    "title": "Cougar_885988",
    "link_img": "https://live.staticflickr.com/65535/50020088492_a86559bb85_o.jpg",
    "id_image": "Cougar_885988",
    "count_view": 0
  },
  {
    "link_thumb": "https://live.staticflickr.com/65535/50020363921_dea7761cc8_n.jpg",
    "id_album": "-149330231",
    "description": "Dog_386668",
    "title": "Dog_386668",
    "link_img": "https://live.staticflickr.com/65535/50020363921_80f3f5d754_o.jpg",
    "id_image": "Dog_386668",
    "count_view": 0
  },
  {
    "link_thumb": "https://live.staticflickr.com/65535/50019164931_fc601e3056_n.jpg",
    "id_album": "-462831702",
    "description": "Cat_424173",
    "title": "Cat_424173",
    "link_img": "https://live.staticflickr.com/65535/50019164931_eb47b79298_o.jpg",
    "id_image": "Cat_424173",
    "count_view": 0
  },
  {
    "link_thumb": "https://live.staticflickr.com/65535/50019159726_8e84aacd71_n.jpg",
    "id_album": "-462831702",
    "description": "Cat_423020",
    "title": "Cat_423020",
    "link_img": "https://live.staticflickr.com/65535/50019159726_9d666e0cfe_o.jpg",
    "id_image": "Cat_423020",
    "count_view": 0
  },
  {
    "link_thumb": "https://live.staticflickr.com/65535/50017383757_f950a13989_n.jpg",
    "id_album": "1699594607",
    "description": "Bee_290318",
    "title": "Bee_290318",
    "link_img": "https://live.staticflickr.com/65535/50017383757_197627bdde_o.jpg",
    "id_image": "Bee_290318",
    "count_view": 0
  },
  {
    "link_thumb": "https://live.staticflickr.com/65535/50017217117_064e28fcb9_n.jpg",
    "id_album": "231236068",
    "description": "BaldEagle_386095",
    "title": "BaldEagle_386095",
    "link_img": "https://live.staticflickr.com/65535/50017217117_5c75a32ca1_o.jpg",
    "id_image": "BaldEagle_386095",
    "count_view": 0
  },
  {
    "link_thumb": "https://live.staticflickr.com/65535/50020341542_945753cc0b_n.jpg",
    "id_album": "297232732",
    "description": "Dinosaur_297538",
    "title": "Dinosaur_297538",
    "link_img": "https://live.staticflickr.com/65535/50020341542_cffd995f19_o.jpg",
    "id_image": "Dinosaur_297538",
    "count_view": 0
  },
  {
    "link_thumb": "https://live.staticflickr.com/65535/50019170708_d712e3660c_n.jpg",
    "id_album": "-1481843714",
    "description": "Cheetah_384339",
    "title": "Cheetah_384339",
    "link_img": "https://live.staticflickr.com/65535/50019170708_50f04a92cf_o.jpg",
    "id_image": "Cheetah_384339",
    "count_view": 0
  },
  {
    "link_thumb": "https://live.staticflickr.com/65535/50016918381_f404317453_n.jpg",
    "id_album": "523598895",
    "description": "Artistic_815243",
    "title": "Artistic_815243",
    "link_img": "https://live.staticflickr.com/65535/50016918381_d9201601fc_o.jpg",
    "id_image": "Artistic_815243",
    "count_view": 0
  },
  {
    "link_thumb": "https://live.staticflickr.com/65535/50024093211_f903da9ca6_n.jpg",
    "id_album": "405170427",
    "description": "Tiger_373049",
    "title": "Tiger_373049",
    "link_img": "https://live.staticflickr.com/65535/50024093211_ae3b668191_o.jpg",
    "id_image": "Tiger_373049",
    "count_view": 0
  },
  {
    "link_thumb": "https://live.staticflickr.com/65535/50023142462_333d20b1d2_n.jpg",
    "id_album": "191452764",
    "description": "PrayingMantis_391715",
    "title": "PrayingMantis_391715",
    "link_img": "https://live.staticflickr.com/65535/50023142462_21cffffb5f_o.jpg",
    "id_image": "PrayingMantis_391715",
    "count_view": 0
  },
  {
    "link_thumb": "https://live.staticflickr.com/65535/50022148613_948b4f3205_n.jpg",
    "id_album": "392248205",
    "description": "Penguin_367232",
    "title": "Penguin_367232",
    "link_img": "https://live.staticflickr.com/65535/50022148613_d6d130edd0_o.jpg",
    "id_image": "Penguin_367232",
    "count_view": 0
  },
  {
    "link_thumb": "https://live.staticflickr.com/65535/50020318151_41f46b3857_n.jpg",
    "id_album": "-149330232",
    "description": "Dog_359752",
    "title": "Dog_359752",
    "link_img": "https://live.staticflickr.com/65535/50020318151_56770e5436_o.jpg",
    "id_image": "Dog_359752",
    "count_view": 0
  },
  {
    "link_thumb": "https://live.staticflickr.com/65535/50352584166_50ec48f573_n.jpg",
    "id_album": "-462831703",
    "description": "Cat_522600",
    "title": "Cat_522600",
    "link_img": "https://live.staticflickr.com/65535/50352584166_414f608fb8_o.jpg",
    "id_image": "Cat_522600",
    "count_view": 0
  },
  {
    "link_thumb": "https://live.staticflickr.com/65535/50022053462_e7f6c5ffcc_n.jpg",
    "id_album": "770105808",
    "description": "Kingfisher_367315",
    "title": "Kingfisher_367315",
    "link_img": "https://live.staticflickr.com/65535/50022053462_71ef6019af_o.jpg",
    "id_image": "Kingfisher_367315",
    "count_view": 0
  },
  {
    "link_thumb": "https://live.staticflickr.com/65535/50023746458_e9451fa166_n.jpg",
    "id_album": "901523298",
    "description": "TreeFrog_423377",
    "title": "TreeFrog_423377",
    "link_img": "https://live.staticflickr.com/65535/50023746458_d251d80eb2_o.jpg",
    "id_image": "TreeFrog_423377",
    "count_view": 0
  },
  {
    "link_thumb": "https://live.staticflickr.com/65535/50017051963_6db49a7a31_n.jpg",
    "id_album": "-401151552",
    "description": "Butterfly_382730",
    "title": "Butterfly_382730",
    "link_img": "https://live.staticflickr.com/65535/50017051963_8062d929e4_o.jpg",
    "id_image": "Butterfly_382730",
    "count_view": 0
  },
  {
    "link_thumb": "https://live.staticflickr.com/65535/50352470041_246874a721_n.jpg",
    "id_album": "-462831703",
    "description": "Cat_365196",
    "title": "Cat_365196",
    "link_img": "https://live.staticflickr.com/65535/50352470041_c4c5312048_o.jpg",
    "id_image": "Cat_365196",
    "count_view": 0
  },
  {
    "link_thumb": "https://live.staticflickr.com/65535/50017589666_33fdae51ae_n.jpg",
    "id_album": "-401151552",
    "description": "Butterfly_419723",
    "title": "Butterfly_419723",
    "link_img": "https://live.staticflickr.com/65535/50017589666_aff2dce884_o.jpg",
    "id_image": "Butterfly_419723",
    "count_view": 0
  },
  {
    "link_thumb": "https://live.staticflickr.com/65535/50018047532_ac9afee735_n.jpg",
    "id_album": "-462831705",
    "description": "Cat_151778",
    "title": "Cat_151778",
    "link_img": "https://live.staticflickr.com/65535/50018047532_d1be545cf3_o.jpg",
    "id_image": "Cat_151778",
    "count_view": 0
  },
  {
    "link_thumb": "https://live.staticflickr.com/65535/50020312558_4a758a4cc1_n.jpg",
    "id_album": "-1118073211",
    "description": "Fish_391647",
    "title": "Fish_391647",
    "link_img": "https://live.staticflickr.com/65535/50020312558_84d26558d6_o.jpg",
    "id_image": "Fish_391647",
    "count_view": 0
  },
  {
    "link_thumb": "https://live.staticflickr.com/65535/50019207353_c4f7d2387a_n.jpg",
    "id_album": "-1481843714",
    "description": "Cheetah_914739",
    "title": "Cheetah_914739",
    "link_img": "https://live.staticflickr.com/65535/50019207353_7696a93f7a_o.jpg",
    "id_image": "Cheetah_914739",
    "count_view": 0
  },
  {
    "link_thumb": "https://live.staticflickr.com/65535/50021431647_440f24fea3_n.jpg",
    "id_album": "-462831704",
    "description": "Cat_698270",
    "title": "Cat_698270",
    "link_img": "https://live.staticflickr.com/65535/50021431647_7894cd2a22_o.jpg",
    "id_image": "Cat_698270",
    "count_view": 0
  },
  {
    "link_thumb": "https://live.staticflickr.com/65535/50022056096_9dd2de0336_n.jpg",
    "id_album": "416744915",
    "description": "Lion_772616",
    "title": "Lion_772616",
    "link_img": "https://live.staticflickr.com/65535/50022056096_6565006b98_o.jpg",
    "id_image": "Lion_772616",
    "count_view": 0
  },
  {
    "link_thumb": "https://live.staticflickr.com/65535/50016924021_73890b4f92_n.jpg",
    "id_album": "523598895",
    "description": "Artistic_920633",
    "title": "Artistic_920633",
    "link_img": "https://live.staticflickr.com/65535/50016924021_e6f830ed63_o.jpg",
    "id_image": "Artistic_920633",
    "count_view": 0
  },
  {
    "link_thumb": "https://live.staticflickr.com/65535/50017146841_b8dc5e3edb_n.jpg",
    "id_album": "1699594607",
    "description": "Bee_571393",
    "title": "Bee_571393",
    "link_img": "https://live.staticflickr.com/65535/50017146841_abeb87b1e6_o.jpg",
    "id_image": "Bee_571393",
    "count_view": 0
  },
  {
    "link_thumb": "https://live.staticflickr.com/65535/50020649833_645d37832d_n.jpg",
    "id_album": "-462831704",
    "description": "Cat_709352",
    "title": "Cat_709352",
    "link_img": "https://live.staticflickr.com/65535/50020649833_f0fa5daf93_o.jpg",
    "id_image": "Cat_709352",
    "count_view": 0
  },
  {
    "link_thumb": "https://live.staticflickr.com/65535/50022469863_99ab76ea27_n.jpg",
    "id_album": "-353898617",
    "description": "Puppy_528608",
    "title": "Puppy_528608",
    "link_img": "https://live.staticflickr.com/65535/50022469863_85a467fa13_o.jpg",
    "id_image": "Puppy_528608",
    "count_view": 0
  },
  {
    "link_thumb": "https://live.staticflickr.com/65535/50023656952_a9977d4d84_n.jpg",
    "id_album": "1961094930",
    "description": "Seal_247669",
    "title": "Seal_247669",
    "link_img": "https://live.staticflickr.com/65535/50023656952_5d9cf0aee0_o.jpg",
    "id_image": "Seal_247669",
    "count_view": 0
  },
  {
    "link_thumb": "https://live.staticflickr.com/65535/50017768117_530999088a_n.jpg",
    "id_album": "782930701",
    "description": "BorderCollie_900482",
    "title": "BorderCollie_900482",
    "link_img": "https://live.staticflickr.com/65535/50017768117_695d8602e2_o.jpg",
    "id_image": "BorderCollie_900482",
    "count_view": 0
  },
  {
    "link_thumb": "https://live.staticflickr.com/65535/50020395117_ef7db31151_n.jpg",
    "id_album": "-149330232",
    "description": "Dog_184557",
    "title": "Dog_184557",
    "link_img": "https://live.staticflickr.com/65535/50020395117_0584f5e0dd_o.jpg",
    "id_image": "Dog_184557",
    "count_view": 0
  },
  {
    "link_thumb": "https://live.staticflickr.com/65535/50020431136_05f3171d89_n.jpg",
    "id_album": "-149330231",
    "description": "Dog_465141",
    "title": "Dog_465141",
    "link_img": "https://live.staticflickr.com/65535/50020431136_24cfd1c223_o.jpg",
    "id_image": "Dog_465141",
    "count_view": 0
  },
  {
    "link_thumb": "https://live.staticflickr.com/65535/50021063431_70f94425f4_n.jpg",
    "id_album": "844170697",
    "description": "Frog_433995",
    "title": "Frog_433995",
    "link_img": "https://live.staticflickr.com/65535/50021063431_98fa3f19d1_o.jpg",
    "id_image": "Frog_433995",
    "count_view": 0
  },
  {
    "link_thumb": "https://live.staticflickr.com/65535/50017085386_4f72f9b8fc_n.jpg",
    "id_album": "-422187261",
    "description": "Bear_817554",
    "title": "Bear_817554",
    "link_img": "https://live.staticflickr.com/65535/50017085386_b01d66a2e3_o.jpg",
    "id_image": "Bear_817554",
    "count_view": 0
  },
  {
    "link_thumb": "https://live.staticflickr.com/65535/50017264527_23d5e35cd6_n.jpg",
    "id_album": "-422187261",
    "description": "Bear_124752",
    "title": "Bear_124752",
    "link_img": "https://live.staticflickr.com/65535/50017264527_538ba54cb0_o.jpg",
    "id_image": "Bear_124752",
    "count_view": 0
  },
  {
    "link_thumb": "https://live.staticflickr.com/65535/50017059941_9e17680b70_n.jpg",
    "id_album": "-422187261",
    "description": "Bear_593511",
    "title": "Bear_593511",
    "link_img": "https://live.staticflickr.com/65535/50017059941_63e303e7f2_o.jpg",
    "id_image": "Bear_593511",
    "count_view": 0
  },
  {
    "link_thumb": "https://live.staticflickr.com/65535/50017021701_7bab7fa012_n.jpg",
    "id_album": "-422187261",
    "description": "Bear_333039",
    "title": "Bear_333039",
    "link_img": "https://live.staticflickr.com/65535/50017021701_4ff34481d7_o.jpg",
    "id_image": "Bear_333039",
    "count_view": 0
  },
  {
    "link_thumb": "https://live.staticflickr.com/65535/50017327053_f6c7222034_n.jpg",
    "id_album": "-462831705",
    "description": "Cat_210233",
    "title": "Cat_210233",
    "link_img": "https://live.staticflickr.com/65535/50017327053_e60126e134_o.jpg",
    "id_image": "Cat_210233",
    "count_view": 0
  },
  {
    "link_thumb": "https://live.staticflickr.com/65535/50021880152_379659201c_n.jpg",
    "id_album": "-712553376",
    "description": "Husky_275610",
    "title": "Husky_275610",
    "link_img": "https://live.staticflickr.com/65535/50021880152_6fd78e87e1_o.jpg",
    "id_image": "Husky_275610",
    "count_view": 0
  },
  {
    "link_thumb": "https://live.staticflickr.com/65535/50019197818_fccb9aa395_n.jpg",
    "id_album": "-1481843714",
    "description": "Cheetah_759370",
    "title": "Cheetah_759370",
    "link_img": "https://live.staticflickr.com/65535/50019197818_a9e9205517_o.jpg",
    "id_image": "Cheetah_759370",
    "count_view": 0
  },
  {
    "link_thumb": "https://live.staticflickr.com/65535/50023815822_1622091922_n.jpg",
    "id_album": "-1182356179",
    "description": "Snake_162689",
    "title": "Snake_162689",
    "link_img": "https://live.staticflickr.com/65535/50023815822_bf8100d4dd_o.jpg",
    "id_image": "Snake_162689",
    "count_view": 0
  },
  {
    "link_thumb": "https://live.staticflickr.com/65535/50022416708_48f8d8c899_n.jpg",
    "id_album": "-353898617",
    "description": "Puppy_352124",
    "title": "Puppy_352124",
    "link_img": "https://live.staticflickr.com/65535/50022416708_984d9158c9_o.jpg",
    "id_image": "Puppy_352124",
    "count_view": 0
  },
  {
    "link_thumb": "https://live.staticflickr.com/65535/50021522312_be5a4d25da_n.jpg",
    "id_album": "-462831703",
    "description": "Cat_830113",
    "title": "Cat_830113",
    "link_img": "https://live.staticflickr.com/65535/50021522312_88781cc2fd_o.jpg",
    "id_image": "Cat_830113",
    "count_view": 0
  },
  {
    "link_thumb": "https://live.staticflickr.com/65535/50019629103_9ec48b59db_n.jpg",
    "id_album": "-149330232",
    "description": "Dog_222310",
    "title": "Dog_222310",
    "link_img": "https://live.staticflickr.com/65535/50019629103_7dbf5549cc_o.jpg",
    "id_image": "Dog_222310",
    "count_view": 0
  },
  {
    "link_thumb": "https://live.staticflickr.com/65535/50022770513_f08d204af2_n.jpg",
    "id_album": "1926701726",
    "description": "Robin_705252",
    "title": "Robin_705252",
    "link_img": "https://live.staticflickr.com/65535/50022770513_1c02a0d96d_o.jpg",
    "id_image": "Robin_705252",
    "count_view": 0
  },
  {
    "link_thumb": "https://live.staticflickr.com/65535/50017166686_bd4807f3dd_n.jpg",
    "id_album": "1699594607",
    "description": "Bee_926235",
    "title": "Bee_926235",
    "link_img": "https://live.staticflickr.com/65535/50017166686_83a9848710_o.jpg",
    "id_image": "Bee_926235",
    "count_view": 0
  },
  {
    "link_thumb": "https://live.staticflickr.com/65535/50017673472_128995f511_n.jpg",
    "id_album": "-1846011410",
    "description": "Bird_718396",
    "title": "Bird_718396",
    "link_img": "https://live.staticflickr.com/65535/50017673472_1c49436feb_o.jpg",
    "id_image": "Bird_718396",
    "count_view": 0
  },
  {
    "link_thumb": "https://live.staticflickr.com/65535/50022855838_69acd0c19b_n.jpg",
    "id_album": "1961094930",
    "description": "Seal_247637",
    "title": "Seal_247637",
    "link_img": "https://live.staticflickr.com/65535/50022855838_762470c062_o.jpg",
    "id_image": "Seal_247637",
    "count_view": 0
  },
  {
    "link_thumb": "https://live.staticflickr.com/65535/50021197522_9640088aed_n.jpg",
    "id_album": "-128218148",
    "description": "Fox_322450",
    "title": "Fox_322450",
    "link_img": "https://live.staticflickr.com/65535/50021197522_4070cb7eb9_o.jpg",
    "id_image": "Fox_322450",
    "count_view": 0
  },
  {
    "link_thumb": "https://live.staticflickr.com/65535/50021421361_6ae4efd25c_n.jpg",
    "id_album": "-1513987841",
    "description": "Hawk_437863",
    "title": "Hawk_437863",
    "link_img": "https://live.staticflickr.com/65535/50021421361_86347530ef_o.jpg",
    "id_image": "Hawk_437863",
    "count_view": 0
  },
  {
    "link_thumb": "https://live.staticflickr.com/65535/50352686261_9b05fa13aa_n.jpg",
    "id_album": "-462831702",
    "description": "Cat_117513",
    "title": "Cat_117513",
    "link_img": "https://live.staticflickr.com/65535/50352686261_c3e3fc4807_o.jpg",
    "id_image": "Cat_117513",
    "count_view": 0
  },
  {
    "link_thumb": "https://live.staticflickr.com/65535/50021450246_17e2a11ffa_n.jpg",
    "id_album": "-362549635",
    "description": "Hippo_247632",
    "title": "Hippo_247632",
    "link_img": "https://live.staticflickr.com/65535/50021450246_729e129dcb_o.jpg",
    "id_image": "Hippo_247632",
    "count_view": 0
  },
  {
    "link_thumb": "https://live.staticflickr.com/65535/50022595183_0c4064af68_n.jpg",
    "id_album": "248289288",
    "description": "Raccoon_158745",
    "title": "Raccoon_158745",
    "link_img": "https://live.staticflickr.com/65535/50022595183_67939ea40e_o.jpg",
    "id_image": "Raccoon_158745",
    "count_view": 0
  },
  {
    "link_thumb": "https://live.staticflickr.com/65535/50018102341_654b7f1ec9_n.jpg",
    "id_album": "-462831702",
    "description": "Cat_377258",
    "title": "Cat_377258",
    "link_img": "https://live.staticflickr.com/65535/50018102341_3012e8898c_o.jpg",
    "id_image": "Cat_377258",
    "count_view": 0
  },
  {
    "link_thumb": "https://live.staticflickr.com/65535/50017234737_b752663407_n.jpg",
    "id_album": "231236068",
    "description": "BaldEagle_951483",
    "title": "BaldEagle_951483",
    "link_img": "https://live.staticflickr.com/65535/50017234737_503e977951_o.jpg",
    "id_image": "BaldEagle_951483",
    "count_view": 0
  },
  {
    "link_thumb": "https://live.staticflickr.com/65535/50017425106_a7a04358a2_n.jpg",
    "id_album": "-1846011410",
    "description": "Bird_787514",
    "title": "Bird_787514",
    "link_img": "https://live.staticflickr.com/65535/50017425106_524fef1e65_o.jpg",
    "id_image": "Bird_787514",
    "count_view": 0
  },
  {
    "link_thumb": "https://live.staticflickr.com/65535/50017310696_5eaf3669ce_n.jpg",
    "id_album": "-1846011410",
    "description": "Bird_406134",
    "title": "Bird_406134",
    "link_img": "https://live.staticflickr.com/65535/50017310696_cd600b593f_o.jpg",
    "id_image": "Bird_406134",
    "count_view": 0
  },
  {
    "link_thumb": "https://live.staticflickr.com/65535/50020320576_0c96f089f8_n.jpg",
    "id_album": "-149330232",
    "description": "Dog_361704",
    "title": "Dog_361704",
    "link_img": "https://live.staticflickr.com/65535/50020320576_163aedaab3_o.jpg",
    "id_image": "Dog_361704",
    "count_view": 0
  },
  {
    "link_thumb": "https://live.staticflickr.com/65535/50017601411_702c7e7c9c_n.jpg",
    "id_album": "-401151552",
    "description": "Butterfly_453393",
    "title": "Butterfly_453393",
    "link_img": "https://live.staticflickr.com/65535/50017601411_0c7ce16446_o.jpg",
    "id_image": "Butterfly_453393",
    "count_view": 0
  },
  {
    "link_thumb": "https://live.staticflickr.com/65535/50021006796_22cd9626ba_n.jpg",
    "id_album": "-128218148",
    "description": "Fox_796429",
    "title": "Fox_796429",
    "link_img": "https://live.staticflickr.com/65535/50021006796_1cac303a88_o.jpg",
    "id_image": "Fox_796429",
    "count_view": 0
  },
  {
    "link_thumb": "https://live.staticflickr.com/65535/50018210842_c9644dfa6d_n.jpg",
    "id_album": "-462831702",
    "description": "Cat_306241",
    "title": "Cat_306241",
    "link_img": "https://live.staticflickr.com/65535/50018210842_d65a727051_o.jpg",
    "id_image": "Cat_306241",
    "count_view": 0
  },
  {
    "link_thumb": "https://live.staticflickr.com/65535/50022937621_836074dae0_n.jpg",
    "id_album": "-356780855",
    "description": "Puffin_935501",
    "title": "Puffin_935501",
    "link_img": "https://live.staticflickr.com/65535/50022937621_8ebd540ee3_o.jpg",
    "id_image": "Puffin_935501",
    "count_view": 0
  },
  {
    "link_thumb": "https://live.staticflickr.com/65535/50017488622_4102b3488a_n.jpg",
    "id_album": "-1846011410",
    "description": "Bird_275250",
    "title": "Bird_275250",
    "link_img": "https://live.staticflickr.com/65535/50017488622_006fb0a24d_o.jpg",
    "id_image": "Bird_275250",
    "count_view": 0
  },
  {
    "link_thumb": "https://live.staticflickr.com/65535/50018008812_f765646ddd_n.jpg",
    "id_album": "-462831705",
    "description": "Cat_106256",
    "title": "Cat_106256",
    "link_img": "https://live.staticflickr.com/65535/50018008812_55380befb1_o.jpg",
    "id_image": "Cat_106256",
    "count_view": 0
  },
  {
    "link_thumb": "https://live.staticflickr.com/65535/50017427322_3a1d919305_n.jpg",
    "id_album": "1699594607",
    "description": "Bee_926200",
    "title": "Bee_926200",
    "link_img": "https://live.staticflickr.com/65535/50017427322_1b285f871a_o.jpg",
    "id_image": "Bee_926200",
    "count_view": 0
  },
  {
    "link_thumb": "https://live.staticflickr.com/65535/50021624426_c4de069834_n.jpg",
    "id_album": "2144294979",
    "description": "Hummingbird_906702",
    "title": "Hummingbird_906702",
    "link_img": "https://live.staticflickr.com/65535/50021624426_e812c5e6c5_o.jpg",
    "id_image": "Hummingbird_906702",
    "count_view": 0
  },
  {
    "link_thumb": "https://live.staticflickr.com/65535/50020782317_705bbaeea2_n.jpg",
    "id_album": "-149330231",
    "description": "Dog_860391",
    "title": "Dog_860391",
    "link_img": "https://live.staticflickr.com/65535/50020782317_011d3b3100_o.jpg",
    "id_image": "Dog_860391",
    "count_view": 0
  },
  {
    "link_thumb": "https://live.staticflickr.com/65535/50021735933_8ae19d33d2_n.jpg",
    "id_album": "1610416937",
    "description": "Moth_480783",
    "title": "Moth_480783",
    "link_img": "https://live.staticflickr.com/65535/50021735933_244b5151df_o.jpg",
    "id_image": "Moth_480783",
    "count_view": 0
  },
  {
    "link_thumb": "https://live.staticflickr.com/65535/50351773588_f70c3332a5_n.jpg",
    "id_album": "-462831703",
    "description": "Cat_365199",
    "title": "Cat_365199",
    "link_img": "https://live.staticflickr.com/65535/50351773588_1ceff260c2_o.jpg",
    "id_image": "Cat_365199",
    "count_view": 0
  },
  {
    "link_thumb": "https://live.staticflickr.com/65535/50019732658_a5836cc336_n.jpg",
    "id_album": "-149330232",
    "description": "Dog_334699",
    "title": "Dog_334699",
    "link_img": "https://live.staticflickr.com/65535/50019732658_6b6a3ab0ac_o.jpg",
    "id_image": "Dog_334699",
    "count_view": 0
  },
  {
    "link_thumb": "https://live.staticflickr.com/65535/50017563716_929dde92a6_n.jpg",
    "id_album": "-401151552",
    "description": "Butterfly_336377",
    "title": "Butterfly_336377",
    "link_img": "https://live.staticflickr.com/65535/50017563716_d1386f725b_o.jpg",
    "id_image": "Butterfly_336377",
    "count_view": 0
  },
  {
    "link_thumb": "https://live.staticflickr.com/65535/50021328263_701dab022b_n.jpg",
    "id_album": "-1882491687",
    "description": "Ladybug_995080",
    "title": "Ladybug_995080",
    "link_img": "https://live.staticflickr.com/65535/50021328263_9fb9d49837_o.jpg",
    "id_image": "Ladybug_995080",
    "count_view": 0
  },
  {
    "link_thumb": "https://live.staticflickr.com/65535/50022159096_7a8fde2a0c_n.jpg",
    "id_album": "1894617400",
    "description": "Lynx_752193",
    "title": "Lynx_752193",
    "link_img": "https://live.staticflickr.com/65535/50022159096_307eb4c444_o.jpg",
    "id_image": "Lynx_752193",
    "count_view": 0
  },
  {
    "link_thumb": "https://live.staticflickr.com/65535/50021000696_bd09fa7f3c_n.jpg",
    "id_album": "-128218148",
    "description": "Fox_753812",
    "title": "Fox_753812",
    "link_img": "https://live.staticflickr.com/65535/50021000696_fc82c4359d_o.jpg",
    "id_image": "Fox_753812",
    "count_view": 0
  },
  {
    "link_thumb": "https://live.staticflickr.com/65535/50016944401_68cfd1e81e_n.jpg",
    "id_album": "390697200",
    "description": "AustralianShepherd_882178",
    "title": "AustralianShepherd_882178",
    "link_img": "https://live.staticflickr.com/65535/50016944401_8be660f39c_o.jpg",
    "id_image": "AustralianShepherd_882178",
    "count_view": 0
  },
  {
    "link_thumb": "https://live.staticflickr.com/65535/50019944511_f6a74aa2fd_n.jpg",
    "id_album": "1273365283",
    "description": "Cute_530001",
    "title": "Cute_530001",
    "link_img": "https://live.staticflickr.com/65535/50019944511_e249639169_o.jpg",
    "id_image": "Cute_530001",
    "count_view": 0
  },
  {
    "link_thumb": "https://live.staticflickr.com/65535/50017162903_738ccb6d17_n.jpg",
    "id_album": "-401151552",
    "description": "Butterfly_899950",
    "title": "Butterfly_899950",
    "link_img": "https://live.staticflickr.com/65535/50017162903_c11d75a7c5_o.jpg",
    "id_image": "Butterfly_899950",
    "count_view": 0
  },
  {
    "link_thumb": "https://live.staticflickr.com/65535/50016955988_f278e6b5e2_n.jpg",
    "id_album": "782930701",
    "description": "BorderCollie_484504",
    "title": "BorderCollie_484504",
    "link_img": "https://live.staticflickr.com/65535/50016955988_e2cb9491af_o.jpg",
    "id_image": "BorderCollie_484504",
    "count_view": 0
  },
  {
    "link_thumb": "https://live.staticflickr.com/65535/50020501133_02c239c92f_n.jpg",
    "id_album": "704811092",
    "description": "FrenchBulldog_673190",
    "title": "FrenchBulldog_673190",
    "link_img": "https://live.staticflickr.com/65535/50020501133_b31e14b39a_o.jpg",
    "id_image": "FrenchBulldog_673190",
    "count_view": 0
  },
  {
    "link_thumb": "https://live.staticflickr.com/65535/50020601897_16e8574336_n.jpg",
    "id_album": "-149330232",
    "description": "Dog_370685",
    "title": "Dog_370685",
    "link_img": "https://live.staticflickr.com/65535/50020601897_59b2fa1b77_o.jpg",
    "id_image": "Dog_370685",
    "count_view": 0
  },
  {
    "link_thumb": "https://live.staticflickr.com/65535/50023576038_3985dde768_n.jpg",
    "id_album": "405170427",
    "description": "Tiger_409613",
    "title": "Tiger_409613",
    "link_img": "https://live.staticflickr.com/65535/50023576038_4629df8d80_o.jpg",
    "id_image": "Tiger_409613",
    "count_view": 0
  },
  {
    "link_thumb": "https://live.staticflickr.com/65535/50021096598_bdd8468a5f_n.jpg",
    "id_album": "-712553376",
    "description": "Husky_712226",
    "title": "Husky_712226",
    "link_img": "https://live.staticflickr.com/65535/50021096598_5d477ac785_o.jpg",
    "id_image": "Husky_712226",
    "count_view": 0
  },
  {
    "link_thumb": "https://live.staticflickr.com/65535/50021104986_5e4468d5f5_n.jpg",
    "id_album": "-462831704",
    "description": "Cat_548645",
    "title": "Cat_548645",
    "link_img": "https://live.staticflickr.com/65535/50021104986_1dc93a6190_o.jpg",
    "id_image": "Cat_548645",
    "count_view": 0
  },
  {
    "link_thumb": "https://live.staticflickr.com/65535/50021187898_3daf327122_n.jpg",
    "id_album": "-843028318",
    "description": "Jaguar_534728",
    "title": "Jaguar_534728",
    "link_img": "https://live.staticflickr.com/65535/50021187898_b55fff6235_o.jpg",
    "id_image": "Jaguar_534728",
    "count_view": 0
  },
  {
    "link_thumb": "https://live.staticflickr.com/65535/50022246947_c62259e911_n.jpg",
    "id_album": "416744915",
    "description": "Lion_320986",
    "title": "Lion_320986",
    "link_img": "https://live.staticflickr.com/65535/50022246947_fec80fdb4a_o.jpg",
    "id_image": "Lion_320986",
    "count_view": 0
  },
  {
    "link_thumb": "https://live.staticflickr.com/65535/50022118632_35d29efcc5_n.jpg",
    "id_album": "-1882491687",
    "description": "Ladybug_744393",
    "title": "Ladybug_744393",
    "link_img": "https://live.staticflickr.com/65535/50022118632_d9773d61f3_o.jpg",
    "id_image": "Ladybug_744393",
    "count_view": 0
  },
  {
    "link_thumb": "https://live.staticflickr.com/65535/50017301498_1ca7ddd937_n.jpg",
    "id_album": "-462831705",
    "description": "Cat_185210",
    "title": "Cat_185210",
    "link_img": "https://live.staticflickr.com/65535/50017301498_b7c5fae6d5_o.jpg",
    "id_image": "Cat_185210",
    "count_view": 0
  },
  {
    "link_thumb": "https://live.staticflickr.com/65535/50020717343_26bd3649d4_n.jpg",
    "id_album": "-462831703",
    "description": "Cat_806945",
    "title": "Cat_806945",
    "link_img": "https://live.staticflickr.com/65535/50020717343_7e20c2b19e_o.jpg",
    "id_image": "Cat_806945",
    "count_view": 0
  },
  {
    "link_thumb": "https://live.staticflickr.com/65535/50351857983_aae1a26f92_n.jpg",
    "id_album": "-462831703",
    "description": "Cat_474009",
    "title": "Cat_474009",
    "link_img": "https://live.staticflickr.com/65535/50351857983_d7e5d7e5c8_o.jpg",
    "id_image": "Cat_474009",
    "count_view": 0
  },
  {
    "link_thumb": "https://live.staticflickr.com/65535/50021133398_a48462f9c8_n.jpg",
    "id_album": "1658866795",
    "description": "Insect_403410",
    "title": "Insect_403410",
    "link_img": "https://live.staticflickr.com/65535/50021133398_ef79938388_o.jpg",
    "id_image": "Insect_403410",
    "count_view": 0
  },
  {
    "link_thumb": "https://live.staticflickr.com/65535/50020928038_6decf19232_n.jpg",
    "id_album": "-1933715543",
    "description": "Horse_224034",
    "title": "Horse_224034",
    "link_img": "https://live.staticflickr.com/65535/50020928038_b1e18c3e0e_o.jpg",
    "id_image": "Horse_224034",
    "count_view": 0
  },
  {
    "link_thumb": "https://live.staticflickr.com/65535/50020883161_651c6ba46b_n.jpg",
    "id_album": "-1758557371",
    "description": "Flamingo_190992",
    "title": "Flamingo_190992",
    "link_img": "https://live.staticflickr.com/65535/50020883161_1e11bd05ca_o.jpg",
    "id_image": "Flamingo_190992",
    "count_view": 0
  },
  {
    "link_thumb": "https://live.staticflickr.com/65535/50021398397_f54810061a_n.jpg",
    "id_album": "-462831704",
    "description": "Cat_617255",
    "title": "Cat_617255",
    "link_img": "https://live.staticflickr.com/65535/50021398397_5575a3af28_o.jpg",
    "id_image": "Cat_617255",
    "count_view": 0
  },
  {
    "link_thumb": "https://live.staticflickr.com/65535/50021281598_70acf5ff0a_n.jpg",
    "id_album": "771796001",
    "description": "Koala_820426",
    "title": "Koala_820426",
    "link_img": "https://live.staticflickr.com/65535/50021281598_3ae0df2723_o.jpg",
    "id_image": "Koala_820426",
    "count_view": 0
  },
  {
    "link_thumb": "https://live.staticflickr.com/65535/50020369362_94bfa6150a_n.jpg",
    "id_album": "-149330232",
    "description": "Dog_101827",
    "title": "Dog_101827",
    "link_img": "https://live.staticflickr.com/65535/50020369362_363b852fa8_o.jpg",
    "id_image": "Dog_101827",
    "count_view": 0
  },
  {
    "link_thumb": "https://live.staticflickr.com/65535/50021792236_e9db5d6fd3_n.jpg",
    "id_album": "-649286029",
    "description": "Kangaroo_406905",
    "title": "Kangaroo_406905",
    "link_img": "https://live.staticflickr.com/65535/50021792236_4e26ca11f4_o.jpg",
    "id_image": "Kangaroo_406905",
    "count_view": 0
  },
  {
    "link_thumb": "https://live.staticflickr.com/65535/50020936512_15e9eccfd9_n.jpg",
    "id_album": "-39098563",
    "description": "Eagle_113739",
    "title": "Eagle_113739",
    "link_img": "https://live.staticflickr.com/65535/50020936512_9d2325c5c9_o.jpg",
    "id_image": "Eagle_113739",
    "count_view": 0
  },
  {
    "link_thumb": "https://live.staticflickr.com/65535/50019194401_5f4feca51c_n.jpg",
    "id_album": "-462831704",
    "description": "Cat_434570",
    "title": "Cat_434570",
    "link_img": "https://live.staticflickr.com/65535/50019194401_67ef74569e_o.jpg",
    "id_image": "Cat_434570",
    "count_view": 0
  },
  {
    "link_thumb": "https://live.staticflickr.com/65535/50017098641_3824d13d43_n.jpg",
    "id_album": "-422187261",
    "description": "Bear_901727",
    "title": "Bear_901727",
    "link_img": "https://live.staticflickr.com/65535/50017098641_6368544c40_o.jpg",
    "id_image": "Bear_901727",
    "count_view": 0
  },
  {
    "link_thumb": "https://live.staticflickr.com/65535/50018764723_9dbfd1e179_n.jpg",
    "id_album": "-462831704",
    "description": "Cat_529694",
    "title": "Cat_529694",
    "link_img": "https://live.staticflickr.com/65535/50018764723_f28a26bc9b_o.jpg",
    "id_image": "Cat_529694",
    "count_view": 0
  },
  {
    "link_thumb": "https://live.staticflickr.com/65535/50016298478_a834645891_n.jpg",
    "id_album": "-229810103",
    "description": "AmericanBison_700765",
    "title": "AmericanBison_700765",
    "link_img": "https://live.staticflickr.com/65535/50016298478_467d0832eb_o.jpg",
    "id_image": "AmericanBison_700765",
    "count_view": 0
  },
  {
    "link_thumb": "https://live.staticflickr.com/65535/50352594927_9197f9b089_n.jpg",
    "id_album": "-462831703",
    "description": "Cat_236383",
    "title": "Cat_236383",
    "link_img": "https://live.staticflickr.com/65535/50352594927_86c573413d_o.jpg",
    "id_image": "Cat_236383",
    "count_view": 0
  },
  {
    "link_thumb": "https://live.staticflickr.com/65535/50023547266_fb708bfb18_n.jpg",
    "id_album": "-800019164",
    "description": "Snail_857159",
    "title": "Snail_857159",
    "link_img": "https://live.staticflickr.com/65535/50023547266_8727363641_o.jpg",
    "id_image": "Snail_857159",
    "count_view": 0
  },
  {
    "link_thumb": "https://live.staticflickr.com/65535/50022787473_f12431dfbf_n.jpg",
    "id_album": "-419757464",
    "description": "SeaLife_113532",
    "title": "SeaLife_113532",
    "link_img": "https://live.staticflickr.com/65535/50022787473_3532b42be4_o.jpg",
    "id_image": "SeaLife_113532",
    "count_view": 0
  },
  {
    "link_thumb": "https://live.staticflickr.com/65535/50016636173_a4325ef511_n.jpg",
    "id_album": "1699594607",
    "description": "Bee_802435",
    "title": "Bee_802435",
    "link_img": "https://live.staticflickr.com/65535/50016636173_3d601c9255_o.jpg",
    "id_image": "Bee_802435",
    "count_view": 0
  },
  {
    "link_thumb": "https://live.staticflickr.com/65535/50020122448_e5a7554157_n.jpg",
    "id_album": "1168627767",
    "description": "Duck_406293",
    "title": "Duck_406293",
    "link_img": "https://live.staticflickr.com/65535/50020122448_ab9cdc20ff_o.jpg",
    "id_image": "Duck_406293",
    "count_view": 0
  },
  {
    "link_thumb": "https://live.staticflickr.com/65535/50019553456_61215c84da_n.jpg",
    "id_album": "-462831703",
    "description": "Cat_983685",
    "title": "Cat_983685",
    "link_img": "https://live.staticflickr.com/65535/50019553456_1746b692f8_o.jpg",
    "id_image": "Cat_983685",
    "count_view": 0
  },
  {
    "link_thumb": "https://live.staticflickr.com/65535/50019816108_e92a19d9ba_n.jpg",
    "id_album": "-149330232",
    "description": "Dog_373023",
    "title": "Dog_373023",
    "link_img": "https://live.staticflickr.com/65535/50019816108_2d12935c8b_o.jpg",
    "id_image": "Dog_373023",
    "count_view": 0
  },
  {
    "link_thumb": "https://live.staticflickr.com/65535/50352784482_f13dcc610a_n.jpg",
    "id_album": "-462831703",
    "description": "Cat_601797",
    "title": "Cat_601797",
    "link_img": "https://live.staticflickr.com/65535/50352784482_ae3b3805fd_o.jpg",
    "id_image": "Cat_601797",
    "count_view": 0
  },
  {
    "link_thumb": "https://live.staticflickr.com/65535/50020404943_39854b90fb_n.jpg",
    "id_album": "-128218148",
    "description": "Fox_336578",
    "title": "Fox_336578",
    "link_img": "https://live.staticflickr.com/65535/50020404943_532cfeb011_o.jpg",
    "id_image": "Fox_336578",
    "count_view": 0
  },
  {
    "link_thumb": "https://live.staticflickr.com/65535/50016992318_63e19673ee_n.jpg",
    "id_album": "1696155652",
    "description": "Boxer_523266",
    "title": "Boxer_523266",
    "link_img": "https://live.staticflickr.com/65535/50016992318_ca21276549_o.jpg",
    "id_image": "Boxer_523266",
    "count_view": 0
  },
  {
    "link_thumb": "https://live.staticflickr.com/65535/50023969543_6c94435c8d_n.jpg",
    "id_album": "-709711865",
    "description": "Wolf_534860",
    "title": "Wolf_534860",
    "link_img": "https://live.staticflickr.com/65535/50023969543_88df3f9218_o.jpg",
    "id_image": "Wolf_534860",
    "count_view": 0
  },
  {
    "link_thumb": "https://live.staticflickr.com/65535/50017899816_bcb09c1855_n.jpg",
    "id_album": "-462831705",
    "description": "Cat_244007",
    "title": "Cat_244007",
    "link_img": "https://live.staticflickr.com/65535/50017899816_71d536a231_o.jpg",
    "id_image": "Cat_244007",
    "count_view": 0
  },
  {
    "link_thumb": "https://live.staticflickr.com/65535/50019906978_f48e1381e5_n.jpg",
    "id_album": "-149330231",
    "description": "Dog_492721",
    "title": "Dog_492721",
    "link_img": "https://live.staticflickr.com/65535/50019906978_d0ab0fae74_o.jpg",
    "id_image": "Dog_492721",
    "count_view": 0
  },
  {
    "link_thumb": "https://live.staticflickr.com/65535/50021846938_f84c6320b1_n.jpg",
    "id_album": "-1384601601",
    "description": "Owl_327693",
    "title": "Owl_327693",
    "link_img": "https://live.staticflickr.com/65535/50021846938_283b704e7d_o.jpg",
    "id_image": "Owl_327693",
    "count_view": 0
  },
  {
    "link_thumb": "https://live.staticflickr.com/65535/50019866476_02694643b6_n.jpg",
    "id_album": "-2144640780",
    "description": "Cow_893421",
    "title": "Cow_893421",
    "link_img": "https://live.staticflickr.com/65535/50019866476_c000919d49_o.jpg",
    "id_image": "Cow_893421",
    "count_view": 0
  },
  {
    "link_thumb": "https://live.staticflickr.com/65535/50024569186_ebf8b2a69e_n.jpg",
    "id_album": "1104421803",
    "description": "Zebra_329024",
    "title": "Zebra_329024",
    "link_img": "https://live.staticflickr.com/65535/50024569186_1722bb8e10_o.jpg",
    "id_image": "Zebra_329024",
    "count_view": 0
  },
  {
    "link_thumb": "https://live.staticflickr.com/65535/50017274813_dee5c38d91_n.jpg",
    "id_album": "-462831705",
    "description": "Cat_167505",
    "title": "Cat_167505",
    "link_img": "https://live.staticflickr.com/65535/50017274813_57eccc420c_o.jpg",
    "id_image": "Cat_167505",
    "count_view": 0
  },
  {
    "link_thumb": "https://live.staticflickr.com/65535/50018103711_507848c41c_n.jpg",
    "id_album": "-462831702",
    "description": "Cat_378593",
    "title": "Cat_378593",
    "link_img": "https://live.staticflickr.com/65535/50018103711_6561092fab_o.jpg",
    "id_image": "Cat_378593",
    "count_view": 0
  },
  {
    "link_thumb": "https://live.staticflickr.com/65535/50020147827_eb8ffb390f_n.jpg",
    "id_album": "1475096665",
    "description": "Crocodile_360627",
    "title": "Crocodile_360627",
    "link_img": "https://live.staticflickr.com/65535/50020147827_56918cd143_o.jpg",
    "id_image": "Crocodile_360627",
    "count_view": 0
  },
  {
    "link_thumb": "https://live.staticflickr.com/65535/50023784768_ddbdd2a268_n.jpg",
    "id_album": "46520366",
    "description": "Turtle_856950",
    "title": "Turtle_856950",
    "link_img": "https://live.staticflickr.com/65535/50023784768_83197231eb_o.jpg",
    "id_image": "Turtle_856950",
    "count_view": 0
  },
  {
    "link_thumb": "https://live.staticflickr.com/65535/50024553922_d13fbc7dcc_n.jpg",
    "id_album": "901523298",
    "description": "TreeFrog_595539",
    "title": "TreeFrog_595539",
    "link_img": "https://live.staticflickr.com/65535/50024553922_7b12aac28c_o.jpg",
    "id_image": "TreeFrog_595539",
    "count_view": 0
  },
  {
    "link_thumb": "https://live.staticflickr.com/65535/50021670591_b894d7b650_n.jpg",
    "id_album": "1658866795",
    "description": "Insect_392925",
    "title": "Insect_392925",
    "link_img": "https://live.staticflickr.com/65535/50021670591_2877832a6b_o.jpg",
    "id_image": "Insect_392925",
    "count_view": 0
  },
  {
    "link_thumb": "https://live.staticflickr.com/65535/50017142108_cd8b1c0b03_n.jpg",
    "id_album": "-401151552",
    "description": "Butterfly_790371",
    "title": "Butterfly_790371",
    "link_img": "https://live.staticflickr.com/65535/50017142108_e921c98aeb_o.jpg",
    "id_image": "Butterfly_790371",
    "count_view": 0
  },
  {
    "link_thumb": "https://live.staticflickr.com/65535/50021265181_4a55083b08_n.jpg",
    "id_album": "-462831703",
    "description": "Cat_821315",
    "title": "Cat_821315",
    "link_img": "https://live.staticflickr.com/65535/50021265181_86f444a58f_o.jpg",
    "id_image": "Cat_821315",
    "count_view": 0
  },
  {
    "link_thumb": "https://live.staticflickr.com/65535/50022345117_238509f20f_n.jpg",
    "id_album": "416744915",
    "description": "Lion_940864",
    "title": "Lion_940864",
    "link_img": "https://live.staticflickr.com/65535/50022345117_544d79c71e_o.jpg",
    "id_image": "Lion_940864",
    "count_view": 0
  },
  {
    "link_thumb": "https://live.staticflickr.com/65535/50024036257_aed1fc632a_n.jpg",
    "id_album": "-1082521515",
    "description": "Spider_555540",
    "title": "Spider_555540",
    "link_img": "https://live.staticflickr.com/65535/50024036257_0bcbeda118_o.jpg",
    "id_image": "Spider_555540",
    "count_view": 0
  },
  {
    "link_thumb": "https://live.staticflickr.com/65535/50019823153_5974743d74_n.jpg",
    "id_album": "-149330231",
    "description": "Dog_379692",
    "title": "Dog_379692",
    "link_img": "https://live.staticflickr.com/65535/50019823153_c9a9b7f97f_o.jpg",
    "id_image": "Dog_379692",
    "count_view": 0
  },
  {
    "link_thumb": "https://live.staticflickr.com/65535/50017435496_6dcb11068a_n.jpg",
    "id_album": "-1846011410",
    "description": "Bird_871117",
    "title": "Bird_871117",
    "link_img": "https://live.staticflickr.com/65535/50017435496_e2e92b47f8_o.jpg",
    "id_image": "Bird_871117",
    "count_view": 0
  },
  {
    "link_thumb": "https://live.staticflickr.com/65535/50020593931_08f70f71ec_n.jpg",
    "id_album": "-1859457960",
    "description": "Dove_207315",
    "title": "Dove_207315",
    "link_img": "https://live.staticflickr.com/65535/50020593931_66e494c475_o.jpg",
    "id_image": "Dove_207315",
    "count_view": 0
  },
  {
    "link_thumb": "https://live.staticflickr.com/65535/50018375042_717975779b_n.jpg",
    "id_album": "-462831702",
    "description": "Cat_384638",
    "title": "Cat_384638",
    "link_img": "https://live.staticflickr.com/65535/50018375042_2ec3549089_o.jpg",
    "id_image": "Cat_384638",
    "count_view": 0
  },
  {
    "link_thumb": "https://live.staticflickr.com/65535/50019415212_bf8d5761aa_n.jpg",
    "id_album": "-462831702",
    "description": "Cat_421529",
    "title": "Cat_421529",
    "link_img": "https://live.staticflickr.com/65535/50019415212_33d4e9efa6_o.jpg",
    "id_image": "Cat_421529",
    "count_view": 0
  },
  {
    "link_thumb": "https://live.staticflickr.com/65535/50016701013_e096085063_n.jpg",
    "id_album": "-1846011410",
    "description": "Bird_275222",
    "title": "Bird_275222",
    "link_img": "https://live.staticflickr.com/65535/50016701013_e61654d3f6_o.jpg",
    "id_image": "Bird_275222",
    "count_view": 0
  },
  {
    "link_thumb": "https://live.staticflickr.com/65535/50016311198_cdb0347ab7_n.jpg",
    "id_album": "-1741290715",
    "description": "Ant_718372",
    "title": "Ant_718372",
    "link_img": "https://live.staticflickr.com/65535/50016311198_f1646c02bb_o.jpg",
    "id_image": "Ant_718372",
    "count_view": 0
  },
  {
    "link_thumb": "https://live.staticflickr.com/65535/50019450721_913520b1ef_n.jpg",
    "id_album": "-462831703",
    "description": "Cat_913943",
    "title": "Cat_913943",
    "link_img": "https://live.staticflickr.com/65535/50019450721_dedb88bb18_o.jpg",
    "id_image": "Cat_913943",
    "count_view": 0
  },
  {
    "link_thumb": "https://live.staticflickr.com/65535/50022450347_9e7d294d60_n.jpg",
    "id_album": "-1720012921",
    "description": "Meerkat_797396",
    "title": "Meerkat_797396",
    "link_img": "https://live.staticflickr.com/65535/50022450347_45f0799cae_o.jpg",
    "id_image": "Meerkat_797396",
    "count_view": 0
  },
  {
    "link_thumb": "https://live.staticflickr.com/65535/50017347308_d39dee573f_n.jpg",
    "id_album": "-462831705",
    "description": "Cat_225418",
    "title": "Cat_225418",
    "link_img": "https://live.staticflickr.com/65535/50017347308_9782ff3a3e_o.jpg",
    "id_image": "Cat_225418",
    "count_view": 0
  },
  {
    "link_thumb": "https://live.staticflickr.com/65535/50019045978_1873aa9e04_n.jpg",
    "id_album": "-1930903528",
    "description": "CatDog_102342",
    "title": "CatDog_102342",
    "link_img": "https://live.staticflickr.com/65535/50019045978_d8ed5674de_o.jpg",
    "id_image": "CatDog_102342",
    "count_view": 0
  },
  {
    "link_thumb": "https://live.staticflickr.com/65535/50021047641_5e4d04f50d_n.jpg",
    "id_album": "704811092",
    "description": "FrenchBulldog_879527",
    "title": "FrenchBulldog_879527",
    "link_img": "https://live.staticflickr.com/65535/50021047641_b294e6b3bb_o.jpg",
    "id_image": "FrenchBulldog_879527",
    "count_view": 0
  },
  {
    "link_thumb": "https://live.staticflickr.com/65535/50021235077_059ed57247_n.jpg",
    "id_album": "-128218148",
    "description": "Fox_596083",
    "title": "Fox_596083",
    "link_img": "https://live.staticflickr.com/65535/50021235077_7c56ddd7b7_o.jpg",
    "id_image": "Fox_596083",
    "count_view": 0
  },
  {
    "link_thumb": "https://live.staticflickr.com/65535/50020686623_6b4297d6d0_n.jpg",
    "id_album": "-462831703",
    "description": "Cat_752611",
    "title": "Cat_752611",
    "link_img": "https://live.staticflickr.com/65535/50020686623_79d7e732d4_o.jpg",
    "id_image": "Cat_752611",
    "count_view": 0
  },
  {
    "link_thumb": "https://live.staticflickr.com/65535/50018888798_c34328db93_n.jpg",
    "id_album": "-462831703",
    "description": "Cat_902180",
    "title": "Cat_902180",
    "link_img": "https://live.staticflickr.com/65535/50018888798_d7f98c6412_o.jpg",
    "id_image": "Cat_902180",
    "count_view": 0
  },
  {
    "link_thumb": "https://live.staticflickr.com/65535/50019757392_fac3ca346b_n.jpg",
    "id_album": "-462831703",
    "description": "Cat_941508",
    "title": "Cat_941508",
    "link_img": "https://live.staticflickr.com/65535/50019757392_9b9345ee1b_o.jpg",
    "id_image": "Cat_941508",
    "count_view": 0
  },
  {
    "link_thumb": "https://live.staticflickr.com/65535/50020415546_72ef2399bd_n.jpg",
    "id_album": "-149330231",
    "description": "Dog_440912",
    "title": "Dog_440912",
    "link_img": "https://live.staticflickr.com/65535/50020415546_4d8f15cf78_o.jpg",
    "id_image": "Dog_440912",
    "count_view": 0
  },
  {
    "link_thumb": "https://live.staticflickr.com/65535/50023901172_a3bcbd9139_n.jpg",
    "id_album": "-1131363127",
    "description": "SnowLeopard_390308",
    "title": "SnowLeopard_390308",
    "link_img": "https://live.staticflickr.com/65535/50023901172_188f830eb2_o.jpg",
    "id_image": "SnowLeopard_390308",
    "count_view": 0
  },
  {
    "link_thumb": "https://live.staticflickr.com/65535/50020535741_aaac8dd054_n.jpg",
    "id_album": "-149330231",
    "description": "Dog_887852",
    "title": "Dog_887852",
    "link_img": "https://live.staticflickr.com/65535/50020535741_c0032f7d64_o.jpg",
    "id_image": "Dog_887852",
    "count_view": 0
  },
  {
    "link_thumb": "https://live.staticflickr.com/65535/50019200638_c312632fe9_n.jpg",
    "id_album": "-1481843714",
    "description": "Cheetah_793623",
    "title": "Cheetah_793623",
    "link_img": "https://live.staticflickr.com/65535/50019200638_081c84bf31_o.jpg",
    "id_image": "Cheetah_793623",
    "count_view": 0
  },
  {
    "link_thumb": "https://live.staticflickr.com/65535/50017557767_68dfae5f0a_n.jpg",
    "id_album": "-1846011410",
    "description": "Bird_391879",
    "title": "Bird_391879",
    "link_img": "https://live.staticflickr.com/65535/50017557767_511dff0d79_o.jpg",
    "id_image": "Bird_391879",
    "count_view": 0
  },
  {
    "link_thumb": "https://live.staticflickr.com/65535/50017994346_14aa38604a_n.jpg",
    "id_album": "-462831702",
    "description": "Cat_333236",
    "title": "Cat_333236",
    "link_img": "https://live.staticflickr.com/65535/50017994346_a19014a33f_o.jpg",
    "id_image": "Cat_333236",
    "count_view": 0
  },
  {
    "link_thumb": "https://live.staticflickr.com/65535/50017945921_07bbf208f4_n.jpg",
    "id_album": "-462831702",
    "description": "Cat_294691",
    "title": "Cat_294691",
    "link_img": "https://live.staticflickr.com/65535/50017945921_c0c3d03717_o.jpg",
    "id_image": "Cat_294691",
    "count_view": 0
  },
  {
    "link_thumb": "https://live.staticflickr.com/65535/50016847466_e63dfb6312_n.jpg",
    "id_album": "-834314226",
    "description": "ArcticFox_534747",
    "title": "ArcticFox_534747",
    "link_img": "https://live.staticflickr.com/65535/50016847466_5e39f18930_o.jpg",
    "id_image": "ArcticFox_534747",
    "count_view": 0
  },
  {
    "link_thumb": "https://live.staticflickr.com/65535/50017016583_e64225b56a_n.jpg",
    "id_album": "-401151552",
    "description": "Butterfly_206731",
    "title": "Butterfly_206731",
    "link_img": "https://live.staticflickr.com/65535/50017016583_2008187ea2_o.jpg",
    "id_image": "Butterfly_206731",
    "count_view": 0
  },
  {
    "link_thumb": "https://live.staticflickr.com/65535/50018079142_12b4901186_n.jpg",
    "id_album": "-462831705",
    "description": "Cat_179760",
    "title": "Cat_179760",
    "link_img": "https://live.staticflickr.com/65535/50018079142_3b6df94a3e_o.jpg",
    "id_image": "Cat_179760",
    "count_view": 0
  },
  {
    "link_thumb": "https://live.staticflickr.com/65535/50024218741_02fec3b473_n.jpg",
    "id_album": "405170427",
    "description": "Tiger_820444",
    "title": "Tiger_820444",
    "link_img": "https://live.staticflickr.com/65535/50024218741_b8b6f6cbb7_o.jpg",
    "id_image": "Tiger_820444",
    "count_view": 0
  },
  {
    "link_thumb": "https://live.staticflickr.com/65535/50023464512_2950864a93_n.jpg",
    "id_album": "332874268",
    "description": "RedPanda_363065",
    "title": "RedPanda_363065",
    "link_img": "https://live.staticflickr.com/65535/50023464512_717f946926_o.jpg",
    "id_image": "RedPanda_363065",
    "count_view": 0
  },
  {
    "link_thumb": "https://live.staticflickr.com/65535/50017038113_2b1dec7ac2_n.jpg",
    "id_album": "-401151552",
    "description": "Butterfly_340521",
    "title": "Butterfly_340521",
    "link_img": "https://live.staticflickr.com/65535/50017038113_d694bf910f_o.jpg",
    "id_image": "Butterfly_340521",
    "count_view": 0
  },
  {
    "link_thumb": "https://live.staticflickr.com/65535/50017512478_1cea91ca6a_n.jpg",
    "id_album": "-462831702",
    "description": "Cat_354431",
    "title": "Cat_354431",
    "link_img": "https://live.staticflickr.com/65535/50017512478_7e8b168b1b_o.jpg",
    "id_image": "Cat_354431",
    "count_view": 0
  },
  {
    "link_thumb": "https://live.staticflickr.com/65535/50017048663_03720a77b8_n.jpg",
    "id_album": "-401151552",
    "description": "Butterfly_373617",
    "title": "Butterfly_373617",
    "link_img": "https://live.staticflickr.com/65535/50017048663_80fd186537_o.jpg",
    "id_image": "Butterfly_373617",
    "count_view": 0
  },
  {
    "link_thumb": "https://live.staticflickr.com/65535/50018742598_37f1f5bccd_n.jpg",
    "id_album": "-462831704",
    "description": "Cat_514528",
    "title": "Cat_514528",
    "link_img": "https://live.staticflickr.com/65535/50018742598_c69530f84b_o.jpg",
    "id_image": "Cat_514528",
    "count_view": 0
  },
  {
    "link_thumb": "https://live.staticflickr.com/65535/50020796393_30fa114f7d_n.jpg",
    "id_album": "-804131074",
    "description": "Goat_248459",
    "title": "Goat_248459",
    "link_img": "https://live.staticflickr.com/65535/50020796393_9cdce97ab2_o.jpg",
    "id_image": "Goat_248459",
    "count_view": 0
  },
  {
    "link_thumb": "https://live.staticflickr.com/65535/50020243026_30d540ddfc_n.jpg",
    "id_album": "-149330232",
    "description": "Dog_324324",
    "title": "Dog_324324",
    "link_img": "https://live.staticflickr.com/65535/50020243026_344c8256c3_o.jpg",
    "id_image": "Dog_324324",
    "count_view": 0
  },
  {
    "link_thumb": "https://live.staticflickr.com/65535/50021175207_5e1861b145_n.jpg",
    "id_album": "-1694105481",
    "description": "Fly_431237",
    "title": "Fly_431237",
    "link_img": "https://live.staticflickr.com/65535/50021175207_e63585587e_o.jpg",
    "id_image": "Fly_431237",
    "count_view": 0
  },
  {
    "link_thumb": "https://live.staticflickr.com/65535/50019475436_0e7a2e401c_n.jpg",
    "id_album": "-462831703",
    "description": "Cat_924327",
    "title": "Cat_924327",
    "link_img": "https://live.staticflickr.com/65535/50019475436_8376f4bef0_o.jpg",
    "id_image": "Cat_924327",
    "count_view": 0
  },
  {
    "link_thumb": "https://live.staticflickr.com/65535/50018111356_3abfb41f4c_n.jpg",
    "id_album": "-462831702",
    "description": "Cat_383329",
    "title": "Cat_383329",
    "link_img": "https://live.staticflickr.com/65535/50018111356_c6d79d2ceb_o.jpg",
    "id_image": "Cat_383329",
    "count_view": 0
  },
  {
    "link_thumb": "https://live.staticflickr.com/65535/50020617166_f03fc18043_n.jpg",
    "id_album": "-405058657",
    "description": "Dragonfly_391784",
    "title": "Dragonfly_391784",
    "link_img": "https://live.staticflickr.com/65535/50020617166_469142692e_o.jpg",
    "id_image": "Dragonfly_391784",
    "count_view": 0
  },
  {
    "link_thumb": "https://live.staticflickr.com/65535/50018378552_f9a21b262d_n.jpg",
    "id_album": "-462831702",
    "description": "Cat_386690",
    "title": "Cat_386690",
    "link_img": "https://live.staticflickr.com/65535/50018378552_a8c83875e8_o.jpg",
    "id_image": "Cat_386690",
    "count_view": 0
  },
  {
    "link_thumb": "https://live.staticflickr.com/65535/50022615548_b3fc58e091_n.jpg",
    "id_album": "248289288",
    "description": "Raccoon_656654",
    "title": "Raccoon_656654",
    "link_img": "https://live.staticflickr.com/65535/50022615548_390a674f4e_o.jpg",
    "id_image": "Raccoon_656654",
    "count_view": 0
  },
  {
    "link_thumb": "https://live.staticflickr.com/65535/50019640626_fbae98377f_n.jpg",
    "id_album": "-766919393",
    "description": "Chameleon_335063",
    "title": "Chameleon_335063",
    "link_img": "https://live.staticflickr.com/65535/50019640626_aa143df159_o.jpg",
    "id_image": "Chameleon_335063",
    "count_view": 0
  },
  {
    "link_thumb": "https://live.staticflickr.com/65535/50017386913_6f18edf17f_n.jpg",
    "id_album": "-462831705",
    "description": "Cat_263324",
    "title": "Cat_263324",
    "link_img": "https://live.staticflickr.com/65535/50017386913_85193ff069_o.jpg",
    "id_image": "Cat_263324",
    "count_view": 0
  },
  {
    "link_thumb": "https://live.staticflickr.com/65535/50017561707_06ca58ed7e_n.jpg",
    "id_album": "-1846011410",
    "description": "Bird_397054",
    "title": "Bird_397054",
    "link_img": "https://live.staticflickr.com/65535/50017561707_8aacf75be8_o.jpg",
    "id_image": "Bird_397054",
    "count_view": 0
  },
  {
    "link_thumb": "https://live.staticflickr.com/65535/50021179401_21a43fddaa_n.jpg",
    "id_album": "-462831704",
    "description": "Cat_698323",
    "title": "Cat_698323",
    "link_img": "https://live.staticflickr.com/65535/50021179401_0ff2676dd6_o.jpg",
    "id_image": "Cat_698323",
    "count_view": 0
  },
  {
    "link_thumb": "https://live.staticflickr.com/65535/50020497398_8711c71e1a_n.jpg",
    "id_album": "704811092",
    "description": "FrenchBulldog_424010",
    "title": "FrenchBulldog_424010",
    "link_img": "https://live.staticflickr.com/65535/50020497398_9f3d75c250_o.jpg",
    "id_image": "FrenchBulldog_424010",
    "count_view": 0
  },
  {
    "link_thumb": "https://live.staticflickr.com/65535/50020748032_b71776dcce_n.jpg",
    "id_album": "-149330231",
    "description": "Dog_714958",
    "title": "Dog_714958",
    "link_img": "https://live.staticflickr.com/65535/50020748032_a1e1971e5e_o.jpg",
    "id_image": "Dog_714958",
    "count_view": 0
  },
  {
    "link_thumb": "https://live.staticflickr.com/65535/50020017233_6d85fb8a29_n.jpg",
    "id_album": "-149330232",
    "description": "Dog_95123",
    "title": "Dog_95123",
    "link_img": "https://live.staticflickr.com/65535/50020017233_e500c9fcdd_o.jpg",
    "id_image": "Dog_95123",
    "count_view": 0
  },
  {
    "link_thumb": "https://live.staticflickr.com/65535/50023689322_688099d3ff_n.jpg",
    "id_album": "-1596347105",
    "description": "Shark_270580",
    "title": "Shark_270580",
    "link_img": "https://live.staticflickr.com/65535/50023689322_abdf80aa87_o.jpg",
    "id_image": "Shark_270580",
    "count_view": 0
  },
  {
    "link_thumb": "https://live.staticflickr.com/65535/50020103023_6fe0093807_n.jpg",
    "id_album": "-405058657",
    "description": "Dragonfly_706247",
    "title": "Dragonfly_706247",
    "link_img": "https://live.staticflickr.com/65535/50020103023_f22c5aa8b1_o.jpg",
    "id_image": "Dragonfly_706247",
    "count_view": 0
  },
  {
    "link_thumb": "https://live.staticflickr.com/65535/50024431641_0c5b7697ca_n.jpg",
    "id_album": "766572659",
    "description": "WhiteTiger_326114",
    "title": "WhiteTiger_326114",
    "link_img": "https://live.staticflickr.com/65535/50024431641_b7edb26b3d_o.jpg",
    "id_image": "WhiteTiger_326114",
    "count_view": 0
  }
]