[
  {
    "link_thumb": "https://live.staticflickr.com/65535/50020483536_070276282d_n.jpg",
    "id_album": "-149330231",
    "description": "Dog_694149",
    "title": "Dog_694149",
    "link_img": "https://live.staticflickr.com/65535/50020483536_045a6c7463_o.jpg",
    "id_image": "Dog_694149",
    "count_view": 0
  },
  {
    "link_thumb": "https://live.staticflickr.com/65535/50021385767_6a56f7485f_n.jpg",
    "id_album": "-462831704",
    "description": "Cat_593622",
    "title": "Cat_593622",
    "link_img": "https://live.staticflickr.com/65535/50021385767_4b90b7de5f_o.jpg",
    "id_image": "Cat_593622",
    "count_view": 0
  },
  {
    "link_thumb": "https://live.staticflickr.com/65535/50017454278_d308796b28_n.jpg",
    "id_album": "-462831702",
    "description": "Cat_328202",
    "title": "Cat_328202",
    "link_img": "https://live.staticflickr.com/65535/50017454278_60830ce721_o.jpg",
    "id_image": "Cat_328202",
    "count_view": 0
  },
  {
    "link_thumb": "https://live.staticflickr.com/65535/50019430897_bf647ac64a_n.jpg",
    "id_album": "-462831702",
    "description": "Cat_426694",
    "title": "Cat_426694",
    "link_img": "https://live.staticflickr.com/65535/50019430897_27dc7e80a1_o.jpg",
    "id_image": "Cat_426694",
    "count_view": 0
  },
  {
    "link_thumb": "https://live.staticflickr.com/65535/50021602147_9d0269d041_n.jpg",
    "id_album": "2060159334",
    "description": "GoldenRetriever_425806",
    "title": "GoldenRetriever_425806",
    "link_img": "https://live.staticflickr.com/65535/50021602147_86f5d7cf3a_o.jpg",
    "id_image": "GoldenRetriever_425806",
    "count_view": 0
  },
  {
    "link_thumb": "https://live.staticflickr.com/65535/50017985977_1c5aa8d296_n.jpg",
    "id_album": "-1131161368",
    "description": "Camel_353347",
    "title": "Camel_353347",
    "link_img": "https://live.staticflickr.com/65535/50017985977_13c1bf3d63_o.jpg",
    "id_image": "Camel_353347",
    "count_view": 0
  },
  {
    "link_thumb": "https://live.staticflickr.com/65535/50018383302_1b93cb09da_n.jpg",
    "id_album": "-462831702",
    "description": "Cat_390690",
    "title": "Cat_390690",
    "link_img": "https://live.staticflickr.com/65535/50018383302_3be1645bda_o.jpg",
    "id_image": "Cat_390690",
    "count_view": 0
  },
  {
    "link_thumb": "https://live.staticflickr.com/65535/50022212407_aef5d726c8_n.jpg",
    "id_album": "1392348450",
    "description": "Leopard_882409",
    "title": "Leopard_882409",
    "link_img": "https://live.staticflickr.com/65535/50022212407_a28f719069_o.jpg",
    "id_image": "Leopard_882409",
    "count_view": 0
  },
  {
    "link_thumb": "https://live.staticflickr.com/65535/50017619028_176c26f536_n.jpg",
    "id_album": "-462831702",
    "description": "Cat_406900",
    "title": "Cat_406900",
    "link_img": "https://live.staticflickr.com/65535/50017619028_035445d93d_o.jpg",
    "id_image": "Cat_406900",
    "count_view": 0
  },
  {
    "link_thumb": "https://live.staticflickr.com/65535/50018747218_9394747267_n.jpg",
    "id_album": "-462831704",
    "description": "Cat_518829",
    "title": "Cat_518829",
    "link_img": "https://live.staticflickr.com/65535/50018747218_181c87b2c4_o.jpg",
    "id_image": "Cat_518829",
    "count_view": 0
  },
  {
    "link_thumb": "https://live.staticflickr.com/65535/50017336593_c1fb6a0245_n.jpg",
    "id_album": "-462831705",
    "description": "Cat_216343",
    "title": "Cat_216343",
    "link_img": "https://live.staticflickr.com/65535/50017336593_03b39cd4be_o.jpg",
    "id_image": "Cat_216343",
    "count_view": 0
  },
  {
    "link_thumb": "https://live.staticflickr.com/65535/50017679241_2cd6f9b3dd_n.jpg",
    "id_album": "-401151552",
    "description": "Butterfly_855051",
    "title": "Butterfly_855051",
    "link_img": "https://live.staticflickr.com/65535/50017679241_e0c342103f_o.jpg",
    "id_image": "Butterfly_855051",
    "count_view": 0
  },
  {
    "link_thumb": "https://live.staticflickr.com/65535/50023519783_ef9c73b332_n.jpg",
    "id_album": "405170427",
    "description": "Tiger_335123",
    "title": "Tiger_335123",
    "link_img": "https://live.staticflickr.com/65535/50023519783_cc185684d2_o.jpg",
    "id_image": "Tiger_335123",
    "count_view": 0
  },
  {
    "link_thumb": "https://live.staticflickr.com/65535/50020199573_d1b3e94b2a_n.jpg",
    "id_album": "1270947998",
    "description": "Elephant_213101",
    "title": "Elephant_213101",
    "link_img": "https://live.staticflickr.com/65535/50020199573_da12c3d0bc_o.jpg",
    "id_image": "Elephant_213101",
    "count_view": 0
  },
  {
    "link_thumb": "https://live.staticflickr.com/65535/50020218287_aa914ec356_n.jpg",
    "id_album": "1831085598",
    "description": "Dachshund_880480",
    "title": "Dachshund_880480",
    "link_img": "https://live.staticflickr.com/65535/50020218287_dbab505510_o.jpg",
    "id_image": "Dachshund_880480",
    "count_view": 0
  },
  {
    "link_thumb": "https://live.staticflickr.com/65535/50017826292_bc028aede2_n.jpg",
    "id_album": "-401151552",
    "description": "Butterfly_342015",
    "title": "Butterfly_342015",
    "link_img": "https://live.staticflickr.com/65535/50017826292_418528e6f5_o.jpg",
    "id_image": "Butterfly_342015",
    "count_view": 0
  },
  {
    "link_thumb": "https://live.staticflickr.com/65535/50024424271_302d4334d7_n.jpg",
    "id_album": "545627045",
    "description": "Whitestork_786473",
    "title": "Whitestork_786473",
    "link_img": "https://live.staticflickr.com/65535/50024424271_51b4fc2970_o.jpg",
    "id_image": "Whitestork_786473",
    "count_view": 0
  },
  {
    "link_thumb": "https://live.staticflickr.com/65535/50020591572_9fffcc4529_n.jpg",
    "id_album": "-149330232",
    "description": "Dog_367188",
    "title": "Dog_367188",
    "link_img": "https://live.staticflickr.com/65535/50020591572_aaa9894396_o.jpg",
    "id_image": "Dog_367188",
    "count_view": 0
  },
  {
    "link_thumb": "https://live.staticflickr.com/65535/50017877466_f15459b9c7_n.jpg",
    "id_album": "-462831705",
    "description": "Cat_231317",
    "title": "Cat_231317",
    "link_img": "https://live.staticflickr.com/65535/50017877466_586b261ba4_o.jpg",
    "id_image": "Cat_231317",
    "count_view": 0
  },
  {
    "link_thumb": "https://live.staticflickr.com/65535/50016953288_497af1deee_n.jpg",
    "id_album": "782930701",
    "description": "BorderCollie_323369",
    "title": "BorderCollie_323369",
    "link_img": "https://live.staticflickr.com/65535/50016953288_67ebfb5cff_o.jpg",
    "id_image": "BorderCollie_323369",
    "count_view": 0
  },
  {
    "link_thumb": "https://live.staticflickr.com/65535/50019874482_76fdf9314c_n.jpg",
    "id_album": "1889777354",
    "description": "CGI_104961",
    "title": "CGI_104961",
    "link_img": "https://live.staticflickr.com/65535/50019874482_e9fc2e9ce1_o.jpg",
    "id_image": "CGI_104961",
    "count_view": 0
  },
  {
    "link_thumb": "https://live.staticflickr.com/65535/50023487093_d5dfa2164e_n.jpg",
    "id_album": "405170427",
    "description": "Tiger_207374",
    "title": "Tiger_207374",
    "link_img": "https://live.staticflickr.com/65535/50023487093_dd265b9d8a_o.jpg",
    "id_image": "Tiger_207374",
    "count_view": 0
  },
  {
    "link_thumb": "https://live.staticflickr.com/65535/50020575002_5779fc4ffc_n.jpg",
    "id_album": "-149330232",
    "description": "Dog_359730",
    "title": "Dog_359730",
    "link_img": "https://live.staticflickr.com/65535/50020575002_01541ddbe5_o.jpg",
    "id_image": "Dog_359730",
    "count_view": 0
  },
  {
    "link_thumb": "https://live.staticflickr.com/65535/50023996381_00e62b6117_n.jpg",
    "id_album": "1244464375",
    "description": "Starfish_472720",
    "title": "Starfish_472720",
    "link_img": "https://live.staticflickr.com/65535/50023996381_44f162470e_o.jpg",
    "id_image": "Starfish_472720",
    "count_view": 0
  },
  {
    "link_thumb": "https://live.staticflickr.com/65535/50019732853_2631fe1ac3_n.jpg",
    "id_album": "-149330232",
    "description": "Dog_334716",
    "title": "Dog_334716",
    "link_img": "https://live.staticflickr.com/65535/50019732853_70276aba84_o.jpg",
    "id_image": "Dog_334716",
    "count_view": 0
  },
  {
    "link_thumb": "https://live.staticflickr.com/65535/50021967296_bef8c6d713_n.jpg",
    "id_album": "416744915",
    "description": "Lion_131356",
    "title": "Lion_131356",
    "link_img": "https://live.staticflickr.com/65535/50021967296_325c562131_o.jpg",
    "id_image": "Lion_131356",
    "count_view": 0
  },
  {
    "link_thumb": "https://live.staticflickr.com/65535/50020445168_a8078a0721_n.jpg",
    "id_album": "-128218148",
    "description": "Fox_673562",
    "title": "Fox_673562",
    "link_img": "https://live.staticflickr.com/65535/50020445168_7a56a43fc3_o.jpg",
    "id_image": "Fox_673562",
    "count_view": 0
  },
  {
    "link_thumb": "https://live.staticflickr.com/65535/50017449707_1d402be6f5_n.jpg",
    "id_album": "325287329",
    "description": "Beetle_706517",
    "title": "Beetle_706517",
    "link_img": "https://live.staticflickr.com/65535/50017449707_97acdecaf0_o.jpg",
    "id_image": "Beetle_706517",
    "count_view": 0
  },
  {
    "link_thumb": "https://live.staticflickr.com/65535/50021040113_829c8a13c2_n.jpg",
    "id_album": "-1933715543",
    "description": "Horse_902189",
    "title": "Horse_902189",
    "link_img": "https://live.staticflickr.com/65535/50021040113_bfe9df3408_o.jpg",
    "id_image": "Horse_902189",
    "count_view": 0
  },
  {
    "link_thumb": "https://live.staticflickr.com/65535/50021689002_df87bc7b91_n.jpg",
    "id_album": "1469520430",
    "description": "Hedgehog_745008",
    "title": "Hedgehog_745008",
    "link_img": "https://live.staticflickr.com/65535/50021689002_dab34aabc1_o.jpg",
    "id_image": "Hedgehog_745008",
    "count_view": 0
  },
  {
    "link_thumb": "https://live.staticflickr.com/65535/50016934248_3ece9baaf2_n.jpg",
    "id_album": "-530283314",
    "description": "BlueandyellowMacaw_239293",
    "title": "BlueandyellowMacaw_239293",
    "link_img": "https://live.staticflickr.com/65535/50016934248_57035b61f2_o.jpg",
    "id_image": "BlueandyellowMacaw_239293",
    "count_view": 0
  },
  {
    "link_thumb": "https://live.staticflickr.com/65535/50351743438_db6a1e6319_n.jpg",
    "id_album": "-462831703",
    "description": "Cat_243791",
    "title": "Cat_243791",
    "link_img": "https://live.staticflickr.com/65535/50351743438_19bd3f8f93_o.jpg",
    "id_image": "Cat_243791",
    "count_view": 0
  },
  {
    "link_thumb": "https://live.staticflickr.com/65535/50018051661_bac0c94f36_n.jpg",
    "id_album": "-462831702",
    "description": "Cat_359860",
    "title": "Cat_359860",
    "link_img": "https://live.staticflickr.com/65535/50018051661_512d0f465d_o.jpg",
    "id_image": "Cat_359860",
    "count_view": 0
  },
  {
    "link_thumb": "https://live.staticflickr.com/65535/50021672366_562072ba52_n.jpg",
    "id_album": "1658866795",
    "description": "Insect_393115",
    "title": "Insect_393115",
    "link_img": "https://live.staticflickr.com/65535/50021672366_54833db9b7_o.jpg",
    "id_image": "Insect_393115",
    "count_view": 0
  },
  {
    "link_thumb": "https://live.staticflickr.com/65535/50351758223_8dd292b08b_n.jpg",
    "id_album": "-462831703",
    "description": "Cat_321583",
    "title": "Cat_321583",
    "link_img": "https://live.staticflickr.com/65535/50351758223_784a8e1c00_o.jpg",
    "id_image": "Cat_321583",
    "count_view": 0
  },
  {
    "link_thumb": "https://live.staticflickr.com/65535/50016436343_ebcfd9a4e9_n.jpg",
    "id_album": "231236068",
    "description": "BaldEagle_597035",
    "title": "BaldEagle_597035",
    "link_img": "https://live.staticflickr.com/65535/50016436343_75ee81dba1_o.jpg",
    "id_image": "BaldEagle_597035",
    "count_view": 0
  },
  {
    "link_thumb": "https://live.staticflickr.com/65535/50020223506_b19c06e8cc_n.jpg",
    "id_album": "-149330232",
    "description": "Dog_286477",
    "title": "Dog_286477",
    "link_img": "https://live.staticflickr.com/65535/50020223506_50060548c7_o.jpg",
    "id_image": "Dog_286477",
    "count_view": 0
  },
  {
    "link_thumb": "https://live.staticflickr.com/65535/50017739376_f6e1d6d19e_n.jpg",
    "id_album": "189994021",
    "description": "Cardinal_911361",
    "title": "Cardinal_911361",
    "link_img": "https://live.staticflickr.com/65535/50017739376_048c6ab45b_o.jpg",
    "id_image": "Cardinal_911361",
    "count_view": 0
  },
  {
    "link_thumb": "https://live.staticflickr.com/65535/50022070103_86597d83f5_n.jpg",
    "id_album": "-801414987",
    "description": "Peacock_933398",
    "title": "Peacock_933398",
    "link_img": "https://live.staticflickr.com/65535/50022070103_d6faa75011_o.jpg",
    "id_image": "Peacock_933398",
    "count_view": 0
  },
  {
    "link_thumb": "https://live.staticflickr.com/65535/50018863258_5efe424f40_n.jpg",
    "id_album": "-462831703",
    "description": "Cat_883603",
    "title": "Cat_883603",
    "link_img": "https://live.staticflickr.com/65535/50018863258_792140f974_o.jpg",
    "id_image": "Cat_883603",
    "count_view": 0
  },
  {
    "link_thumb": "https://live.staticflickr.com/65535/50019346748_09c874d045_n.jpg",
    "id_album": "815329026",
    "description": "Crab_359238",
    "title": "Crab_359238",
    "link_img": "https://live.staticflickr.com/65535/50019346748_476013f679_o.jpg",
    "id_image": "Crab_359238",
    "count_view": 0
  },
  {
    "link_thumb": "https://live.staticflickr.com/65535/50020939151_551ca20504_n.jpg",
    "id_album": "-128218148",
    "description": "Fox_250326",
    "title": "Fox_250326",
    "link_img": "https://live.staticflickr.com/65535/50020939151_53848c88b7_o.jpg",
    "id_image": "Fox_250326",
    "count_view": 0
  },
  {
    "link_thumb": "https://live.staticflickr.com/65535/50020241333_03b452438c_n.jpg",
    "id_album": "1270947998",
    "description": "Elephant_637149",
    "title": "Elephant_637149",
    "link_img": "https://live.staticflickr.com/65535/50020241333_6095317ba1_o.jpg",
    "id_image": "Elephant_637149",
    "count_view": 0
  },
  {
    "link_thumb": "https://live.staticflickr.com/65535/50021575018_3f8ceeae57_n.jpg",
    "id_album": "-656526748",
    "description": "Lizard_425194",
    "title": "Lizard_425194",
    "link_img": "https://live.staticflickr.com/65535/50021575018_c397e8bd4e_o.jpg",
    "id_image": "Lizard_425194",
    "count_view": 0
  },
  {
    "link_thumb": "https://live.staticflickr.com/65535/50019728967_465fb04c70_n.jpg",
    "id_album": "-462831703",
    "description": "Cat_922507",
    "title": "Cat_922507",
    "link_img": "https://live.staticflickr.com/65535/50019728967_4aab718935_o.jpg",
    "id_image": "Cat_922507",
    "count_view": 0
  },
  {
    "link_thumb": "https://live.staticflickr.com/65535/50016953723_569eb442b8_n.jpg",
    "id_album": "782930701",
    "description": "BorderCollie_343590",
    "title": "BorderCollie_343590",
    "link_img": "https://live.staticflickr.com/65535/50016953723_874c8b2557_o.jpg",
    "id_image": "BorderCollie_343590",
    "count_view": 0
  },
  {
    "link_thumb": "https://live.staticflickr.com/65535/50023824357_65e943c3a4_n.jpg",
    "id_album": "-1182356179",
    "description": "Snake_327802",
    "title": "Snake_327802",
    "link_img": "https://live.staticflickr.com/65535/50023824357_bb3b55fdc6_o.jpg",
    "id_image": "Snake_327802",
    "count_view": 0
  },
  {
    "link_thumb": "https://live.staticflickr.com/65535/50017605876_cd907327f4_n.jpg",
    "id_album": "-401151552",
    "description": "Butterfly_467026",
    "title": "Butterfly_467026",
    "link_img": "https://live.staticflickr.com/65535/50017605876_0688957476_o.jpg",
    "id_image": "Butterfly_467026",
    "count_view": 0
  },
  {
    "link_thumb": "https://live.staticflickr.com/65535/50017300138_0c2d0bc068_n.jpg",
    "id_album": "-462831705",
    "description": "Cat_184955",
    "title": "Cat_184955",
    "link_img": "https://live.staticflickr.com/65535/50017300138_6741f312b4_o.jpg",
    "id_image": "Cat_184955",
    "count_view": 0
  },
  {
    "link_thumb": "https://live.staticflickr.com/65535/50016882276_9247c4acbd_n.jpg",
    "id_album": "523598895",
    "description": "Artistic_220493",
    "title": "Artistic_220493",
    "link_img": "https://live.staticflickr.com/65535/50016882276_76f2793485_o.jpg",
    "id_image": "Artistic_220493",
    "count_view": 0
  },
  {
    "link_thumb": "https://live.staticflickr.com/65535/50020874133_6f4ca2d115_n.jpg",
    "id_album": "109779448",
    "description": "Hare_792334",
    "title": "Hare_792334",
    "link_img": "https://live.staticflickr.com/65535/50020874133_576cbf0618_o.jpg",
    "id_image": "Hare_792334",
    "count_view": 0
  },
  {
    "link_thumb": "https://live.staticflickr.com/65535/50022103617_86339feb29_n.jpg",
    "id_album": "-1882491687",
    "description": "Ladybug_397117",
    "title": "Ladybug_397117",
    "link_img": "https://live.staticflickr.com/65535/50022103617_4735221e14_o.jpg",
    "id_image": "Ladybug_397117",
    "count_view": 0
  },
  {
    "link_thumb": "https://live.staticflickr.com/65535/50017281873_2b64319849_n.jpg",
    "id_album": "-462831705",
    "description": "Cat_171581",
    "title": "Cat_171581",
    "link_img": "https://live.staticflickr.com/65535/50017281873_7470e095bf_o.jpg",
    "id_image": "Cat_171581",
    "count_view": 0
  },
  {
    "link_thumb": "https://live.staticflickr.com/65535/50021920351_86ef87cbc0_n.jpg",
    "id_album": "1392348450",
    "description": "Leopard_406503",
    "title": "Leopard_406503",
    "link_img": "https://live.staticflickr.com/65535/50021920351_42683d4165_o.jpg",
    "id_image": "Leopard_406503",
    "count_view": 0
  },
  {
    "link_thumb": "https://live.staticflickr.com/65535/50022450347_9e7d294d60_n.jpg",
    "id_album": "-1720012921",
    "description": "Meerkat_797396",
    "title": "Meerkat_797396",
    "link_img": "https://live.staticflickr.com/65535/50022450347_45f0799cae_o.jpg",
    "id_image": "Meerkat_797396",
    "count_view": 0
  },
  {
    "link_thumb": "https://live.staticflickr.com/65535/50020627833_3663f46967_n.jpg",
    "id_album": "-462831704",
    "description": "Cat_687614",
    "title": "Cat_687614",
    "link_img": "https://live.staticflickr.com/65535/50020627833_8c461e7b56_o.jpg",
    "id_image": "Cat_687614",
    "count_view": 0
  },
  {
    "link_thumb": "https://live.staticflickr.com/65535/50351930808_a80f5bbcff_n.jpg",
    "id_album": "-462831703",
    "description": "Cat_614991",
    "title": "Cat_614991",
    "link_img": "https://live.staticflickr.com/65535/50351930808_05a955a975_o.jpg",
    "id_image": "Cat_614991",
    "count_view": 0
  },
  {
    "link_thumb": "https://live.staticflickr.com/65535/50018058977_510fd83ce5_n.jpg",
    "id_album": "-462831705",
    "description": "Cat_166888",
    "title": "Cat_166888",
    "link_img": "https://live.staticflickr.com/65535/50018058977_4795ae0e7b_o.jpg",
    "id_image": "Cat_166888",
    "count_view": 0
  },
  {
    "link_thumb": "https://live.staticflickr.com/65535/50018374387_6a6733fd5a_n.jpg",
    "id_album": "-462831702",
    "description": "Cat_383933",
    "title": "Cat_383933",
    "link_img": "https://live.staticflickr.com/65535/50018374387_e00bd48780_o.jpg",
    "id_image": "Cat_383933",
    "count_view": 0
  },
  {
    "link_thumb": "https://live.staticflickr.com/65535/50019453112_07e720b411_n.jpg",
    "id_album": "-462831705",
    "description": "Cat_43556",
    "title": "Cat_43556",
    "link_img": "https://live.staticflickr.com/65535/50019453112_0a3e31dc59_o.jpg",
    "id_image": "Cat_43556",
    "count_view": 0
  },
  {
    "link_thumb": "https://live.staticflickr.com/65535/50023830962_c24baae7de_n.jpg",
    "id_album": "-1182356179",
    "description": "Snake_354930",
    "title": "Snake_354930",
    "link_img": "https://live.staticflickr.com/65535/50023830962_4472eac39b_o.jpg",
    "id_image": "Snake_354930",
    "count_view": 0
  },
  {
    "link_thumb": "https://live.staticflickr.com/65535/50017648691_61654ce6f2_n.jpg",
    "id_album": "-401151552",
    "description": "Butterfly_704859",
    "title": "Butterfly_704859",
    "link_img": "https://live.staticflickr.com/65535/50017648691_21bf287f8c_o.jpg",
    "id_image": "Butterfly_704859",
    "count_view": 0
  },
  {
    "link_thumb": "https://live.staticflickr.com/65535/50352542116_ba89238634_n.jpg",
    "id_album": "-462831703",
    "description": "Cat_460297",
    "title": "Cat_460297",
    "link_img": "https://live.staticflickr.com/65535/50352542116_b0bb555fc6_o.jpg",
    "id_image": "Cat_460297",
    "count_view": 0
  },
  {
    "link_thumb": "https://live.staticflickr.com/65535/50017493228_f60a8e9357_n.jpg",
    "id_album": "-462831702",
    "description": "Cat_345390",
    "title": "Cat_345390",
    "link_img": "https://live.staticflickr.com/65535/50017493228_f589e3a46a_o.jpg",
    "id_image": "Cat_345390",
    "count_view": 0
  },
  {
    "link_thumb": "https://live.staticflickr.com/65535/50020726318_a31ae1772a_n.jpg",
    "id_album": "-462831703",
    "description": "Cat_829647",
    "title": "Cat_829647",
    "link_img": "https://live.staticflickr.com/65535/50020726318_1a8a03e0c0_o.jpg",
    "id_image": "Cat_829647",
    "count_view": 0
  },
  {
    "link_thumb": "https://live.staticflickr.com/65535/50020625208_01f3c0fb5b_n.jpg",
    "id_album": "-462831704",
    "description": "Cat_685802",
    "title": "Cat_685802",
    "link_img": "https://live.staticflickr.com/65535/50020625208_c04759c6d8_o.jpg",
    "id_image": "Cat_685802",
    "count_view": 0
  },
  {
    "link_thumb": "https://live.staticflickr.com/65535/50017755826_e9abde8fdc_n.jpg",
    "id_album": "-462831705",
    "description": "Cat_113164",
    "title": "Cat_113164",
    "link_img": "https://live.staticflickr.com/65535/50017755826_d6f6e94160_o.jpg",
    "id_image": "Cat_113164",
    "count_view": 0
  },
  {
    "link_thumb": "https://live.staticflickr.com/65535/50018031952_862852485c_n.jpg",
    "id_album": "-462831705",
    "description": "Cat_117540",
    "title": "Cat_117540",
    "link_img": "https://live.staticflickr.com/65535/50018031952_0ba6de27fa_o.jpg",
    "id_image": "Cat_117540",
    "count_view": 0
  },
  {
    "link_thumb": "https://live.staticflickr.com/65535/50017056193_7144d19791_n.jpg",
    "id_album": "-401151552",
    "description": "Butterfly_396486",
    "title": "Butterfly_396486",
    "link_img": "https://live.staticflickr.com/65535/50017056193_2c4094d190_o.jpg",
    "id_image": "Butterfly_396486",
    "count_view": 0
  },
  {
    "link_thumb": "https://live.staticflickr.com/65535/50017877176_a25f4f32e3_n.jpg",
    "id_album": "-462831705",
    "description": "Cat_229385",
    "title": "Cat_229385",
    "link_img": "https://live.staticflickr.com/65535/50017877176_b56babe3eb_o.jpg",
    "id_image": "Cat_229385",
    "count_view": 0
  },
  {
    "link_thumb": "https://live.staticflickr.com/65535/50021236821_3665f00708_n.jpg",
    "id_album": "-462831703",
    "description": "Cat_774214",
    "title": "Cat_774214",
    "link_img": "https://live.staticflickr.com/65535/50021236821_ddd515b5c1_o.jpg",
    "id_image": "Cat_774214",
    "count_view": 0
  },
  {
    "link_thumb": "https://live.staticflickr.com/65535/50019757152_4590abf0e9_n.jpg",
    "id_album": "-462831703",
    "description": "Cat_941356",
    "title": "Cat_941356",
    "link_img": "https://live.staticflickr.com/65535/50019757152_220c6f65f0_o.jpg",
    "id_image": "Cat_941356",
    "count_view": 0
  },
  {
    "link_thumb": "https://live.staticflickr.com/65535/50016800713_eea1dd1d48_n.jpg",
    "id_album": "-1846011410",
    "description": "Bird_428486",
    "title": "Bird_428486",
    "link_img": "https://live.staticflickr.com/65535/50016800713_313a38e539_o.jpg",
    "id_image": "Bird_428486",
    "count_view": 0
  },
  {
    "link_thumb": "https://live.staticflickr.com/65535/50017694841_c7fd3769ec_n.jpg",
    "id_album": "-401151552",
    "description": "Butterfly_923708",
    "title": "Butterfly_923708",
    "link_img": "https://live.staticflickr.com/65535/50017694841_3311df3fbc_o.jpg",
    "id_image": "Butterfly_923708",
    "count_view": 0
  },
  {
    "link_thumb": "https://live.staticflickr.com/65535/50019981658_e40e13d2bb_n.jpg",
    "id_album": "-149330231",
    "description": "Dog_790173",
    "title": "Dog_790173",
    "link_img": "https://live.staticflickr.com/65535/50019981658_890c89a720_o.jpg",
    "id_image": "Dog_790173",
    "count_view": 0
  },
  {
    "link_thumb": "https://live.staticflickr.com/65535/50019365551_c1709c32fa_n.jpg",
    "id_album": "-462831703",
    "description": "Cat_873624",
    "title": "Cat_873624",
    "link_img": "https://live.staticflickr.com/65535/50019365551_48f1f5e6dc_o.jpg",
    "id_image": "Cat_873624",
    "count_view": 0
  },
  {
    "link_thumb": "https://live.staticflickr.com/65535/50352705882_a3f0b6f6c2_n.jpg",
    "id_album": "-462831703",
    "description": "Cat_463918",
    "title": "Cat_463918",
    "link_img": "https://live.staticflickr.com/65535/50352705882_bc51044c3e_o.jpg",
    "id_image": "Cat_463918",
    "count_view": 0
  },
  {
    "link_thumb": "https://live.staticflickr.com/65535/50021295941_442992ea99_n.jpg",
    "id_album": "-405626519",
    "description": "GermanShepherd_693248",
    "title": "GermanShepherd_693248",
    "link_img": "https://live.staticflickr.com/65535/50021295941_fc9e0460ca_o.jpg",
    "id_image": "GermanShepherd_693248",
    "count_view": 0
  },
  {
    "link_thumb": "https://live.staticflickr.com/65535/50021638827_8981b65ff3_n.jpg",
    "id_album": "-817970789",
    "description": "Goose_667665",
    "title": "Goose_667665",
    "link_img": "https://live.staticflickr.com/65535/50021638827_dac236f14d_o.jpg",
    "id_image": "Goose_667665",
    "count_view": 0
  },
  {
    "link_thumb": "https://live.staticflickr.com/65535/50020164956_35caf93a78_n.jpg",
    "id_album": "-149330232",
    "description": "Dog_230641",
    "title": "Dog_230641",
    "link_img": "https://live.staticflickr.com/65535/50020164956_63441baa5e_o.jpg",
    "id_image": "Dog_230641",
    "count_view": 0
  },
  {
    "link_thumb": "https://live.staticflickr.com/65535/50017335448_29ca336a2c_n.jpg",
    "id_album": "-462831705",
    "description": "Cat_215874",
    "title": "Cat_215874",
    "link_img": "https://live.staticflickr.com/65535/50017335448_168b47940b_o.jpg",
    "id_image": "Cat_215874",
    "count_view": 0
  },
  {
    "link_thumb": "https://live.staticflickr.com/65535/50022087397_3f364bf747_n.jpg",
    "id_album": "1307335982",
    "description": "LabradorRetriever_715031",
    "title": "LabradorRetriever_715031",
    "link_img": "https://live.staticflickr.com/65535/50022087397_9fe0f2c6e8_o.jpg",
    "id_image": "LabradorRetriever_715031",
    "count_view": 0
  },
  {
    "link_thumb": "https://live.staticflickr.com/65535/50022131686_444779c0fe_n.jpg",
    "id_album": "1894617400",
    "description": "Lynx_330441",
    "title": "Lynx_330441",
    "link_img": "https://live.staticflickr.com/65535/50022131686_dd94d912ca_o.jpg",
    "id_image": "Lynx_330441",
    "count_view": 0
  },
  {
    "link_thumb": "https://live.staticflickr.com/65535/50017854591_e1df06a878_n.jpg",
    "id_album": "-462831705",
    "description": "Cat_209673",
    "title": "Cat_209673",
    "link_img": "https://live.staticflickr.com/65535/50017854591_d4251612e6_o.jpg",
    "id_image": "Cat_209673",
    "count_view": 0
  },
  {
    "link_thumb": "https://live.staticflickr.com/65535/50351883933_034040b3d7_n.jpg",
    "id_album": "-462831703",
    "description": "Cat_514551",
    "title": "Cat_514551",
    "link_img": "https://live.staticflickr.com/65535/50351883933_865991bb62_o.jpg",
    "id_image": "Cat_514551",
    "count_view": 0
  },
  {
    "link_thumb": "https://live.staticflickr.com/65535/50023092631_1a9ecc1fda_n.jpg",
    "id_album": "-1940643173",
    "description": "Rabbit_275684",
    "title": "Rabbit_275684",
    "link_img": "https://live.staticflickr.com/65535/50023092631_dc48569e7c_o.jpg",
    "id_image": "Rabbit_275684",
    "count_view": 0
  },
  {
    "link_thumb": "https://live.staticflickr.com/65535/50017295188_4c0b4f9f41_n.jpg",
    "id_album": "-462831705",
    "description": "Cat_181064",
    "title": "Cat_181064",
    "link_img": "https://live.staticflickr.com/65535/50017295188_4fc315dddd_o.jpg",
    "id_image": "Cat_181064",
    "count_view": 0
  },
  {
    "link_thumb": "https://live.staticflickr.com/65535/50017187988_2817b262be_n.jpg",
    "id_album": "-401151552",
    "description": "Butterfly_940152",
    "title": "Butterfly_940152",
    "link_img": "https://live.staticflickr.com/65535/50017187988_42d39e9845_o.jpg",
    "id_image": "Butterfly_940152",
    "count_view": 0
  },
  {
    "link_thumb": "https://live.staticflickr.com/65535/50017776516_940a0f94a6_n.jpg",
    "id_album": "-462831705",
    "description": "Cat_121409",
    "title": "Cat_121409",
    "link_img": "https://live.staticflickr.com/65535/50017776516_a8359aeb24_o.jpg",
    "id_image": "Cat_121409",
    "count_view": 0
  },
  {
    "link_thumb": "https://live.staticflickr.com/65535/50019886162_769a09972b_n.jpg",
    "id_album": "1889777354",
    "description": "CGI_572306",
    "title": "CGI_572306",
    "link_img": "https://live.staticflickr.com/65535/50019886162_c6770a4021_o.jpg",
    "id_image": "CGI_572306",
    "count_view": 0
  },
  {
    "link_thumb": "https://live.staticflickr.com/65535/50017018288_a0024a45f5_n.jpg",
    "id_album": "-401151552",
    "description": "Butterfly_217963",
    "title": "Butterfly_217963",
    "link_img": "https://live.staticflickr.com/65535/50017018288_61d0793914_o.jpg",
    "id_image": "Butterfly_217963",
    "count_view": 0
  },
  {
    "link_thumb": "https://live.staticflickr.com/65535/50019781197_34921492f0_n.jpg",
    "id_album": "-462831703",
    "description": "Cat_960301",
    "title": "Cat_960301",
    "link_img": "https://live.staticflickr.com/65535/50019781197_59060ef791_o.jpg",
    "id_image": "Cat_960301",
    "count_view": 0
  },
  {
    "link_thumb": "https://live.staticflickr.com/65535/50023518818_8fb1de7c4c_n.jpg",
    "id_album": "405170427",
    "description": "Tiger_331857",
    "title": "Tiger_331857",
    "link_img": "https://live.staticflickr.com/65535/50023518818_921697a781_o.jpg",
    "id_image": "Tiger_331857",
    "count_view": 0
  },
  {
    "link_thumb": "https://live.staticflickr.com/65535/50018139787_7698e4f695_n.jpg",
    "id_album": "-462831705",
    "description": "Cat_233873",
    "title": "Cat_233873",
    "link_img": "https://live.staticflickr.com/65535/50018139787_0971b6be3b_o.jpg",
    "id_image": "Cat_233873",
    "count_view": 0
  },
  {
    "link_thumb": "https://live.staticflickr.com/65535/50022951856_436b5f3a79_n.jpg",
    "id_album": "-1431524681",
    "description": "Pug_506823",
    "title": "Pug_506823",
    "link_img": "https://live.staticflickr.com/65535/50022951856_7a414db347_o.jpg",
    "id_image": "Pug_506823",
    "count_view": 0
  },
  {
    "link_thumb": "https://live.staticflickr.com/65535/50024830552_f27ee35da4_n.jpg",
    "id_album": "1104421803",
    "description": "Zebra_351306",
    "title": "Zebra_351306",
    "link_img": "https://live.staticflickr.com/65535/50024830552_253125ed0e_o.jpg",
    "id_image": "Zebra_351306",
    "count_view": 0
  },
  {
    "link_thumb": "https://live.staticflickr.com/65535/50023978752_f9242b3482_n.jpg",
    "id_album": "-1082521515",
    "description": "Spider_195015",
    "title": "Spider_195015",
    "link_img": "https://live.staticflickr.com/65535/50023978752_6716924cd9_o.jpg",
    "id_image": "Spider_195015",
    "count_view": 0
  },
  {
    "link_thumb": "https://live.staticflickr.com/65535/50017820052_abf2ffa138_n.jpg",
    "id_album": "-401151552",
    "description": "Butterfly_290301",
    "title": "Butterfly_290301",
    "link_img": "https://live.staticflickr.com/65535/50017820052_14a88c83bf_o.jpg",
    "id_image": "Butterfly_290301",
    "count_view": 0
  },
  {
    "link_thumb": "https://live.staticflickr.com/65535/50017119033_6b9f5e9f41_n.jpg",
    "id_album": "-401151552",
    "description": "Butterfly_696202",
    "title": "Butterfly_696202",
    "link_img": "https://live.staticflickr.com/65535/50017119033_f849b97059_o.jpg",
    "id_image": "Butterfly_696202",
    "count_view": 0
  },
  {
    "link_thumb": "https://live.staticflickr.com/65535/50016873636_7a2ffe5a71_n.jpg",
    "id_album": "523598895",
    "description": "Artistic_169047",
    "title": "Artistic_169047",
    "link_img": "https://live.staticflickr.com/65535/50016873636_5343d4f2bd_o.jpg",
    "id_image": "Artistic_169047",
    "count_view": 0
  },
  {
    "link_thumb": "https://live.staticflickr.com/65535/50024252527_7104afff2d_n.jpg",
    "id_album": "1244464375",
    "description": "Starfish_415285",
    "title": "Starfish_415285",
    "link_img": "https://live.staticflickr.com/65535/50024252527_53b8fdc8b1_o.jpg",
    "id_image": "Starfish_415285",
    "count_view": 0
  },
  {
    "link_thumb": "https://live.staticflickr.com/65535/50352413221_7c4172b7f1_n.jpg",
    "id_album": "-462831703",
    "description": "Cat_185501",
    "title": "Cat_185501",
    "link_img": "https://live.staticflickr.com/65535/50352413221_8958efe806_o.jpg",
    "id_image": "Cat_185501",
    "count_view": 0
  },
  {
    "link_thumb": "https://live.staticflickr.com/65535/50023506916_a2178672d2_n.jpg",
    "id_album": "692487763",
    "description": "SiberianHusky_997676",
    "title": "SiberianHusky_997676",
    "link_img": "https://live.staticflickr.com/65535/50023506916_0a0ea4673e_o.jpg",
    "id_image": "SiberianHusky_997676",
    "count_view": 0
  },
  {
    "link_thumb": "https://live.staticflickr.com/65535/50016561523_d7be8fae16_n.jpg",
    "id_album": "-422187261",
    "description": "Bear_853997",
    "title": "Bear_853997",
    "link_img": "https://live.staticflickr.com/65535/50016561523_a8e00a6750_o.jpg",
    "id_image": "Bear_853997",
    "count_view": 0
  },
  {
    "link_thumb": "https://live.staticflickr.com/65535/50021067218_a4453bbd07_n.jpg",
    "id_album": "2144294979",
    "description": "Hummingbird_413274",
    "title": "Hummingbird_413274",
    "link_img": "https://live.staticflickr.com/65535/50021067218_1015e90578_o.jpg",
    "id_image": "Hummingbird_413274",
    "count_view": 0
  },
  {
    "link_thumb": "https://live.staticflickr.com/65535/50023458202_ba48c52a3a_n.jpg",
    "id_album": "332874268",
    "description": "RedPanda_272277",
    "title": "RedPanda_272277",
    "link_img": "https://live.staticflickr.com/65535/50023458202_fb23828b98_o.jpg",
    "id_image": "RedPanda_272277",
    "count_view": 0
  },
  {
    "link_thumb": "https://live.staticflickr.com/65535/50017860377_c4ca9d685e_n.jpg",
    "id_album": "-401151552",
    "description": "Butterfly_441675",
    "title": "Butterfly_441675",
    "link_img": "https://live.staticflickr.com/65535/50017860377_b5e7a62932_o.jpg",
    "id_image": "Butterfly_441675",
    "count_view": 0
  },
  {
    "link_thumb": "https://live.staticflickr.com/65535/50021131386_385ba7b904_n.jpg",
    "id_album": "-462831704",
    "description": "Cat_593088",
    "title": "Cat_593088",
    "link_img": "https://live.staticflickr.com/65535/50021131386_122cac6404_o.jpg",
    "id_image": "Cat_593088",
    "count_view": 0
  },
  {
    "link_thumb": "https://live.staticflickr.com/65535/50352629877_df4076b822_n.jpg",
    "id_album": "-462831703",
    "description": "Cat_365231",
    "title": "Cat_365231",
    "link_img": "https://live.staticflickr.com/65535/50352629877_a1af2084f7_o.jpg",
    "id_image": "Cat_365231",
    "count_view": 0
  },
  {
    "link_thumb": "https://live.staticflickr.com/65535/50022634503_0ed140bd8d_n.jpg",
    "id_album": "-434874555",
    "description": "RainbowLorikeet_567979",
    "title": "RainbowLorikeet_567979",
    "link_img": "https://live.staticflickr.com/65535/50022634503_93534bdf60_o.jpg",
    "id_image": "RainbowLorikeet_567979",
    "count_view": 0
  },
  {
    "link_thumb": "https://live.staticflickr.com/65535/50020774703_df24d815fb_n.jpg",
    "id_album": "713572662",
    "description": "Giraffe_178922",
    "title": "Giraffe_178922",
    "link_img": "https://live.staticflickr.com/65535/50020774703_f272888c32_o.jpg",
    "id_image": "Giraffe_178922",
    "count_view": 0
  },
  {
    "link_thumb": "https://live.staticflickr.com/65535/50016688578_bb745ffa2a_n.jpg",
    "id_album": "-1846011410",
    "description": "Bird_222326",
    "title": "Bird_222326",
    "link_img": "https://live.staticflickr.com/65535/50016688578_6bab4a3253_o.jpg",
    "id_image": "Bird_222326",
    "count_view": 0
  },
  {
    "link_thumb": "https://live.staticflickr.com/65535/50019657243_46d2635869_n.jpg",
    "id_album": "-149330232",
    "description": "Dog_261314",
    "title": "Dog_261314",
    "link_img": "https://live.staticflickr.com/65535/50019657243_d0562024ce_o.jpg",
    "id_image": "Dog_261314",
    "count_view": 0
  },
  {
    "link_thumb": "https://live.staticflickr.com/65535/50021880627_7fa6b7bf80_n.jpg",
    "id_album": "-712553376",
    "description": "Husky_293820",
    "title": "Husky_293820",
    "link_img": "https://live.staticflickr.com/65535/50021880627_eb0f58715b_o.jpg",
    "id_image": "Husky_293820",
    "count_view": 0
  },
  {
    "link_thumb": "https://live.staticflickr.com/65535/50352525646_f484bb9da4_n.jpg",
    "id_album": "-462831703",
    "description": "Cat_440982",
    "title": "Cat_440982",
    "link_img": "https://live.staticflickr.com/65535/50352525646_c1f2d7088e_o.jpg",
    "id_image": "Cat_440982",
    "count_view": 0
  },
  {
    "link_thumb": "https://live.staticflickr.com/65535/50020242871_abdd8e562f_n.jpg",
    "id_album": "-149330232",
    "description": "Dog_324265",
    "title": "Dog_324265",
    "link_img": "https://live.staticflickr.com/65535/50020242871_d4028a5442_o.jpg",
    "id_image": "Dog_324265",
    "count_view": 0
  },
  {
    "link_thumb": "https://live.staticflickr.com/65535/50021260416_cfe19eb4f8_n.jpg",
    "id_album": "-462831703",
    "description": "Cat_810938",
    "title": "Cat_810938",
    "link_img": "https://live.staticflickr.com/65535/50021260416_5a3b312f72_o.jpg",
    "id_image": "Cat_810938",
    "count_view": 0
  },
  {
    "link_thumb": "https://live.staticflickr.com/65535/50023131203_87d9cd8d70_n.jpg",
    "id_album": "-1131363127",
    "description": "SnowLeopard_881700",
    "title": "SnowLeopard_881700",
    "link_img": "https://live.staticflickr.com/65535/50023131203_f4682837b0_o.jpg",
    "id_image": "SnowLeopard_881700",
    "count_view": 0
  },
  {
    "link_thumb": "https://live.staticflickr.com/65535/50018034041_206dfef40d_n.jpg",
    "id_album": "-462831702",
    "description": "Cat_351326",
    "title": "Cat_351326",
    "link_img": "https://live.staticflickr.com/65535/50018034041_cf1b541c34_o.jpg",
    "id_image": "Cat_351326",
    "count_view": 0
  },
  {
    "link_thumb": "https://live.staticflickr.com/65535/50017219113_2e49ef24bb_n.jpg",
    "id_album": "-462831705",
    "description": "Cat_103042",
    "title": "Cat_103042",
    "link_img": "https://live.staticflickr.com/65535/50017219113_1e9cfd418b_o.jpg",
    "id_image": "Cat_103042",
    "count_view": 0
  },
  {
    "link_thumb": "https://live.staticflickr.com/65535/50017019348_2b9a4e20fc_n.jpg",
    "id_album": "-401151552",
    "description": "Butterfly_220553",
    "title": "Butterfly_220553",
    "link_img": "https://live.staticflickr.com/65535/50017019348_1166fcb093_o.jpg",
    "id_image": "Butterfly_220553",
    "count_view": 0
  },
  {
    "link_thumb": "https://live.staticflickr.com/65535/50021969187_358d2d83c8_n.jpg",
    "id_album": "1658866795",
    "description": "Insect_927066",
    "title": "Insect_927066",
    "link_img": "https://live.staticflickr.com/65535/50021969187_ce55f6c9fa_o.jpg",
    "id_image": "Insect_927066",
    "count_view": 0
  },
  {
    "link_thumb": "https://live.staticflickr.com/65535/50019763883_6be4e80b80_n.jpg",
    "id_album": "-149330232",
    "description": "Dog_349312",
    "title": "Dog_349312",
    "link_img": "https://live.staticflickr.com/65535/50019763883_8a764d45b0_o.jpg",
    "id_image": "Dog_349312",
    "count_view": 0
  },
  {
    "link_thumb": "https://live.staticflickr.com/65535/50021235077_059ed57247_n.jpg",
    "id_album": "-128218148",
    "description": "Fox_596083",
    "title": "Fox_596083",
    "link_img": "https://live.staticflickr.com/65535/50021235077_7c56ddd7b7_o.jpg",
    "id_image": "Fox_596083",
    "count_view": 0
  },
  {
    "link_thumb": "https://live.staticflickr.com/65535/50021083453_a85ddf45e3_n.jpg",
    "id_album": "2144294979",
    "description": "Hummingbird_952999",
    "title": "Hummingbird_952999",
    "link_img": "https://live.staticflickr.com/65535/50021083453_a15661506f_o.jpg",
    "id_image": "Hummingbird_952999",
    "count_view": 0
  },
  {
    "link_thumb": "https://live.staticflickr.com/65535/50017031748_f88c888f91_n.jpg",
    "id_album": "-401151552",
    "description": "Butterfly_289668",
    "title": "Butterfly_289668",
    "link_img": "https://live.staticflickr.com/65535/50017031748_eaf027ecdb_o.jpg",
    "id_image": "Butterfly_289668",
    "count_view": 0
  },
  {
    "link_thumb": "https://live.staticflickr.com/65535/50020928233_98b0c58ec4_n.jpg",
    "id_album": "-1933715543",
    "description": "Horse_225103",
    "title": "Horse_225103",
    "link_img": "https://live.staticflickr.com/65535/50020928233_e2ff3b6ce3_o.jpg",
    "id_image": "Horse_225103",
    "count_view": 0
  },
  {
    "link_thumb": "https://live.staticflickr.com/65535/50018407567_110855fe4e_n.jpg",
    "id_album": "-462831702",
    "description": "Cat_405684",
    "title": "Cat_405684",
    "link_img": "https://live.staticflickr.com/65535/50018407567_e9abd09e20_o.jpg",
    "id_image": "Cat_405684",
    "count_view": 0
  },
  {
    "link_thumb": "https://live.staticflickr.com/65535/50023632633_ae1cc3803f_n.jpg",
    "id_album": "405170427",
    "description": "Tiger_585151",
    "title": "Tiger_585151",
    "link_img": "https://live.staticflickr.com/65535/50023632633_b9691875d6_o.jpg",
    "id_image": "Tiger_585151",
    "count_view": 0
  },
  {
    "link_thumb": "https://live.staticflickr.com/65535/50017348762_4c622581b5_n.jpg",
    "id_album": "-422187261",
    "description": "Bear_840836",
    "title": "Bear_840836",
    "link_img": "https://live.staticflickr.com/65535/50017348762_fd5be2dd71_o.jpg",
    "id_image": "Bear_840836",
    "count_view": 0
  },
  {
    "link_thumb": "https://live.staticflickr.com/65535/50023234602_4e48bb481a_n.jpg",
    "id_album": "-353898617",
    "description": "Puppy_370336",
    "title": "Puppy_370336",
    "link_img": "https://live.staticflickr.com/65535/50023234602_c67e453991_o.jpg",
    "id_image": "Puppy_370336",
    "count_view": 0
  },
  {
    "link_thumb": "https://live.staticflickr.com/65535/50020675191_e18c6fcc4e_n.jpg",
    "id_album": "1168627767",
    "description": "Duck_866172",
    "title": "Duck_866172",
    "link_img": "https://live.staticflickr.com/65535/50020675191_b20606b333_o.jpg",
    "id_image": "Duck_866172",
    "count_view": 0
  },
  {
    "link_thumb": "https://live.staticflickr.com/65535/50019333886_94b9ed6253_n.jpg",
    "id_album": "-462831703",
    "description": "Cat_861881",
    "title": "Cat_861881",
    "link_img": "https://live.staticflickr.com/65535/50019333886_426c2df8be_o.jpg",
    "id_image": "Cat_861881",
    "count_view": 0
  },
  {
    "link_thumb": "https://live.staticflickr.com/65535/50021914897_46887a98c5_n.jpg",
    "id_album": "1658866795",
    "description": "Insect_276121",
    "title": "Insect_276121",
    "link_img": "https://live.staticflickr.com/65535/50021914897_aba83160f5_o.jpg",
    "id_image": "Insect_276121",
    "count_view": 0
  },
  {
    "link_thumb": "https://live.staticflickr.com/65535/50020940362_a02c40f2c1_n.jpg",
    "id_album": "-39098563",
    "description": "Eagle_201120",
    "title": "Eagle_201120",
    "link_img": "https://live.staticflickr.com/65535/50020940362_fc826cb745_o.jpg",
    "id_image": "Eagle_201120",
    "count_view": 0
  },
  {
    "link_thumb": "https://live.staticflickr.com/65535/50016451123_eb7c9a6beb_n.jpg",
    "id_album": "-80092825",
    "description": "Barnowl_380926",
    "title": "Barnowl_380926",
    "link_img": "https://live.staticflickr.com/65535/50016451123_8c0d781ea2_o.jpg",
    "id_image": "Barnowl_380926",
    "count_view": 0
  },
  {
    "link_thumb": "https://live.staticflickr.com/65535/50022142147_ae5f10606a_n.jpg",
    "id_album": "1392348450",
    "description": "Leopard_202352",
    "title": "Leopard_202352",
    "link_img": "https://live.staticflickr.com/65535/50022142147_2df0f23956_o.jpg",
    "id_image": "Leopard_202352",
    "count_view": 0
  },
  {
    "link_thumb": "https://live.staticflickr.com/65535/50021450407_dd8097d657_n.jpg",
    "id_album": "-462831704",
    "description": "Cat_714785",
    "title": "Cat_714785",
    "link_img": "https://live.staticflickr.com/65535/50021450407_ef8a683b86_o.jpg",
    "id_image": "Cat_714785",
    "count_view": 0
  },
  {
    "link_thumb": "https://live.staticflickr.com/65535/50023367042_734fa3458d_n.jpg",
    "id_album": "-1940643173",
    "description": "Rabbit_433170",
    "title": "Rabbit_433170",
    "link_img": "https://live.staticflickr.com/65535/50023367042_ce437085ba_o.jpg",
    "id_image": "Rabbit_433170",
    "count_view": 0
  },
  {
    "link_thumb": "https://live.staticflickr.com/65535/50023960487_5d7b0c8f68_n.jpg",
    "id_album": "-359606417",
    "description": "Sparrow_412006",
    "title": "Sparrow_412006",
    "link_img": "https://live.staticflickr.com/65535/50023960487_c44ac50c59_o.jpg",
    "id_image": "Sparrow_412006",
    "count_view": 0
  },
  {
    "link_thumb": "https://live.staticflickr.com/65535/50016994581_903962dc66_n.jpg",
    "id_album": "809937717",
    "description": "Beagle_750757",
    "title": "Beagle_750757",
    "link_img": "https://live.staticflickr.com/65535/50016994581_e9aa96fcef_o.jpg",
    "id_image": "Beagle_750757",
    "count_view": 0
  },
  {
    "link_thumb": "https://live.staticflickr.com/65535/50020618391_6a7e2525b6_n.jpg",
    "id_album": "-405058657",
    "description": "Dragonfly_392920",
    "title": "Dragonfly_392920",
    "link_img": "https://live.staticflickr.com/65535/50020618391_f0a53696d7_o.jpg",
    "id_image": "Dragonfly_392920",
    "count_view": 0
  },
  {
    "link_thumb": "https://live.staticflickr.com/65535/50022457688_1964087d89_n.jpg",
    "id_album": "-353898617",
    "description": "Puppy_456089",
    "title": "Puppy_456089",
    "link_img": "https://live.staticflickr.com/65535/50022457688_9daf3094e5_o.jpg",
    "id_image": "Puppy_456089",
    "count_view": 0
  },
  {
    "link_thumb": "https://live.staticflickr.com/65535/50023746843_5b22bb14c9_n.jpg",
    "id_album": "901523298",
    "description": "TreeFrog_425281",
    "title": "TreeFrog_425281",
    "link_img": "https://live.staticflickr.com/65535/50023746843_6a9a1bd024_o.jpg",
    "id_image": "TreeFrog_425281",
    "count_view": 0
  },
  {
    "link_thumb": "https://live.staticflickr.com/65535/50020335116_620d15f926_n.jpg",
    "id_album": "-149330232",
    "description": "Dog_367438",
    "title": "Dog_367438",
    "link_img": "https://live.staticflickr.com/65535/50020335116_52d875d57b_o.jpg",
    "id_image": "Dog_367438",
    "count_view": 0
  },
  {
    "link_thumb": "https://live.staticflickr.com/65535/50021477753_21600d75d7_n.jpg",
    "id_album": "416744915",
    "description": "Lion_432399",
    "title": "Lion_432399",
    "link_img": "https://live.staticflickr.com/65535/50021477753_a62a22d375_o.jpg",
    "id_image": "Lion_432399",
    "count_view": 0
  },
  {
    "link_thumb": "https://live.staticflickr.com/65535/50352597646_7133ffddd2_n.jpg",
    "id_album": "-462831703",
    "description": "Cat_548283",
    "title": "Cat_548283",
    "link_img": "https://live.staticflickr.com/65535/50352597646_118476a126_o.jpg",
    "id_image": "Cat_548283",
    "count_view": 0
  },
  {
    "link_thumb": "https://live.staticflickr.com/65535/50021013506_b2848fd39c_n.jpg",
    "id_album": "-128218148",
    "description": "Fox_858078",
    "title": "Fox_858078",
    "link_img": "https://live.staticflickr.com/65535/50021013506_ee74f72d40_o.jpg",
    "id_image": "Fox_858078",
    "count_view": 0
  },
  {
    "link_thumb": "https://live.staticflickr.com/65535/50017287203_a445577f40_n.jpg",
    "id_album": "-462831705",
    "description": "Cat_176314",
    "title": "Cat_176314",
    "link_img": "https://live.staticflickr.com/65535/50017287203_872617f7cb_o.jpg",
    "id_image": "Cat_176314",
    "count_view": 0
  },
  {
    "link_thumb": "https://live.staticflickr.com/65535/50020889632_dbb5548584_n.jpg",
    "id_album": "-405058657",
    "description": "Dragonfly_588149",
    "title": "Dragonfly_588149",
    "link_img": "https://live.staticflickr.com/65535/50020889632_e3c98aa67a_o.jpg",
    "id_image": "Dragonfly_588149",
    "count_view": 0
  },
  {
    "link_thumb": "https://live.staticflickr.com/65535/50020805427_72846ca0df_n.jpg",
    "id_album": "-149330231",
    "description": "Dog_941924",
    "title": "Dog_941924",
    "link_img": "https://live.staticflickr.com/65535/50020805427_a9988b6d25_o.jpg",
    "id_image": "Dog_941924",
    "count_view": 0
  },
  {
    "link_thumb": "https://live.staticflickr.com/65535/50016993161_b98ffa0b28_n.jpg",
    "id_album": "809937717",
    "description": "Beagle_715635",
    "title": "Beagle_715635",
    "link_img": "https://live.staticflickr.com/65535/50016993161_9ce30ecc04_o.jpg",
    "id_image": "Beagle_715635",
    "count_view": 0
  },
  {
    "link_thumb": "https://live.staticflickr.com/65535/50021872886_584c42d7ca_n.jpg",
    "id_album": "1918884325",
    "description": "Lemur_348397",
    "title": "Lemur_348397",
    "link_img": "https://live.staticflickr.com/65535/50021872886_9d2fecdc3a_o.jpg",
    "id_image": "Lemur_348397",
    "count_view": 0
  },
  {
    "link_thumb": "https://live.staticflickr.com/65535/50021675586_017b76cf21_n.jpg",
    "id_album": "1658866795",
    "description": "Insect_403297",
    "title": "Insect_403297",
    "link_img": "https://live.staticflickr.com/65535/50021675586_3e3949c34f_o.jpg",
    "id_image": "Insect_403297",
    "count_view": 0
  },
  {
    "link_thumb": "https://live.staticflickr.com/65535/50017085513_fed4cec7f5_n.jpg",
    "id_album": "-401151552",
    "description": "Butterfly_484860",
    "title": "Butterfly_484860",
    "link_img": "https://live.staticflickr.com/65535/50017085513_96aba52b3c_o.jpg",
    "id_image": "Butterfly_484860",
    "count_view": 0
  },
  {
    "link_thumb": "https://live.staticflickr.com/65535/50020358816_389e43d4ba_n.jpg",
    "id_album": "-149330231",
    "description": "Dog_381590",
    "title": "Dog_381590",
    "link_img": "https://live.staticflickr.com/65535/50020358816_d602fc0aac_o.jpg",
    "id_image": "Dog_381590",
    "count_view": 0
  },
  {
    "link_thumb": "https://live.staticflickr.com/65535/50352612606_c2c799fc32_n.jpg",
    "id_album": "-462831703",
    "description": "Cat_570075",
    "title": "Cat_570075",
    "link_img": "https://live.staticflickr.com/65535/50352612606_127993afb8_o.jpg",
    "id_image": "Cat_570075",
    "count_view": 0
  },
  {
    "link_thumb": "https://live.staticflickr.com/65535/50352455631_96e60096db_n.jpg",
    "id_album": "-462831703",
    "description": "Cat_326784",
    "title": "Cat_326784",
    "link_img": "https://live.staticflickr.com/65535/50352455631_b681b9371c_o.jpg",
    "id_image": "Cat_326784",
    "count_view": 0
  },
  {
    "link_thumb": "https://live.staticflickr.com/65535/50021309097_0e9e515350_n.jpg",
    "id_album": "844170697",
    "description": "Frog_331471",
    "title": "Frog_331471",
    "link_img": "https://live.staticflickr.com/65535/50021309097_44426265f1_o.jpg",
    "id_image": "Frog_331471",
    "count_view": 0
  },
  {
    "link_thumb": "https://live.staticflickr.com/65535/50021752761_3686044a24_n.jpg",
    "id_album": "665694624",
    "description": "JapaneseMacaque_668974",
    "title": "JapaneseMacaque_668974",
    "link_img": "https://live.staticflickr.com/65535/50021752761_1aac661486_o.jpg",
    "id_image": "JapaneseMacaque_668974",
    "count_view": 0
  },
  {
    "link_thumb": "https://live.staticflickr.com/65535/50024468401_292db24f1d_n.jpg",
    "id_album": "-709711865",
    "description": "Wolf_251874",
    "title": "Wolf_251874",
    "link_img": "https://live.staticflickr.com/65535/50024468401_bf557bf98b_o.jpg",
    "id_image": "Wolf_251874",
    "count_view": 0
  },
  {
    "link_thumb": "https://live.staticflickr.com/65535/50018226452_af00af1aa2_n.jpg",
    "id_album": "-462831702",
    "description": "Cat_323677",
    "title": "Cat_323677",
    "link_img": "https://live.staticflickr.com/65535/50018226452_2c6be4e6fa_o.jpg",
    "id_image": "Cat_323677",
    "count_view": 0
  },
  {
    "link_thumb": "https://live.staticflickr.com/65535/50021525133_19d85c92f0_n.jpg",
    "id_album": "416744915",
    "description": "Lion_851422",
    "title": "Lion_851422",
    "link_img": "https://live.staticflickr.com/65535/50021525133_0901108010_o.jpg",
    "id_image": "Lion_851422",
    "count_view": 0
  },
  {
    "link_thumb": "https://live.staticflickr.com/65535/50351711268_cf74483ff5_n.jpg",
    "id_album": "-462831703",
    "description": "Cat_174524",
    "title": "Cat_174524",
    "link_img": "https://live.staticflickr.com/65535/50351711268_fdf54ef11d_o.jpg",
    "id_image": "Cat_174524",
    "count_view": 0
  },
  {
    "link_thumb": "https://live.staticflickr.com/65535/50017514097_faaf86c423_n.jpg",
    "id_album": "-1846011410",
    "description": "Bird_343309",
    "title": "Bird_343309",
    "link_img": "https://live.staticflickr.com/65535/50017514097_4003a9402a_o.jpg",
    "id_image": "Bird_343309",
    "count_view": 0
  },
  {
    "link_thumb": "https://live.staticflickr.com/65535/50023066672_b630f48144_n.jpg",
    "id_album": "1146438617",
    "description": "Pelican_616093",
    "title": "Pelican_616093",
    "link_img": "https://live.staticflickr.com/65535/50023066672_ebf7c1621c_o.jpg",
    "id_image": "Pelican_616093",
    "count_view": 0
  },
  {
    "link_thumb": "https://live.staticflickr.com/65535/50019750491_b213a36d4e_n.jpg",
    "id_album": "1949822052",
    "description": "Chimpanzee_758175",
    "title": "Chimpanzee_758175",
    "link_img": "https://live.staticflickr.com/65535/50019750491_cf413b27fc_o.jpg",
    "id_image": "Chimpanzee_758175",
    "count_view": 0
  },
  {
    "link_thumb": "https://live.staticflickr.com/65535/50016577943_0f4522612b_n.jpg",
    "id_album": "-422187261",
    "description": "Bear_932066",
    "title": "Bear_932066",
    "link_img": "https://live.staticflickr.com/65535/50016577943_3f519715b8_o.jpg",
    "id_image": "Bear_932066",
    "count_view": 0
  },
  {
    "link_thumb": "https://live.staticflickr.com/65535/50021469188_b708f75ae4_n.jpg",
    "id_album": "416744915",
    "description": "Lion_409127",
    "title": "Lion_409127",
    "link_img": "https://live.staticflickr.com/65535/50021469188_da067713a4_o.jpg",
    "id_image": "Lion_409127",
    "count_view": 0
  },
  {
    "link_thumb": "https://live.staticflickr.com/65535/50017893286_003c9252ca_n.jpg",
    "id_album": "-462831705",
    "description": "Cat_239109",
    "title": "Cat_239109",
    "link_img": "https://live.staticflickr.com/65535/50017893286_64522496c5_o.jpg",
    "id_image": "Cat_239109",
    "count_view": 0
  },
  {
    "link_thumb": "https://live.staticflickr.com/65535/50024533617_b62810a7d4_n.jpg",
    "id_album": "432140049",
    "description": "Toad_706240",
    "title": "Toad_706240",
    "link_img": "https://live.staticflickr.com/65535/50024533617_758439f61c_o.jpg",
    "id_image": "Toad_706240",
    "count_view": 0
  },
  {
    "link_thumb": "https://live.staticflickr.com/65535/50019496991_0df0f1eef9_n.jpg",
    "id_album": "-462831703",
    "description": "Cat_938184",
    "title": "Cat_938184",
    "link_img": "https://live.staticflickr.com/65535/50019496991_7d3c065787_o.jpg",
    "id_image": "Cat_938184",
    "count_view": 0
  },
  {
    "link_thumb": "https://live.staticflickr.com/65535/50018119856_e67ed93f69_n.jpg",
    "id_album": "-462831702",
    "description": "Cat_389019",
    "title": "Cat_389019",
    "link_img": "https://live.staticflickr.com/65535/50018119856_15e55cbd19_o.jpg",
    "id_image": "Cat_389019",
    "count_view": 0
  },
  {
    "link_thumb": "https://live.staticflickr.com/65535/50020535892_1de579a5a8_n.jpg",
    "id_album": "-149330232",
    "description": "Dog_340984",
    "title": "Dog_340984",
    "link_img": "https://live.staticflickr.com/65535/50020535892_be0cc23d4f_o.jpg",
    "id_image": "Dog_340984",
    "count_view": 0
  },
  {
    "link_thumb": "https://live.staticflickr.com/65535/50022652072_3565fae1da_n.jpg",
    "id_album": "-1384601601",
    "description": "Owl_332229",
    "title": "Owl_332229",
    "link_img": "https://live.staticflickr.com/65535/50022652072_842b674b80_o.jpg",
    "id_image": "Owl_332229",
    "count_view": 0
  },
  {
    "link_thumb": "https://live.staticflickr.com/65535/50020904312_9aa338aff5_n.jpg",
    "id_album": "1168627767",
    "description": "Duck_242226",
    "title": "Duck_242226",
    "link_img": "https://live.staticflickr.com/65535/50020904312_7d2a0ddf48_o.jpg",
    "id_image": "Duck_242226",
    "count_view": 0
  },
  {
    "link_thumb": "https://live.staticflickr.com/65535/50021764196_ca7a9a8153_n.jpg",
    "id_album": "1562047127",
    "description": "Jellyfish_358932",
    "title": "Jellyfish_358932",
    "link_img": "https://live.staticflickr.com/65535/50021764196_c093001dee_o.jpg",
    "id_image": "Jellyfish_358932",
    "count_view": 0
  },
  {
    "link_thumb": "https://live.staticflickr.com/65535/50017481457_1a2f2a5eca_n.jpg",
    "id_album": "-1846011410",
    "description": "Bird_260492",
    "title": "Bird_260492",
    "link_img": "https://live.staticflickr.com/65535/50017481457_6bb9e0672b_o.jpg",
    "id_image": "Bird_260492",
    "count_view": 0
  },
  {
    "link_thumb": "https://live.staticflickr.com/65535/50018243857_b1ae9f36eb_n.jpg",
    "id_album": "-462831702",
    "description": "Cat_328631",
    "title": "Cat_328631",
    "link_img": "https://live.staticflickr.com/65535/50018243857_b213ecd4bb_o.jpg",
    "id_image": "Cat_328631",
    "count_view": 0
  },
  {
    "link_thumb": "https://live.staticflickr.com/65535/50017287897_185a8d5d08_n.jpg",
    "id_album": "-422187261",
    "description": "Bear_349761",
    "title": "Bear_349761",
    "link_img": "https://live.staticflickr.com/65535/50017287897_57147197ab_o.jpg",
    "id_image": "Bear_349761",
    "count_view": 0
  },
  {
    "link_thumb": "https://live.staticflickr.com/65535/50017099518_7f479e9157_n.jpg",
    "id_album": "-401151552",
    "description": "Butterfly_553021",
    "title": "Butterfly_553021",
    "link_img": "https://live.staticflickr.com/65535/50017099518_98967aaba3_o.jpg",
    "id_image": "Butterfly_553021",
    "count_view": 0
  },
  {
    "link_thumb": "https://live.staticflickr.com/65535/50023485012_fbdc367511_n.jpg",
    "id_album": "332874268",
    "description": "RedPanda_686485",
    "title": "RedPanda_686485",
    "link_img": "https://live.staticflickr.com/65535/50023485012_c17cdecbcb_o.jpg",
    "id_image": "RedPanda_686485",
    "count_view": 0
  },
  {
    "link_thumb": "https://live.staticflickr.com/65535/50024343096_0f406089de_n.jpg",
    "id_album": "410750612",
    "description": "Wasp_584288",
    "title": "Wasp_584288",
    "link_img": "https://live.staticflickr.com/65535/50024343096_fcef755f04_o.jpg",
    "id_image": "Wasp_584288",
    "count_view": 0
  },
  {
    "link_thumb": "https://live.staticflickr.com/65535/50017370031_f0d04fe40b_n.jpg",
    "id_album": "-1846011410",
    "description": "Bird_570795",
    "title": "Bird_570795",
    "link_img": "https://live.staticflickr.com/65535/50017370031_f971b67e57_o.jpg",
    "id_image": "Bird_570795",
    "count_view": 0
  },
  {
    "link_thumb": "https://live.staticflickr.com/65535/50022095597_8a64e67ceb_n.jpg",
    "id_album": "-1882491687",
    "description": "Ladybug_211741",
    "title": "Ladybug_211741",
    "link_img": "https://live.staticflickr.com/65535/50022095597_786fc09f86_o.jpg",
    "id_image": "Ladybug_211741",
    "count_view": 0
  },
  {
    "link_thumb": "https://live.staticflickr.com/65535/50022069397_c038b34570_n.jpg",
    "id_album": "770105808",
    "description": "Kingfisher_927586",
    "title": "Kingfisher_927586",
    "link_img": "https://live.staticflickr.com/65535/50022069397_371d8fd222_o.jpg",
    "id_image": "Kingfisher_927586",
    "count_view": 0
  },
  {
    "link_thumb": "https://live.staticflickr.com/65535/50022495543_35203c4521_n.jpg",
    "id_album": "-353898617",
    "description": "Puppy_593450",
    "title": "Puppy_593450",
    "link_img": "https://live.staticflickr.com/65535/50022495543_081dbf224b_o.jpg",
    "id_image": "Puppy_593450",
    "count_view": 0
  },
  {
    "link_thumb": "https://live.staticflickr.com/65535/50021587502_6383f7c08e_n.jpg",
    "id_album": "713572662",
    "description": "Giraffe_795327",
    "title": "Giraffe_795327",
    "link_img": "https://live.staticflickr.com/65535/50021587502_36cc796bd8_o.jpg",
    "id_image": "Giraffe_795327",
    "count_view": 0
  },
  {
    "link_thumb": "https://live.staticflickr.com/65535/50020465786_d32c8044ee_n.jpg",
    "id_album": "-149330231",
    "description": "Dog_593674",
    "title": "Dog_593674",
    "link_img": "https://live.staticflickr.com/65535/50020465786_c2e3f270b9_o.jpg",
    "id_image": "Dog_593674",
    "count_view": 0
  },
  {
    "link_thumb": "https://live.staticflickr.com/65535/50019966998_a29484454f_n.jpg",
    "id_album": "-149330231",
    "description": "Dog_732498",
    "title": "Dog_732498",
    "link_img": "https://live.staticflickr.com/65535/50019966998_109d3a3e9f_o.jpg",
    "id_image": "Dog_732498",
    "count_view": 0
  },
  {
    "link_thumb": "https://live.staticflickr.com/65535/50021298012_93bb77cb8e_n.jpg",
    "id_album": "704811092",
    "description": "FrenchBulldog_715493",
    "title": "FrenchBulldog_715493",
    "link_img": "https://live.staticflickr.com/65535/50021298012_d35c031e52_o.jpg",
    "id_image": "FrenchBulldog_715493",
    "count_view": 0
  },
  {
    "link_thumb": "https://live.staticflickr.com/65535/50017164192_37de9bd211_n.jpg",
    "id_album": "523598895",
    "description": "Artistic_421346",
    "title": "Artistic_421346",
    "link_img": "https://live.staticflickr.com/65535/50017164192_44806e7fdc_o.jpg",
    "id_image": "Artistic_421346",
    "count_view": 0
  },
  {
    "link_thumb": "https://live.staticflickr.com/65535/50017759852_11b4494d37_n.jpg",
    "id_album": "782930701",
    "description": "BorderCollie_846343",
    "title": "BorderCollie_846343",
    "link_img": "https://live.staticflickr.com/65535/50017759852_9dd0cd72e8_o.jpg",
    "id_image": "BorderCollie_846343",
    "count_view": 0
  },
  {
    "link_thumb": "https://live.staticflickr.com/65535/50021418336_c1f035a8bd_n.jpg",
    "id_album": "-1513987841",
    "description": "Hawk_263985",
    "title": "Hawk_263985",
    "link_img": "https://live.staticflickr.com/65535/50021418336_eaebf13105_o.jpg",
    "id_image": "Hawk_263985",
    "count_view": 0
  },
  {
    "link_thumb": "https://live.staticflickr.com/65535/50017590387_53a0cee82f_n.jpg",
    "id_album": "-1846011410",
    "description": "Bird_430951",
    "title": "Bird_430951",
    "link_img": "https://live.staticflickr.com/65535/50017590387_be5552f7fa_o.jpg",
    "id_image": "Bird_430951",
    "count_view": 0
  },
  {
    "link_thumb": "https://live.staticflickr.com/65535/50021157686_bd7937990d_n.jpg",
    "id_album": "-462831704",
    "description": "Cat_669421",
    "title": "Cat_669421",
    "link_img": "https://live.staticflickr.com/65535/50021157686_85d04341a6_o.jpg",
    "id_image": "Cat_669421",
    "count_view": 0
  },
  {
    "link_thumb": "https://live.staticflickr.com/65535/50021740167_14febc851a_n.jpg",
    "id_album": "-1933715543",
    "description": "Horse_325850",
    "title": "Horse_325850",
    "link_img": "https://live.staticflickr.com/65535/50021740167_c95cdd89ff_o.jpg",
    "id_image": "Horse_325850",
    "count_view": 0
  },
  {
    "link_thumb": "https://live.staticflickr.com/65535/50020382768_525ba5d2a9_n.jpg",
    "id_album": "-1694105481",
    "description": "Fly_700200",
    "title": "Fly_700200",
    "link_img": "https://live.staticflickr.com/65535/50020382768_a173698c18_o.jpg",
    "id_image": "Fly_700200",
    "count_view": 0
  },
  {
    "link_thumb": "https://live.staticflickr.com/65535/50017186148_7012cff4f5_n.jpg",
    "id_album": "-401151552",
    "description": "Butterfly_934382",
    "title": "Butterfly_934382",
    "link_img": "https://live.staticflickr.com/65535/50017186148_88fcf70b84_o.jpg",
    "id_image": "Butterfly_934382",
    "count_view": 0
  },
  {
    "link_thumb": "https://live.staticflickr.com/65535/50017936902_2a2d2c2641_n.jpg",
    "id_album": "-401151552",
    "description": "Butterfly_837373",
    "title": "Butterfly_837373",
    "link_img": "https://live.staticflickr.com/65535/50017936902_7a9331d926_o.jpg",
    "id_image": "Butterfly_837373",
    "count_view": 0
  },
  {
    "link_thumb": "https://live.staticflickr.com/65535/50016827546_799cb49039_n.jpg",
    "id_album": "-229810103",
    "description": "AmericanBison_724735",
    "title": "AmericanBison_724735",
    "link_img": "https://live.staticflickr.com/65535/50016827546_ecde5b8678_o.jpg",
    "id_image": "AmericanBison_724735",
    "count_view": 0
  },
  {
    "link_thumb": "https://live.staticflickr.com/65535/50020910657_0611133cfd_n.jpg",
    "id_album": "1168627767",
    "description": "Duck_368377",
    "title": "Duck_368377",
    "link_img": "https://live.staticflickr.com/65535/50020910657_90435ca83d_o.jpg",
    "id_image": "Duck_368377",
    "count_view": 0
  },
  {
    "link_thumb": "https://live.staticflickr.com/65535/50021999678_6c55ddc18c_n.jpg",
    "id_album": "-358592519",
    "description": "Panda_590459",
    "title": "Panda_590459",
    "link_img": "https://live.staticflickr.com/65535/50021999678_6262bee1a5_o.jpg",
    "id_image": "Panda_590459",
    "count_view": 0
  },
  {
    "link_thumb": "https://live.staticflickr.com/65535/50017094692_2f52ac153d_n.jpg",
    "id_album": "-1741290715",
    "description": "Ant_420986",
    "title": "Ant_420986",
    "link_img": "https://live.staticflickr.com/65535/50017094692_9b3aea145a_o.jpg",
    "id_image": "Ant_420986",
    "count_view": 0
  },
  {
    "link_thumb": "https://live.staticflickr.com/65535/50023383676_2e847250e3_n.jpg",
    "id_album": "1656131695",
    "description": "Seagull_615911",
    "title": "Seagull_615911",
    "link_img": "https://live.staticflickr.com/65535/50023383676_c429e8b1ae_o.jpg",
    "id_image": "Seagull_615911",
    "count_view": 0
  },
  {
    "link_thumb": "https://live.staticflickr.com/65535/50020839951_a06fed29cf_n.jpg",
    "id_album": "-1118073211",
    "description": "Fish_348738",
    "title": "Fish_348738",
    "link_img": "https://live.staticflickr.com/65535/50020839951_87fb82989d_o.jpg",
    "id_image": "Fish_348738",
    "count_view": 0
  },
  {
    "link_thumb": "https://live.staticflickr.com/65535/50020301761_30a0033c70_n.jpg",
    "id_album": "-149330232",
    "description": "Dog_351551",
    "title": "Dog_351551",
    "link_img": "https://live.staticflickr.com/65535/50020301761_91fcce5005_o.jpg",
    "id_image": "Dog_351551",
    "count_view": 0
  },
  {
    "link_thumb": "https://live.staticflickr.com/65535/50021484877_d15fa3066c_n.jpg",
    "id_album": "-462831703",
    "description": "Cat_762006",
    "title": "Cat_762006",
    "link_img": "https://live.staticflickr.com/65535/50021484877_de35dfff14_o.jpg",
    "id_image": "Cat_762006",
    "count_view": 0
  },
  {
    "link_thumb": "https://live.staticflickr.com/65535/50022552998_0724147492_n.jpg",
    "id_album": "-1940643173",
    "description": "Rabbit_285051",
    "title": "Rabbit_285051",
    "link_img": "https://live.staticflickr.com/65535/50022552998_0ed830573a_o.jpg",
    "id_image": "Rabbit_285051",
    "count_view": 0
  },
  {
    "link_thumb": "https://live.staticflickr.com/65535/50021526642_a46a08fbb1_n.jpg",
    "id_album": "-462831703",
    "description": "Cat_837622",
    "title": "Cat_837622",
    "link_img": "https://live.staticflickr.com/65535/50021526642_112f3b28b1_o.jpg",
    "id_image": "Cat_837622",
    "count_view": 0
  },
  {
    "link_thumb": "https://live.staticflickr.com/65535/50017573007_65ef99555a_n.jpg",
    "id_album": "-1846011410",
    "description": "Bird_406664",
    "title": "Bird_406664",
    "link_img": "https://live.staticflickr.com/65535/50017573007_ae6d4eec55_o.jpg",
    "id_image": "Bird_406664",
    "count_view": 0
  },
  {
    "link_thumb": "https://live.staticflickr.com/65535/50024432892_51ee4771cd_n.jpg",
    "id_album": "405170427",
    "description": "Tiger_571356",
    "title": "Tiger_571356",
    "link_img": "https://live.staticflickr.com/65535/50024432892_77c01a9b0d_o.jpg",
    "id_image": "Tiger_571356",
    "count_view": 0
  },
  {
    "link_thumb": "https://live.staticflickr.com/65535/50021883542_517b335a77_n.jpg",
    "id_album": "-712553376",
    "description": "Husky_373737",
    "title": "Husky_373737",
    "link_img": "https://live.staticflickr.com/65535/50021883542_0f126219c4_o.jpg",
    "id_image": "Husky_373737",
    "count_view": 0
  },
  {
    "link_thumb": "https://live.staticflickr.com/65535/50023999863_327be92395_n.jpg",
    "id_album": "-709711865",
    "description": "Wolf_749836",
    "title": "Wolf_749836",
    "link_img": "https://live.staticflickr.com/65535/50023999863_497b441e75_o.jpg",
    "id_image": "Wolf_749836",
    "count_view": 0
  },
  {
    "link_thumb": "https://live.staticflickr.com/65535/50017218936_7784ee06f9_n.jpg",
    "id_album": "-1846011410",
    "description": "Bird_241673",
    "title": "Bird_241673",
    "link_img": "https://live.staticflickr.com/65535/50017218936_95b0ab4d20_o.jpg",
    "id_image": "Bird_241673",
    "count_view": 0
  },
  {
    "link_thumb": "https://live.staticflickr.com/65535/50352609512_c7865beb7e_n.jpg",
    "id_album": "-462831703",
    "description": "Cat_272311",
    "title": "Cat_272311",
    "link_img": "https://live.staticflickr.com/65535/50352609512_4763efe3e6_o.jpg",
    "id_image": "Cat_272311",
    "count_view": 0
  },
  {
    "link_thumb": "https://live.staticflickr.com/65535/50020616832_8d7dd1fdc6_n.jpg",
    "id_album": "-149330231",
    "description": "Dog_381645",
    "title": "Dog_381645",
    "link_img": "https://live.staticflickr.com/65535/50020616832_5d4d390e86_o.jpg",
    "id_image": "Dog_381645",
    "count_view": 0
  },
  {
    "link_thumb": "https://live.staticflickr.com/65535/50016537168_ec296cc370_n.jpg",
    "id_album": "-422187261",
    "description": "Bear_658895",
    "title": "Bear_658895",
    "link_img": "https://live.staticflickr.com/65535/50016537168_a0feb174c0_o.jpg",
    "id_image": "Bear_658895",
    "count_view": 0
  },
  {
    "link_thumb": "https://live.staticflickr.com/65535/50352593457_55d7f2100e_n.jpg",
    "id_album": "-462831703",
    "description": "Cat_236336",
    "title": "Cat_236336",
    "link_img": "https://live.staticflickr.com/65535/50352593457_445ef14673_o.jpg",
    "id_image": "Cat_236336",
    "count_view": 0
  },
  {
    "link_thumb": "https://live.staticflickr.com/65535/50023645393_1d8de98467_n.jpg",
    "id_album": "405170427",
    "description": "Tiger_68054",
    "title": "Tiger_68054",
    "link_img": "https://live.staticflickr.com/65535/50023645393_cb18dbc962_o.jpg",
    "id_image": "Tiger_68054",
    "count_view": 0
  },
  {
    "link_thumb": "https://live.staticflickr.com/65535/50020250652_e1da3277a3_n.jpg",
    "id_album": "1903411565",
    "description": "Deer_338631",
    "title": "Deer_338631",
    "link_img": "https://live.staticflickr.com/65535/50020250652_95aaed7007_o.jpg",
    "id_image": "Deer_338631",
    "count_view": 0
  },
  {
    "link_thumb": "https://live.staticflickr.com/65535/50020381553_46d366ced9_n.jpg",
    "id_album": "-1694105481",
    "description": "Fly_552071",
    "title": "Fly_552071",
    "link_img": "https://live.staticflickr.com/65535/50020381553_04cb29c8ca_o.jpg",
    "id_image": "Fly_552071",
    "count_view": 0
  },
  {
    "link_thumb": "https://live.staticflickr.com/65535/50017320197_32320163aa_n.jpg",
    "id_album": "-422187261",
    "description": "Bear_571947",
    "title": "Bear_571947",
    "link_img": "https://live.staticflickr.com/65535/50017320197_067748bf49_o.jpg",
    "id_image": "Bear_571947",
    "count_view": 0
  },
  {
    "link_thumb": "https://live.staticflickr.com/65535/50018141141_25fb7dcccf_n.jpg",
    "id_album": "-462831702",
    "description": "Cat_400299",
    "title": "Cat_400299",
    "link_img": "https://live.staticflickr.com/65535/50018141141_a7992c92f3_o.jpg",
    "id_image": "Cat_400299",
    "count_view": 0
  },
  {
    "link_thumb": "https://live.staticflickr.com/65535/50024260472_57b88412a0_n.jpg",
    "id_album": "1244464375",
    "description": "Starfish_911648",
    "title": "Starfish_911648",
    "link_img": "https://live.staticflickr.com/65535/50024260472_47aa2a5c5c_o.jpg",
    "id_image": "Starfish_911648",
    "count_view": 0
  },
  {
    "link_thumb": "https://live.staticflickr.com/65535/50016982528_51b19ae6bc_n.jpg",
    "id_album": "782930701",
    "description": "BorderCollie_912491",
    "title": "BorderCollie_912491",
    "link_img": "https://live.staticflickr.com/65535/50016982528_30fbdf785a_o.jpg",
    "id_image": "BorderCollie_912491",
    "count_view": 0
  },
  {
    "link_thumb": "https://live.staticflickr.com/65535/50024572312_c7039a208e_n.jpg",
    "id_album": "46520366",
    "description": "Turtle_421377",
    "title": "Turtle_421377",
    "link_img": "https://live.staticflickr.com/65535/50024572312_a568b912f4_o.jpg",
    "id_image": "Turtle_421377",
    "count_view": 0
  },
  {
    "link_thumb": "https://live.staticflickr.com/65535/50020183493_9a9a76f0ae_n.jpg",
    "id_album": "-39098563",
    "description": "Eagle_588538",
    "title": "Eagle_588538",
    "link_img": "https://live.staticflickr.com/65535/50020183493_99a6cb0fb7_o.jpg",
    "id_image": "Eagle_588538",
    "count_view": 0
  },
  {
    "link_thumb": "https://live.staticflickr.com/65535/50024483767_fe1a26f20a_n.jpg",
    "id_album": "405170427",
    "description": "Tiger_856365",
    "title": "Tiger_856365",
    "link_img": "https://live.staticflickr.com/65535/50024483767_79b7a80f0b_o.jpg",
    "id_image": "Tiger_856365",
    "count_view": 0
  },
  {
    "link_thumb": "https://live.staticflickr.com/65535/50017588133_7194268da7_n.jpg",
    "id_album": "-462831702",
    "description": "Cat_386717",
    "title": "Cat_386717",
    "link_img": "https://live.staticflickr.com/65535/50017588133_ab61ca353b_o.jpg",
    "id_image": "Cat_386717",
    "count_view": 0
  },
  {
    "link_thumb": "https://live.staticflickr.com/65535/50023511543_8cc3737831_n.jpg",
    "id_album": "405170427",
    "description": "Tiger_279341",
    "title": "Tiger_279341",
    "link_img": "https://live.staticflickr.com/65535/50023511543_b299eac992_o.jpg",
    "id_image": "Tiger_279341",
    "count_view": 0
  },
  {
    "link_thumb": "https://live.staticflickr.com/65535/50024243716_3af7f296c2_n.jpg",
    "id_album": "405170427",
    "description": "Tiger_923376",
    "title": "Tiger_923376",
    "link_img": "https://live.staticflickr.com/65535/50024243716_eb734a6b66_o.jpg",
    "id_image": "Tiger_923376",
    "count_view": 0
  },
  {
    "link_thumb": "https://live.staticflickr.com/65535/50020657211_3bb9019479_n.jpg",
    "id_album": "1168627767",
    "description": "Duck_412553",
    "title": "Duck_412553",
    "link_img": "https://live.staticflickr.com/65535/50020657211_a7587a98d2_o.jpg",
    "id_image": "Duck_412553",
    "count_view": 0
  },
  {
    "link_thumb": "https://live.staticflickr.com/65535/50023161127_ce678bcdb4_n.jpg",
    "id_album": "191452764",
    "description": "PrayingMantis_692540",
    "title": "PrayingMantis_692540",
    "link_img": "https://live.staticflickr.com/65535/50023161127_a08f90a3cb_o.jpg",
    "id_image": "PrayingMantis_692540",
    "count_view": 0
  },
  {
    "link_thumb": "https://live.staticflickr.com/65535/50020460581_75ca36d036_n.jpg",
    "id_album": "-149330231",
    "description": "Dog_570559",
    "title": "Dog_570559",
    "link_img": "https://live.staticflickr.com/65535/50020460581_49583a10f3_o.jpg",
    "id_image": "Dog_570559",
    "count_view": 0
  },
  {
    "link_thumb": "https://live.staticflickr.com/65535/50020856632_07b2dbc6c1_n.jpg",
    "id_album": "-1859457960",
    "description": "Dove_543071",
    "title": "Dove_543071",
    "link_img": "https://live.staticflickr.com/65535/50020856632_48bd3f40fe_o.jpg",
    "id_image": "Dove_543071",
    "count_view": 0
  },
  {
    "link_thumb": "https://live.staticflickr.com/65535/50020645723_28b13ae454_n.jpg",
    "id_album": "-462831704",
    "description": "Cat_707488",
    "title": "Cat_707488",
    "link_img": "https://live.staticflickr.com/65535/50020645723_829b4a714f_o.jpg",
    "id_image": "Cat_707488",
    "count_view": 0
  },
  {
    "link_thumb": "https://live.staticflickr.com/65535/50021891316_e3b5a9bbee_n.jpg",
    "id_album": "1392348450",
    "description": "Leopard_241291",
    "title": "Leopard_241291",
    "link_img": "https://live.staticflickr.com/65535/50021891316_3d0e140a4f_o.jpg",
    "id_image": "Leopard_241291",
    "count_view": 0
  },
  {
    "link_thumb": "https://live.staticflickr.com/65535/50021526892_c9f188eedd_n.jpg",
    "id_album": "-462831703",
    "description": "Cat_838630",
    "title": "Cat_838630",
    "link_img": "https://live.staticflickr.com/65535/50021526892_d439a8dfe6_o.jpg",
    "id_image": "Cat_838630",
    "count_view": 0
  },
  {
    "link_thumb": "https://live.staticflickr.com/65535/50023567258_6d356f80fa_n.jpg",
    "id_album": "405170427",
    "description": "Tiger_394951",
    "title": "Tiger_394951",
    "link_img": "https://live.staticflickr.com/65535/50023567258_898a1f4a2f_o.jpg",
    "id_image": "Tiger_394951",
    "count_view": 0
  },
  {
    "link_thumb": "https://live.staticflickr.com/65535/50020533588_4f5ef70237_n.jpg",
    "id_album": "844170697",
    "description": "Frog_808479",
    "title": "Frog_808479",
    "link_img": "https://live.staticflickr.com/65535/50020533588_0ef242172f_o.jpg",
    "id_image": "Frog_808479",
    "count_view": 0
  },
  {
    "link_thumb": "https://live.staticflickr.com/65535/50019392101_5663312b87_n.jpg",
    "id_album": "-462831703",
    "description": "Cat_882596",
    "title": "Cat_882596",
    "link_img": "https://live.staticflickr.com/65535/50019392101_ee3c053b05_o.jpg",
    "id_image": "Cat_882596",
    "count_view": 0
  },
  {
    "link_thumb": "https://live.staticflickr.com/65535/50020523211_40427768c8_n.jpg",
    "id_album": "-149330231",
    "description": "Dog_851827",
    "title": "Dog_851827",
    "link_img": "https://live.staticflickr.com/65535/50020523211_4c8031e74c_o.jpg",
    "id_image": "Dog_851827",
    "count_view": 0
  },
  {
    "link_thumb": "https://live.staticflickr.com/65535/50021362957_7aa5390ca7_n.jpg",
    "id_album": "-462831704",
    "description": "Cat_552043",
    "title": "Cat_552043",
    "link_img": "https://live.staticflickr.com/65535/50021362957_8e1f4f75e1_o.jpg",
    "id_image": "Cat_552043",
    "count_view": 0
  },
  {
    "link_thumb": "https://live.staticflickr.com/65535/50020080901_7862b21b8d_n.jpg",
    "id_album": "297232732",
    "description": "Dinosaur_234755",
    "title": "Dinosaur_234755",
    "link_img": "https://live.staticflickr.com/65535/50020080901_4c27b1e5e6_o.jpg",
    "id_image": "Dinosaur_234755",
    "count_view": 0
  },
  {
    "link_thumb": "https://live.staticflickr.com/65535/50019455587_22736ef76b_n.jpg",
    "id_album": "-462831704",
    "description": "Cat_436687",
    "title": "Cat_436687",
    "link_img": "https://live.staticflickr.com/65535/50019455587_ee288d1286_o.jpg",
    "id_image": "Cat_436687",
    "count_view": 0
  },
  {
    "link_thumb": "https://live.staticflickr.com/65535/50020798198_a58edc2731_n.jpg",
    "id_album": "-804131074",
    "description": "Goat_364842",
    "title": "Goat_364842",
    "link_img": "https://live.staticflickr.com/65535/50020798198_d5c033cf05_o.jpg",
    "id_image": "Goat_364842",
    "count_view": 0
  },
  {
    "link_thumb": "https://live.staticflickr.com/65535/50016985113_c2888d7ca4_n.jpg",
    "id_album": "782930701",
    "description": "BorderCollie_934982",
    "title": "BorderCollie_934982",
    "link_img": "https://live.staticflickr.com/65535/50016985113_327733a89d_o.jpg",
    "id_image": "BorderCollie_934982",
    "count_view": 0
  },
  {
    "link_thumb": "https://live.staticflickr.com/65535/50016726268_3693fd39b2_n.jpg",
    "id_album": "-1846011410",
    "description": "Bird_342668",
    "title": "Bird_342668",
    "link_img": "https://live.staticflickr.com/65535/50016726268_cd66aac9d7_o.jpg",
    "id_image": "Bird_342668",
    "count_view": 0
  },
  {
    "link_thumb": "https://live.staticflickr.com/65535/50023182502_a83168725d_n.jpg",
    "id_album": "-356780855",
    "description": "Puffin_476852",
    "title": "Puffin_476852",
    "link_img": "https://live.staticflickr.com/65535/50023182502_157a9d999c_o.jpg",
    "id_image": "Puffin_476852",
    "count_view": 0
  }
]