[
  {
    "total_img": 0,
    "number_page": 0,
    "title": "Cat 2",
    "tag": "Cat 2,",
    "description": "Cat 2",
    "link_thumb": "https://live.staticflickr.com/65535/50017215383_e1853c5d07_n.jpg",
    "id_album": "-462831705",
    "total_view": 1131
  }
]