[
  {
    "total_img": 173,
    "number_page": 1,
    "title": "Fish",
    "tag": "Fish,",
    "description": "Fish",
    "link_thumb": "https://live.staticflickr.com/65535/50020284793_59841369bb_n.jpg",
    "id_album": "-1118073211",
    "total_view": 173
  },
  {
    "total_img": 42,
    "number_page": 1,
    "title": "Camel",
    "tag": "Camel,",
    "description": "Camel",
    "link_thumb": "https://live.staticflickr.com/65535/50017983922_cf8f56c209_n.jpg",
    "id_album": "-1131161368",
    "total_view": 42
  },
  {
    "total_img": 77,
    "number_page": 1,
    "title": "Cow",
    "tag": "Cow,",
    "description": "Cow",
    "link_thumb": "https://live.staticflickr.com/65535/50019832716_7e21fdc3f4_n.jpg",
    "id_album": "-2144640780",
    "total_view": 77
  },
  {
    "total_img": 46,
    "number_page": 1,
    "title": "Zebra",
    "tag": "Zebra,",
    "description": "Zebra",
    "link_thumb": "https://live.staticflickr.com/65535/50024825692_08277239b4_n.jpg",
    "id_album": "1104421803",
    "total_view": 46
  },
  {
    "total_img": 204,
    "number_page": 2,
    "title": "Bald Eagle",
    "tag": "Bald Eagle,",
    "description": "Bald Eagle",
    "link_thumb": "https://live.staticflickr.com/65535/50017212657_e5e71235ea_n.jpg",
    "id_album": "231236068",
    "total_view": 204
  },
  {
    "total_img": 54,
    "number_page": 1,
    "title": "Crab",
    "tag": "Crab,",
    "description": "Crab",
    "link_thumb": "https://live.staticflickr.com/65535/50020130447_7d67d145d7_n.jpg",
    "id_album": "815329026",
    "total_view": 54
  },
  {
    "total_img": 125,
    "number_page": 1,
    "title": "Cougar",
    "tag": "Cougar,",
    "description": "Cougar",
    "link_thumb": "https://live.staticflickr.com/65535/50019799471_8cb7ffdbc1_n.jpg",
    "id_album": "-1868680171",
    "total_view": 125
  },
  {
    "total_img": 44,
    "number_page": 1,
    "title": "Barn owl",
    "tag": "Barn owl,",
    "description": "Barn owl",
    "link_thumb": "https://live.staticflickr.com/65535/50017236487_2bc71e70d3_n.jpg",
    "id_album": "-80092825",
    "total_view": 44
  },
  {
    "total_img": 2922,
    "number_page": 15,
    "title": "Cat 0",
    "tag": "Cat 0,",
    "description": "Cat 0",
    "link_thumb": "https://live.staticflickr.com/65535/50017212213_dfe9630f41_n.jpg",
    "id_album": "-462831703",
    "total_view": 2922
  },
  {
    "total_img": 52,
    "number_page": 1,
    "title": "Toucan",
    "tag": "Toucan,",
    "description": "Toucan",
    "link_thumb": "https://live.staticflickr.com/65535/50024275721_ca49efe221_n.jpg",
    "id_album": "-1103743486",
    "total_view": 52
  },
  {
    "total_img": 255,
    "number_page": 2,
    "title": "German Shepherd",
    "tag": "German Shepherd,",
    "description": "German Shepherd",
    "link_thumb": "https://live.staticflickr.com/65535/50021281421_6c2de1eeb3_n.jpg",
    "id_album": "-405626519",
    "total_view": 255
  },
  {
    "total_img": 67,
    "number_page": 1,
    "title": "Starfish",
    "tag": "Starfish,",
    "description": "Starfish",
    "link_thumb": "https://live.staticflickr.com/65535/50023987286_aa7b583647_n.jpg",
    "id_album": "1244464375",
    "total_view": 67
  },
  {
    "total_img": 47,
    "number_page": 1,
    "title": "Alpaca",
    "tag": "Alpaca,",
    "description": "Alpaca",
    "link_thumb": "https://live.staticflickr.com/65535/50016286488_e0a3f62940_n.jpg",
    "id_album": "-1473450542",
    "total_view": 47
  },
  {
    "total_img": 1034,
    "number_page": 6,
    "title": "Cat 3",
    "tag": "Cat 3,",
    "description": "Cat 3",
    "link_thumb": "https://live.staticflickr.com/65535/50019193036_1e4162bbc0_n.jpg",
    "id_album": "-462831704",
    "total_view": 1034
  },
  {
    "total_img": 80,
    "number_page": 1,
    "title": "Hedgehog",
    "tag": "Hedgehog,",
    "description": "Hedgehog",
    "link_thumb": "https://live.staticflickr.com/65535/50021427491_8476129913_n.jpg",
    "id_album": "1469520430",
    "total_view": 80
  },
  {
    "total_img": 224,
    "number_page": 2,
    "title": "Dragonfly",
    "tag": "Dragonfly,",
    "description": "Dragonfly",
    "link_thumb": "https://live.staticflickr.com/65535/50020860617_550dcd817c_n.jpg",
    "id_album": "-405058657",
    "total_view": 224
  },
  {
    "total_img": 155,
    "number_page": 1,
    "title": "Red Panda",
    "tag": "Red Panda,",
    "description": "Red Panda",
    "link_thumb": "https://live.staticflickr.com/65535/50023456692_80a33e5ff5_n.jpg",
    "id_album": "332874268",
    "total_view": 155
  },
  {
    "total_img": 653,
    "number_page": 4,
    "title": "Tiger",
    "tag": "Tiger,",
    "description": "Tiger",
    "link_thumb": "https://live.staticflickr.com/65535/50024280677_6e9438be77_n.jpg",
    "id_album": "405170427",
    "total_view": 653
  },
  {
    "total_img": 30,
    "number_page": 1,
    "title": "Moth",
    "tag": "Moth,",
    "description": "Moth",
    "link_thumb": "https://live.staticflickr.com/65535/50021732908_1cc81459df_n.jpg",
    "id_album": "1610416937",
    "total_view": 30
  },
  {
    "total_img": 69,
    "number_page": 1,
    "title": "Caterpillar",
    "tag": "Caterpillar,",
    "description": "Caterpillar",
    "link_thumb": "https://live.staticflickr.com/65535/50019069888_deeb6d5a66_n.jpg",
    "id_album": "-420782796",
    "total_view": 69
  },
  {
    "total_img": 29,
    "number_page": 1,
    "title": "Kangaroo",
    "tag": "Kangaroo,",
    "description": "Kangaroo",
    "link_thumb": "https://live.staticflickr.com/65535/50022045087_b1858cfda0_n.jpg",
    "id_album": "-649286029",
    "total_view": 29
  },
  {
    "total_img": 78,
    "number_page": 1,
    "title": "Panda",
    "tag": "Panda,",
    "description": "Panda",
    "link_thumb": "https://live.staticflickr.com/65535/50021973873_0815e99c16_n.jpg",
    "id_album": "-358592519",
    "total_view": 78
  },
  {
    "total_img": 74,
    "number_page": 1,
    "title": "Cat  Dog",
    "tag": "Cat  Dog,",
    "description": "Cat  Dog",
    "link_thumb": "https://live.staticflickr.com/65535/50019045978_1873aa9e04_n.jpg",
    "id_album": "-1930903528",
    "total_view": 74
  },
  {
    "total_img": 256,
    "number_page": 2,
    "title": "Eagle",
    "tag": "Eagle,",
    "description": "Eagle",
    "link_thumb": "https://live.staticflickr.com/65535/50020936222_1266211be8_n.jpg",
    "id_album": "-39098563",
    "total_view": 256
  },
  {
    "total_img": 131,
    "number_page": 1,
    "title": "Husky",
    "tag": "Husky,",
    "description": "Husky",
    "link_thumb": "https://live.staticflickr.com/65535/50021083928_78206b2764_n.jpg",
    "id_album": "-712553376",
    "total_view": 131
  },
  {
    "total_img": 44,
    "number_page": 1,
    "title": "Sea Life",
    "tag": "Sea Life,",
    "description": "Sea Life",
    "link_thumb": "https://live.staticflickr.com/65535/50022786648_450656003c_n.jpg",
    "id_album": "-419757464",
    "total_view": 44
  },
  {
    "total_img": 11,
    "number_page": 1,
    "title": "Toad",
    "tag": "Toad,",
    "description": "Toad",
    "link_thumb": "https://live.staticflickr.com/65535/50023722443_281b3f8491_n.jpg",
    "id_album": "432140049",
    "total_view": 11
  },
  {
    "total_img": 67,
    "number_page": 1,
    "title": "Dinosaur",
    "tag": "Dinosaur,",
    "description": "Dinosaur",
    "link_thumb": "https://live.staticflickr.com/65535/50020333517_75bd6fb88f_n.jpg",
    "id_album": "297232732",
    "total_view": 67
  },
  {
    "total_img": 606,
    "number_page": 4,
    "title": "Leopard",
    "tag": "Leopard,",
    "description": "Leopard",
    "link_thumb": "https://live.staticflickr.com/65535/50021339453_aef7d72fe2_n.jpg",
    "id_album": "1392348450",
    "total_view": 606
  },
  {
    "total_img": 56,
    "number_page": 1,
    "title": "Guinea Pig",
    "tag": "Guinea Pig,",
    "description": "Guinea Pig",
    "link_thumb": "https://live.staticflickr.com/65535/50021406591_7b5a7494d3_n.jpg",
    "id_album": "82558972",
    "total_view": 56
  },
  {
    "total_img": 1003,
    "number_page": 6,
    "title": "Bird",
    "tag": "Bird,",
    "description": "Bird",
    "link_thumb": "https://live.staticflickr.com/65535/50017189506_e8ff527e1f_n.jpg",
    "id_album": "-1846011410",
    "total_view": 1003
  },
  {
    "total_img": 70,
    "number_page": 1,
    "title": "Monkey",
    "tag": "Monkey,",
    "description": "Monkey",
    "link_thumb": "https://live.staticflickr.com/65535/50021651573_94babf1191_n.jpg",
    "id_album": "-784970094",
    "total_view": 70
  },
  {
    "total_img": 48,
    "number_page": 1,
    "title": "Sheep",
    "tag": "Sheep,",
    "description": "Sheep",
    "link_thumb": "https://live.staticflickr.com/65535/50022927613_8f082799d1_n.jpg",
    "id_album": "-755466332",
    "total_view": 48
  },
  {
    "total_img": 427,
    "number_page": 3,
    "title": "Puppy",
    "tag": "Puppy,",
    "description": "Puppy",
    "link_thumb": "https://live.staticflickr.com/65535/50022414678_bc03c0e098_n.jpg",
    "id_album": "-353898617",
    "total_view": 427
  },
  {
    "total_img": 251,
    "number_page": 2,
    "title": "Wolf",
    "tag": "Wolf,",
    "description": "Wolf",
    "link_thumb": "https://live.staticflickr.com/65535/50024714167_c871902afe_n.jpg",
    "id_album": "-709711865",
    "total_view": 251
  },
  {
    "total_img": 117,
    "number_page": 1,
    "title": "Raccoon",
    "tag": "Raccoon,",
    "description": "Raccoon",
    "link_thumb": "https://live.staticflickr.com/65535/50022595183_0c4064af68_n.jpg",
    "id_album": "248289288",
    "total_view": 117
  },
  {
    "total_img": 109,
    "number_page": 1,
    "title": "Snail",
    "tag": "Snail,",
    "description": "Snail",
    "link_thumb": "https://live.staticflickr.com/65535/50022963038_04b17cbdd7_n.jpg",
    "id_album": "-800019164",
    "total_view": 109
  },
  {
    "total_img": 67,
    "number_page": 1,
    "title": "Fly",
    "tag": "Fly,",
    "description": "Fly",
    "link_thumb": "https://live.staticflickr.com/65535/50021171792_671fb44198_n.jpg",
    "id_album": "-1694105481",
    "total_view": 67
  },
  {
    "total_img": 48,
    "number_page": 1,
    "title": "Snake",
    "tag": "Snake,",
    "description": "Snake",
    "link_thumb": "https://live.staticflickr.com/65535/50023812672_dcf0a4c6bb_n.jpg",
    "id_album": "-1182356179",
    "total_view": 48
  },
  {
    "total_img": 37,
    "number_page": 1,
    "title": "Parrot",
    "tag": "Parrot,",
    "description": "Parrot",
    "link_thumb": "https://live.staticflickr.com/65535/50022013013_de30bfbd05_n.jpg",
    "id_album": "405592235",
    "total_view": 37
  },
  {
    "total_img": 20,
    "number_page": 1,
    "title": "Whale",
    "tag": "Whale,",
    "description": "Whale",
    "link_thumb": "https://live.staticflickr.com/65535/50024392786_04a84d7d2f_n.jpg",
    "id_album": "786934945",
    "total_view": 20
  },
  {
    "total_img": 51,
    "number_page": 1,
    "title": "Goat",
    "tag": "Goat,",
    "description": "Goat",
    "link_thumb": "https://live.staticflickr.com/65535/50021592187_c9937b9e32_n.jpg",
    "id_album": "-804131074",
    "total_view": 51
  },
  {
    "total_img": 43,
    "number_page": 1,
    "title": "Gecko",
    "tag": "Gecko,",
    "description": "Gecko",
    "link_thumb": "https://live.staticflickr.com/65535/50020547058_7af3dc4df0_n.jpg",
    "id_album": "-34696179",
    "total_view": 43
  },
  {
    "total_img": 46,
    "number_page": 1,
    "title": "Chimpanzee",
    "tag": "Chimpanzee,",
    "description": "Chimpanzee",
    "link_thumb": "https://live.staticflickr.com/65535/50019996412_e4ca7c7df7_n.jpg",
    "id_album": "1949822052",
    "total_view": 46
  },
  {
    "total_img": 920,
    "number_page": 5,
    "title": "Dog 0",
    "tag": "Dog 0,",
    "description": "Dog 0",
    "link_thumb": "https://live.staticflickr.com/65535/50019823153_5974743d74_n.jpg",
    "id_album": "-149330231",
    "total_view": 920
  },
  {
    "total_img": 291,
    "number_page": 2,
    "title": "Lynx",
    "tag": "Lynx,",
    "description": "Lynx",
    "link_thumb": "https://live.staticflickr.com/65535/50022127856_046223d2b4_n.jpg",
    "id_album": "1894617400",
    "total_view": 291
  },
  {
    "total_img": 13,
    "number_page": 1,
    "title": "Pig",
    "tag": "Pig,",
    "description": "Pig",
    "link_thumb": "https://live.staticflickr.com/65535/50022993002_2da8261c65_n.jpg",
    "id_album": "-1431786825",
    "total_view": 13
  },
  {
    "total_img": 36,
    "number_page": 1,
    "title": "Sparrow",
    "tag": "Sparrow,",
    "description": "Sparrow",
    "link_thumb": "https://live.staticflickr.com/65535/50023153873_139c0d5d0f_n.jpg",
    "id_album": "-359606417",
    "total_view": 36
  },
  {
    "total_img": 95,
    "number_page": 1,
    "title": "Seal",
    "tag": "Seal,",
    "description": "Seal",
    "link_thumb": "https://live.staticflickr.com/65535/50023396006_04321b9bbc_n.jpg",
    "id_album": "1961094930",
    "total_view": 95
  },
  {
    "total_img": 48,
    "number_page": 1,
    "title": "Boxer",
    "tag": "Boxer,",
    "description": "Boxer",
    "link_thumb": "https://live.staticflickr.com/65535/50016989813_b715fee42e_n.jpg",
    "id_album": "1696155652",
    "total_view": 48
  },
  {
    "total_img": 1131,
    "number_page": 6,
    "title": "Cat 2",
    "tag": "Cat 2,",
    "description": "Cat 2",
    "link_thumb": "https://live.staticflickr.com/65535/50017215383_e1853c5d07_n.jpg",
    "id_album": "-462831705",
    "total_view": 1131
  },
  {
    "total_img": 27,
    "number_page": 1,
    "title": "Swan",
    "tag": "Swan,",
    "description": "Swan",
    "link_thumb": "https://live.staticflickr.com/65535/50024264432_2df59d886f_n.jpg",
    "id_album": "1579675410",
    "total_view": 27
  },
  {
    "total_img": 20,
    "number_page": 1,
    "title": "Hippo",
    "tag": "Hippo,",
    "description": "Hippo",
    "link_thumb": "https://live.staticflickr.com/65535/50021702797_775915b4c2_n.jpg",
    "id_album": "-362549635",
    "total_view": 20
  },
  {
    "total_img": 49,
    "number_page": 1,
    "title": "Hoverfly",
    "tag": "Hoverfly,",
    "description": "Hoverfly",
    "link_thumb": "https://live.staticflickr.com/65535/50021848017_c5333450a8_n.jpg",
    "id_album": "773713550",
    "total_view": 49
  },
  {
    "total_img": 1856,
    "number_page": 10,
    "title": "Cat 1",
    "tag": "Cat 1,",
    "description": "Cat 1",
    "link_thumb": "https://live.staticflickr.com/65535/50352678456_70d47f89dd_n.jpg",
    "id_album": "-462831702",
    "total_view": 1856
  },
  {
    "total_img": 46,
    "number_page": 1,
    "title": "Beeeater",
    "tag": "Beeeater,",
    "description": "Beeeater",
    "link_thumb": "https://live.staticflickr.com/65535/50016645123_5c5874a547_n.jpg",
    "id_album": "172748811",
    "total_view": 46
  },
  {
    "total_img": 88,
    "number_page": 1,
    "title": "Ant",
    "tag": "Ant,",
    "description": "Ant",
    "link_thumb": "https://live.staticflickr.com/65535/50016301148_a097411f0c_n.jpg",
    "id_album": "-1741290715",
    "total_view": 88
  },
  {
    "total_img": 71,
    "number_page": 1,
    "title": "Hawk",
    "tag": "Hawk,",
    "description": "Hawk",
    "link_thumb": "https://live.staticflickr.com/65535/50020874973_36b8a2bec4_n.jpg",
    "id_album": "-1513987841",
    "total_view": 71
  },
  {
    "total_img": 48,
    "number_page": 1,
    "title": "Gorilla",
    "tag": "Gorilla,",
    "description": "Gorilla",
    "link_thumb": "https://live.staticflickr.com/65535/50021388611_04e6e3736f_n.jpg",
    "id_album": "1950225324",
    "total_view": 48
  },
  {
    "total_img": 42,
    "number_page": 1,
    "title": "Heron",
    "tag": "Heron,",
    "description": "Heron",
    "link_thumb": "https://live.staticflickr.com/65535/50020899663_0ea1af8c93_n.jpg",
    "id_album": "54253492",
    "total_view": 42
  },
  {
    "total_img": 110,
    "number_page": 1,
    "title": "Penguin",
    "tag": "Penguin,",
    "description": "Penguin",
    "link_thumb": "https://live.staticflickr.com/65535/50022134483_9e969e00e4_n.jpg",
    "id_album": "392248205",
    "total_view": 110
  },
  {
    "total_img": 665,
    "number_page": 4,
    "title": "Fox",
    "tag": "Fox,",
    "description": "Fox",
    "link_thumb": "https://live.staticflickr.com/65535/50020932481_a4cdea809d_n.jpg",
    "id_album": "-128218148",
    "total_view": 665
  },
  {
    "total_img": 77,
    "number_page": 1,
    "title": "White Tiger",
    "tag": "White Tiger,",
    "description": "White Tiger",
    "link_thumb": "https://live.staticflickr.com/65535/50024428051_a14aafbe34_n.jpg",
    "id_album": "766572659",
    "total_view": 77
  },
  {
    "total_img": 251,
    "number_page": 2,
    "title": "Cheetah",
    "tag": "Cheetah,",
    "description": "Cheetah",
    "link_thumb": "https://live.staticflickr.com/65535/50019934447_cd0b4d9b93_n.jpg",
    "id_album": "-1481843714",
    "total_view": 251
  },
  {
    "total_img": 82,
    "number_page": 1,
    "title": "Cardinal",
    "tag": "Cardinal,",
    "description": "Cardinal",
    "link_thumb": "https://live.staticflickr.com/65535/50017201428_85ea8650b8_n.jpg",
    "id_album": "189994021",
    "total_view": 82
  },
  {
    "total_img": 50,
    "number_page": 1,
    "title": "Giraffe",
    "tag": "Giraffe,",
    "description": "Giraffe",
    "link_thumb": "https://live.staticflickr.com/65535/50020774703_df24d815fb_n.jpg",
    "id_album": "713572662",
    "total_view": 50
  },
  {
    "total_img": 48,
    "number_page": 1,
    "title": "Meerkat",
    "tag": "Meerkat,",
    "description": "Meerkat",
    "link_thumb": "https://live.staticflickr.com/65535/50022442302_6fc6767bb6_n.jpg",
    "id_album": "-1720012921",
    "total_view": 48
  },
  {
    "total_img": 142,
    "number_page": 1,
    "title": "Snow Leopard",
    "tag": "Snow Leopard,",
    "description": "Snow Leopard",
    "link_thumb": "https://live.staticflickr.com/65535/50023875512_e4ce13dd03_n.jpg",
    "id_album": "-1131363127",
    "total_view": 142
  },
  {
    "total_img": 296,
    "number_page": 2,
    "title": "Deer",
    "tag": "Deer,",
    "description": "Deer",
    "link_thumb": "https://live.staticflickr.com/65535/50019443478_a126b3a44f_n.jpg",
    "id_album": "1903411565",
    "total_view": 296
  },
  {
    "total_img": 85,
    "number_page": 1,
    "title": "Flamingo",
    "tag": "Flamingo,",
    "description": "Flamingo",
    "link_thumb": "https://live.staticflickr.com/65535/50020881411_4fe4590f08_n.jpg",
    "id_album": "-1758557371",
    "total_view": 85
  },
  {
    "total_img": 279,
    "number_page": 2,
    "title": "Lion",
    "tag": "Lion,",
    "description": "Lion",
    "link_thumb": "https://live.staticflickr.com/65535/50021422743_3767b9b95d_n.jpg",
    "id_album": "416744915",
    "total_view": 279
  },
  {
    "total_img": 174,
    "number_page": 1,
    "title": "Australian Shepherd",
    "tag": "Australian Shepherd,",
    "description": "Australian Shepherd",
    "link_thumb": "https://live.staticflickr.com/65535/50016405538_58399fddda_n.jpg",
    "id_album": "390697200",
    "total_view": 174
  },
  {
    "total_img": 28,
    "number_page": 1,
    "title": "Scarlet Macaw",
    "tag": "Scarlet Macaw,",
    "description": "Scarlet Macaw",
    "link_thumb": "https://live.staticflickr.com/65535/50023578212_791f3ef32b_n.jpg",
    "id_album": "1512228924",
    "total_view": 28
  },
  {
    "total_img": 56,
    "number_page": 1,
    "title": "Beetle",
    "tag": "Beetle,",
    "description": "Beetle",
    "link_thumb": "https://live.staticflickr.com/65535/50016653733_4e2ae9d4ea_n.jpg",
    "id_album": "325287329",
    "total_view": 56
  },
  {
    "total_img": 48,
    "number_page": 1,
    "title": "Dove",
    "tag": "Dove,",
    "description": "Dove",
    "link_thumb": "https://live.staticflickr.com/65535/50020593616_23d30344bd_n.jpg",
    "id_album": "-1859457960",
    "total_view": 48
  },
  {
    "total_img": 91,
    "number_page": 1,
    "title": "Falcon",
    "tag": "Falcon,",
    "description": "Falcon",
    "link_thumb": "https://live.staticflickr.com/65535/50020270288_ec23a7c0d0_n.jpg",
    "id_album": "822895535",
    "total_view": 91
  },
  {
    "total_img": 29,
    "number_page": 1,
    "title": "Robin",
    "tag": "Robin,",
    "description": "Robin",
    "link_thumb": "https://live.staticflickr.com/65535/50023308026_c2d2d43bf2_n.jpg",
    "id_album": "1926701726",
    "total_view": 29
  },
  {
    "total_img": 1088,
    "number_page": 6,
    "title": "Butterfly",
    "tag": "Butterfly,",
    "description": "Butterfly",
    "link_thumb": "https://live.staticflickr.com/65535/50017791282_f0a8770c32_n.jpg",
    "id_album": "-401151552",
    "total_view": 1088
  },
  {
    "total_img": 501,
    "number_page": 3,
    "title": "Artistic",
    "tag": "Artistic,",
    "description": "Artistic",
    "link_thumb": "https://live.staticflickr.com/65535/50016326938_4cd2981957_n.jpg",
    "id_album": "523598895",
    "total_view": 501
  },
  {
    "total_img": 183,
    "number_page": 1,
    "title": "Elephant",
    "tag": "Elephant,",
    "description": "Elephant",
    "link_thumb": "https://live.staticflickr.com/65535/50020983217_e6f0bb7bdc_n.jpg",
    "id_album": "1270947998",
    "total_view": 183
  },
  {
    "total_img": 70,
    "number_page": 1,
    "title": "Dachshund",
    "tag": "Dachshund,",
    "description": "Dachshund",
    "link_thumb": "https://live.staticflickr.com/65535/50020206167_e154dbc6f5_n.jpg",
    "id_album": "1831085598",
    "total_view": 70
  },
  {
    "total_img": 45,
    "number_page": 1,
    "title": "American Bison",
    "tag": "American Bison,",
    "description": "American Bison",
    "link_thumb": "https://live.staticflickr.com/65535/50016294378_9475b85a0c_n.jpg",
    "id_album": "-229810103",
    "total_view": 45
  },
  {
    "total_img": 26,
    "number_page": 1,
    "title": "Tree Frog",
    "tag": "Tree Frog,",
    "description": "Tree Frog",
    "link_thumb": "https://live.staticflickr.com/65535/50024290456_a878dd5016_n.jpg",
    "id_album": "901523298",
    "total_view": 26
  },
  {
    "total_img": 60,
    "number_page": 1,
    "title": "Dalmatian",
    "tag": "Dalmatian,",
    "description": "Dalmatian",
    "link_thumb": "https://live.staticflickr.com/65535/50019431653_6b60b5f135_n.jpg",
    "id_album": "-1783645069",
    "total_view": 60
  },
  {
    "total_img": 41,
    "number_page": 1,
    "title": "Crow",
    "tag": "Crow,",
    "description": "Crow",
    "link_thumb": "https://live.staticflickr.com/65535/50019901396_ed0d6287c6_n.jpg",
    "id_album": "-392100404",
    "total_view": 41
  },
  {
    "total_img": 310,
    "number_page": 2,
    "title": "Insect",
    "tag": "Insect,",
    "description": "Insect",
    "link_thumb": "https://live.staticflickr.com/65535/50021910932_8c3833ded7_n.jpg",
    "id_album": "1658866795",
    "total_view": 310
  },
  {
    "total_img": 1294,
    "number_page": 7,
    "title": "Dog 1",
    "tag": "Dog 1,",
    "description": "Dog 1",
    "link_thumb": "https://live.staticflickr.com/65535/50019579433_01951ccefb_n.jpg",
    "id_album": "-149330232",
    "total_view": 1294
  },
  {
    "total_img": 48,
    "number_page": 1,
    "title": "Clownfish",
    "tag": "Clownfish,",
    "description": "Clownfish",
    "link_thumb": "https://live.staticflickr.com/65535/50019247818_bb42195dcd_n.jpg",
    "id_album": "643379324",
    "total_view": 48
  },
  {
    "total_img": 127,
    "number_page": 1,
    "title": "Polar Bear",
    "tag": "Polar Bear,",
    "description": "Polar Bear",
    "link_thumb": "https://live.staticflickr.com/65535/50023033327_95f87afd18_n.jpg",
    "id_album": "1008910300",
    "total_view": 127
  },
  {
    "total_img": 53,
    "number_page": 1,
    "title": "Rainbow Lorikeet",
    "tag": "Rainbow Lorikeet,",
    "description": "Rainbow Lorikeet",
    "link_thumb": "https://live.staticflickr.com/65535/50022627363_cef6ddb7a0_n.jpg",
    "id_album": "-434874555",
    "total_view": 53
  },
  {
    "total_img": 93,
    "number_page": 1,
    "title": "Beagle",
    "tag": "Beagle,",
    "description": "Beagle",
    "link_thumb": "https://live.staticflickr.com/65535/50016982756_1a3373d6ed_n.jpg",
    "id_album": "809937717",
    "total_view": 93
  },
  {
    "total_img": 36,
    "number_page": 1,
    "title": "Snowy Owl",
    "tag": "Snowy Owl,",
    "description": "Snowy Owl",
    "link_thumb": "https://live.staticflickr.com/65535/50023937547_1887dabea9_n.jpg",
    "id_album": "1933547265",
    "total_view": 36
  },
  {
    "total_img": 131,
    "number_page": 1,
    "title": "Squirrel",
    "tag": "Squirrel,",
    "description": "Squirrel",
    "link_thumb": "https://live.staticflickr.com/65535/50023809856_38859001cc_n.jpg",
    "id_album": "702283289",
    "total_view": 131
  },
  {
    "total_img": 28,
    "number_page": 1,
    "title": "Redandgreen Macaw",
    "tag": "Redandgreen Macaw,",
    "description": "Redandgreen Macaw",
    "link_thumb": "https://live.staticflickr.com/65535/50023241161_33b9af5fc2_n.jpg",
    "id_album": "-2087362619",
    "total_view": 28
  },
  {
    "total_img": 232,
    "number_page": 2,
    "title": "Golden Retriever",
    "tag": "Golden Retriever,",
    "description": "Golden Retriever",
    "link_thumb": "https://live.staticflickr.com/65535/50020803113_618b2e0cbb_n.jpg",
    "id_album": "2060159334",
    "total_view": 232
  },
  {
    "total_img": 35,
    "number_page": 1,
    "title": "Praying Mantis",
    "tag": "Praying Mantis,",
    "description": "Praying Mantis",
    "link_thumb": "https://live.staticflickr.com/65535/50022880381_ca382d0f7e_n.jpg",
    "id_album": "191452764",
    "total_view": 35
  },
  {
    "total_img": 165,
    "number_page": 1,
    "title": "Chameleon",
    "tag": "Chameleon,",
    "description": "Chameleon",
    "link_thumb": "https://live.staticflickr.com/65535/50019890342_611e655f21_n.jpg",
    "id_album": "-766919393",
    "total_view": 165
  },
  {
    "total_img": 51,
    "number_page": 1,
    "title": "Red Eyed Tree Frog",
    "tag": "Red Eyed Tree Frog,",
    "description": "Red Eyed Tree Frog",
    "link_thumb": "https://live.staticflickr.com/65535/50022642978_829c939ef1_n.jpg",
    "id_album": "-1862965835",
    "total_view": 51
  },
  {
    "total_img": 37,
    "number_page": 1,
    "title": "Peacock",
    "tag": "Peacock,",
    "description": "Peacock",
    "link_thumb": "https://live.staticflickr.com/65535/50022581541_dcb37a2656_n.jpg",
    "id_album": "-801414987",
    "total_view": 37
  },
  {
    "total_img": 31,
    "number_page": 1,
    "title": "Wasp",
    "tag": "Wasp,",
    "description": "Wasp",
    "link_thumb": "https://live.staticflickr.com/65535/50024599677_d1b38e14bf_n.jpg",
    "id_album": "410750612",
    "total_view": 31
  },
  {
    "total_img": 489,
    "number_page": 3,
    "title": "Bear",
    "tag": "Bear,",
    "description": "Bear",
    "link_thumb": "https://live.staticflickr.com/65535/50016473348_e4662f3ca6_n.jpg",
    "id_album": "-422187261",
    "total_view": 489
  },
  {
    "total_img": 37,
    "number_page": 1,
    "title": "Goldfish",
    "tag": "Goldfish,",
    "description": "Goldfish",
    "link_thumb": "https://live.staticflickr.com/65535/50021375526_b11c55b5df_n.jpg",
    "id_album": "-975314166",
    "total_view": 37
  },
  {
    "total_img": 67,
    "number_page": 1,
    "title": "Arctic Fox",
    "tag": "Arctic Fox,",
    "description": "Arctic Fox",
    "link_thumb": "https://live.staticflickr.com/65535/50016841436_4c36f1d91c_n.jpg",
    "id_album": "-834314226",
    "total_view": 67
  },
  {
    "total_img": 212,
    "number_page": 2,
    "title": "Duck",
    "tag": "Duck,",
    "description": "Duck",
    "link_thumb": "https://live.staticflickr.com/65535/50020108783_4bc875be69_n.jpg",
    "id_album": "1168627767",
    "total_view": 212
  },
  {
    "total_img": 123,
    "number_page": 1,
    "title": "Labrador Retriever",
    "tag": "Labrador Retriever,",
    "description": "Labrador Retriever",
    "link_thumb": "https://live.staticflickr.com/65535/50021824741_e5ed029c17_n.jpg",
    "id_album": "1307335982",
    "total_view": 123
  },
  {
    "total_img": 64,
    "number_page": 1,
    "title": "Mute swan",
    "tag": "Mute swan,",
    "description": "Mute swan",
    "link_thumb": "https://live.staticflickr.com/65535/50021761778_0e920f1f40_n.jpg",
    "id_album": "1015034486",
    "total_view": 64
  },
  {
    "total_img": 75,
    "number_page": 1,
    "title": "Dolphin",
    "tag": "Dolphin,",
    "description": "Dolphin",
    "link_thumb": "https://live.staticflickr.com/65535/50020026123_cf06f5804c_n.jpg",
    "id_album": "-54509188",
    "total_view": 75
  },
  {
    "total_img": 41,
    "number_page": 1,
    "title": "Macaw",
    "tag": "Macaw,",
    "description": "Macaw",
    "link_thumb": "https://live.staticflickr.com/65535/50022174371_518f728248_n.jpg",
    "id_album": "-1173056085",
    "total_view": 41
  },
  {
    "total_img": 39,
    "number_page": 1,
    "title": "Pigeon",
    "tag": "Pigeon,",
    "description": "Pigeon",
    "link_thumb": "https://live.staticflickr.com/65535/50022204228_bf41bccd19_n.jpg",
    "id_album": "407660898",
    "total_view": 39
  },
  {
    "total_img": 99,
    "number_page": 1,
    "title": "Jellyfish",
    "tag": "Jellyfish,",
    "description": "Jellyfish",
    "link_thumb": "https://live.staticflickr.com/65535/50021759006_030532b7b1_n.jpg",
    "id_album": "1562047127",
    "total_view": 99
  },
  {
    "total_img": 57,
    "number_page": 1,
    "title": "Crocodile",
    "tag": "Crocodile,",
    "description": "Crocodile",
    "link_thumb": "https://live.staticflickr.com/65535/50019884481_73002ed30b_n.jpg",
    "id_album": "1475096665",
    "total_view": 57
  },
  {
    "total_img": 72,
    "number_page": 1,
    "title": "Lemur",
    "tag": "Lemur,",
    "description": "Lemur",
    "link_thumb": "https://live.staticflickr.com/65535/50022126307_03650320f2_n.jpg",
    "id_album": "1918884325",
    "total_view": 72
  },
  {
    "total_img": 66,
    "number_page": 1,
    "title": "Grasshopper",
    "tag": "Grasshopper,",
    "description": "Grasshopper",
    "link_thumb": "https://live.staticflickr.com/65535/50021651832_e59e6d79aa_n.jpg",
    "id_album": "-1168906494",
    "total_view": 66
  },
  {
    "total_img": 47,
    "number_page": 1,
    "title": "Corgi",
    "tag": "Corgi,",
    "description": "Corgi",
    "link_thumb": "https://live.staticflickr.com/65535/50020046627_b094f3621c_n.jpg",
    "id_album": "-1462118852",
    "total_view": 47
  },
  {
    "total_img": 164,
    "number_page": 1,
    "title": "Kingfisher",
    "tag": "Kingfisher,",
    "description": "Kingfisher",
    "link_thumb": "https://live.staticflickr.com/65535/50021795931_2b58605c19_n.jpg",
    "id_album": "770105808",
    "total_view": 164
  },
  {
    "total_img": 144,
    "number_page": 1,
    "title": "Spider",
    "tag": "Spider,",
    "description": "Spider",
    "link_thumb": "https://live.staticflickr.com/65535/50023976347_be65398a5b_n.jpg",
    "id_album": "-1082521515",
    "total_view": 144
  },
  {
    "total_img": 39,
    "number_page": 1,
    "title": "Siberian Husky",
    "tag": "Siberian Husky,",
    "description": "Siberian Husky",
    "link_thumb": "https://live.staticflickr.com/65535/50023496731_fbbc9d752c_n.jpg",
    "id_album": "692487763",
    "total_view": 39
  },
  {
    "total_img": 41,
    "number_page": 1,
    "title": "Pelican",
    "tag": "Pelican,",
    "description": "Pelican",
    "link_thumb": "https://live.staticflickr.com/65535/50022612811_c1e21a8121_n.jpg",
    "id_album": "1146438617",
    "total_view": 41
  },
  {
    "total_img": 89,
    "number_page": 1,
    "title": "Chipmunk",
    "tag": "Chipmunk,",
    "description": "Chipmunk",
    "link_thumb": "https://live.staticflickr.com/65535/50019224638_91392dd98b_n.jpg",
    "id_album": "791455625",
    "total_view": 89
  },
  {
    "total_img": 140,
    "number_page": 1,
    "title": "Jaguar",
    "tag": "Jaguar,",
    "description": "Jaguar",
    "link_thumb": "https://live.staticflickr.com/65535/50021172538_1783bc624a_n.jpg",
    "id_album": "-843028318",
    "total_view": 140
  },
  {
    "total_img": 264,
    "number_page": 2,
    "title": "Horse",
    "tag": "Horse,",
    "description": "Horse",
    "link_thumb": "https://live.staticflickr.com/65535/50020914863_f74b7ce5ce_n.jpg",
    "id_album": "-1933715543",
    "total_view": 264
  },
  {
    "total_img": 104,
    "number_page": 1,
    "title": "Blueandyellow Macaw",
    "tag": "Blueandyellow Macaw,",
    "description": "Blueandyellow Macaw",
    "link_thumb": "https://live.staticflickr.com/65535/50017459311_afca782c96_n.jpg",
    "id_album": "-530283314",
    "total_view": 104
  },
  {
    "total_img": 83,
    "number_page": 1,
    "title": "Black Panther",
    "tag": "Black Panther,",
    "description": "Black Panther",
    "link_thumb": "https://live.staticflickr.com/65535/50017445846_52ac540d00_n.jpg",
    "id_album": "-1561645279",
    "total_view": 83
  },
  {
    "total_img": 68,
    "number_page": 1,
    "title": "French Bulldog",
    "tag": "French Bulldog,",
    "description": "French Bulldog",
    "link_thumb": "https://live.staticflickr.com/65535/50021037156_76f4733963_n.jpg",
    "id_album": "704811092",
    "total_view": 68
  },
  {
    "total_img": 43,
    "number_page": 1,
    "title": "Python",
    "tag": "Python,",
    "description": "Python",
    "link_thumb": "https://live.staticflickr.com/65535/50023075756_912ca0933a_n.jpg",
    "id_album": "470794721",
    "total_view": 43
  },
  {
    "total_img": 28,
    "number_page": 1,
    "title": "Shark",
    "tag": "Shark,",
    "description": "Shark",
    "link_thumb": "https://live.staticflickr.com/65535/50023684442_b27ec67e5b_n.jpg",
    "id_album": "-1596347105",
    "total_view": 28
  },
  {
    "total_img": 29,
    "number_page": 1,
    "title": "Moose",
    "tag": "Moose,",
    "description": "Moose",
    "link_thumb": "https://live.staticflickr.com/65535/50022526082_dccbec442a_n.jpg",
    "id_album": "-817970387",
    "total_view": 29
  },
  {
    "total_img": 11,
    "number_page": 1,
    "title": "Vulture",
    "tag": "Vulture,",
    "description": "Vulture",
    "link_thumb": "https://live.staticflickr.com/65535/50024333561_989bc8a9d7_n.jpg",
    "id_album": "461588038",
    "total_view": 11
  },
  {
    "total_img": 66,
    "number_page": 1,
    "title": "Lizard",
    "tag": "Lizard,",
    "description": "Lizard",
    "link_thumb": "https://live.staticflickr.com/65535/50022357632_0cdbf9380e_n.jpg",
    "id_album": "-656526748",
    "total_view": 66
  },
  {
    "total_img": 65,
    "number_page": 1,
    "title": "CGI",
    "tag": "CGI,",
    "description": "CGI",
    "link_thumb": "https://live.staticflickr.com/65535/50019086228_cec208e4f6_n.jpg",
    "id_album": "1889777354",
    "total_view": 65
  },
  {
    "total_img": 50,
    "number_page": 1,
    "title": "Bulldog",
    "tag": "Bulldog,",
    "description": "Bulldog",
    "link_thumb": "https://live.staticflickr.com/65535/50017522511_4b1cc73727_n.jpg",
    "id_album": "368532157",
    "total_view": 50
  },
  {
    "total_img": 170,
    "number_page": 1,
    "title": "Rabbit",
    "tag": "Rabbit,",
    "description": "Rabbit",
    "link_thumb": "https://live.staticflickr.com/65535/50022543893_8791de2e94_n.jpg",
    "id_album": "-1940643173",
    "total_view": 170
  },
  {
    "total_img": 87,
    "number_page": 1,
    "title": "Puffin",
    "tag": "Puffin,",
    "description": "Puffin",
    "link_thumb": "https://live.staticflickr.com/65535/50022363783_fb9f496923_n.jpg",
    "id_album": "-356780855",
    "total_view": 87
  },
  {
    "total_img": 52,
    "number_page": 1,
    "title": "Turtle",
    "tag": "Turtle,",
    "description": "Turtle",
    "link_thumb": "https://live.staticflickr.com/65535/50023752448_d301f4e24d_n.jpg",
    "id_album": "46520366",
    "total_view": 52
  },
  {
    "total_img": 48,
    "number_page": 1,
    "title": "Otter",
    "tag": "Otter,",
    "description": "Otter",
    "link_thumb": "https://live.staticflickr.com/65535/50022360326_af21bb01e2_n.jpg",
    "id_album": "106807275",
    "total_view": 48
  },
  {
    "total_img": 121,
    "number_page": 1,
    "title": "Hummingbird",
    "tag": "Hummingbird,",
    "description": "Hummingbird",
    "link_thumb": "https://live.staticflickr.com/65535/50021601031_7751f0d67d_n.jpg",
    "id_album": "2144294979",
    "total_view": 121
  },
  {
    "total_img": 48,
    "number_page": 1,
    "title": "Mouse",
    "tag": "Mouse,",
    "description": "Mouse",
    "link_thumb": "https://live.staticflickr.com/65535/50022544037_190de59a9f_n.jpg",
    "id_album": "1957967135",
    "total_view": 48
  },
  {
    "total_img": 49,
    "number_page": 1,
    "title": "Koala",
    "tag": "Koala,",
    "description": "Koala",
    "link_thumb": "https://live.staticflickr.com/65535/50021273303_3d82c811aa_n.jpg",
    "id_album": "771796001",
    "total_view": 49
  },
  {
    "total_img": 70,
    "number_page": 1,
    "title": "Pug",
    "tag": "Pug,",
    "description": "Pug",
    "link_thumb": "https://live.staticflickr.com/65535/50022939841_1fe8f66e1f_n.jpg",
    "id_album": "-1431524681",
    "total_view": 70
  },
  {
    "total_img": 21,
    "number_page": 1,
    "title": "Goose",
    "tag": "Goose,",
    "description": "Goose",
    "link_thumb": "https://live.staticflickr.com/65535/50021380471_275a9fa677_n.jpg",
    "id_album": "-817970789",
    "total_view": 21
  },
  {
    "total_img": 93,
    "number_page": 1,
    "title": "Iguana",
    "tag": "Iguana,",
    "description": "Iguana",
    "link_thumb": "https://live.staticflickr.com/65535/50021101943_72ac05feaa_n.jpg",
    "id_album": "-737856092",
    "total_view": 93
  },
  {
    "total_img": 317,
    "number_page": 2,
    "title": "Frog",
    "tag": "Frog,",
    "description": "Frog",
    "link_thumb": "https://live.staticflickr.com/65535/50020505863_13a49cfb1c_n.jpg",
    "id_album": "844170697",
    "total_view": 317
  },
  {
    "total_img": 36,
    "number_page": 1,
    "title": "Titmouse",
    "tag": "Titmouse,",
    "description": "Titmouse",
    "link_thumb": "https://live.staticflickr.com/65535/50024258966_19d50ea914_n.jpg",
    "id_album": "-809392728",
    "total_view": 36
  },
  {
    "total_img": 249,
    "number_page": 2,
    "title": "Border Collie",
    "tag": "Border Collie,",
    "description": "Border Collie",
    "link_thumb": "https://live.staticflickr.com/65535/50016951303_fb61b5c298_n.jpg",
    "id_album": "782930701",
    "total_view": 249
  },
  {
    "total_img": 202,
    "number_page": 2,
    "title": "Owl",
    "tag": "Owl,",
    "description": "Owl",
    "link_thumb": "https://live.staticflickr.com/65535/50022371966_aafd8d66b7_n.jpg",
    "id_album": "-1384601601",
    "total_view": 202
  },
  {
    "total_img": 87,
    "number_page": 1,
    "title": "Seagull",
    "tag": "Seagull,",
    "description": "Seagull",
    "link_thumb": "https://live.staticflickr.com/65535/50022804823_a235567219_n.jpg",
    "id_album": "1656131695",
    "total_view": 87
  },
  {
    "total_img": 332,
    "number_page": 2,
    "title": "Ladybug",
    "tag": "Ladybug,",
    "description": "Ladybug",
    "link_thumb": "https://live.staticflickr.com/65535/50021838161_3ab51c1de3_n.jpg",
    "id_album": "-1882491687",
    "total_view": 332
  },
  {
    "total_img": 111,
    "number_page": 1,
    "title": "Cute",
    "tag": "Cute,",
    "description": "Cute",
    "link_thumb": "https://live.staticflickr.com/65535/50019913341_25fb73e653_n.jpg",
    "id_album": "1273365283",
    "total_view": 111
  },
  {
    "total_img": 24,
    "number_page": 1,
    "title": "Orangutan",
    "tag": "Orangutan,",
    "description": "Orangutan",
    "link_thumb": "https://live.staticflickr.com/65535/50021804833_195a7699b8_n.jpg",
    "id_album": "588679857",
    "total_view": 24
  },
  {
    "total_img": 265,
    "number_page": 2,
    "title": "Bee",
    "tag": "Bee,",
    "description": "Bee",
    "link_thumb": "https://live.staticflickr.com/65535/50017375942_1a82982503_n.jpg",
    "id_album": "1699594607",
    "total_view": 265
  },
  {
    "total_img": 45,
    "number_page": 1,
    "title": "Rhino",
    "tag": "Rhino,",
    "description": "Rhino",
    "link_thumb": "https://live.staticflickr.com/65535/50022720988_180d24a9aa_n.jpg",
    "id_album": "48367914",
    "total_view": 45
  },
  {
    "total_img": 51,
    "number_page": 1,
    "title": "Hare",
    "tag": "Hare,",
    "description": "Hare",
    "link_thumb": "https://live.staticflickr.com/65535/50021665232_a66037ae40_n.jpg",
    "id_album": "109779448",
    "total_view": 51
  },
  {
    "total_img": 68,
    "number_page": 1,
    "title": "Japanese Macaque",
    "tag": "Japanese Macaque,",
    "description": "Japanese Macaque",
    "link_thumb": "https://live.staticflickr.com/65535/50021999812_75bedc0c1b_n.jpg",
    "id_album": "665694624",
    "total_view": 68
  },
  {
    "total_img": 24,
    "number_page": 1,
    "title": "White stork",
    "tag": "White stork,",
    "description": "White stork",
    "link_thumb": "https://live.staticflickr.com/65535/50024411586_c6e917d517_n.jpg",
    "id_album": "545627045",
    "total_view": 24
  }
]