[
  {
    "link_thumb": "https://live.staticflickr.com/65535/50017436562_0d8c3b12ab_n.jpg",
    "id_album": "172748811",
    "description": "Beeeater_688322",
    "title": "Beeeater_688322",
    "link_img": "https://live.staticflickr.com/65535/50017436562_d14e3b972b_o.jpg",
    "id_image": "Beeeater_688322",
    "count_view": 0
  },
  {
    "link_thumb": "https://live.staticflickr.com/65535/50023272447_3cfbca33e7_n.jpg",
    "id_album": "-353898617",
    "description": "Puppy_534661",
    "title": "Puppy_534661",
    "link_img": "https://live.staticflickr.com/65535/50023272447_40b8b9201d_o.jpg",
    "id_image": "Puppy_534661",
    "count_view": 0
  },
  {
    "link_thumb": "https://live.staticflickr.com/65535/50021390603_e29857aa58_n.jpg",
    "id_album": "1392348450",
    "description": "Leopard_529991",
    "title": "Leopard_529991",
    "link_img": "https://live.staticflickr.com/65535/50021390603_6bde150c87_o.jpg",
    "id_image": "Leopard_529991",
    "count_view": 0
  },
  {
    "link_thumb": "https://live.staticflickr.com/65535/50021438902_597997fe6f_n.jpg",
    "id_album": "-462831704",
    "description": "Cat_705484",
    "title": "Cat_705484",
    "link_img": "https://live.staticflickr.com/65535/50021438902_5086c6ae81_o.jpg",
    "id_image": "Cat_705484",
    "count_view": 0
  },
  {
    "link_thumb": "https://live.staticflickr.com/65535/50019825116_2605167abe_n.jpg",
    "id_album": "-1868680171",
    "description": "Cougar_658876",
    "title": "Cougar_658876",
    "link_img": "https://live.staticflickr.com/65535/50019825116_b6a20653d1_o.jpg",
    "id_image": "Cougar_658876",
    "count_view": 0
  },
  {
    "link_thumb": "https://live.staticflickr.com/65535/50020576127_610c76045f_n.jpg",
    "id_album": "-149330232",
    "description": "Dog_360767",
    "title": "Dog_360767",
    "link_img": "https://live.staticflickr.com/65535/50020576127_7be0c51bef_o.jpg",
    "id_image": "Dog_360767",
    "count_view": 0
  },
  {
    "link_thumb": "https://live.staticflickr.com/65535/50020822548_d88a13a049_n.jpg",
    "id_album": "2060159334",
    "description": "GoldenRetriever_889081",
    "title": "GoldenRetriever_889081",
    "link_img": "https://live.staticflickr.com/65535/50020822548_6598f904ee_o.jpg",
    "id_image": "GoldenRetriever_889081",
    "count_view": 0
  },
  {
    "link_thumb": "https://live.staticflickr.com/65535/50018695683_305cbe5d54_n.jpg",
    "id_album": "-462831704",
    "description": "Cat_456433",
    "title": "Cat_456433",
    "link_img": "https://live.staticflickr.com/65535/50018695683_554ecabda4_o.jpg",
    "id_image": "Cat_456433",
    "count_view": 0
  },
  {
    "link_thumb": "https://live.staticflickr.com/65535/50024190786_8746360a25_n.jpg",
    "id_album": "405170427",
    "description": "Tiger_679803",
    "title": "Tiger_679803",
    "link_img": "https://live.staticflickr.com/65535/50024190786_9d415fc311_o.jpg",
    "id_image": "Tiger_679803",
    "count_view": 0
  },
  {
    "link_thumb": "https://live.staticflickr.com/65535/50021812216_9eff98a10a_n.jpg",
    "id_album": "770105808",
    "description": "Kingfisher_890589",
    "title": "Kingfisher_890589",
    "link_img": "https://live.staticflickr.com/65535/50021812216_08b92c7635_o.jpg",
    "id_image": "Kingfisher_890589",
    "count_view": 0
  },
  {
    "link_thumb": "https://live.staticflickr.com/65535/50022558898_b0395504f7_n.jpg",
    "id_album": "-1940643173",
    "description": "Rabbit_375258",
    "title": "Rabbit_375258",
    "link_img": "https://live.staticflickr.com/65535/50022558898_7324d9dbcd_o.jpg",
    "id_image": "Rabbit_375258",
    "count_view": 0
  },
  {
    "link_thumb": "https://live.staticflickr.com/65535/50351921918_70c3c85c85_n.jpg",
    "id_album": "-462831703",
    "description": "Cat_593749",
    "title": "Cat_593749",
    "link_img": "https://live.staticflickr.com/65535/50351921918_3fd774a51f_o.jpg",
    "id_image": "Cat_593749",
    "count_view": 0
  },
  {
    "link_thumb": "https://live.staticflickr.com/65535/50020490816_cb9b2f7df4_n.jpg",
    "id_album": "-149330231",
    "description": "Dog_714947",
    "title": "Dog_714947",
    "link_img": "https://live.staticflickr.com/65535/50020490816_53a8e704e7_o.jpg",
    "id_image": "Dog_714947",
    "count_view": 0
  },
  {
    "link_thumb": "https://live.staticflickr.com/65535/50016301588_b95fa5ced3_n.jpg",
    "id_album": "-1741290715",
    "description": "Ant_22489",
    "title": "Ant_22489",
    "link_img": "https://live.staticflickr.com/65535/50016301588_0f55a6d530_o.jpg",
    "id_image": "Ant_22489",
    "count_view": 0
  },
  {
    "link_thumb": "https://live.staticflickr.com/65535/50016855201_5685371990_n.jpg",
    "id_album": "523598895",
    "description": "Artistic_101764",
    "title": "Artistic_101764",
    "link_img": "https://live.staticflickr.com/65535/50016855201_44fe8074d5_o.jpg",
    "id_image": "Artistic_101764",
    "count_view": 0
  },
  {
    "link_thumb": "https://live.staticflickr.com/65535/50018756093_b1cbc49605_n.jpg",
    "id_album": "-462831704",
    "description": "Cat_523781",
    "title": "Cat_523781",
    "link_img": "https://live.staticflickr.com/65535/50018756093_5ec3164c81_o.jpg",
    "id_image": "Cat_523781",
    "count_view": 0
  },
  {
    "link_thumb": "https://live.staticflickr.com/65535/50021347903_99407ac46b_n.jpg",
    "id_album": "1392348450",
    "description": "Leopard_236451",
    "title": "Leopard_236451",
    "link_img": "https://live.staticflickr.com/65535/50021347903_0349a16ed3_o.jpg",
    "id_image": "Leopard_236451",
    "count_view": 0
  },
  {
    "link_thumb": "https://live.staticflickr.com/65535/50020733096_7104aac43c_n.jpg",
    "id_album": "1270947998",
    "description": "Elephant_178537",
    "title": "Elephant_178537",
    "link_img": "https://live.staticflickr.com/65535/50020733096_047ec90003_o.jpg",
    "id_image": "Elephant_178537",
    "count_view": 0
  },
  {
    "link_thumb": "https://live.staticflickr.com/65535/50022435332_c40060673e_n.jpg",
    "id_album": "-1173056085",
    "description": "Macaw_343851",
    "title": "Macaw_343851",
    "link_img": "https://live.staticflickr.com/65535/50022435332_42e799ef6a_o.jpg",
    "id_image": "Macaw_343851",
    "count_view": 0
  },
  {
    "link_thumb": "https://live.staticflickr.com/65535/50017997752_0588388afe_n.jpg",
    "id_album": "189994021",
    "description": "Cardinal_727279",
    "title": "Cardinal_727279",
    "link_img": "https://live.staticflickr.com/65535/50017997752_e0050a9b79_o.jpg",
    "id_image": "Cardinal_727279",
    "count_view": 0
  },
  {
    "link_thumb": "https://live.staticflickr.com/65535/50016772043_d6bb804d8c_n.jpg",
    "id_album": "-1846011410",
    "description": "Bird_392184",
    "title": "Bird_392184",
    "link_img": "https://live.staticflickr.com/65535/50016772043_656b780e46_o.jpg",
    "id_image": "Bird_392184",
    "count_view": 0
  },
  {
    "link_thumb": "https://live.staticflickr.com/65535/50021729433_2062533ac1_n.jpg",
    "id_album": "-817970387",
    "description": "Moose_420976",
    "title": "Moose_420976",
    "link_img": "https://live.staticflickr.com/65535/50021729433_d8446ab91b_o.jpg",
    "id_image": "Moose_420976",
    "count_view": 0
  },
  {
    "link_thumb": "https://live.staticflickr.com/65535/50016414643_f4c5aca356_n.jpg",
    "id_album": "390697200",
    "description": "AustralianShepherd_863473",
    "title": "AustralianShepherd_863473",
    "link_img": "https://live.staticflickr.com/65535/50016414643_d92bd020b2_o.jpg",
    "id_image": "AustralianShepherd_863473",
    "count_view": 0
  },
  {
    "link_thumb": "https://live.staticflickr.com/65535/50021368346_f32dc20572_n.jpg",
    "id_album": "2060159334",
    "description": "GoldenRetriever_911240",
    "title": "GoldenRetriever_911240",
    "link_img": "https://live.staticflickr.com/65535/50021368346_cc3d606e82_o.jpg",
    "id_image": "GoldenRetriever_911240",
    "count_view": 0
  },
  {
    "link_thumb": "https://live.staticflickr.com/65535/50019928561_5fd79a9439_n.jpg",
    "id_album": "1273365283",
    "description": "Cute_277838",
    "title": "Cute_277838",
    "link_img": "https://live.staticflickr.com/65535/50019928561_d1e3b96db4_o.jpg",
    "id_image": "Cute_277838",
    "count_view": 0
  },
  {
    "link_thumb": "https://live.staticflickr.com/65535/50020146282_84f8322c33_n.jpg",
    "id_album": "1475096665",
    "description": "Crocodile_323717",
    "title": "Crocodile_323717",
    "link_img": "https://live.staticflickr.com/65535/50020146282_ae93ef5405_o.jpg",
    "id_image": "Crocodile_323717",
    "count_view": 0
  },
  {
    "link_thumb": "https://live.staticflickr.com/65535/50018137512_af276e314b_n.jpg",
    "id_album": "-462831705",
    "description": "Cat_231328",
    "title": "Cat_231328",
    "link_img": "https://live.staticflickr.com/65535/50018137512_a4ba99216f_o.jpg",
    "id_image": "Cat_231328",
    "count_view": 0
  },
  {
    "link_thumb": "https://live.staticflickr.com/65535/50022530833_ac96ec0b82_n.jpg",
    "id_album": "-353898617",
    "description": "Puppy_931126",
    "title": "Puppy_931126",
    "link_img": "https://live.staticflickr.com/65535/50022530833_23651d326d_o.jpg",
    "id_image": "Puppy_931126",
    "count_view": 0
  },
  {
    "link_thumb": "https://live.staticflickr.com/65535/50019906382_b70ecddf1e_n.jpg",
    "id_album": "-766919393",
    "description": "Chameleon_418470",
    "title": "Chameleon_418470",
    "link_img": "https://live.staticflickr.com/65535/50019906382_c44c8e9d02_o.jpg",
    "id_image": "Chameleon_418470",
    "count_view": 0
  },
  {
    "link_thumb": "https://live.staticflickr.com/65535/50019733357_bd9f5a694e_n.jpg",
    "id_album": "-462831703",
    "description": "Cat_925366",
    "title": "Cat_925366",
    "link_img": "https://live.staticflickr.com/65535/50019733357_2fb4c5303f_o.jpg",
    "id_image": "Cat_925366",
    "count_view": 0
  },
  {
    "link_thumb": "https://live.staticflickr.com/65535/50021431848_fa1684de66_n.jpg",
    "id_album": "416744915",
    "description": "Lion_221902",
    "title": "Lion_221902",
    "link_img": "https://live.staticflickr.com/65535/50021431848_176f085557_o.jpg",
    "id_image": "Lion_221902",
    "count_view": 0
  },
  {
    "link_thumb": "https://live.staticflickr.com/65535/50023805426_a0a4c3d716_n.jpg",
    "id_album": "-1082521515",
    "description": "Spider_9276",
    "title": "Spider_9276",
    "link_img": "https://live.staticflickr.com/65535/50023805426_46f2d199e3_o.jpg",
    "id_image": "Spider_9276",
    "count_view": 0
  },
  {
    "link_thumb": "https://live.staticflickr.com/65535/50017543646_e197477d9a_n.jpg",
    "id_album": "-401151552",
    "description": "Butterfly_208804",
    "title": "Butterfly_208804",
    "link_img": "https://live.staticflickr.com/65535/50017543646_f5b1187b43_o.jpg",
    "id_image": "Butterfly_208804",
    "count_view": 0
  },
  {
    "link_thumb": "https://live.staticflickr.com/65535/50023438637_c93026a16c_n.jpg",
    "id_album": "-434874555",
    "description": "RainbowLorikeet_792303",
    "title": "RainbowLorikeet_792303",
    "link_img": "https://live.staticflickr.com/65535/50023438637_3e12ff9139_o.jpg",
    "id_image": "RainbowLorikeet_792303",
    "count_view": 0
  },
  {
    "link_thumb": "https://live.staticflickr.com/65535/50352521631_b9b97364bf_n.jpg",
    "id_album": "-462831703",
    "description": "Cat_437246",
    "title": "Cat_437246",
    "link_img": "https://live.staticflickr.com/65535/50352521631_22897f2b6b_o.jpg",
    "id_image": "Cat_437246",
    "count_view": 0
  },
  {
    "link_thumb": "https://live.staticflickr.com/65535/50019612361_3f1912be5b_n.jpg",
    "id_album": "-420782796",
    "description": "Caterpillar_926284",
    "title": "Caterpillar_926284",
    "link_img": "https://live.staticflickr.com/65535/50019612361_e19dd51551_o.jpg",
    "id_image": "Caterpillar_926284",
    "count_view": 0
  },
  {
    "link_thumb": "https://live.staticflickr.com/65535/50021716783_f893347005_n.jpg",
    "id_album": "-784970094",
    "description": "Monkey_693550",
    "title": "Monkey_693550",
    "link_img": "https://live.staticflickr.com/65535/50021716783_66ee4d834d_o.jpg",
    "id_image": "Monkey_693550",
    "count_view": 0
  },
  {
    "link_thumb": "https://live.staticflickr.com/65535/50021285906_b0b83eecc8_n.jpg",
    "id_album": "-405626519",
    "description": "GermanShepherd_361363",
    "title": "GermanShepherd_361363",
    "link_img": "https://live.staticflickr.com/65535/50021285906_092ae0c1b0_o.jpg",
    "id_image": "GermanShepherd_361363",
    "count_view": 0
  },
  {
    "link_thumb": "https://live.staticflickr.com/65535/50019976286_598a6d65ea_n.jpg",
    "id_album": "1903411565",
    "description": "Deer_158204",
    "title": "Deer_158204",
    "link_img": "https://live.staticflickr.com/65535/50019976286_5aac41d472_o.jpg",
    "id_image": "Deer_158204",
    "count_view": 0
  },
  {
    "link_thumb": "https://live.staticflickr.com/65535/50020501953_421a6ff1bd_n.jpg",
    "id_album": "704811092",
    "description": "FrenchBulldog_716046",
    "title": "FrenchBulldog_716046",
    "link_img": "https://live.staticflickr.com/65535/50020501953_aefe961164_o.jpg",
    "id_image": "FrenchBulldog_716046",
    "count_view": 0
  },
  {
    "link_thumb": "https://live.staticflickr.com/65535/50024368817_9e910e31aa_n.jpg",
    "id_album": "405170427",
    "description": "Tiger_386947",
    "title": "Tiger_386947",
    "link_img": "https://live.staticflickr.com/65535/50024368817_bac6875761_o.jpg",
    "id_image": "Tiger_386947",
    "count_view": 0
  },
  {
    "link_thumb": "https://live.staticflickr.com/65535/50021145093_7ff5dcbce9_n.jpg",
    "id_album": "1658866795",
    "description": "Insect_404547",
    "title": "Insect_404547",
    "link_img": "https://live.staticflickr.com/65535/50021145093_4584bc9163_o.jpg",
    "id_image": "Insect_404547",
    "count_view": 0
  },
  {
    "link_thumb": "https://live.staticflickr.com/65535/50017515078_6215b29044_n.jpg",
    "id_album": "-462831702",
    "description": "Cat_355924",
    "title": "Cat_355924",
    "link_img": "https://live.staticflickr.com/65535/50017515078_9080df65ba_o.jpg",
    "id_image": "Cat_355924",
    "count_view": 0
  },
  {
    "link_thumb": "https://live.staticflickr.com/65535/50021680892_442d12d0f1_n.jpg",
    "id_album": "1469520430",
    "description": "Hedgehog_211559",
    "title": "Hedgehog_211559",
    "link_img": "https://live.staticflickr.com/65535/50021680892_c57504c65a_o.jpg",
    "id_image": "Hedgehog_211559",
    "count_view": 0
  },
  {
    "link_thumb": "https://live.staticflickr.com/65535/50021908981_e49d73c5c8_n.jpg",
    "id_album": "1392348450",
    "description": "Leopard_367151",
    "title": "Leopard_367151",
    "link_img": "https://live.staticflickr.com/65535/50021908981_9609de66b5_o.jpg",
    "id_image": "Leopard_367151",
    "count_view": 0
  },
  {
    "link_thumb": "https://live.staticflickr.com/65535/50020049227_4d91d436ea_n.jpg",
    "id_album": "-1462118852",
    "description": "Corgi_355253",
    "title": "Corgi_355253",
    "link_img": "https://live.staticflickr.com/65535/50020049227_a956e71a9b_o.jpg",
    "id_image": "Corgi_355253",
    "count_view": 0
  },
  {
    "link_thumb": "https://live.staticflickr.com/65535/50016752753_29d4f7ea97_n.jpg",
    "id_album": "-1846011410",
    "description": "Bird_367264",
    "title": "Bird_367264",
    "link_img": "https://live.staticflickr.com/65535/50016752753_2016174d66_o.jpg",
    "id_image": "Bird_367264",
    "count_view": 0
  },
  {
    "link_thumb": "https://live.staticflickr.com/65535/50020711583_00d47fcdbe_n.jpg",
    "id_album": "-462831703",
    "description": "Cat_793646",
    "title": "Cat_793646",
    "link_img": "https://live.staticflickr.com/65535/50020711583_823ac60204_o.jpg",
    "id_image": "Cat_793646",
    "count_view": 0
  },
  {
    "link_thumb": "https://live.staticflickr.com/65535/50021794216_1fa538428f_n.jpg",
    "id_album": "-649286029",
    "description": "Kangaroo_692274",
    "title": "Kangaroo_692274",
    "link_img": "https://live.staticflickr.com/65535/50021794216_ba3b4c9ca4_o.jpg",
    "id_image": "Kangaroo_692274",
    "count_view": 0
  },
  {
    "link_thumb": "https://live.staticflickr.com/65535/50022162082_d5dc3df1b8_n.jpg",
    "id_album": "1392348450",
    "description": "Leopard_359813",
    "title": "Leopard_359813",
    "link_img": "https://live.staticflickr.com/65535/50022162082_1845f68a1b_o.jpg",
    "id_image": "Leopard_359813",
    "count_view": 0
  },
  {
    "link_thumb": "https://live.staticflickr.com/65535/50023655097_93ca18e94a_n.jpg",
    "id_album": "1961094930",
    "description": "Seal_220029",
    "title": "Seal_220029",
    "link_img": "https://live.staticflickr.com/65535/50023655097_7aebe6193b_o.jpg",
    "id_image": "Seal_220029",
    "count_view": 0
  },
  {
    "link_thumb": "https://live.staticflickr.com/65535/50023996381_00e62b6117_n.jpg",
    "id_album": "1244464375",
    "description": "Starfish_472720",
    "title": "Starfish_472720",
    "link_img": "https://live.staticflickr.com/65535/50023996381_44f162470e_o.jpg",
    "id_image": "Starfish_472720",
    "count_view": 0
  },
  {
    "link_thumb": "https://live.staticflickr.com/65535/50019094038_d93d71d160_n.jpg",
    "id_album": "1889777354",
    "description": "CGI_313330",
    "title": "CGI_313330",
    "link_img": "https://live.staticflickr.com/65535/50019094038_e67a123acf_o.jpg",
    "id_image": "CGI_313330",
    "count_view": 0
  },
  {
    "link_thumb": "https://live.staticflickr.com/65535/50023257097_cfaefbbb88_n.jpg",
    "id_album": "-353898617",
    "description": "Puppy_454156",
    "title": "Puppy_454156",
    "link_img": "https://live.staticflickr.com/65535/50023257097_9d291cd32b_o.jpg",
    "id_image": "Puppy_454156",
    "count_view": 0
  },
  {
    "link_thumb": "https://live.staticflickr.com/65535/50021854937_6b5ae4a6d6_n.jpg",
    "id_album": "2144294979",
    "description": "Hummingbird_263994",
    "title": "Hummingbird_263994",
    "link_img": "https://live.staticflickr.com/65535/50021854937_8de45f856e_o.jpg",
    "id_image": "Hummingbird_263994",
    "count_view": 0
  },
  {
    "link_thumb": "https://live.staticflickr.com/65535/50023084516_3892e90568_n.jpg",
    "id_album": "470794721",
    "description": "Python_878154",
    "title": "Python_878154",
    "link_img": "https://live.staticflickr.com/65535/50023084516_8b69bd5371_o.jpg",
    "id_image": "Python_878154",
    "count_view": 0
  },
  {
    "link_thumb": "https://live.staticflickr.com/65535/50021654156_13bd72a22c_n.jpg",
    "id_album": "-737856092",
    "description": "Iguana_700518",
    "title": "Iguana_700518",
    "link_img": "https://live.staticflickr.com/65535/50021654156_e5a8cc2216_o.jpg",
    "id_image": "Iguana_700518",
    "count_view": 0
  },
  {
    "link_thumb": "https://live.staticflickr.com/65535/50020683907_1ecdcec64a_n.jpg",
    "id_album": "-149330231",
    "description": "Dog_461261",
    "title": "Dog_461261",
    "link_img": "https://live.staticflickr.com/65535/50020683907_3503961a7c_o.jpg",
    "id_image": "Dog_461261",
    "count_view": 0
  },
  {
    "link_thumb": "https://live.staticflickr.com/65535/50017340757_834880a5b2_n.jpg",
    "id_album": "-422187261",
    "description": "Bear_765893",
    "title": "Bear_765893",
    "link_img": "https://live.staticflickr.com/65535/50017340757_b8c3d987e7_o.jpg",
    "id_image": "Bear_765893",
    "count_view": 0
  },
  {
    "link_thumb": "https://live.staticflickr.com/65535/50021865636_49a6629551_n.jpg",
    "id_album": "-1882491687",
    "description": "Ladybug_808770",
    "title": "Ladybug_808770",
    "link_img": "https://live.staticflickr.com/65535/50021865636_1255e24016_o.jpg",
    "id_image": "Ladybug_808770",
    "count_view": 0
  },
  {
    "link_thumb": "https://live.staticflickr.com/65535/50023165768_e6a225d32a_n.jpg",
    "id_album": "-359606417",
    "description": "Sparrow_615931",
    "title": "Sparrow_615931",
    "link_img": "https://live.staticflickr.com/65535/50023165768_c557dcdb3f_o.jpg",
    "id_image": "Sparrow_615931",
    "count_view": 0
  },
  {
    "link_thumb": "https://live.staticflickr.com/65535/50020468978_5e8950deab_n.jpg",
    "id_album": "-128218148",
    "description": "Fox_836637",
    "title": "Fox_836637",
    "link_img": "https://live.staticflickr.com/65535/50020468978_7a4f310844_o.jpg",
    "id_image": "Fox_836637",
    "count_view": 0
  },
  {
    "link_thumb": "https://live.staticflickr.com/65535/50020041372_6876d546c3_n.jpg",
    "id_album": "643379324",
    "description": "Clownfish_496817",
    "title": "Clownfish_496817",
    "link_img": "https://live.staticflickr.com/65535/50020041372_60d23be7ba_o.jpg",
    "id_image": "Clownfish_496817",
    "count_view": 0
  },
  {
    "link_thumb": "https://live.staticflickr.com/65535/50017735882_65837a8100_n.jpg",
    "id_album": "-530283314",
    "description": "BlueandyellowMacaw_774601",
    "title": "BlueandyellowMacaw_774601",
    "link_img": "https://live.staticflickr.com/65535/50017735882_0e7edc70af_o.jpg",
    "id_image": "BlueandyellowMacaw_774601",
    "count_view": 0
  },
  {
    "link_thumb": "https://live.staticflickr.com/65535/50022401302_c78e78332a_n.jpg",
    "id_album": "1894617400",
    "description": "Lynx_391313",
    "title": "Lynx_391313",
    "link_img": "https://live.staticflickr.com/65535/50022401302_c13c46a2dd_o.jpg",
    "id_image": "Lynx_391313",
    "count_view": 0
  },
  {
    "link_thumb": "https://live.staticflickr.com/65535/50351922463_1ecf8fdd42_n.jpg",
    "id_album": "-462831703",
    "description": "Cat_594747",
    "title": "Cat_594747",
    "link_img": "https://live.staticflickr.com/65535/50351922463_27d89dd05d_o.jpg",
    "id_image": "Cat_594747",
    "count_view": 0
  },
  {
    "link_thumb": "https://live.staticflickr.com/65535/50020884177_63d68aa0d4_n.jpg",
    "id_album": "-405058657",
    "description": "Dragonfly_469148",
    "title": "Dragonfly_469148",
    "link_img": "https://live.staticflickr.com/65535/50020884177_eeee1c534e_o.jpg",
    "id_image": "Dragonfly_469148",
    "count_view": 0
  },
  {
    "link_thumb": "https://live.staticflickr.com/65535/50021771932_877b99d930_n.jpg",
    "id_album": "-1933715543",
    "description": "Horse_437647",
    "title": "Horse_437647",
    "link_img": "https://live.staticflickr.com/65535/50021771932_4030251e17_o.jpg",
    "id_image": "Horse_437647",
    "count_view": 0
  },
  {
    "link_thumb": "https://live.staticflickr.com/65535/50018349847_8d7141c9d6_n.jpg",
    "id_album": "-462831702",
    "description": "Cat_369476",
    "title": "Cat_369476",
    "link_img": "https://live.staticflickr.com/65535/50018349847_1140c4d144_o.jpg",
    "id_image": "Cat_369476",
    "count_view": 0
  },
  {
    "link_thumb": "https://live.staticflickr.com/65535/50016638478_95d56753a0_n.jpg",
    "id_album": "1699594607",
    "description": "Bee_874933",
    "title": "Bee_874933",
    "link_img": "https://live.staticflickr.com/65535/50016638478_f33fecbf99_o.jpg",
    "id_image": "Bee_874933",
    "count_view": 0
  },
  {
    "link_thumb": "https://live.staticflickr.com/65535/50017383757_f950a13989_n.jpg",
    "id_album": "1699594607",
    "description": "Bee_290318",
    "title": "Bee_290318",
    "link_img": "https://live.staticflickr.com/65535/50017383757_197627bdde_o.jpg",
    "id_image": "Bee_290318",
    "count_view": 0
  },
  {
    "link_thumb": "https://live.staticflickr.com/65535/50018159006_6e7f09c7b1_n.jpg",
    "id_album": "-462831702",
    "description": "Cat_409765",
    "title": "Cat_409765",
    "link_img": "https://live.staticflickr.com/65535/50018159006_20e65500c9_o.jpg",
    "id_image": "Cat_409765",
    "count_view": 0
  },
  {
    "link_thumb": "https://live.staticflickr.com/65535/50017385778_889935c1ee_n.jpg",
    "id_album": "-462831705",
    "description": "Cat_262403",
    "title": "Cat_262403",
    "link_img": "https://live.staticflickr.com/65535/50017385778_872ee1cfd2_o.jpg",
    "id_image": "Cat_262403",
    "count_view": 0
  },
  {
    "link_thumb": "https://live.staticflickr.com/65535/50021562298_892687f79b_n.jpg",
    "id_album": "-656526748",
    "description": "Lizard_313861",
    "title": "Lizard_313861",
    "link_img": "https://live.staticflickr.com/65535/50021562298_a0513857ac_o.jpg",
    "id_image": "Lizard_313861",
    "count_view": 0
  },
  {
    "link_thumb": "https://live.staticflickr.com/65535/50023908613_f4ef43d38a_n.jpg",
    "id_album": "766572659",
    "description": "WhiteTiger_934807",
    "title": "WhiteTiger_934807",
    "link_img": "https://live.staticflickr.com/65535/50023908613_dd016486bc_o.jpg",
    "id_image": "WhiteTiger_934807",
    "count_view": 0
  },
  {
    "link_thumb": "https://live.staticflickr.com/65535/50351963698_ea937dafa3_n.jpg",
    "id_album": "-462831703",
    "description": "Cat_736864",
    "title": "Cat_736864",
    "link_img": "https://live.staticflickr.com/65535/50351963698_f2c460fe43_o.jpg",
    "id_image": "Cat_736864",
    "count_view": 0
  },
  {
    "link_thumb": "https://live.staticflickr.com/65535/50021097968_7af2331c24_n.jpg",
    "id_album": "-712553376",
    "description": "Husky_828843",
    "title": "Husky_828843",
    "link_img": "https://live.staticflickr.com/65535/50021097968_34b479cede_o.jpg",
    "id_image": "Husky_828843",
    "count_view": 0
  },
  {
    "link_thumb": "https://live.staticflickr.com/65535/50017277258_8322f2b4b0_n.jpg",
    "id_album": "-462831705",
    "description": "Cat_168534",
    "title": "Cat_168534",
    "link_img": "https://live.staticflickr.com/65535/50017277258_d517409e82_o.jpg",
    "id_image": "Cat_168534",
    "count_view": 0
  },
  {
    "link_thumb": "https://live.staticflickr.com/65535/50017113952_373ebf2809_n.jpg",
    "id_album": "-834314226",
    "description": "ArcticFox_925250",
    "title": "ArcticFox_925250",
    "link_img": "https://live.staticflickr.com/65535/50017113952_4938b1dd43_o.jpg",
    "id_image": "ArcticFox_925250",
    "count_view": 0
  },
  {
    "link_thumb": "https://live.staticflickr.com/65535/50021886331_827988c768_n.jpg",
    "id_album": "1392348450",
    "description": "Leopard_205021",
    "title": "Leopard_205021",
    "link_img": "https://live.staticflickr.com/65535/50021886331_cda95ee7c0_o.jpg",
    "id_image": "Leopard_205021",
    "count_view": 0
  },
  {
    "link_thumb": "https://live.staticflickr.com/65535/50017187976_a6cfc94947_n.jpg",
    "id_album": "325287329",
    "description": "Beetle_706522",
    "title": "Beetle_706522",
    "link_img": "https://live.staticflickr.com/65535/50017187976_033c6a513c_o.jpg",
    "id_image": "Beetle_706522",
    "count_view": 0
  },
  {
    "link_thumb": "https://live.staticflickr.com/65535/50016648473_1e95e96d22_n.jpg",
    "id_album": "172748811",
    "description": "Beeeater_591168",
    "title": "Beeeater_591168",
    "link_img": "https://live.staticflickr.com/65535/50016648473_b532510c1d_o.jpg",
    "id_image": "Beeeater_591168",
    "count_view": 0
  },
  {
    "link_thumb": "https://live.staticflickr.com/65535/50019921602_d7bcb7e681_n.jpg",
    "id_album": "-766919393",
    "description": "Chameleon_777628",
    "title": "Chameleon_777628",
    "link_img": "https://live.staticflickr.com/65535/50019921602_fe4f278914_o.jpg",
    "id_image": "Chameleon_777628",
    "count_view": 0
  },
  {
    "link_thumb": "https://live.staticflickr.com/65535/50018261972_f57690da71_n.jpg",
    "id_album": "-462831702",
    "description": "Cat_336056",
    "title": "Cat_336056",
    "link_img": "https://live.staticflickr.com/65535/50018261972_6f9c2eaf96_o.jpg",
    "id_image": "Cat_336056",
    "count_view": 0
  },
  {
    "link_thumb": "https://live.staticflickr.com/65535/50021312053_b1f6e154f2_n.jpg",
    "id_album": "-1882491687",
    "description": "Ladybug_493229",
    "title": "Ladybug_493229",
    "link_img": "https://live.staticflickr.com/65535/50021312053_6063384338_o.jpg",
    "id_image": "Ladybug_493229",
    "count_view": 0
  },
  {
    "link_thumb": "https://live.staticflickr.com/65535/50017809087_808af0b19b_n.jpg",
    "id_album": "-401151552",
    "description": "Butterfly_234229",
    "title": "Butterfly_234229",
    "link_img": "https://live.staticflickr.com/65535/50017809087_40c02e61d7_o.jpg",
    "id_image": "Butterfly_234229",
    "count_view": 0
  },
  {
    "link_thumb": "https://live.staticflickr.com/65535/50022013013_de30bfbd05_n.jpg",
    "id_album": "405592235",
    "description": "Parrot_116541",
    "title": "Parrot_116541",
    "link_img": "https://live.staticflickr.com/65535/50022013013_23064f3f79_o.jpg",
    "id_image": "Parrot_116541",
    "count_view": 0
  },
  {
    "link_thumb": "https://live.staticflickr.com/65535/50017212202_cc84767f0b_n.jpg",
    "id_album": "390697200",
    "description": "AustralianShepherd_998379",
    "title": "AustralianShepherd_998379",
    "link_img": "https://live.staticflickr.com/65535/50017212202_937e3cee98_o.jpg",
    "id_image": "AustralianShepherd_998379",
    "count_view": 0
  },
  {
    "link_thumb": "https://live.staticflickr.com/65535/50023892132_e9e01c61cf_n.jpg",
    "id_album": "-1131363127",
    "description": "SnowLeopard_361680",
    "title": "SnowLeopard_361680",
    "link_img": "https://live.staticflickr.com/65535/50023892132_c8e0418b79_o.jpg",
    "id_image": "SnowLeopard_361680",
    "count_view": 0
  },
  {
    "link_thumb": "https://live.staticflickr.com/65535/50352519146_72a335e397_n.jpg",
    "id_album": "-462831703",
    "description": "Cat_434481",
    "title": "Cat_434481",
    "link_img": "https://live.staticflickr.com/65535/50352519146_37a4fed16d_o.jpg",
    "id_image": "Cat_434481",
    "count_view": 0
  },
  {
    "link_thumb": "https://live.staticflickr.com/65535/50017100963_9cee65c327_n.jpg",
    "id_album": "-401151552",
    "description": "Butterfly_566379",
    "title": "Butterfly_566379",
    "link_img": "https://live.staticflickr.com/65535/50017100963_766dac4694_o.jpg",
    "id_image": "Butterfly_566379",
    "count_view": 0
  },
  {
    "link_thumb": "https://live.staticflickr.com/65535/50021318582_74680ed231_n.jpg",
    "id_album": "844170697",
    "description": "Frog_490671",
    "title": "Frog_490671",
    "link_img": "https://live.staticflickr.com/65535/50021318582_4a85d79bdd_o.jpg",
    "id_image": "Frog_490671",
    "count_view": 0
  },
  {
    "link_thumb": "https://live.staticflickr.com/65535/50024327652_582d5a8401_n.jpg",
    "id_album": "405170427",
    "description": "Tiger_343485",
    "title": "Tiger_343485",
    "link_img": "https://live.staticflickr.com/65535/50024327652_b848baaf48_o.jpg",
    "id_image": "Tiger_343485",
    "count_view": 0
  },
  {
    "link_thumb": "https://live.staticflickr.com/65535/50023444897_a68cfbff88_n.jpg",
    "id_album": "-1862965835",
    "description": "RedEyedTreeFrog_430853",
    "title": "RedEyedTreeFrog_430853",
    "link_img": "https://live.staticflickr.com/65535/50023444897_5ee0d323f4_o.jpg",
    "id_image": "RedEyedTreeFrog_430853",
    "count_view": 0
  },
  {
    "link_thumb": "https://live.staticflickr.com/65535/50020454737_6ffff52c44_n.jpg",
    "id_album": "-149330232",
    "description": "Dog_265794",
    "title": "Dog_265794",
    "link_img": "https://live.staticflickr.com/65535/50020454737_cca5849230_o.jpg",
    "id_image": "Dog_265794",
    "count_view": 0
  },
  {
    "link_thumb": "https://live.staticflickr.com/65535/50023502901_de9825f8d5_n.jpg",
    "id_album": "692487763",
    "description": "SiberianHusky_689815",
    "title": "SiberianHusky_689815",
    "link_img": "https://live.staticflickr.com/65535/50023502901_8e6bb3a3c1_o.jpg",
    "id_image": "SiberianHusky_689815",
    "count_view": 0
  },
  {
    "link_thumb": "https://live.staticflickr.com/65535/50020586707_d74956e6d1_n.jpg",
    "id_album": "-149330232",
    "description": "Dog_365252",
    "title": "Dog_365252",
    "link_img": "https://live.staticflickr.com/65535/50020586707_7f155dd797_o.jpg",
    "id_image": "Dog_365252",
    "count_view": 0
  },
  {
    "link_thumb": "https://live.staticflickr.com/65535/50019780092_66b1fe166e_n.jpg",
    "id_album": "-462831705",
    "description": "Cat_95950",
    "title": "Cat_95950",
    "link_img": "https://live.staticflickr.com/65535/50019780092_12d901cba0_o.jpg",
    "id_image": "Cat_95950",
    "count_view": 0
  },
  {
    "link_thumb": "https://live.staticflickr.com/65535/50019874147_1faa42d763_n.jpg",
    "id_album": "1889777354",
    "description": "CGI_102783",
    "title": "CGI_102783",
    "link_img": "https://live.staticflickr.com/65535/50019874147_653260bc60_o.jpg",
    "id_image": "CGI_102783",
    "count_view": 0
  },
  {
    "link_thumb": "https://live.staticflickr.com/65535/50019627603_21c8ec4864_n.jpg",
    "id_album": "-149330232",
    "description": "Dog_219211",
    "title": "Dog_219211",
    "link_img": "https://live.staticflickr.com/65535/50019627603_56f11b635f_o.jpg",
    "id_image": "Dog_219211",
    "count_view": 0
  },
  {
    "link_thumb": "https://live.staticflickr.com/65535/50022179146_3c8194aaf1_n.jpg",
    "id_album": "-1173056085",
    "description": "Macaw_732720",
    "title": "Macaw_732720",
    "link_img": "https://live.staticflickr.com/65535/50022179146_8ae4d4b9dd_o.jpg",
    "id_image": "Macaw_732720",
    "count_view": 0
  },
  {
    "link_thumb": "https://live.staticflickr.com/65535/50016956466_1cf96dda30_n.jpg",
    "id_album": "231236068",
    "description": "BaldEagle_410551",
    "title": "BaldEagle_410551",
    "link_img": "https://live.staticflickr.com/65535/50016956466_4978557ee4_o.jpg",
    "id_image": "BaldEagle_410551",
    "count_view": 0
  },
  {
    "link_thumb": "https://live.staticflickr.com/65535/50018264352_93e482156b_n.jpg",
    "id_album": "-462831702",
    "description": "Cat_337128",
    "title": "Cat_337128",
    "link_img": "https://live.staticflickr.com/65535/50018264352_486bf8c1b4_o.jpg",
    "id_image": "Cat_337128",
    "count_view": 0
  },
  {
    "link_thumb": "https://live.staticflickr.com/65535/50022188618_a7294b873e_n.jpg",
    "id_album": "392248205",
    "description": "Penguin_912896",
    "title": "Penguin_912896",
    "link_img": "https://live.staticflickr.com/65535/50022188618_29dfa15bd5_o.jpg",
    "id_image": "Penguin_912896",
    "count_view": 0
  },
  {
    "link_thumb": "https://live.staticflickr.com/65535/50020231893_8c63ea71b6_n.jpg",
    "id_album": "1270947998",
    "description": "Elephant_525495",
    "title": "Elephant_525495",
    "link_img": "https://live.staticflickr.com/65535/50020231893_c793b86f09_o.jpg",
    "id_image": "Elephant_525495",
    "count_view": 0
  },
  {
    "link_thumb": "https://live.staticflickr.com/65535/50017529276_16f99960a9_n.jpg",
    "id_album": "368532157",
    "description": "Bulldog_949104",
    "title": "Bulldog_949104",
    "link_img": "https://live.staticflickr.com/65535/50017529276_59e3ab02eb_o.jpg",
    "id_image": "Bulldog_949104",
    "count_view": 0
  },
  {
    "link_thumb": "https://live.staticflickr.com/65535/50021936151_058ae138fd_n.jpg",
    "id_album": "1392348450",
    "description": "Leopard_569342",
    "title": "Leopard_569342",
    "link_img": "https://live.staticflickr.com/65535/50021936151_e112cd306e_o.jpg",
    "id_image": "Leopard_569342",
    "count_view": 0
  },
  {
    "link_thumb": "https://live.staticflickr.com/65535/50020835233_4b4c0f6813_n.jpg",
    "id_album": "-975314166",
    "description": "Goldfish_364855",
    "title": "Goldfish_364855",
    "link_img": "https://live.staticflickr.com/65535/50020835233_e0e5f56431_o.jpg",
    "id_image": "Goldfish_364855",
    "count_view": 0
  },
  {
    "link_thumb": "https://live.staticflickr.com/65535/50351940093_42fdce9729_n.jpg",
    "id_album": "-462831703",
    "description": "Cat_667884",
    "title": "Cat_667884",
    "link_img": "https://live.staticflickr.com/65535/50351940093_66b3575723_o.jpg",
    "id_image": "Cat_667884",
    "count_view": 0
  },
  {
    "link_thumb": "https://live.staticflickr.com/65535/50020526493_fb0c269061_n.jpg",
    "id_album": "844170697",
    "description": "Frog_570114",
    "title": "Frog_570114",
    "link_img": "https://live.staticflickr.com/65535/50020526493_92a2999571_o.jpg",
    "id_image": "Frog_570114",
    "count_view": 0
  },
  {
    "link_thumb": "https://live.staticflickr.com/65535/50019997132_06891dd50a_n.jpg",
    "id_album": "1949822052",
    "description": "Chimpanzee_243282",
    "title": "Chimpanzee_243282",
    "link_img": "https://live.staticflickr.com/65535/50019997132_90c3cd1ec0_o.jpg",
    "id_image": "Chimpanzee_243282",
    "count_view": 0
  },
  {
    "link_thumb": "https://live.staticflickr.com/65535/50019789506_2d8a6093bb_n.jpg",
    "id_album": "-1462118852",
    "description": "Corgi_1002456",
    "title": "Corgi_1002456",
    "link_img": "https://live.staticflickr.com/65535/50019789506_a40f5fc2f4_o.jpg",
    "id_image": "Corgi_1002456",
    "count_view": 0
  },
  {
    "link_thumb": "https://live.staticflickr.com/65535/50017610528_43e8295ebb_n.jpg",
    "id_album": "-462831702",
    "description": "Cat_399852",
    "title": "Cat_399852",
    "link_img": "https://live.staticflickr.com/65535/50017610528_139748c7f2_o.jpg",
    "id_image": "Cat_399852",
    "count_view": 0
  },
  {
    "link_thumb": "https://live.staticflickr.com/65535/50016409568_718d21017b_n.jpg",
    "id_album": "390697200",
    "description": "AustralianShepherd_766872",
    "title": "AustralianShepherd_766872",
    "link_img": "https://live.staticflickr.com/65535/50016409568_4fa8a6bdc4_o.jpg",
    "id_image": "AustralianShepherd_766872",
    "count_view": 0
  },
  {
    "link_thumb": "https://live.staticflickr.com/65535/50018957848_986af4f0ee_n.jpg",
    "id_album": "-462831703",
    "description": "Cat_933383",
    "title": "Cat_933383",
    "link_img": "https://live.staticflickr.com/65535/50018957848_0208742a23_o.jpg",
    "id_image": "Cat_933383",
    "count_view": 0
  },
  {
    "link_thumb": "https://live.staticflickr.com/65535/50022680346_03e67a0745_n.jpg",
    "id_album": "392248205",
    "description": "Penguin_191039",
    "title": "Penguin_191039",
    "link_img": "https://live.staticflickr.com/65535/50022680346_65e08703c9_o.jpg",
    "id_image": "Penguin_191039",
    "count_view": 0
  },
  {
    "link_thumb": "https://live.staticflickr.com/65535/50022681351_533af1202b_n.jpg",
    "id_album": "392248205",
    "description": "Penguin_214922",
    "title": "Penguin_214922",
    "link_img": "https://live.staticflickr.com/65535/50022681351_9759909236_o.jpg",
    "id_image": "Penguin_214922",
    "count_view": 0
  },
  {
    "link_thumb": "https://live.staticflickr.com/65535/50017030181_eb0f02f808_n.jpg",
    "id_album": "-422187261",
    "description": "Bear_361460",
    "title": "Bear_361460",
    "link_img": "https://live.staticflickr.com/65535/50017030181_85df3e03ae_o.jpg",
    "id_image": "Bear_361460",
    "count_view": 0
  },
  {
    "link_thumb": "https://live.staticflickr.com/65535/50023228032_beed3d9fa4_n.jpg",
    "id_album": "-353898617",
    "description": "Puppy_364938",
    "title": "Puppy_364938",
    "link_img": "https://live.staticflickr.com/65535/50023228032_f6c7979b7c_o.jpg",
    "id_image": "Puppy_364938",
    "count_view": 0
  },
  {
    "link_thumb": "https://live.staticflickr.com/65535/50017166686_bd4807f3dd_n.jpg",
    "id_album": "1699594607",
    "description": "Bee_926235",
    "title": "Bee_926235",
    "link_img": "https://live.staticflickr.com/65535/50017166686_83a9848710_o.jpg",
    "id_image": "Bee_926235",
    "count_view": 0
  },
  {
    "link_thumb": "https://live.staticflickr.com/65535/50021180751_36c56b2426_n.jpg",
    "id_album": "-462831704",
    "description": "Cat_699035",
    "title": "Cat_699035",
    "link_img": "https://live.staticflickr.com/65535/50021180751_622ea50e10_o.jpg",
    "id_image": "Cat_699035",
    "count_view": 0
  },
  {
    "link_thumb": "https://live.staticflickr.com/65535/50019557291_d36eff24a2_n.jpg",
    "id_album": "-462831703",
    "description": "Cat_985113",
    "title": "Cat_985113",
    "link_img": "https://live.staticflickr.com/65535/50019557291_57a273f8bc_o.jpg",
    "id_image": "Cat_985113",
    "count_view": 0
  },
  {
    "link_thumb": "https://live.staticflickr.com/65535/50021939841_aee1342420_n.jpg",
    "id_album": "1392348450",
    "description": "Leopard_598768",
    "title": "Leopard_598768",
    "link_img": "https://live.staticflickr.com/65535/50021939841_bd4f8970e3_o.jpg",
    "id_image": "Leopard_598768",
    "count_view": 0
  },
  {
    "link_thumb": "https://live.staticflickr.com/65535/50021871417_d608999c55_n.jpg",
    "id_album": "2144294979",
    "description": "Hummingbird_701762",
    "title": "Hummingbird_701762",
    "link_img": "https://live.staticflickr.com/65535/50021871417_088f4e0ab2_o.jpg",
    "id_image": "Hummingbird_701762",
    "count_view": 0
  },
  {
    "link_thumb": "https://live.staticflickr.com/65535/50017081141_d8b288359a_n.jpg",
    "id_album": "-422187261",
    "description": "Bear_787938",
    "title": "Bear_787938",
    "link_img": "https://live.staticflickr.com/65535/50017081141_69c8b71e1e_o.jpg",
    "id_image": "Bear_787938",
    "count_view": 0
  },
  {
    "link_thumb": "https://live.staticflickr.com/65535/50017812701_b4bd237443_n.jpg",
    "id_album": "-462831705",
    "description": "Cat_174955",
    "title": "Cat_174955",
    "link_img": "https://live.staticflickr.com/65535/50017812701_46d521d99a_o.jpg",
    "id_image": "Cat_174955",
    "count_view": 0
  },
  {
    "link_thumb": "https://live.staticflickr.com/65535/50016649233_01498a95ac_n.jpg",
    "id_album": "172748811",
    "description": "Beeeater_676172",
    "title": "Beeeater_676172",
    "link_img": "https://live.staticflickr.com/65535/50016649233_c87fb7ae66_o.jpg",
    "id_image": "Beeeater_676172",
    "count_view": 0
  },
  {
    "link_thumb": "https://live.staticflickr.com/65535/50352627142_58a3976564_n.jpg",
    "id_album": "-462831703",
    "description": "Cat_365172",
    "title": "Cat_365172",
    "link_img": "https://live.staticflickr.com/65535/50352627142_2ab18df409_o.jpg",
    "id_image": "Cat_365172",
    "count_view": 0
  },
  {
    "link_thumb": "https://live.staticflickr.com/65535/50021304078_fdcd88f4ba_n.jpg",
    "id_album": "-1882491687",
    "description": "Ladybug_381411",
    "title": "Ladybug_381411",
    "link_img": "https://live.staticflickr.com/65535/50021304078_0b25155f64_o.jpg",
    "id_image": "Ladybug_381411",
    "count_view": 0
  },
  {
    "link_thumb": "https://live.staticflickr.com/65535/50018832658_aa5887972a_n.jpg",
    "id_album": "-462831703",
    "description": "Cat_873103",
    "title": "Cat_873103",
    "link_img": "https://live.staticflickr.com/65535/50018832658_b2f7d7847a_o.jpg",
    "id_image": "Cat_873103",
    "count_view": 0
  },
  {
    "link_thumb": "https://live.staticflickr.com/65535/50020528547_bf0810ef1a_n.jpg",
    "id_album": "-149330232",
    "description": "Dog_337346",
    "title": "Dog_337346",
    "link_img": "https://live.staticflickr.com/65535/50020528547_5bc54e59d6_o.jpg",
    "id_image": "Dog_337346",
    "count_view": 0
  },
  {
    "link_thumb": "https://live.staticflickr.com/65535/50022066492_58c42d41a2_n.jpg",
    "id_album": "770105808",
    "description": "Kingfisher_848894",
    "title": "Kingfisher_848894",
    "link_img": "https://live.staticflickr.com/65535/50022066492_12806bee3b_o.jpg",
    "id_image": "Kingfisher_848894",
    "count_view": 0
  },
  {
    "link_thumb": "https://live.staticflickr.com/65535/50020617608_5d3cfbf4f9_n.jpg",
    "id_album": "-462831704",
    "description": "Cat_672844",
    "title": "Cat_672844",
    "link_img": "https://live.staticflickr.com/65535/50020617608_b33bbc1c8a_o.jpg",
    "id_image": "Cat_672844",
    "count_view": 0
  },
  {
    "link_thumb": "https://live.staticflickr.com/65535/50017097106_09bfab305b_n.jpg",
    "id_album": "-422187261",
    "description": "Bear_888195",
    "title": "Bear_888195",
    "link_img": "https://live.staticflickr.com/65535/50017097106_7e53aae6ae_o.jpg",
    "id_image": "Bear_888195",
    "count_view": 0
  },
  {
    "link_thumb": "https://live.staticflickr.com/65535/50021054086_ef9ee8c821_n.jpg",
    "id_album": "844170697",
    "description": "Frog_288922",
    "title": "Frog_288922",
    "link_img": "https://live.staticflickr.com/65535/50021054086_c4569f4a96_o.jpg",
    "id_image": "Frog_288922",
    "count_view": 0
  },
  {
    "link_thumb": "https://live.staticflickr.com/65535/50020302516_3c23d409ac_n.jpg",
    "id_album": "-149330232",
    "description": "Dog_352577",
    "title": "Dog_352577",
    "link_img": "https://live.staticflickr.com/65535/50020302516_bb26cd7949_o.jpg",
    "id_image": "Dog_352577",
    "count_view": 0
  },
  {
    "link_thumb": "https://live.staticflickr.com/65535/50016641183_7a9d5eab2e_n.jpg",
    "id_album": "1699594607",
    "description": "Bee_926234",
    "title": "Bee_926234",
    "link_img": "https://live.staticflickr.com/65535/50016641183_6f2cc109f8_o.jpg",
    "id_image": "Bee_926234",
    "count_view": 0
  },
  {
    "link_thumb": "https://live.staticflickr.com/65535/50017378828_68fd090bc4_n.jpg",
    "id_album": "-462831705",
    "description": "Cat_252730",
    "title": "Cat_252730",
    "link_img": "https://live.staticflickr.com/65535/50017378828_51905364ee_o.jpg",
    "id_image": "Cat_252730",
    "count_view": 0
  },
  {
    "link_thumb": "https://live.staticflickr.com/65535/50021848017_c5333450a8_n.jpg",
    "id_album": "773713550",
    "description": "Hoverfly_105439",
    "title": "Hoverfly_105439",
    "link_img": "https://live.staticflickr.com/65535/50021848017_41aeb4506c_o.jpg",
    "id_image": "Hoverfly_105439",
    "count_view": 0
  },
  {
    "link_thumb": "https://live.staticflickr.com/65535/50022560821_b5baeb52e0_n.jpg",
    "id_album": "405592235",
    "description": "Parrot_336108",
    "title": "Parrot_336108",
    "link_img": "https://live.staticflickr.com/65535/50022560821_f905638a2a_o.jpg",
    "id_image": "Parrot_336108",
    "count_view": 0
  },
  {
    "link_thumb": "https://live.staticflickr.com/65535/50017191283_343621c948_n.jpg",
    "id_album": "-401151552",
    "description": "Butterfly_959377",
    "title": "Butterfly_959377",
    "link_img": "https://live.staticflickr.com/65535/50017191283_ff6bba750f_o.jpg",
    "id_image": "Butterfly_959377",
    "count_view": 0
  },
  {
    "link_thumb": "https://live.staticflickr.com/65535/50024775047_53438faf96_n.jpg",
    "id_album": "-709711865",
    "description": "Wolf_543005",
    "title": "Wolf_543005",
    "link_img": "https://live.staticflickr.com/65535/50024775047_d8a409d84a_o.jpg",
    "id_image": "Wolf_543005",
    "count_view": 0
  },
  {
    "link_thumb": "https://live.staticflickr.com/65535/50024394992_e506836d75_n.jpg",
    "id_album": "405170427",
    "description": "Tiger_438216",
    "title": "Tiger_438216",
    "link_img": "https://live.staticflickr.com/65535/50024394992_777ac6b343_o.jpg",
    "id_image": "Tiger_438216",
    "count_view": 0
  },
  {
    "link_thumb": "https://live.staticflickr.com/65535/50019149626_9b2af1704d_n.jpg",
    "id_album": "-462831702",
    "description": "Cat_416134",
    "title": "Cat_416134",
    "link_img": "https://live.staticflickr.com/65535/50019149626_ec209fdf67_o.jpg",
    "id_image": "Cat_416134",
    "count_view": 0
  },
  {
    "link_thumb": "https://live.staticflickr.com/65535/50023494817_93aed6c730_n.jpg",
    "id_album": "332874268",
    "description": "RedPanda_873627",
    "title": "RedPanda_873627",
    "link_img": "https://live.staticflickr.com/65535/50023494817_a63be11019_o.jpg",
    "id_image": "RedPanda_873627",
    "count_view": 0
  },
  {
    "link_thumb": "https://live.staticflickr.com/65535/50020661421_2a20a216cb_n.jpg",
    "id_album": "1168627767",
    "description": "Duck_44884",
    "title": "Duck_44884",
    "link_img": "https://live.staticflickr.com/65535/50020661421_b168f0bbbb_o.jpg",
    "id_image": "Duck_44884",
    "count_view": 0
  },
  {
    "link_thumb": "https://live.staticflickr.com/65535/50021253031_410898b264_n.jpg",
    "id_album": "-462831703",
    "description": "Cat_792894",
    "title": "Cat_792894",
    "link_img": "https://live.staticflickr.com/65535/50021253031_48e3c27a1a_o.jpg",
    "id_image": "Cat_792894",
    "count_view": 0
  },
  {
    "link_thumb": "https://live.staticflickr.com/65535/50023197948_00f10d5de8_n.jpg",
    "id_album": "-1082521515",
    "description": "Spider_390204",
    "title": "Spider_390204",
    "link_img": "https://live.staticflickr.com/65535/50023197948_544a5c99be_o.jpg",
    "id_image": "Spider_390204",
    "count_view": 0
  },
  {
    "link_thumb": "https://live.staticflickr.com/65535/50021860401_d2b6610216_n.jpg",
    "id_album": "-1882491687",
    "description": "Ladybug_700848",
    "title": "Ladybug_700848",
    "link_img": "https://live.staticflickr.com/65535/50021860401_42ab808bec_o.jpg",
    "id_image": "Ladybug_700848",
    "count_view": 0
  },
  {
    "link_thumb": "https://live.staticflickr.com/65535/50021625777_abc0dfed09_n.jpg",
    "id_album": "2060159334",
    "description": "GoldenRetriever_940906",
    "title": "GoldenRetriever_940906",
    "link_img": "https://live.staticflickr.com/65535/50021625777_3614490669_o.jpg",
    "id_image": "GoldenRetriever_940906",
    "count_view": 0
  },
  {
    "link_thumb": "https://live.staticflickr.com/65535/50021649496_159c4dd627_n.jpg",
    "id_album": "-737856092",
    "description": "Iguana_404827",
    "title": "Iguana_404827",
    "link_img": "https://live.staticflickr.com/65535/50021649496_e2a167f770_o.jpg",
    "id_image": "Iguana_404827",
    "count_view": 0
  },
  {
    "link_thumb": "https://live.staticflickr.com/65535/50021306737_1bd1e4eee9_n.jpg",
    "id_album": "844170697",
    "description": "Frog_281500",
    "title": "Frog_281500",
    "link_img": "https://live.staticflickr.com/65535/50021306737_03f05ed853_o.jpg",
    "id_image": "Frog_281500",
    "count_view": 0
  },
  {
    "link_thumb": "https://live.staticflickr.com/65535/50021228036_e4b09f6a4d_n.jpg",
    "id_album": "-462831703",
    "description": "Cat_749004",
    "title": "Cat_749004",
    "link_img": "https://live.staticflickr.com/65535/50021228036_3265753845_o.jpg",
    "id_image": "Cat_749004",
    "count_view": 0
  },
  {
    "link_thumb": "https://live.staticflickr.com/65535/50020165151_024f59bd4d_n.jpg",
    "id_album": "-149330232",
    "description": "Dog_231332",
    "title": "Dog_231332",
    "link_img": "https://live.staticflickr.com/65535/50020165151_ff55e27d69_o.jpg",
    "id_image": "Dog_231332",
    "count_view": 0
  },
  {
    "link_thumb": "https://live.staticflickr.com/65535/50020008748_6444ca5d5a_n.jpg",
    "id_album": "-149330231",
    "description": "Dog_905871",
    "title": "Dog_905871",
    "link_img": "https://live.staticflickr.com/65535/50020008748_67956b9575_o.jpg",
    "id_image": "Dog_905871",
    "count_view": 0
  },
  {
    "link_thumb": "https://live.staticflickr.com/65535/50016370438_80f900d539_n.jpg",
    "id_album": "523598895",
    "description": "Artistic_336541",
    "title": "Artistic_336541",
    "link_img": "https://live.staticflickr.com/65535/50016370438_851fb6c609_o.jpg",
    "id_image": "Artistic_336541",
    "count_view": 0
  },
  {
    "link_thumb": "https://live.staticflickr.com/65535/50023327692_cb5dffe4a4_n.jpg",
    "id_album": "-353898617",
    "description": "Puppy_918418",
    "title": "Puppy_918418",
    "link_img": "https://live.staticflickr.com/65535/50023327692_a8f9703a18_o.jpg",
    "id_image": "Puppy_918418",
    "count_view": 0
  },
  {
    "link_thumb": "https://live.staticflickr.com/65535/50021441178_87b724816e_n.jpg",
    "id_album": "416744915",
    "description": "Lion_267168",
    "title": "Lion_267168",
    "link_img": "https://live.staticflickr.com/65535/50021441178_953f9b91c3_o.jpg",
    "id_image": "Lion_267168",
    "count_view": 0
  },
  {
    "link_thumb": "https://live.staticflickr.com/65535/50020077598_f7bec95d33_n.jpg",
    "id_album": "-405058657",
    "description": "Dragonfly_335104",
    "title": "Dragonfly_335104",
    "link_img": "https://live.staticflickr.com/65535/50020077598_f3e5012f75_o.jpg",
    "id_image": "Dragonfly_335104",
    "count_view": 0
  },
  {
    "link_thumb": "https://live.staticflickr.com/65535/50021626137_1fba5ebccd_n.jpg",
    "id_album": "2060159334",
    "description": "GoldenRetriever_942500",
    "title": "GoldenRetriever_942500",
    "link_img": "https://live.staticflickr.com/65535/50021626137_e36779d37e_o.jpg",
    "id_image": "GoldenRetriever_942500",
    "count_view": 0
  },
  {
    "link_thumb": "https://live.staticflickr.com/65535/50019351608_e4171a5347_n.jpg",
    "id_album": "815329026",
    "description": "Crab_585776",
    "title": "Crab_585776",
    "link_img": "https://live.staticflickr.com/65535/50019351608_3f7ec4cb87_o.jpg",
    "id_image": "Crab_585776",
    "count_view": 0
  },
  {
    "link_thumb": "https://live.staticflickr.com/65535/50017206481_52f0c4918b_n.jpg",
    "id_album": "-1846011410",
    "description": "Bird_190928",
    "title": "Bird_190928",
    "link_img": "https://live.staticflickr.com/65535/50017206481_d34e9733c0_o.jpg",
    "id_image": "Bird_190928",
    "count_view": 0
  },
  {
    "link_thumb": "https://live.staticflickr.com/65535/50019573737_03671b845d_n.jpg",
    "id_album": "-462831703",
    "description": "Cat_846805",
    "title": "Cat_846805",
    "link_img": "https://live.staticflickr.com/65535/50019573737_cff98cbbea_o.jpg",
    "id_image": "Cat_846805",
    "count_view": 0
  },
  {
    "link_thumb": "https://live.staticflickr.com/65535/50017558661_74a0b70d17_n.jpg",
    "id_album": "-401151552",
    "description": "Butterfly_304213",
    "title": "Butterfly_304213",
    "link_img": "https://live.staticflickr.com/65535/50017558661_cd43cb79e2_o.jpg",
    "id_image": "Butterfly_304213",
    "count_view": 0
  },
  {
    "link_thumb": "https://live.staticflickr.com/65535/50022143822_1fdfba7860_n.jpg",
    "id_album": "1392348450",
    "description": "Leopard_209926",
    "title": "Leopard_209926",
    "link_img": "https://live.staticflickr.com/65535/50022143822_7bc24cde82_o.jpg",
    "id_image": "Leopard_209926",
    "count_view": 0
  },
  {
    "link_thumb": "https://live.staticflickr.com/65535/50019607867_4749bcb34a_n.jpg",
    "id_album": "-462831703",
    "description": "Cat_867388",
    "title": "Cat_867388",
    "link_img": "https://live.staticflickr.com/65535/50019607867_11b0694eed_o.jpg",
    "id_image": "Cat_867388",
    "count_view": 0
  },
  {
    "link_thumb": "https://live.staticflickr.com/65535/50020252102_64618c3249_n.jpg",
    "id_album": "1903411565",
    "description": "Deer_346082",
    "title": "Deer_346082",
    "link_img": "https://live.staticflickr.com/65535/50020252102_98a2502875_o.jpg",
    "id_image": "Deer_346082",
    "count_view": 0
  },
  {
    "link_thumb": "https://live.staticflickr.com/65535/50023095146_81d2d96b58_n.jpg",
    "id_album": "-1940643173",
    "description": "Rabbit_285255",
    "title": "Rabbit_285255",
    "link_img": "https://live.staticflickr.com/65535/50023095146_78646af42b_o.jpg",
    "id_image": "Rabbit_285255",
    "count_view": 0
  },
  {
    "link_thumb": "https://live.staticflickr.com/65535/50022615548_b3fc58e091_n.jpg",
    "id_album": "248289288",
    "description": "Raccoon_656654",
    "title": "Raccoon_656654",
    "link_img": "https://live.staticflickr.com/65535/50022615548_390a674f4e_o.jpg",
    "id_image": "Raccoon_656654",
    "count_view": 0
  },
  {
    "link_thumb": "https://live.staticflickr.com/65535/50020811472_4440159642_n.jpg",
    "id_album": "-149330231",
    "description": "Dog_983464",
    "title": "Dog_983464",
    "link_img": "https://live.staticflickr.com/65535/50020811472_d157f58849_o.jpg",
    "id_image": "Dog_983464",
    "count_view": 0
  },
  {
    "link_thumb": "https://live.staticflickr.com/65535/50021666987_073c610bdb_n.jpg",
    "id_album": "109779448",
    "description": "Hare_407629",
    "title": "Hare_407629",
    "link_img": "https://live.staticflickr.com/65535/50021666987_4aba2f4840_o.jpg",
    "id_image": "Hare_407629",
    "count_view": 0
  },
  {
    "link_thumb": "https://live.staticflickr.com/65535/50023464543_85ca5f41b3_n.jpg",
    "id_album": "1579675410",
    "description": "Swan_543068",
    "title": "Swan_543068",
    "link_img": "https://live.staticflickr.com/65535/50023464543_98f5dfe79b_o.jpg",
    "id_image": "Swan_543068",
    "count_view": 0
  },
  {
    "link_thumb": "https://live.staticflickr.com/65535/50021670232_9178e36d7c_n.jpg",
    "id_album": "109779448",
    "description": "Hare_914954",
    "title": "Hare_914954",
    "link_img": "https://live.staticflickr.com/65535/50021670232_f9c106eb83_o.jpg",
    "id_image": "Hare_914954",
    "count_view": 0
  },
  {
    "link_thumb": "https://live.staticflickr.com/65535/50019198663_f61e5923f0_n.jpg",
    "id_album": "-1481843714",
    "description": "Cheetah_769962",
    "title": "Cheetah_769962",
    "link_img": "https://live.staticflickr.com/65535/50019198663_178c13face_o.jpg",
    "id_image": "Cheetah_769962",
    "count_view": 0
  },
  {
    "link_thumb": "https://live.staticflickr.com/65535/50021196727_8993f90524_n.jpg",
    "id_album": "-128218148",
    "description": "Fox_301463",
    "title": "Fox_301463",
    "link_img": "https://live.staticflickr.com/65535/50021196727_aeb4e42a19_o.jpg",
    "id_image": "Fox_301463",
    "count_view": 0
  },
  {
    "link_thumb": "https://live.staticflickr.com/65535/50017476078_ce199be540_n.jpg",
    "id_album": "-462831702",
    "description": "Cat_336585",
    "title": "Cat_336585",
    "link_img": "https://live.staticflickr.com/65535/50017476078_1f1e528f9e_o.jpg",
    "id_image": "Cat_336585",
    "count_view": 0
  },
  {
    "link_thumb": "https://live.staticflickr.com/65535/50024281172_802d676f04_n.jpg",
    "id_album": "405170427",
    "description": "Tiger_1001130",
    "title": "Tiger_1001130",
    "link_img": "https://live.staticflickr.com/65535/50024281172_29d7d199ec_o.jpg",
    "id_image": "Tiger_1001130",
    "count_view": 0
  },
  {
    "link_thumb": "https://live.staticflickr.com/65535/50023705438_c9be596d1a_n.jpg",
    "id_album": "405170427",
    "description": "Tiger_949110",
    "title": "Tiger_949110",
    "link_img": "https://live.staticflickr.com/65535/50023705438_e6a160d7fd_o.jpg",
    "id_image": "Tiger_949110",
    "count_view": 0
  },
  {
    "link_thumb": "https://live.staticflickr.com/65535/50017160361_46a08fd627_n.jpg",
    "id_album": "1699594607",
    "description": "Bee_782593",
    "title": "Bee_782593",
    "link_img": "https://live.staticflickr.com/65535/50017160361_68731095f7_o.jpg",
    "id_image": "Bee_782593",
    "count_view": 0
  },
  {
    "link_thumb": "https://live.staticflickr.com/65535/50020953467_e751e2c23b_n.jpg",
    "id_album": "-39098563",
    "description": "Eagle_356419",
    "title": "Eagle_356419",
    "link_img": "https://live.staticflickr.com/65535/50020953467_eb8255c5ed_o.jpg",
    "id_image": "Eagle_356419",
    "count_view": 0
  },
  {
    "link_thumb": "https://live.staticflickr.com/65535/50021344216_05432b48be_n.jpg",
    "id_album": "-804131074",
    "description": "Goat_743356",
    "title": "Goat_743356",
    "link_img": "https://live.staticflickr.com/65535/50021344216_8f55177054_o.jpg",
    "id_image": "Goat_743356",
    "count_view": 0
  },
  {
    "link_thumb": "https://live.staticflickr.com/65535/50016868556_73170f3709_n.jpg",
    "id_album": "523598895",
    "description": "Artistic_119729",
    "title": "Artistic_119729",
    "link_img": "https://live.staticflickr.com/65535/50016868556_895dc1fba2_o.jpg",
    "id_image": "Artistic_119729",
    "count_view": 0
  },
  {
    "link_thumb": "https://live.staticflickr.com/65535/50017545611_b7cd36e38d_n.jpg",
    "id_album": "-401151552",
    "description": "Butterfly_219442",
    "title": "Butterfly_219442",
    "link_img": "https://live.staticflickr.com/65535/50017545611_eccb2690e6_o.jpg",
    "id_image": "Butterfly_219442",
    "count_view": 0
  },
  {
    "link_thumb": "https://live.staticflickr.com/65535/50020728678_e3d3886083_n.jpg",
    "id_album": "-462831703",
    "description": "Cat_831688",
    "title": "Cat_831688",
    "link_img": "https://live.staticflickr.com/65535/50020728678_2faf46aa7e_o.jpg",
    "id_image": "Cat_831688",
    "count_view": 0
  },
  {
    "link_thumb": "https://live.staticflickr.com/65535/50018284372_f5ec3ea2c4_n.jpg",
    "id_album": "-462831702",
    "description": "Cat_346905",
    "title": "Cat_346905",
    "link_img": "https://live.staticflickr.com/65535/50018284372_74621e6d50_o.jpg",
    "id_image": "Cat_346905",
    "count_view": 0
  },
  {
    "link_thumb": "https://live.staticflickr.com/65535/50023598067_a57fb36bb6_n.jpg",
    "id_album": "-419757464",
    "description": "SeaLife_290836",
    "title": "SeaLife_290836",
    "link_img": "https://live.staticflickr.com/65535/50023598067_6032d69843_o.jpg",
    "id_image": "SeaLife_290836",
    "count_view": 0
  },
  {
    "link_thumb": "https://live.staticflickr.com/65535/50021804833_195a7699b8_n.jpg",
    "id_album": "588679857",
    "description": "Orangutan_110649",
    "title": "Orangutan_110649",
    "link_img": "https://live.staticflickr.com/65535/50021804833_90fb268ed4_o.jpg",
    "id_image": "Orangutan_110649",
    "count_view": 0
  },
  {
    "link_thumb": "https://live.staticflickr.com/65535/50023608312_90ffbf756d_n.jpg",
    "id_album": "1656131695",
    "description": "Seagull_285580",
    "title": "Seagull_285580",
    "link_img": "https://live.staticflickr.com/65535/50023608312_10c3777e24_o.jpg",
    "id_image": "Seagull_285580",
    "count_view": 0
  },
  {
    "link_thumb": "https://live.staticflickr.com/65535/50023352732_b604941454_n.jpg",
    "id_album": "-1940643173",
    "description": "Rabbit_295938",
    "title": "Rabbit_295938",
    "link_img": "https://live.staticflickr.com/65535/50023352732_a3ea95d628_o.jpg",
    "id_image": "Rabbit_295938",
    "count_view": 0
  },
  {
    "link_thumb": "https://live.staticflickr.com/65535/50016633223_c7faae274c_n.jpg",
    "id_album": "1699594607",
    "description": "Bee_753402",
    "title": "Bee_753402",
    "link_img": "https://live.staticflickr.com/65535/50016633223_f6612b57f1_o.jpg",
    "id_image": "Bee_753402",
    "count_view": 0
  },
  {
    "link_thumb": "https://live.staticflickr.com/65535/50022104012_5fc3dbab44_n.jpg",
    "id_album": "-1882491687",
    "description": "Ladybug_402365",
    "title": "Ladybug_402365",
    "link_img": "https://live.staticflickr.com/65535/50022104012_f7fd0b6956_o.jpg",
    "id_image": "Ladybug_402365",
    "count_view": 0
  },
  {
    "link_thumb": "https://live.staticflickr.com/65535/50019958977_45194ccef9_n.jpg",
    "id_album": "-1481843714",
    "description": "Cheetah_397147",
    "title": "Cheetah_397147",
    "link_img": "https://live.staticflickr.com/65535/50019958977_837f6f6c13_o.jpg",
    "id_image": "Cheetah_397147",
    "count_view": 0
  },
  {
    "link_thumb": "https://live.staticflickr.com/65535/50021976996_2897190464_n.jpg",
    "id_album": "416744915",
    "description": "Lion_240059",
    "title": "Lion_240059",
    "link_img": "https://live.staticflickr.com/65535/50021976996_8b56be9c2a_o.jpg",
    "id_image": "Lion_240059",
    "count_view": 0
  },
  {
    "link_thumb": "https://live.staticflickr.com/65535/50018974733_4c4b751482_n.jpg",
    "id_album": "-462831705",
    "description": "Cat_94351",
    "title": "Cat_94351",
    "link_img": "https://live.staticflickr.com/65535/50018974733_c7f99f083d_o.jpg",
    "id_image": "Cat_94351",
    "count_view": 0
  },
  {
    "link_thumb": "https://live.staticflickr.com/65535/50020997701_76ff4ed948_n.jpg",
    "id_album": "-128218148",
    "description": "Fox_741833",
    "title": "Fox_741833",
    "link_img": "https://live.staticflickr.com/65535/50020997701_01707ff0d4_o.jpg",
    "id_image": "Fox_741833",
    "count_view": 0
  },
  {
    "link_thumb": "https://live.staticflickr.com/65535/50021268591_04ef4ea219_n.jpg",
    "id_album": "-462831703",
    "description": "Cat_830101",
    "title": "Cat_830101",
    "link_img": "https://live.staticflickr.com/65535/50021268591_03920af90e_o.jpg",
    "id_image": "Cat_830101",
    "count_view": 0
  },
  {
    "link_thumb": "https://live.staticflickr.com/65535/50017724986_1667d11a45_n.jpg",
    "id_album": "-1131161368",
    "description": "Camel_353354",
    "title": "Camel_353354",
    "link_img": "https://live.staticflickr.com/65535/50017724986_f85ddfccfc_o.jpg",
    "id_image": "Camel_353354",
    "count_view": 0
  },
  {
    "link_thumb": "https://live.staticflickr.com/65535/50016831971_907ebc5047_n.jpg",
    "id_album": "-1741290715",
    "description": "Ant_375287",
    "title": "Ant_375287",
    "link_img": "https://live.staticflickr.com/65535/50016831971_f9f16880e6_o.jpg",
    "id_image": "Ant_375287",
    "count_view": 0
  },
  {
    "link_thumb": "https://live.staticflickr.com/65535/50021519242_2caa23a29f_n.jpg",
    "id_album": "-462831703",
    "description": "Cat_821877",
    "title": "Cat_821877",
    "link_img": "https://live.staticflickr.com/65535/50021519242_b0679cd0f5_o.jpg",
    "id_image": "Cat_821877",
    "count_view": 0
  },
  {
    "link_thumb": "https://live.staticflickr.com/65535/50018168497_9cafcd3da2_n.jpg",
    "id_album": "-462831705",
    "description": "Cat_255598",
    "title": "Cat_255598",
    "link_img": "https://live.staticflickr.com/65535/50018168497_3bcd218765_o.jpg",
    "id_image": "Cat_255598",
    "count_view": 0
  },
  {
    "link_thumb": "https://live.staticflickr.com/65535/50020795263_d2c1a07018_n.jpg",
    "id_album": "713572662",
    "description": "Giraffe_993386",
    "title": "Giraffe_993386",
    "link_img": "https://live.staticflickr.com/65535/50020795263_e41ed0f3a1_o.jpg",
    "id_image": "Giraffe_993386",
    "count_view": 0
  },
  {
    "link_thumb": "https://live.staticflickr.com/65535/50023410443_0d542b56ab_n.jpg",
    "id_album": "702283289",
    "description": "Squirrel_873080",
    "title": "Squirrel_873080",
    "link_img": "https://live.staticflickr.com/65535/50023410443_a950e43f51_o.jpg",
    "id_image": "Squirrel_873080",
    "count_view": 0
  },
  {
    "link_thumb": "https://live.staticflickr.com/65535/50022506313_970eb188ce_n.jpg",
    "id_album": "-353898617",
    "description": "Puppy_678460",
    "title": "Puppy_678460",
    "link_img": "https://live.staticflickr.com/65535/50022506313_3e867f8581_o.jpg",
    "id_image": "Puppy_678460",
    "count_view": 0
  },
  {
    "link_thumb": "https://live.staticflickr.com/65535/50020639441_f26f3fb746_n.jpg",
    "id_album": "-405058657",
    "description": "Dragonfly_770007",
    "title": "Dragonfly_770007",
    "link_img": "https://live.staticflickr.com/65535/50020639441_b6634f08d7_o.jpg",
    "id_image": "Dragonfly_770007",
    "count_view": 0
  },
  {
    "link_thumb": "https://live.staticflickr.com/65535/50351993923_3b939712be_n.jpg",
    "id_album": "-462831702",
    "description": "Cat_148040",
    "title": "Cat_148040",
    "link_img": "https://live.staticflickr.com/65535/50351993923_316727d557_o.jpg",
    "id_image": "Cat_148040",
    "count_view": 0
  },
  {
    "link_thumb": "https://live.staticflickr.com/65535/50020577382_237d3f94a9_n.jpg",
    "id_album": "-149330232",
    "description": "Dog_361636",
    "title": "Dog_361636",
    "link_img": "https://live.staticflickr.com/65535/50020577382_9697ea6bf9_o.jpg",
    "id_image": "Dog_361636",
    "count_view": 0
  },
  {
    "link_thumb": "https://live.staticflickr.com/65535/50021266427_2117ca2a42_n.jpg",
    "id_album": "-128218148",
    "description": "Fox_848305",
    "title": "Fox_848305",
    "link_img": "https://live.staticflickr.com/65535/50021266427_4ee2856a30_o.jpg",
    "id_image": "Fox_848305",
    "count_view": 0
  },
  {
    "link_thumb": "https://live.staticflickr.com/65535/50020166347_f553ef7e88_n.jpg",
    "id_album": "-392100404",
    "description": "Crow_561721",
    "title": "Crow_561721",
    "link_img": "https://live.staticflickr.com/65535/50020166347_7e1f34a256_o.jpg",
    "id_image": "Crow_561721",
    "count_view": 0
  },
  {
    "link_thumb": "https://live.staticflickr.com/65535/50020618287_093baf5c52_n.jpg",
    "id_album": "-149330231",
    "description": "Dog_382728",
    "title": "Dog_382728",
    "link_img": "https://live.staticflickr.com/65535/50020618287_7a172577bf_o.jpg",
    "id_image": "Dog_382728",
    "count_view": 0
  },
  {
    "link_thumb": "https://live.staticflickr.com/65535/50024470197_6dc648d14d_n.jpg",
    "id_album": "405170427",
    "description": "Tiger_775603",
    "title": "Tiger_775603",
    "link_img": "https://live.staticflickr.com/65535/50024470197_2be6ba2d8d_o.jpg",
    "id_image": "Tiger_775603",
    "count_view": 0
  },
  {
    "link_thumb": "https://live.staticflickr.com/65535/50019164998_0a2f9e7169_n.jpg",
    "id_album": "-1481843714",
    "description": "Cheetah_351454",
    "title": "Cheetah_351454",
    "link_img": "https://live.staticflickr.com/65535/50019164998_3cf11216f5_o.jpg",
    "id_image": "Cheetah_351454",
    "count_view": 0
  },
  {
    "link_thumb": "https://live.staticflickr.com/65535/50023042308_f8ed75ce43_n.jpg",
    "id_album": "-1182356179",
    "description": "Snake_40911",
    "title": "Snake_40911",
    "link_img": "https://live.staticflickr.com/65535/50023042308_25b800e4f7_o.jpg",
    "id_image": "Snake_40911",
    "count_view": 0
  },
  {
    "link_thumb": "https://live.staticflickr.com/65535/50022297822_0da23fd26e_n.jpg",
    "id_album": "416744915",
    "description": "Lion_669406",
    "title": "Lion_669406",
    "link_img": "https://live.staticflickr.com/65535/50022297822_becda79793_o.jpg",
    "id_image": "Lion_669406",
    "count_view": 0
  },
  {
    "link_thumb": "https://live.staticflickr.com/65535/50022143752_97f56d8a53_n.jpg",
    "id_album": "1392348450",
    "description": "Leopard_209923",
    "title": "Leopard_209923",
    "link_img": "https://live.staticflickr.com/65535/50022143752_90cd3b2ed0_o.jpg",
    "id_image": "Leopard_209923",
    "count_view": 0
  },
  {
    "link_thumb": "https://live.staticflickr.com/65535/50017902211_30182d2eb8_n.jpg",
    "id_album": "-462831705",
    "description": "Cat_247316",
    "title": "Cat_247316",
    "link_img": "https://live.staticflickr.com/65535/50017902211_dd8976e066_o.jpg",
    "id_image": "Cat_247316",
    "count_view": 0
  },
  {
    "link_thumb": "https://live.staticflickr.com/65535/50018102341_654b7f1ec9_n.jpg",
    "id_album": "-462831702",
    "description": "Cat_377258",
    "title": "Cat_377258",
    "link_img": "https://live.staticflickr.com/65535/50018102341_3012e8898c_o.jpg",
    "id_image": "Cat_377258",
    "count_view": 0
  },
  {
    "link_thumb": "https://live.staticflickr.com/65535/50019680101_f3b21b0510_n.jpg",
    "id_album": "-1481843714",
    "description": "Cheetah_208081",
    "title": "Cheetah_208081",
    "link_img": "https://live.staticflickr.com/65535/50019680101_e555f96e6f_o.jpg",
    "id_image": "Cheetah_208081",
    "count_view": 0
  },
  {
    "link_thumb": "https://live.staticflickr.com/65535/50018144911_10e41ec605_n.jpg",
    "id_album": "-462831702",
    "description": "Cat_404685",
    "title": "Cat_404685",
    "link_img": "https://live.staticflickr.com/65535/50018144911_265b8a7d08_o.jpg",
    "id_image": "Cat_404685",
    "count_view": 0
  },
  {
    "link_thumb": "https://live.staticflickr.com/65535/50019344398_73d50909af_n.jpg",
    "id_album": "815329026",
    "description": "Crab_276157",
    "title": "Crab_276157",
    "link_img": "https://live.staticflickr.com/65535/50019344398_954d80b1e8_o.jpg",
    "id_image": "Crab_276157",
    "count_view": 0
  },
  {
    "link_thumb": "https://live.staticflickr.com/65535/50017917217_d5891c78cd_n.jpg",
    "id_album": "-401151552",
    "description": "Butterfly_728899",
    "title": "Butterfly_728899",
    "link_img": "https://live.staticflickr.com/65535/50017917217_74f27de045_o.jpg",
    "id_image": "Butterfly_728899",
    "count_view": 0
  },
  {
    "link_thumb": "https://live.staticflickr.com/65535/50351868193_94d1592ed3_n.jpg",
    "id_album": "-462831703",
    "description": "Cat_494096",
    "title": "Cat_494096",
    "link_img": "https://live.staticflickr.com/65535/50351868193_ea15fd5f84_o.jpg",
    "id_image": "Cat_494096",
    "count_view": 0
  },
  {
    "link_thumb": "https://live.staticflickr.com/65535/50017650486_4e7823cb40_n.jpg",
    "id_album": "-401151552",
    "description": "Butterfly_706325",
    "title": "Butterfly_706325",
    "link_img": "https://live.staticflickr.com/65535/50017650486_acd24a80c0_o.jpg",
    "id_image": "Butterfly_706325",
    "count_view": 0
  },
  {
    "link_thumb": "https://live.staticflickr.com/65535/50021488867_7bc401f7fb_n.jpg",
    "id_album": "-462831703",
    "description": "Cat_772569",
    "title": "Cat_772569",
    "link_img": "https://live.staticflickr.com/65535/50021488867_a0480c834a_o.jpg",
    "id_image": "Cat_772569",
    "count_view": 0
  },
  {
    "link_thumb": "https://live.staticflickr.com/65535/50016374508_93d8017341_n.jpg",
    "id_album": "523598895",
    "description": "Artistic_378245",
    "title": "Artistic_378245",
    "link_img": "https://live.staticflickr.com/65535/50016374508_646b8e8697_o.jpg",
    "id_image": "Artistic_378245",
    "count_view": 0
  },
  {
    "link_thumb": "https://live.staticflickr.com/65535/50019034833_19b7145917_n.jpg",
    "id_album": "-462831703",
    "description": "Cat_992979",
    "title": "Cat_992979",
    "link_img": "https://live.staticflickr.com/65535/50019034833_96d37a5dc8_o.jpg",
    "id_image": "Cat_992979",
    "count_view": 0
  },
  {
    "link_thumb": "https://live.staticflickr.com/65535/50017527961_a1120da289_n.jpg",
    "id_album": "368532157",
    "description": "Bulldog_693126",
    "title": "Bulldog_693126",
    "link_img": "https://live.staticflickr.com/65535/50017527961_42ef43bd14_o.jpg",
    "id_image": "Bulldog_693126",
    "count_view": 0
  },
  {
    "link_thumb": "https://live.staticflickr.com/65535/50020827313_2a1f4c5ab3_n.jpg",
    "id_album": "2060159334",
    "description": "GoldenRetriever_916071",
    "title": "GoldenRetriever_916071",
    "link_img": "https://live.staticflickr.com/65535/50020827313_0a63801dd2_o.jpg",
    "id_image": "GoldenRetriever_916071",
    "count_view": 0
  },
  {
    "link_thumb": "https://live.staticflickr.com/65535/50017302892_573c10b69e_n.jpg",
    "id_album": "-422187261",
    "description": "Bear_405710",
    "title": "Bear_405710",
    "link_img": "https://live.staticflickr.com/65535/50017302892_c8de007983_o.jpg",
    "id_image": "Bear_405710",
    "count_view": 0
  },
  {
    "link_thumb": "https://live.staticflickr.com/65535/50016776548_7dbedb53c1_n.jpg",
    "id_album": "-1846011410",
    "description": "Bird_397499",
    "title": "Bird_397499",
    "link_img": "https://live.staticflickr.com/65535/50016776548_a8f406dce2_o.jpg",
    "id_image": "Bird_397499",
    "count_view": 0
  },
  {
    "link_thumb": "https://live.staticflickr.com/65535/50021747042_b0932ea9fc_n.jpg",
    "id_album": "-1933715543",
    "description": "Horse_344818",
    "title": "Horse_344818",
    "link_img": "https://live.staticflickr.com/65535/50021747042_2b335e9f8b_o.jpg",
    "id_image": "Horse_344818",
    "count_view": 0
  },
  {
    "link_thumb": "https://live.staticflickr.com/65535/50021386397_4f1d0b17c3_n.jpg",
    "id_album": "-462831704",
    "description": "Cat_593671",
    "title": "Cat_593671",
    "link_img": "https://live.staticflickr.com/65535/50021386397_09c8d1ea38_o.jpg",
    "id_image": "Cat_593671",
    "count_view": 0
  },
  {
    "link_thumb": "https://live.staticflickr.com/65535/50352451001_657417be95_n.jpg",
    "id_album": "-462831703",
    "description": "Cat_274881",
    "title": "Cat_274881",
    "link_img": "https://live.staticflickr.com/65535/50352451001_8dfbe0d7d6_o.jpg",
    "id_image": "Cat_274881",
    "count_view": 0
  },
  {
    "link_thumb": "https://live.staticflickr.com/65535/50352591566_3375586e5c_n.jpg",
    "id_album": "-462831703",
    "description": "Cat_530604",
    "title": "Cat_530604",
    "link_img": "https://live.staticflickr.com/65535/50352591566_d5f97505a6_o.jpg",
    "id_image": "Cat_530604",
    "count_view": 0
  },
  {
    "link_thumb": "https://live.staticflickr.com/65535/50022005066_a041bf0349_n.jpg",
    "id_album": "416744915",
    "description": "Lion_384597",
    "title": "Lion_384597",
    "link_img": "https://live.staticflickr.com/65535/50022005066_047cdb24d2_o.jpg",
    "id_image": "Lion_384597",
    "count_view": 0
  },
  {
    "link_thumb": "https://live.staticflickr.com/65535/50023547861_fbb8f8345d_n.jpg",
    "id_album": "-800019164",
    "description": "Snail_870967",
    "title": "Snail_870967",
    "link_img": "https://live.staticflickr.com/65535/50023547861_6638181bc8_o.jpg",
    "id_image": "Snail_870967",
    "count_view": 0
  },
  {
    "link_thumb": "https://live.staticflickr.com/65535/50020317087_3cb723ed69_n.jpg",
    "id_album": "1903411565",
    "description": "Deer_86894",
    "title": "Deer_86894",
    "link_img": "https://live.staticflickr.com/65535/50020317087_196ca6fdbe_o.jpg",
    "id_image": "Deer_86894",
    "count_view": 0
  },
  {
    "link_thumb": "https://live.staticflickr.com/65535/50017357148_40079c6acb_n.jpg",
    "id_album": "-462831705",
    "description": "Cat_236364",
    "title": "Cat_236364",
    "link_img": "https://live.staticflickr.com/65535/50017357148_e5764c90e6_o.jpg",
    "id_image": "Cat_236364",
    "count_view": 0
  },
  {
    "link_thumb": "https://live.staticflickr.com/65535/50017650896_02a156093a_n.jpg",
    "id_album": "-401151552",
    "description": "Butterfly_707141",
    "title": "Butterfly_707141",
    "link_img": "https://live.staticflickr.com/65535/50017650896_ffa9ac28d2_o.jpg",
    "id_image": "Butterfly_707141",
    "count_view": 0
  },
  {
    "link_thumb": "https://live.staticflickr.com/65535/50024084431_0776a463f1_n.jpg",
    "id_album": "405170427",
    "description": "Tiger_364907",
    "title": "Tiger_364907",
    "link_img": "https://live.staticflickr.com/65535/50024084431_17e5d504c9_o.jpg",
    "id_image": "Tiger_364907",
    "count_view": 0
  },
  {
    "link_thumb": "https://live.staticflickr.com/65535/50022632542_0e19f8780d_n.jpg",
    "id_album": "106807275",
    "description": "Otter_896698",
    "title": "Otter_896698",
    "link_img": "https://live.staticflickr.com/65535/50022632542_733a58b220_o.jpg",
    "id_image": "Otter_896698",
    "count_view": 0
  },
  {
    "link_thumb": "https://live.staticflickr.com/65535/50020372746_8ced59a82f_n.jpg",
    "id_album": "-149330231",
    "description": "Dog_396324",
    "title": "Dog_396324",
    "link_img": "https://live.staticflickr.com/65535/50020372746_804cef868b_o.jpg",
    "id_image": "Dog_396324",
    "count_view": 0
  },
  {
    "link_thumb": "https://live.staticflickr.com/65535/50021921852_5011b2bb7a_n.jpg",
    "id_album": "1658866795",
    "description": "Insect_391728",
    "title": "Insect_391728",
    "link_img": "https://live.staticflickr.com/65535/50021921852_d88f88bb97_o.jpg",
    "id_image": "Insect_391728",
    "count_view": 0
  },
  {
    "link_thumb": "https://live.staticflickr.com/65535/50018418892_507d1accaf_n.jpg",
    "id_album": "-462831702",
    "description": "Cat_409497",
    "title": "Cat_409497",
    "link_img": "https://live.staticflickr.com/65535/50018418892_401b3502fb_o.jpg",
    "id_image": "Cat_409497",
    "count_view": 0
  },
  {
    "link_thumb": "https://live.staticflickr.com/65535/50021842076_cb767ef228_n.jpg",
    "id_album": "-1882491687",
    "description": "Ladybug_269333",
    "title": "Ladybug_269333",
    "link_img": "https://live.staticflickr.com/65535/50021842076_5b4218bf7d_o.jpg",
    "id_image": "Ladybug_269333",
    "count_view": 0
  },
  {
    "link_thumb": "https://live.staticflickr.com/65535/50022528357_9379a18404_n.jpg",
    "id_album": "-817970387",
    "description": "Moose_366778",
    "title": "Moose_366778",
    "link_img": "https://live.staticflickr.com/65535/50022528357_e1550358e9_o.jpg",
    "id_image": "Moose_366778",
    "count_view": 0
  },
  {
    "link_thumb": "https://live.staticflickr.com/65535/50023635951_1ed7d506fa_n.jpg",
    "id_album": "-1131363127",
    "description": "SnowLeopard_371003",
    "title": "SnowLeopard_371003",
    "link_img": "https://live.staticflickr.com/65535/50023635951_d0f0b17dcf_o.jpg",
    "id_image": "SnowLeopard_371003",
    "count_view": 0
  },
  {
    "link_thumb": "https://live.staticflickr.com/65535/50017381758_42ae8ed9f1_n.jpg",
    "id_album": "-462831705",
    "description": "Cat_255982",
    "title": "Cat_255982",
    "link_img": "https://live.staticflickr.com/65535/50017381758_bcc94e24fd_o.jpg",
    "id_image": "Cat_255982",
    "count_view": 0
  },
  {
    "link_thumb": "https://live.staticflickr.com/65535/50020515716_7602ab8225_n.jpg",
    "id_album": "-149330231",
    "description": "Dog_799202",
    "title": "Dog_799202",
    "link_img": "https://live.staticflickr.com/65535/50020515716_9a0c1161f6_o.jpg",
    "id_image": "Dog_799202",
    "count_view": 0
  },
  {
    "link_thumb": "https://live.staticflickr.com/65535/50019222781_9e4f21a752_n.jpg",
    "id_album": "-462831704",
    "description": "Cat_453880",
    "title": "Cat_453880",
    "link_img": "https://live.staticflickr.com/65535/50019222781_3b7cce38af_o.jpg",
    "id_image": "Cat_453880",
    "count_view": 0
  },
  {
    "link_thumb": "https://live.staticflickr.com/65535/50022857428_4d09c5a034_n.jpg",
    "id_album": "1961094930",
    "description": "Seal_276152",
    "title": "Seal_276152",
    "link_img": "https://live.staticflickr.com/65535/50022857428_51e7d6383b_o.jpg",
    "id_image": "Seal_276152",
    "count_view": 0
  }
]