[
  {
    "link_thumb": "https://live.staticflickr.com/65535/50018038787_d33cea3a28_n.jpg",
    "id_album": "-462831705",
    "description": "Cat_125504",
    "title": "Cat_125504",
    "link_img": "https://live.staticflickr.com/65535/50018038787_fe33b3cc42_o.jpg",
    "id_image": "Cat_125504",
    "count_view": 0
  },
  {
    "link_thumb": "https://live.staticflickr.com/65535/50017250868_8d83c00e50_n.jpg",
    "id_album": "-462831705",
    "description": "Cat_125663",
    "title": "Cat_125663",
    "link_img": "https://live.staticflickr.com/65535/50017250868_8fb3a3d8b4_o.jpg",
    "id_image": "Cat_125663",
    "count_view": 0
  },
  {
    "link_thumb": "https://live.staticflickr.com/65535/50017778756_77edd26eda_n.jpg",
    "id_album": "-462831705",
    "description": "Cat_129215",
    "title": "Cat_129215",
    "link_img": "https://live.staticflickr.com/65535/50017778756_5b22be5689_o.jpg",
    "id_image": "Cat_129215",
    "count_view": 0
  },
  {
    "link_thumb": "https://live.staticflickr.com/65535/50017251568_b7be8dd316_n.jpg",
    "id_album": "-462831705",
    "description": "Cat_131348",
    "title": "Cat_131348",
    "link_img": "https://live.staticflickr.com/65535/50017251568_5cf5454d16_o.jpg",
    "id_image": "Cat_131348",
    "count_view": 0
  },
  {
    "link_thumb": "https://live.staticflickr.com/65535/50018039932_ff310f8a0c_n.jpg",
    "id_album": "-462831705",
    "description": "Cat_13353",
    "title": "Cat_13353",
    "link_img": "https://live.staticflickr.com/65535/50018039932_0ac9754461_o.jpg",
    "id_image": "Cat_13353",
    "count_view": 0
  },
  {
    "link_thumb": "https://live.staticflickr.com/65535/50018040197_8fc6b441ff_n.jpg",
    "id_album": "-462831705",
    "description": "Cat_13359",
    "title": "Cat_13359",
    "link_img": "https://live.staticflickr.com/65535/50018040197_b4061ff3b6_o.jpg",
    "id_image": "Cat_13359",
    "count_view": 0
  },
  {
    "link_thumb": "https://live.staticflickr.com/65535/50017780036_7facb6ef8d_n.jpg",
    "id_album": "-462831705",
    "description": "Cat_139650",
    "title": "Cat_139650",
    "link_img": "https://live.staticflickr.com/65535/50017780036_3d6d5050d2_o.jpg",
    "id_image": "Cat_139650",
    "count_view": 0
  },
  {
    "link_thumb": "https://live.staticflickr.com/65535/50017252543_ca642c15e9_n.jpg",
    "id_album": "-462831705",
    "description": "Cat_140546",
    "title": "Cat_140546",
    "link_img": "https://live.staticflickr.com/65535/50017252543_628bd5c069_o.jpg",
    "id_image": "Cat_140546",
    "count_view": 0
  },
  {
    "link_thumb": "https://live.staticflickr.com/65535/50018041257_78e10a21d3_n.jpg",
    "id_album": "-462831705",
    "description": "Cat_140548",
    "title": "Cat_140548",
    "link_img": "https://live.staticflickr.com/65535/50018041257_e24484928f_o.jpg",
    "id_image": "Cat_140548",
    "count_view": 0
  },
  {
    "link_thumb": "https://live.staticflickr.com/65535/50017780736_0e327ec6c0_n.jpg",
    "id_album": "-462831705",
    "description": "Cat_144314",
    "title": "Cat_144314",
    "link_img": "https://live.staticflickr.com/65535/50017780736_8878ee66a6_o.jpg",
    "id_image": "Cat_144314",
    "count_view": 0
  },
  {
    "link_thumb": "https://live.staticflickr.com/65535/50017780891_6f4767fa42_n.jpg",
    "id_album": "-462831705",
    "description": "Cat_144315",
    "title": "Cat_144315",
    "link_img": "https://live.staticflickr.com/65535/50017780891_c9bf137a59_o.jpg",
    "id_image": "Cat_144315",
    "count_view": 0
  },
  {
    "link_thumb": "https://live.staticflickr.com/65535/50018041742_a750a03eb4_n.jpg",
    "id_album": "-462831705",
    "description": "Cat_144319",
    "title": "Cat_144319",
    "link_img": "https://live.staticflickr.com/65535/50018041742_4c4c177ce0_o.jpg",
    "id_image": "Cat_144319",
    "count_view": 0
  },
  {
    "link_thumb": "https://live.staticflickr.com/65535/50018042122_c5c475bd67_n.jpg",
    "id_album": "-462831705",
    "description": "Cat_145272",
    "title": "Cat_145272",
    "link_img": "https://live.staticflickr.com/65535/50018042122_eac32d1b43_o.jpg",
    "id_image": "Cat_145272",
    "count_view": 0
  },
  {
    "link_thumb": "https://live.staticflickr.com/65535/50018346487_7a82164f6b_n.jpg",
    "id_album": "-462831705",
    "description": "Cat_146810",
    "title": "Cat_146810",
    "link_img": "https://live.staticflickr.com/65535/50018346487_f72b983f88_o.jpg",
    "id_image": "Cat_146810",
    "count_view": 0
  },
  {
    "link_thumb": "https://live.staticflickr.com/65535/50018045937_2969ea6915_n.jpg",
    "id_album": "-462831705",
    "description": "Cat_148897",
    "title": "Cat_148897",
    "link_img": "https://live.staticflickr.com/65535/50018045937_5e7cc8d966_o.jpg",
    "id_image": "Cat_148897",
    "count_view": 0
  },
  {
    "link_thumb": "https://live.staticflickr.com/65535/50017785181_9fed2c88d5_n.jpg",
    "id_album": "-462831705",
    "description": "Cat_149201",
    "title": "Cat_149201",
    "link_img": "https://live.staticflickr.com/65535/50017785181_5aa0bb899e_o.jpg",
    "id_image": "Cat_149201",
    "count_view": 0
  },
  {
    "link_thumb": "https://live.staticflickr.com/65535/50017785351_4bc5bcddbd_n.jpg",
    "id_album": "-462831705",
    "description": "Cat_150117",
    "title": "Cat_150117",
    "link_img": "https://live.staticflickr.com/65535/50017785351_d514c5f632_o.jpg",
    "id_image": "Cat_150117",
    "count_view": 0
  },
  {
    "link_thumb": "https://live.staticflickr.com/65535/50018046547_8a92f28313_n.jpg",
    "id_album": "-462831705",
    "description": "Cat_150191",
    "title": "Cat_150191",
    "link_img": "https://live.staticflickr.com/65535/50018046547_62f1f67553_o.jpg",
    "id_image": "Cat_150191",
    "count_view": 0
  },
  {
    "link_thumb": "https://live.staticflickr.com/65535/50018046627_e94d4abb5b_n.jpg",
    "id_album": "-462831705",
    "description": "Cat_150330",
    "title": "Cat_150330",
    "link_img": "https://live.staticflickr.com/65535/50018046627_94c8b0884f_o.jpg",
    "id_image": "Cat_150330",
    "count_view": 0
  },
  {
    "link_thumb": "https://live.staticflickr.com/65535/50018046927_ef5e634450_n.jpg",
    "id_album": "-462831705",
    "description": "Cat_150792",
    "title": "Cat_150792",
    "link_img": "https://live.staticflickr.com/65535/50018046927_251952cba0_o.jpg",
    "id_image": "Cat_150792",
    "count_view": 0
  },
  {
    "link_thumb": "https://live.staticflickr.com/65535/50017258308_0d587293de_n.jpg",
    "id_album": "-462831705",
    "description": "Cat_150798",
    "title": "Cat_150798",
    "link_img": "https://live.staticflickr.com/65535/50017258308_606c8dabf1_o.jpg",
    "id_image": "Cat_150798",
    "count_view": 0
  },
  {
    "link_thumb": "https://live.staticflickr.com/65535/50018047532_ac9afee735_n.jpg",
    "id_album": "-462831705",
    "description": "Cat_151778",
    "title": "Cat_151778",
    "link_img": "https://live.staticflickr.com/65535/50018047532_d1be545cf3_o.jpg",
    "id_image": "Cat_151778",
    "count_view": 0
  },
  {
    "link_thumb": "https://live.staticflickr.com/65535/50018047692_aeb593a6db_n.jpg",
    "id_album": "-462831705",
    "description": "Cat_152186",
    "title": "Cat_152186",
    "link_img": "https://live.staticflickr.com/65535/50018047692_760f9d0b9d_o.jpg",
    "id_image": "Cat_152186",
    "count_view": 0
  },
  {
    "link_thumb": "https://live.staticflickr.com/65535/50017786791_11eee356bc_n.jpg",
    "id_album": "-462831705",
    "description": "Cat_152451",
    "title": "Cat_152451",
    "link_img": "https://live.staticflickr.com/65535/50017786791_a9a754e7af_o.jpg",
    "id_image": "Cat_152451",
    "count_view": 0
  },
  {
    "link_thumb": "https://live.staticflickr.com/65535/50018047987_89debc413b_n.jpg",
    "id_album": "-462831705",
    "description": "Cat_152726",
    "title": "Cat_152726",
    "link_img": "https://live.staticflickr.com/65535/50018047987_9cc401985d_o.jpg",
    "id_image": "Cat_152726",
    "count_view": 0
  },
  {
    "link_thumb": "https://live.staticflickr.com/65535/50017259243_bc30ae2ed7_n.jpg",
    "id_album": "-462831705",
    "description": "Cat_152814",
    "title": "Cat_152814",
    "link_img": "https://live.staticflickr.com/65535/50017259243_2a348d161b_o.jpg",
    "id_image": "Cat_152814",
    "count_view": 0
  },
  {
    "link_thumb": "https://live.staticflickr.com/65535/50017787491_f46c2b2f76_n.jpg",
    "id_album": "-462831705",
    "description": "Cat_154834",
    "title": "Cat_154834",
    "link_img": "https://live.staticflickr.com/65535/50017787491_3cb221827c_o.jpg",
    "id_image": "Cat_154834",
    "count_view": 0
  },
  {
    "link_thumb": "https://live.staticflickr.com/65535/50017259763_b60cf59061_n.jpg",
    "id_album": "-462831705",
    "description": "Cat_155494",
    "title": "Cat_155494",
    "link_img": "https://live.staticflickr.com/65535/50017259763_0dcababf30_o.jpg",
    "id_image": "Cat_155494",
    "count_view": 0
  },
  {
    "link_thumb": "https://live.staticflickr.com/65535/50018048927_2ef2ce88bf_n.jpg",
    "id_album": "-462831705",
    "description": "Cat_155640",
    "title": "Cat_155640",
    "link_img": "https://live.staticflickr.com/65535/50018048927_918851f8da_o.jpg",
    "id_image": "Cat_155640",
    "count_view": 0
  },
  {
    "link_thumb": "https://live.staticflickr.com/65535/50017260163_90c26571c4_n.jpg",
    "id_album": "-462831705",
    "description": "Cat_156368",
    "title": "Cat_156368",
    "link_img": "https://live.staticflickr.com/65535/50017260163_636c39dbaf_o.jpg",
    "id_image": "Cat_156368",
    "count_view": 0
  },
  {
    "link_thumb": "https://live.staticflickr.com/65535/50017788136_9a4a6f4758_n.jpg",
    "id_album": "-462831705",
    "description": "Cat_156376",
    "title": "Cat_156376",
    "link_img": "https://live.staticflickr.com/65535/50017788136_3b31174fcc_o.jpg",
    "id_image": "Cat_156376",
    "count_view": 0
  },
  {
    "link_thumb": "https://live.staticflickr.com/65535/50017260538_394cf70504_n.jpg",
    "id_album": "-462831705",
    "description": "Cat_156918",
    "title": "Cat_156918",
    "link_img": "https://live.staticflickr.com/65535/50017260538_3db70d0da4_o.jpg",
    "id_image": "Cat_156918",
    "count_view": 0
  },
  {
    "link_thumb": "https://live.staticflickr.com/65535/50017788406_9b131cbbfb_n.jpg",
    "id_album": "-462831705",
    "description": "Cat_157232",
    "title": "Cat_157232",
    "link_img": "https://live.staticflickr.com/65535/50017788406_101e84beec_o.jpg",
    "id_image": "Cat_157232",
    "count_view": 0
  },
  {
    "link_thumb": "https://live.staticflickr.com/65535/50018049642_a759845690_n.jpg",
    "id_album": "-462831705",
    "description": "Cat_157300",
    "title": "Cat_157300",
    "link_img": "https://live.staticflickr.com/65535/50018049642_041ca5a0cd_o.jpg",
    "id_image": "Cat_157300",
    "count_view": 0
  },
  {
    "link_thumb": "https://live.staticflickr.com/65535/50017788616_9a33e03c88_n.jpg",
    "id_album": "-462831705",
    "description": "Cat_157341",
    "title": "Cat_157341",
    "link_img": "https://live.staticflickr.com/65535/50017788616_d7140fdf0c_o.jpg",
    "id_image": "Cat_157341",
    "count_view": 0
  },
  {
    "link_thumb": "https://live.staticflickr.com/65535/50017261168_5302b3723d_n.jpg",
    "id_album": "-462831705",
    "description": "Cat_157660",
    "title": "Cat_157660",
    "link_img": "https://live.staticflickr.com/65535/50017261168_253e8b38f7_o.jpg",
    "id_image": "Cat_157660",
    "count_view": 0
  },
  {
    "link_thumb": "https://live.staticflickr.com/65535/50017789081_ec5f109247_n.jpg",
    "id_album": "-462831705",
    "description": "Cat_157665",
    "title": "Cat_157665",
    "link_img": "https://live.staticflickr.com/65535/50017789081_b541821d76_o.jpg",
    "id_image": "Cat_157665",
    "count_view": 0
  },
  {
    "link_thumb": "https://live.staticflickr.com/65535/50017261493_c80604fe0a_n.jpg",
    "id_album": "-462831705",
    "description": "Cat_157820",
    "title": "Cat_157820",
    "link_img": "https://live.staticflickr.com/65535/50017261493_5ee6c006a6_o.jpg",
    "id_image": "Cat_157820",
    "count_view": 0
  },
  {
    "link_thumb": "https://live.staticflickr.com/65535/50017789461_29e97c2030_n.jpg",
    "id_album": "-462831705",
    "description": "Cat_158222",
    "title": "Cat_158222",
    "link_img": "https://live.staticflickr.com/65535/50017789461_6c21f45065_o.jpg",
    "id_image": "Cat_158222",
    "count_view": 0
  },
  {
    "link_thumb": "https://live.staticflickr.com/65535/50017789846_337fca7201_n.jpg",
    "id_album": "-462831705",
    "description": "Cat_158722",
    "title": "Cat_158722",
    "link_img": "https://live.staticflickr.com/65535/50017789846_a1aaca3f86_o.jpg",
    "id_image": "Cat_158722",
    "count_view": 0
  },
  {
    "link_thumb": "https://live.staticflickr.com/65535/50017262078_b8b1791919_n.jpg",
    "id_album": "-462831705",
    "description": "Cat_158749",
    "title": "Cat_158749",
    "link_img": "https://live.staticflickr.com/65535/50017262078_9e2a7b915f_o.jpg",
    "id_image": "Cat_158749",
    "count_view": 0
  },
  {
    "link_thumb": "https://live.staticflickr.com/65535/50017262758_19dd2d890b_n.jpg",
    "id_album": "-462831705",
    "description": "Cat_159991",
    "title": "Cat_159991",
    "link_img": "https://live.staticflickr.com/65535/50017262758_1ee92b7902_o.jpg",
    "id_image": "Cat_159991",
    "count_view": 0
  },
  {
    "link_thumb": "https://live.staticflickr.com/65535/50017263073_843a5f660a_n.jpg",
    "id_album": "-462831705",
    "description": "Cat_160960",
    "title": "Cat_160960",
    "link_img": "https://live.staticflickr.com/65535/50017263073_56991ff500_o.jpg",
    "id_image": "Cat_160960",
    "count_view": 0
  },
  {
    "link_thumb": "https://live.staticflickr.com/65535/50017791241_4dfa46053b_n.jpg",
    "id_album": "-462831705",
    "description": "Cat_160962",
    "title": "Cat_160962",
    "link_img": "https://live.staticflickr.com/65535/50017791241_8a8ca77065_o.jpg",
    "id_image": "Cat_160962",
    "count_view": 0
  },
  {
    "link_thumb": "https://live.staticflickr.com/65535/50017263343_12115d14d6_n.jpg",
    "id_album": "-462831705",
    "description": "Cat_160988",
    "title": "Cat_160988",
    "link_img": "https://live.staticflickr.com/65535/50017263343_a23b3283fc_o.jpg",
    "id_image": "Cat_160988",
    "count_view": 0
  },
  {
    "link_thumb": "https://live.staticflickr.com/65535/50018052447_47e7575edd_n.jpg",
    "id_album": "-462831705",
    "description": "Cat_161318",
    "title": "Cat_161318",
    "link_img": "https://live.staticflickr.com/65535/50018052447_b0290d5f86_o.jpg",
    "id_image": "Cat_161318",
    "count_view": 0
  },
  {
    "link_thumb": "https://live.staticflickr.com/65535/50017791896_f5176f7860_n.jpg",
    "id_album": "-462831705",
    "description": "Cat_161358",
    "title": "Cat_161358",
    "link_img": "https://live.staticflickr.com/65535/50017791896_a4d5dd462d_o.jpg",
    "id_image": "Cat_161358",
    "count_view": 0
  },
  {
    "link_thumb": "https://live.staticflickr.com/65535/50017792066_0bd1033e9e_n.jpg",
    "id_album": "-462831705",
    "description": "Cat_161706",
    "title": "Cat_161706",
    "link_img": "https://live.staticflickr.com/65535/50017792066_0caee81637_o.jpg",
    "id_image": "Cat_161706",
    "count_view": 0
  },
  {
    "link_thumb": "https://live.staticflickr.com/65535/50017792341_7102766092_n.jpg",
    "id_album": "-462831705",
    "description": "Cat_162210",
    "title": "Cat_162210",
    "link_img": "https://live.staticflickr.com/65535/50017792341_eb328f678b_o.jpg",
    "id_image": "Cat_162210",
    "count_view": 0
  },
  {
    "link_thumb": "https://live.staticflickr.com/65535/50017264793_24e1789537_n.jpg",
    "id_album": "-462831705",
    "description": "Cat_162852",
    "title": "Cat_162852",
    "link_img": "https://live.staticflickr.com/65535/50017264793_f08a585c91_o.jpg",
    "id_image": "Cat_162852",
    "count_view": 0
  },
  {
    "link_thumb": "https://live.staticflickr.com/65535/50017793141_b7b042e991_n.jpg",
    "id_album": "-462831705",
    "description": "Cat_165249",
    "title": "Cat_165249",
    "link_img": "https://live.staticflickr.com/65535/50017793141_5793429507_o.jpg",
    "id_image": "Cat_165249",
    "count_view": 0
  },
  {
    "link_thumb": "https://live.staticflickr.com/65535/50017793301_826c97920d_n.jpg",
    "id_album": "-462831705",
    "description": "Cat_165260",
    "title": "Cat_165260",
    "link_img": "https://live.staticflickr.com/65535/50017793301_824cb3e504_o.jpg",
    "id_image": "Cat_165260",
    "count_view": 0
  },
  {
    "link_thumb": "https://live.staticflickr.com/65535/50017793426_41ed6cec6c_n.jpg",
    "id_album": "-462831705",
    "description": "Cat_165321",
    "title": "Cat_165321",
    "link_img": "https://live.staticflickr.com/65535/50017793426_13687ff2fc_o.jpg",
    "id_image": "Cat_165321",
    "count_view": 0
  },
  {
    "link_thumb": "https://live.staticflickr.com/65535/50018054727_e02df14aed_n.jpg",
    "id_album": "-462831705",
    "description": "Cat_165584",
    "title": "Cat_165584",
    "link_img": "https://live.staticflickr.com/65535/50018054727_67968c7691_o.jpg",
    "id_image": "Cat_165584",
    "count_view": 0
  },
  {
    "link_thumb": "https://live.staticflickr.com/65535/50017793846_4bc18083ff_n.jpg",
    "id_album": "-462831705",
    "description": "Cat_165859",
    "title": "Cat_165859",
    "link_img": "https://live.staticflickr.com/65535/50017793846_999b416bf2_o.jpg",
    "id_image": "Cat_165859",
    "count_view": 0
  },
  {
    "link_thumb": "https://live.staticflickr.com/65535/50017793996_d7eb945104_n.jpg",
    "id_album": "-462831705",
    "description": "Cat_165860",
    "title": "Cat_165860",
    "link_img": "https://live.staticflickr.com/65535/50017793996_48f6a2b7ec_o.jpg",
    "id_image": "Cat_165860",
    "count_view": 0
  },
  {
    "link_thumb": "https://live.staticflickr.com/65535/50017266188_92dba98f61_n.jpg",
    "id_album": "-462831705",
    "description": "Cat_165869",
    "title": "Cat_165869",
    "link_img": "https://live.staticflickr.com/65535/50017266188_9a3bb72902_o.jpg",
    "id_image": "Cat_165869",
    "count_view": 0
  },
  {
    "link_thumb": "https://live.staticflickr.com/65535/50018055342_5e3de591e2_n.jpg",
    "id_album": "-462831705",
    "description": "Cat_165950",
    "title": "Cat_165950",
    "link_img": "https://live.staticflickr.com/65535/50018055342_e1082f94ec_o.jpg",
    "id_image": "Cat_165950",
    "count_view": 0
  },
  {
    "link_thumb": "https://live.staticflickr.com/65535/50017794336_19c3e9edd5_n.jpg",
    "id_album": "-462831705",
    "description": "Cat_165977",
    "title": "Cat_165977",
    "link_img": "https://live.staticflickr.com/65535/50017794336_05db584c8d_o.jpg",
    "id_image": "Cat_165977",
    "count_view": 0
  },
  {
    "link_thumb": "https://live.staticflickr.com/65535/50017794516_0226592bc4_n.jpg",
    "id_album": "-462831705",
    "description": "Cat_166133",
    "title": "Cat_166133",
    "link_img": "https://live.staticflickr.com/65535/50017794516_6236ab2111_o.jpg",
    "id_image": "Cat_166133",
    "count_view": 0
  },
  {
    "link_thumb": "https://live.staticflickr.com/65535/50017794631_94eefdee41_n.jpg",
    "id_album": "-462831705",
    "description": "Cat_166134",
    "title": "Cat_166134",
    "link_img": "https://live.staticflickr.com/65535/50017794631_8cc359a37f_o.jpg",
    "id_image": "Cat_166134",
    "count_view": 0
  },
  {
    "link_thumb": "https://live.staticflickr.com/65535/50017794891_dbbbc8ce50_n.jpg",
    "id_album": "-462831705",
    "description": "Cat_166233",
    "title": "Cat_166233",
    "link_img": "https://live.staticflickr.com/65535/50017794891_d2f703fd21_o.jpg",
    "id_image": "Cat_166233",
    "count_view": 0
  },
  {
    "link_thumb": "https://live.staticflickr.com/65535/50017795026_ec6996cfc7_n.jpg",
    "id_album": "-462831705",
    "description": "Cat_166523",
    "title": "Cat_166523",
    "link_img": "https://live.staticflickr.com/65535/50017795026_24fc1eba04_o.jpg",
    "id_image": "Cat_166523",
    "count_view": 0
  },
  {
    "link_thumb": "https://live.staticflickr.com/65535/50018056437_125b90faea_n.jpg",
    "id_album": "-462831705",
    "description": "Cat_166526",
    "title": "Cat_166526",
    "link_img": "https://live.staticflickr.com/65535/50018056437_fef04bfe7b_o.jpg",
    "id_image": "Cat_166526",
    "count_view": 0
  },
  {
    "link_thumb": "https://live.staticflickr.com/65535/50017267543_caf7f95966_n.jpg",
    "id_album": "-462831705",
    "description": "Cat_166552",
    "title": "Cat_166552",
    "link_img": "https://live.staticflickr.com/65535/50017267543_267b58f74c_o.jpg",
    "id_image": "Cat_166552",
    "count_view": 0
  },
  {
    "link_thumb": "https://live.staticflickr.com/65535/50017267663_c80a8f668d_n.jpg",
    "id_album": "-462831705",
    "description": "Cat_166560",
    "title": "Cat_166560",
    "link_img": "https://live.staticflickr.com/65535/50017267663_b060f676e3_o.jpg",
    "id_image": "Cat_166560",
    "count_view": 0
  },
  {
    "link_thumb": "https://live.staticflickr.com/65535/50017795641_4c5987cb36_n.jpg",
    "id_album": "-462831705",
    "description": "Cat_166567",
    "title": "Cat_166567",
    "link_img": "https://live.staticflickr.com/65535/50017795641_15215edf51_o.jpg",
    "id_image": "Cat_166567",
    "count_view": 0
  },
  {
    "link_thumb": "https://live.staticflickr.com/65535/50017268528_653d18e0b6_n.jpg",
    "id_album": "-462831705",
    "description": "Cat_166879",
    "title": "Cat_166879",
    "link_img": "https://live.staticflickr.com/65535/50017268528_bcb0845d31_o.jpg",
    "id_image": "Cat_166879",
    "count_view": 0
  },
  {
    "link_thumb": "https://live.staticflickr.com/65535/50017268733_eec604c2ae_n.jpg",
    "id_album": "-462831705",
    "description": "Cat_166881",
    "title": "Cat_166881",
    "link_img": "https://live.staticflickr.com/65535/50017268733_bbe9c0a228_o.jpg",
    "id_image": "Cat_166881",
    "count_view": 0
  },
  {
    "link_thumb": "https://live.staticflickr.com/65535/50017269058_dd9fdf67f5_n.jpg",
    "id_album": "-462831705",
    "description": "Cat_166882",
    "title": "Cat_166882",
    "link_img": "https://live.staticflickr.com/65535/50017269058_04b9ddc879_o.jpg",
    "id_image": "Cat_166882",
    "count_view": 0
  },
  {
    "link_thumb": "https://live.staticflickr.com/65535/50017797031_e7b726f2ac_n.jpg",
    "id_album": "-462831705",
    "description": "Cat_166883",
    "title": "Cat_166883",
    "link_img": "https://live.staticflickr.com/65535/50017797031_dd5ac7809a_o.jpg",
    "id_image": "Cat_166883",
    "count_view": 0
  },
  {
    "link_thumb": "https://live.staticflickr.com/65535/50017269593_761d3130f6_n.jpg",
    "id_album": "-462831705",
    "description": "Cat_166884",
    "title": "Cat_166884",
    "link_img": "https://live.staticflickr.com/65535/50017269593_103b9cd2f1_o.jpg",
    "id_image": "Cat_166884",
    "count_view": 0
  },
  {
    "link_thumb": "https://live.staticflickr.com/65535/50017269943_bf4ee4ffb3_n.jpg",
    "id_album": "-462831705",
    "description": "Cat_166887",
    "title": "Cat_166887",
    "link_img": "https://live.staticflickr.com/65535/50017269943_face0fa37b_o.jpg",
    "id_image": "Cat_166887",
    "count_view": 0
  },
  {
    "link_thumb": "https://live.staticflickr.com/65535/50018058977_510fd83ce5_n.jpg",
    "id_album": "-462831705",
    "description": "Cat_166888",
    "title": "Cat_166888",
    "link_img": "https://live.staticflickr.com/65535/50018058977_4795ae0e7b_o.jpg",
    "id_image": "Cat_166888",
    "count_view": 0
  },
  {
    "link_thumb": "https://live.staticflickr.com/65535/50017270343_46a582e759_n.jpg",
    "id_album": "-462831705",
    "description": "Cat_166890",
    "title": "Cat_166890",
    "link_img": "https://live.staticflickr.com/65535/50017270343_30926a684b_o.jpg",
    "id_image": "Cat_166890",
    "count_view": 0
  },
  {
    "link_thumb": "https://live.staticflickr.com/65535/50018059407_dd4bdc3549_n.jpg",
    "id_album": "-462831705",
    "description": "Cat_166891",
    "title": "Cat_166891",
    "link_img": "https://live.staticflickr.com/65535/50018059407_489fe4a00e_o.jpg",
    "id_image": "Cat_166891",
    "count_view": 0
  },
  {
    "link_thumb": "https://live.staticflickr.com/65535/50018059577_e48e55984d_n.jpg",
    "id_album": "-462831705",
    "description": "Cat_166894",
    "title": "Cat_166894",
    "link_img": "https://live.staticflickr.com/65535/50018059577_22095e7602_o.jpg",
    "id_image": "Cat_166894",
    "count_view": 0
  },
  {
    "link_thumb": "https://live.staticflickr.com/65535/50018059837_d11347bbba_n.jpg",
    "id_album": "-462831705",
    "description": "Cat_166895",
    "title": "Cat_166895",
    "link_img": "https://live.staticflickr.com/65535/50018059837_86caefbbe5_o.jpg",
    "id_image": "Cat_166895",
    "count_view": 0
  },
  {
    "link_thumb": "https://live.staticflickr.com/65535/50017798781_2b8478822e_n.jpg",
    "id_album": "-462831705",
    "description": "Cat_166898",
    "title": "Cat_166898",
    "link_img": "https://live.staticflickr.com/65535/50017798781_6d9d3587b6_o.jpg",
    "id_image": "Cat_166898",
    "count_view": 0
  },
  {
    "link_thumb": "https://live.staticflickr.com/65535/50018060592_d638b4a1fe_n.jpg",
    "id_album": "-462831705",
    "description": "Cat_166900",
    "title": "Cat_166900",
    "link_img": "https://live.staticflickr.com/65535/50018060592_3982e84d87_o.jpg",
    "id_image": "Cat_166900",
    "count_view": 0
  },
  {
    "link_thumb": "https://live.staticflickr.com/65535/50017799086_2a65d2f878_n.jpg",
    "id_album": "-462831705",
    "description": "Cat_166901",
    "title": "Cat_166901",
    "link_img": "https://live.staticflickr.com/65535/50017799086_07d1d8ab4d_o.jpg",
    "id_image": "Cat_166901",
    "count_view": 0
  },
  {
    "link_thumb": "https://live.staticflickr.com/65535/50017799266_d615d8eab3_n.jpg",
    "id_album": "-462831705",
    "description": "Cat_166903",
    "title": "Cat_166903",
    "link_img": "https://live.staticflickr.com/65535/50017799266_4e9abd618b_o.jpg",
    "id_image": "Cat_166903",
    "count_view": 0
  },
  {
    "link_thumb": "https://live.staticflickr.com/65535/50017799546_b36335d977_n.jpg",
    "id_album": "-462831705",
    "description": "Cat_166905",
    "title": "Cat_166905",
    "link_img": "https://live.staticflickr.com/65535/50017799546_9c17e35164_o.jpg",
    "id_image": "Cat_166905",
    "count_view": 0
  },
  {
    "link_thumb": "https://live.staticflickr.com/65535/50018061262_80599ed195_n.jpg",
    "id_album": "-462831705",
    "description": "Cat_166906",
    "title": "Cat_166906",
    "link_img": "https://live.staticflickr.com/65535/50018061262_ffac956899_o.jpg",
    "id_image": "Cat_166906",
    "count_view": 0
  },
  {
    "link_thumb": "https://live.staticflickr.com/65535/50018061382_f8901cdb45_n.jpg",
    "id_album": "-462831705",
    "description": "Cat_166907",
    "title": "Cat_166907",
    "link_img": "https://live.staticflickr.com/65535/50018061382_522786fec0_o.jpg",
    "id_image": "Cat_166907",
    "count_view": 0
  },
  {
    "link_thumb": "https://live.staticflickr.com/65535/50017272688_94d247c689_n.jpg",
    "id_album": "-462831705",
    "description": "Cat_166908",
    "title": "Cat_166908",
    "link_img": "https://live.staticflickr.com/65535/50017272688_52e3767361_o.jpg",
    "id_image": "Cat_166908",
    "count_view": 0
  },
  {
    "link_thumb": "https://live.staticflickr.com/65535/50017800461_24b7f90300_n.jpg",
    "id_album": "-462831705",
    "description": "Cat_167148",
    "title": "Cat_167148",
    "link_img": "https://live.staticflickr.com/65535/50017800461_e6d5252e9b_o.jpg",
    "id_image": "Cat_167148",
    "count_view": 0
  },
  {
    "link_thumb": "https://live.staticflickr.com/65535/50017800656_08f023b0dc_n.jpg",
    "id_album": "-462831705",
    "description": "Cat_167154",
    "title": "Cat_167154",
    "link_img": "https://live.staticflickr.com/65535/50017800656_7af56e249d_o.jpg",
    "id_image": "Cat_167154",
    "count_view": 0
  },
  {
    "link_thumb": "https://live.staticflickr.com/65535/50017273563_32fdb058c4_n.jpg",
    "id_album": "-462831705",
    "description": "Cat_167160",
    "title": "Cat_167160",
    "link_img": "https://live.staticflickr.com/65535/50017273563_0e0c8d24ce_o.jpg",
    "id_image": "Cat_167160",
    "count_view": 0
  },
  {
    "link_thumb": "https://live.staticflickr.com/65535/50017800856_771d6ff4fd_n.jpg",
    "id_album": "-462831705",
    "description": "Cat_167162",
    "title": "Cat_167162",
    "link_img": "https://live.staticflickr.com/65535/50017800856_271318479d_o.jpg",
    "id_image": "Cat_167162",
    "count_view": 0
  },
  {
    "link_thumb": "https://live.staticflickr.com/65535/50017273833_234cd0a628_n.jpg",
    "id_album": "-462831705",
    "description": "Cat_167164",
    "title": "Cat_167164",
    "link_img": "https://live.staticflickr.com/65535/50017273833_f490328d35_o.jpg",
    "id_image": "Cat_167164",
    "count_view": 0
  },
  {
    "link_thumb": "https://live.staticflickr.com/65535/50018063207_90329010da_n.jpg",
    "id_album": "-462831705",
    "description": "Cat_167472",
    "title": "Cat_167472",
    "link_img": "https://live.staticflickr.com/65535/50018063207_990bcc07de_o.jpg",
    "id_image": "Cat_167472",
    "count_view": 0
  },
  {
    "link_thumb": "https://live.staticflickr.com/65535/50017274508_1dc545f63a_n.jpg",
    "id_album": "-462831705",
    "description": "Cat_167473",
    "title": "Cat_167473",
    "link_img": "https://live.staticflickr.com/65535/50017274508_f2a1587788_o.jpg",
    "id_image": "Cat_167473",
    "count_view": 0
  },
  {
    "link_thumb": "https://live.staticflickr.com/65535/50017274813_dee5c38d91_n.jpg",
    "id_album": "-462831705",
    "description": "Cat_167505",
    "title": "Cat_167505",
    "link_img": "https://live.staticflickr.com/65535/50017274813_57eccc420c_o.jpg",
    "id_image": "Cat_167505",
    "count_view": 0
  },
  {
    "link_thumb": "https://live.staticflickr.com/65535/50017802651_126ca7bbd1_n.jpg",
    "id_album": "-462831705",
    "description": "Cat_168007",
    "title": "Cat_168007",
    "link_img": "https://live.staticflickr.com/65535/50017802651_670df19336_o.jpg",
    "id_image": "Cat_168007",
    "count_view": 0
  },
  {
    "link_thumb": "https://live.staticflickr.com/65535/50017803046_8e3f8dec17_n.jpg",
    "id_album": "-462831705",
    "description": "Cat_168524",
    "title": "Cat_168524",
    "link_img": "https://live.staticflickr.com/65535/50017803046_75761cb342_o.jpg",
    "id_image": "Cat_168524",
    "count_view": 0
  },
  {
    "link_thumb": "https://live.staticflickr.com/65535/50017276023_9e253922f3_n.jpg",
    "id_album": "-462831705",
    "description": "Cat_168525",
    "title": "Cat_168525",
    "link_img": "https://live.staticflickr.com/65535/50017276023_245f1bfca6_o.jpg",
    "id_image": "Cat_168525",
    "count_view": 0
  },
  {
    "link_thumb": "https://live.staticflickr.com/65535/50018065057_258e5ec18d_n.jpg",
    "id_album": "-462831705",
    "description": "Cat_168526",
    "title": "Cat_168526",
    "link_img": "https://live.staticflickr.com/65535/50018065057_e642483284_o.jpg",
    "id_image": "Cat_168526",
    "count_view": 0
  },
  {
    "link_thumb": "https://live.staticflickr.com/65535/50017276368_bba7230a6d_n.jpg",
    "id_album": "-462831705",
    "description": "Cat_168527",
    "title": "Cat_168527",
    "link_img": "https://live.staticflickr.com/65535/50017276368_2994e5f17a_o.jpg",
    "id_image": "Cat_168527",
    "count_view": 0
  },
  {
    "link_thumb": "https://live.staticflickr.com/65535/50017276563_3bb1caf8bd_n.jpg",
    "id_album": "-462831705",
    "description": "Cat_168528",
    "title": "Cat_168528",
    "link_img": "https://live.staticflickr.com/65535/50017276563_e5c43c7f84_o.jpg",
    "id_image": "Cat_168528",
    "count_view": 0
  },
  {
    "link_thumb": "https://live.staticflickr.com/65535/50017804176_c3f975a610_n.jpg",
    "id_album": "-462831705",
    "description": "Cat_168532",
    "title": "Cat_168532",
    "link_img": "https://live.staticflickr.com/65535/50017804176_7162dd9c46_o.jpg",
    "id_image": "Cat_168532",
    "count_view": 0
  },
  {
    "link_thumb": "https://live.staticflickr.com/65535/50017804321_5e713e1080_n.jpg",
    "id_album": "-462831705",
    "description": "Cat_168533",
    "title": "Cat_168533",
    "link_img": "https://live.staticflickr.com/65535/50017804321_9268f87eca_o.jpg",
    "id_image": "Cat_168533",
    "count_view": 0
  },
  {
    "link_thumb": "https://live.staticflickr.com/65535/50017277258_8322f2b4b0_n.jpg",
    "id_album": "-462831705",
    "description": "Cat_168534",
    "title": "Cat_168534",
    "link_img": "https://live.staticflickr.com/65535/50017277258_d517409e82_o.jpg",
    "id_image": "Cat_168534",
    "count_view": 0
  },
  {
    "link_thumb": "https://live.staticflickr.com/65535/50018066237_4d7b556235_n.jpg",
    "id_album": "-462831705",
    "description": "Cat_168539",
    "title": "Cat_168539",
    "link_img": "https://live.staticflickr.com/65535/50018066237_b5c9962407_o.jpg",
    "id_image": "Cat_168539",
    "count_view": 0
  },
  {
    "link_thumb": "https://live.staticflickr.com/65535/50017804821_ceb11ff424_n.jpg",
    "id_album": "-462831705",
    "description": "Cat_168864",
    "title": "Cat_168864",
    "link_img": "https://live.staticflickr.com/65535/50017804821_b005119686_o.jpg",
    "id_image": "Cat_168864",
    "count_view": 0
  },
  {
    "link_thumb": "https://live.staticflickr.com/65535/50017805026_ee0132702b_n.jpg",
    "id_album": "-462831705",
    "description": "Cat_168895",
    "title": "Cat_168895",
    "link_img": "https://live.staticflickr.com/65535/50017805026_03d88c7752_o.jpg",
    "id_image": "Cat_168895",
    "count_view": 0
  },
  {
    "link_thumb": "https://live.staticflickr.com/65535/50018066932_932011b863_n.jpg",
    "id_album": "-462831705",
    "description": "Cat_169166",
    "title": "Cat_169166",
    "link_img": "https://live.staticflickr.com/65535/50018066932_508d59150d_o.jpg",
    "id_image": "Cat_169166",
    "count_view": 0
  },
  {
    "link_thumb": "https://live.staticflickr.com/65535/50017805891_b7436ea449_n.jpg",
    "id_album": "-462831705",
    "description": "Cat_169189",
    "title": "Cat_169189",
    "link_img": "https://live.staticflickr.com/65535/50017805891_575f78b5f0_o.jpg",
    "id_image": "Cat_169189",
    "count_view": 0
  },
  {
    "link_thumb": "https://live.staticflickr.com/65535/50017278693_bf2ccd5f53_n.jpg",
    "id_album": "-462831705",
    "description": "Cat_169197",
    "title": "Cat_169197",
    "link_img": "https://live.staticflickr.com/65535/50017278693_dff44c63dc_o.jpg",
    "id_image": "Cat_169197",
    "count_view": 0
  },
  {
    "link_thumb": "https://live.staticflickr.com/65535/50017806166_9263164a04_n.jpg",
    "id_album": "-462831705",
    "description": "Cat_169198",
    "title": "Cat_169198",
    "link_img": "https://live.staticflickr.com/65535/50017806166_37a775c797_o.jpg",
    "id_image": "Cat_169198",
    "count_view": 0
  },
  {
    "link_thumb": "https://live.staticflickr.com/65535/50017806261_81ab766b64_n.jpg",
    "id_album": "-462831705",
    "description": "Cat_169240",
    "title": "Cat_169240",
    "link_img": "https://live.staticflickr.com/65535/50017806261_846655542d_o.jpg",
    "id_image": "Cat_169240",
    "count_view": 0
  },
  {
    "link_thumb": "https://live.staticflickr.com/65535/50017279083_36016cf3d9_n.jpg",
    "id_album": "-462831705",
    "description": "Cat_169504",
    "title": "Cat_169504",
    "link_img": "https://live.staticflickr.com/65535/50017279083_a1c2e067a6_o.jpg",
    "id_image": "Cat_169504",
    "count_view": 0
  },
  {
    "link_thumb": "https://live.staticflickr.com/65535/50017806766_dd80d2c530_n.jpg",
    "id_album": "-462831705",
    "description": "Cat_169545",
    "title": "Cat_169545",
    "link_img": "https://live.staticflickr.com/65535/50017806766_9c6b365879_o.jpg",
    "id_image": "Cat_169545",
    "count_view": 0
  },
  {
    "link_thumb": "https://live.staticflickr.com/65535/50017806881_cca4828447_n.jpg",
    "id_album": "-462831705",
    "description": "Cat_169621",
    "title": "Cat_169621",
    "link_img": "https://live.staticflickr.com/65535/50017806881_28774fb437_o.jpg",
    "id_image": "Cat_169621",
    "count_view": 0
  },
  {
    "link_thumb": "https://live.staticflickr.com/65535/50017807016_05308cb873_n.jpg",
    "id_album": "-462831705",
    "description": "Cat_169764",
    "title": "Cat_169764",
    "link_img": "https://live.staticflickr.com/65535/50017807016_1c4351a0d1_o.jpg",
    "id_image": "Cat_169764",
    "count_view": 0
  },
  {
    "link_thumb": "https://live.staticflickr.com/65535/50017807226_e1a22cd5d2_n.jpg",
    "id_album": "-462831705",
    "description": "Cat_169800",
    "title": "Cat_169800",
    "link_img": "https://live.staticflickr.com/65535/50017807226_e298cfb00f_o.jpg",
    "id_image": "Cat_169800",
    "count_view": 0
  },
  {
    "link_thumb": "https://live.staticflickr.com/65535/50017807391_0b94060f5a_n.jpg",
    "id_album": "-462831705",
    "description": "Cat_169802",
    "title": "Cat_169802",
    "link_img": "https://live.staticflickr.com/65535/50017807391_a8189553ba_o.jpg",
    "id_image": "Cat_169802",
    "count_view": 0
  },
  {
    "link_thumb": "https://live.staticflickr.com/65535/50017280053_bba0279b2f_n.jpg",
    "id_album": "-462831705",
    "description": "Cat_169806",
    "title": "Cat_169806",
    "link_img": "https://live.staticflickr.com/65535/50017280053_2661003ba7_o.jpg",
    "id_image": "Cat_169806",
    "count_view": 0
  },
  {
    "link_thumb": "https://live.staticflickr.com/65535/50017807561_91ccfb0252_n.jpg",
    "id_album": "-462831705",
    "description": "Cat_169808",
    "title": "Cat_169808",
    "link_img": "https://live.staticflickr.com/65535/50017807561_20afa721bf_o.jpg",
    "id_image": "Cat_169808",
    "count_view": 0
  },
  {
    "link_thumb": "https://live.staticflickr.com/65535/50017807851_b21590b0c9_n.jpg",
    "id_album": "-462831705",
    "description": "Cat_170110",
    "title": "Cat_170110",
    "link_img": "https://live.staticflickr.com/65535/50017807851_eb7b675392_o.jpg",
    "id_image": "Cat_170110",
    "count_view": 0
  },
  {
    "link_thumb": "https://live.staticflickr.com/65535/50017280768_a138ff2b5d_n.jpg",
    "id_album": "-462831705",
    "description": "Cat_170945",
    "title": "Cat_170945",
    "link_img": "https://live.staticflickr.com/65535/50017280768_291b8e7891_o.jpg",
    "id_image": "Cat_170945",
    "count_view": 0
  },
  {
    "link_thumb": "https://live.staticflickr.com/65535/50017281008_9d401a1f8b_n.jpg",
    "id_album": "-462831705",
    "description": "Cat_171113",
    "title": "Cat_171113",
    "link_img": "https://live.staticflickr.com/65535/50017281008_806b079c23_o.jpg",
    "id_image": "Cat_171113",
    "count_view": 0
  },
  {
    "link_thumb": "https://live.staticflickr.com/65535/50017281153_9e06a19ab4_n.jpg",
    "id_album": "-462831705",
    "description": "Cat_171114",
    "title": "Cat_171114",
    "link_img": "https://live.staticflickr.com/65535/50017281153_e0e416613d_o.jpg",
    "id_image": "Cat_171114",
    "count_view": 0
  },
  {
    "link_thumb": "https://live.staticflickr.com/65535/50017281378_647f21452f_n.jpg",
    "id_album": "-462831705",
    "description": "Cat_171115",
    "title": "Cat_171115",
    "link_img": "https://live.staticflickr.com/65535/50017281378_0a08bc1c63_o.jpg",
    "id_image": "Cat_171115",
    "count_view": 0
  },
  {
    "link_thumb": "https://live.staticflickr.com/65535/50017808846_9878756be0_n.jpg",
    "id_album": "-462831705",
    "description": "Cat_171430",
    "title": "Cat_171430",
    "link_img": "https://live.staticflickr.com/65535/50017808846_50fbb4d4fd_o.jpg",
    "id_image": "Cat_171430",
    "count_view": 0
  },
  {
    "link_thumb": "https://live.staticflickr.com/65535/50017281738_8ee14eaa97_n.jpg",
    "id_album": "-462831705",
    "description": "Cat_171577",
    "title": "Cat_171577",
    "link_img": "https://live.staticflickr.com/65535/50017281738_3b90bac9b7_o.jpg",
    "id_image": "Cat_171577",
    "count_view": 0
  },
  {
    "link_thumb": "https://live.staticflickr.com/65535/50017281873_2b64319849_n.jpg",
    "id_album": "-462831705",
    "description": "Cat_171581",
    "title": "Cat_171581",
    "link_img": "https://live.staticflickr.com/65535/50017281873_7470e095bf_o.jpg",
    "id_image": "Cat_171581",
    "count_view": 0
  },
  {
    "link_thumb": "https://live.staticflickr.com/65535/50018071812_4a8f917865_n.jpg",
    "id_album": "-462831705",
    "description": "Cat_173220",
    "title": "Cat_173220",
    "link_img": "https://live.staticflickr.com/65535/50018071812_dac5e18cce_o.jpg",
    "id_image": "Cat_173220",
    "count_view": 0
  },
  {
    "link_thumb": "https://live.staticflickr.com/65535/50018071907_977eb40939_n.jpg",
    "id_album": "-462831705",
    "description": "Cat_173221",
    "title": "Cat_173221",
    "link_img": "https://live.staticflickr.com/65535/50018071907_5c865265d2_o.jpg",
    "id_image": "Cat_173221",
    "count_view": 0
  },
  {
    "link_thumb": "https://live.staticflickr.com/65535/50017810566_f66f4c5f1d_n.jpg",
    "id_album": "-462831705",
    "description": "Cat_173222",
    "title": "Cat_173222",
    "link_img": "https://live.staticflickr.com/65535/50017810566_1a66fa26bc_o.jpg",
    "id_image": "Cat_173222",
    "count_view": 0
  },
  {
    "link_thumb": "https://live.staticflickr.com/65535/50018072157_fd1db0e21a_n.jpg",
    "id_album": "-462831705",
    "description": "Cat_173548",
    "title": "Cat_173548",
    "link_img": "https://live.staticflickr.com/65535/50018072157_cf947a723d_o.jpg",
    "id_image": "Cat_173548",
    "count_view": 0
  },
  {
    "link_thumb": "https://live.staticflickr.com/65535/50018072257_d69eca22a6_n.jpg",
    "id_album": "-462831705",
    "description": "Cat_173552",
    "title": "Cat_173552",
    "link_img": "https://live.staticflickr.com/65535/50018072257_1e56333dfc_o.jpg",
    "id_image": "Cat_173552",
    "count_view": 0
  },
  {
    "link_thumb": "https://live.staticflickr.com/65535/50017810911_206a7ee9e5_n.jpg",
    "id_album": "-462831705",
    "description": "Cat_173553",
    "title": "Cat_173553",
    "link_img": "https://live.staticflickr.com/65535/50017810911_7f5ed678de_o.jpg",
    "id_image": "Cat_173553",
    "count_view": 0
  },
  {
    "link_thumb": "https://live.staticflickr.com/65535/50017283678_a339b468e0_n.jpg",
    "id_album": "-462831705",
    "description": "Cat_173618",
    "title": "Cat_173618",
    "link_img": "https://live.staticflickr.com/65535/50017283678_5d8bd35ee3_o.jpg",
    "id_image": "Cat_173618",
    "count_view": 0
  },
  {
    "link_thumb": "https://live.staticflickr.com/65535/50017284363_6f51591896_n.jpg",
    "id_album": "-462831705",
    "description": "Cat_174583",
    "title": "Cat_174583",
    "link_img": "https://live.staticflickr.com/65535/50017284363_f79a7706c9_o.jpg",
    "id_image": "Cat_174583",
    "count_view": 0
  },
  {
    "link_thumb": "https://live.staticflickr.com/65535/50017284508_52fe1121d1_n.jpg",
    "id_album": "-462831705",
    "description": "Cat_174585",
    "title": "Cat_174585",
    "link_img": "https://live.staticflickr.com/65535/50017284508_5ab40fe39e_o.jpg",
    "id_image": "Cat_174585",
    "count_view": 0
  },
  {
    "link_thumb": "https://live.staticflickr.com/65535/50017811896_d28845aca5_n.jpg",
    "id_album": "-462831705",
    "description": "Cat_174587",
    "title": "Cat_174587",
    "link_img": "https://live.staticflickr.com/65535/50017811896_d8f593c148_o.jpg",
    "id_image": "Cat_174587",
    "count_view": 0
  },
  {
    "link_thumb": "https://live.staticflickr.com/65535/50017812481_dd71d5a5b6_n.jpg",
    "id_album": "-462831705",
    "description": "Cat_174877",
    "title": "Cat_174877",
    "link_img": "https://live.staticflickr.com/65535/50017812481_087c18f542_o.jpg",
    "id_image": "Cat_174877",
    "count_view": 0
  },
  {
    "link_thumb": "https://live.staticflickr.com/65535/50018074172_2d69b6ebda_n.jpg",
    "id_album": "-462831705",
    "description": "Cat_174936",
    "title": "Cat_174936",
    "link_img": "https://live.staticflickr.com/65535/50018074172_7079272d5e_o.jpg",
    "id_image": "Cat_174936",
    "count_view": 0
  },
  {
    "link_thumb": "https://live.staticflickr.com/65535/50017812701_b4bd237443_n.jpg",
    "id_album": "-462831705",
    "description": "Cat_174955",
    "title": "Cat_174955",
    "link_img": "https://live.staticflickr.com/65535/50017812701_46d521d99a_o.jpg",
    "id_image": "Cat_174955",
    "count_view": 0
  },
  {
    "link_thumb": "https://live.staticflickr.com/65535/50017285468_513c7e01fb_n.jpg",
    "id_album": "-462831705",
    "description": "Cat_175017",
    "title": "Cat_175017",
    "link_img": "https://live.staticflickr.com/65535/50017285468_1e5c2151b0_o.jpg",
    "id_image": "Cat_175017",
    "count_view": 0
  },
  {
    "link_thumb": "https://live.staticflickr.com/65535/50017813216_b19ca1da0e_n.jpg",
    "id_album": "-462831705",
    "description": "Cat_175272",
    "title": "Cat_175272",
    "link_img": "https://live.staticflickr.com/65535/50017813216_aa9f600a00_o.jpg",
    "id_image": "Cat_175272",
    "count_view": 0
  },
  {
    "link_thumb": "https://live.staticflickr.com/65535/50017286108_7e2a3e71fe_n.jpg",
    "id_album": "-462831705",
    "description": "Cat_175703",
    "title": "Cat_175703",
    "link_img": "https://live.staticflickr.com/65535/50017286108_a49ca207c5_o.jpg",
    "id_image": "Cat_175703",
    "count_view": 0
  },
  {
    "link_thumb": "https://live.staticflickr.com/65535/50017286238_632002b488_n.jpg",
    "id_album": "-462831705",
    "description": "Cat_175707",
    "title": "Cat_175707",
    "link_img": "https://live.staticflickr.com/65535/50017286238_1020c77fcc_o.jpg",
    "id_image": "Cat_175707",
    "count_view": 0
  },
  {
    "link_thumb": "https://live.staticflickr.com/65535/50018075207_50eb7b9dbe_n.jpg",
    "id_album": "-462831705",
    "description": "Cat_175979",
    "title": "Cat_175979",
    "link_img": "https://live.staticflickr.com/65535/50018075207_eb3ecfb90c_o.jpg",
    "id_image": "Cat_175979",
    "count_view": 0
  },
  {
    "link_thumb": "https://live.staticflickr.com/65535/50017287093_f0ddab7977_n.jpg",
    "id_album": "-462831705",
    "description": "Cat_176154",
    "title": "Cat_176154",
    "link_img": "https://live.staticflickr.com/65535/50017287093_3c60a114b5_o.jpg",
    "id_image": "Cat_176154",
    "count_view": 0
  },
  {
    "link_thumb": "https://live.staticflickr.com/65535/50017287203_a445577f40_n.jpg",
    "id_album": "-462831705",
    "description": "Cat_176314",
    "title": "Cat_176314",
    "link_img": "https://live.staticflickr.com/65535/50017287203_872617f7cb_o.jpg",
    "id_image": "Cat_176314",
    "count_view": 0
  },
  {
    "link_thumb": "https://live.staticflickr.com/65535/50017287338_caa3702fc0_n.jpg",
    "id_album": "-462831705",
    "description": "Cat_176735",
    "title": "Cat_176735",
    "link_img": "https://live.staticflickr.com/65535/50017287338_7a4518778a_o.jpg",
    "id_image": "Cat_176735",
    "count_view": 0
  },
  {
    "link_thumb": "https://live.staticflickr.com/65535/50017814896_1d519761b3_n.jpg",
    "id_album": "-462831705",
    "description": "Cat_176794",
    "title": "Cat_176794",
    "link_img": "https://live.staticflickr.com/65535/50017814896_96378deb5c_o.jpg",
    "id_image": "Cat_176794",
    "count_view": 0
  },
  {
    "link_thumb": "https://live.staticflickr.com/65535/50018076572_4015cc4263_n.jpg",
    "id_album": "-462831705",
    "description": "Cat_176964",
    "title": "Cat_176964",
    "link_img": "https://live.staticflickr.com/65535/50018076572_dec564e03e_o.jpg",
    "id_image": "Cat_176964",
    "count_view": 0
  },
  {
    "link_thumb": "https://live.staticflickr.com/65535/50017815276_37ac315087_n.jpg",
    "id_album": "-462831705",
    "description": "Cat_177366",
    "title": "Cat_177366",
    "link_img": "https://live.staticflickr.com/65535/50017815276_4b4b9411bc_o.jpg",
    "id_image": "Cat_177366",
    "count_view": 0
  },
  {
    "link_thumb": "https://live.staticflickr.com/65535/50018076957_810f6ffcfa_n.jpg",
    "id_album": "-462831705",
    "description": "Cat_177900",
    "title": "Cat_177900",
    "link_img": "https://live.staticflickr.com/65535/50018076957_4a3f4ff16f_o.jpg",
    "id_image": "Cat_177900",
    "count_view": 0
  },
  {
    "link_thumb": "https://live.staticflickr.com/65535/50017288403_288e09c9ce_n.jpg",
    "id_album": "-462831705",
    "description": "Cat_177922",
    "title": "Cat_177922",
    "link_img": "https://live.staticflickr.com/65535/50017288403_19a9c0affe_o.jpg",
    "id_image": "Cat_177922",
    "count_view": 0
  },
  {
    "link_thumb": "https://live.staticflickr.com/65535/50017815726_3a6593af66_n.jpg",
    "id_album": "-462831705",
    "description": "Cat_178032",
    "title": "Cat_178032",
    "link_img": "https://live.staticflickr.com/65535/50017815726_06b20eb666_o.jpg",
    "id_image": "Cat_178032",
    "count_view": 0
  },
  {
    "link_thumb": "https://live.staticflickr.com/65535/50017815846_71768bd5d2_n.jpg",
    "id_album": "-462831705",
    "description": "Cat_178316",
    "title": "Cat_178316",
    "link_img": "https://live.staticflickr.com/65535/50017815846_ff1cc4a5ce_o.jpg",
    "id_image": "Cat_178316",
    "count_view": 0
  },
  {
    "link_thumb": "https://live.staticflickr.com/65535/50018077302_409e157b65_n.jpg",
    "id_album": "-462831705",
    "description": "Cat_178439",
    "title": "Cat_178439",
    "link_img": "https://live.staticflickr.com/65535/50018077302_a85415881f_o.jpg",
    "id_image": "Cat_178439",
    "count_view": 0
  },
  {
    "link_thumb": "https://live.staticflickr.com/65535/50017816051_2592913dcc_n.jpg",
    "id_album": "-462831705",
    "description": "Cat_178470",
    "title": "Cat_178470",
    "link_img": "https://live.staticflickr.com/65535/50017816051_55d23d1e48_o.jpg",
    "id_image": "Cat_178470",
    "count_view": 0
  },
  {
    "link_thumb": "https://live.staticflickr.com/65535/50017816161_b2e9d21653_n.jpg",
    "id_album": "-462831705",
    "description": "Cat_178477",
    "title": "Cat_178477",
    "link_img": "https://live.staticflickr.com/65535/50017816161_ea4c477aa8_o.jpg",
    "id_image": "Cat_178477",
    "count_view": 0
  },
  {
    "link_thumb": "https://live.staticflickr.com/65535/50018077662_41358cab27_n.jpg",
    "id_album": "-462831705",
    "description": "Cat_178478",
    "title": "Cat_178478",
    "link_img": "https://live.staticflickr.com/65535/50018077662_d12996a74e_o.jpg",
    "id_image": "Cat_178478",
    "count_view": 0
  },
  {
    "link_thumb": "https://live.staticflickr.com/65535/50017816361_da0d24b885_n.jpg",
    "id_album": "-462831705",
    "description": "Cat_178480",
    "title": "Cat_178480",
    "link_img": "https://live.staticflickr.com/65535/50017816361_e5c6800c65_o.jpg",
    "id_image": "Cat_178480",
    "count_view": 0
  },
  {
    "link_thumb": "https://live.staticflickr.com/65535/50017816556_e2bd0b9e12_n.jpg",
    "id_album": "-462831705",
    "description": "Cat_178834",
    "title": "Cat_178834",
    "link_img": "https://live.staticflickr.com/65535/50017816556_a4064f9b15_o.jpg",
    "id_image": "Cat_178834",
    "count_view": 0
  },
  {
    "link_thumb": "https://live.staticflickr.com/65535/50017816701_1d986db786_n.jpg",
    "id_album": "-462831705",
    "description": "Cat_178917",
    "title": "Cat_178917",
    "link_img": "https://live.staticflickr.com/65535/50017816701_e6004b2611_o.jpg",
    "id_image": "Cat_178917",
    "count_view": 0
  },
  {
    "link_thumb": "https://live.staticflickr.com/65535/50017289763_402f87c5c2_n.jpg",
    "id_album": "-462831705",
    "description": "Cat_179272",
    "title": "Cat_179272",
    "link_img": "https://live.staticflickr.com/65535/50017289763_53c09c8c97_o.jpg",
    "id_image": "Cat_179272",
    "count_view": 0
  },
  {
    "link_thumb": "https://live.staticflickr.com/65535/50017817011_e2c5271abb_n.jpg",
    "id_album": "-462831705",
    "description": "Cat_179273",
    "title": "Cat_179273",
    "link_img": "https://live.staticflickr.com/65535/50017817011_a82f8ac4ca_o.jpg",
    "id_image": "Cat_179273",
    "count_view": 0
  },
  {
    "link_thumb": "https://live.staticflickr.com/65535/50017817211_2805c2cfb2_n.jpg",
    "id_album": "-462831705",
    "description": "Cat_179275",
    "title": "Cat_179275",
    "link_img": "https://live.staticflickr.com/65535/50017817211_b055cfa62a_o.jpg",
    "id_image": "Cat_179275",
    "count_view": 0
  },
  {
    "link_thumb": "https://live.staticflickr.com/65535/50017817336_d6efa950ab_n.jpg",
    "id_album": "-462831705",
    "description": "Cat_179660",
    "title": "Cat_179660",
    "link_img": "https://live.staticflickr.com/65535/50017817336_b71db84b77_o.jpg",
    "id_image": "Cat_179660",
    "count_view": 0
  },
  {
    "link_thumb": "https://live.staticflickr.com/65535/50018078902_1bbaa84c8a_n.jpg",
    "id_album": "-462831705",
    "description": "Cat_179676",
    "title": "Cat_179676",
    "link_img": "https://live.staticflickr.com/65535/50018078902_4b59826a55_o.jpg",
    "id_image": "Cat_179676",
    "count_view": 0
  },
  {
    "link_thumb": "https://live.staticflickr.com/65535/50018079142_12b4901186_n.jpg",
    "id_album": "-462831705",
    "description": "Cat_179760",
    "title": "Cat_179760",
    "link_img": "https://live.staticflickr.com/65535/50018079142_3b6df94a3e_o.jpg",
    "id_image": "Cat_179760",
    "count_view": 0
  },
  {
    "link_thumb": "https://live.staticflickr.com/65535/50017290783_cbe2510278_n.jpg",
    "id_album": "-462831705",
    "description": "Cat_180677",
    "title": "Cat_180677",
    "link_img": "https://live.staticflickr.com/65535/50017290783_b19b312836_o.jpg",
    "id_image": "Cat_180677",
    "count_view": 0
  },
  {
    "link_thumb": "https://live.staticflickr.com/65535/50018079762_fb013ea4d2_n.jpg",
    "id_album": "-462831705",
    "description": "Cat_180958",
    "title": "Cat_180958",
    "link_img": "https://live.staticflickr.com/65535/50018079762_65d0d0f6e0_o.jpg",
    "id_image": "Cat_180958",
    "count_view": 0
  },
  {
    "link_thumb": "https://live.staticflickr.com/65535/50018079937_1894cc08d4_n.jpg",
    "id_album": "-462831705",
    "description": "Cat_181028",
    "title": "Cat_181028",
    "link_img": "https://live.staticflickr.com/65535/50018079937_acda3d8668_o.jpg",
    "id_image": "Cat_181028",
    "count_view": 0
  },
  {
    "link_thumb": "https://live.staticflickr.com/65535/50017818366_96b79b3f35_n.jpg",
    "id_album": "-462831705",
    "description": "Cat_181029",
    "title": "Cat_181029",
    "link_img": "https://live.staticflickr.com/65535/50017818366_87027562d2_o.jpg",
    "id_image": "Cat_181029",
    "count_view": 0
  },
  {
    "link_thumb": "https://live.staticflickr.com/65535/50018080207_d933233216_n.jpg",
    "id_album": "-462831705",
    "description": "Cat_181030",
    "title": "Cat_181030",
    "link_img": "https://live.staticflickr.com/65535/50018080207_a2a898af5f_o.jpg",
    "id_image": "Cat_181030",
    "count_view": 0
  },
  {
    "link_thumb": "https://live.staticflickr.com/65535/50018080302_6ee137a2fb_n.jpg",
    "id_album": "-462831705",
    "description": "Cat_181032",
    "title": "Cat_181032",
    "link_img": "https://live.staticflickr.com/65535/50018080302_dc711edd43_o.jpg",
    "id_image": "Cat_181032",
    "count_view": 0
  },
  {
    "link_thumb": "https://live.staticflickr.com/65535/50017291583_a801912768_n.jpg",
    "id_album": "-462831705",
    "description": "Cat_181033",
    "title": "Cat_181033",
    "link_img": "https://live.staticflickr.com/65535/50017291583_47b78be0d8_o.jpg",
    "id_image": "Cat_181033",
    "count_view": 0
  },
  {
    "link_thumb": "https://live.staticflickr.com/65535/50017818911_b335042529_n.jpg",
    "id_album": "-462831705",
    "description": "Cat_181034",
    "title": "Cat_181034",
    "link_img": "https://live.staticflickr.com/65535/50017818911_f86e2ac285_o.jpg",
    "id_image": "Cat_181034",
    "count_view": 0
  },
  {
    "link_thumb": "https://live.staticflickr.com/65535/50017819096_e133783a3c_n.jpg",
    "id_album": "-462831705",
    "description": "Cat_181035",
    "title": "Cat_181035",
    "link_img": "https://live.staticflickr.com/65535/50017819096_f344a9bd22_o.jpg",
    "id_image": "Cat_181035",
    "count_view": 0
  },
  {
    "link_thumb": "https://live.staticflickr.com/65535/50017292098_98bae7953b_n.jpg",
    "id_album": "-462831705",
    "description": "Cat_181039",
    "title": "Cat_181039",
    "link_img": "https://live.staticflickr.com/65535/50017292098_b0237f68f9_o.jpg",
    "id_image": "Cat_181039",
    "count_view": 0
  },
  {
    "link_thumb": "https://live.staticflickr.com/65535/50018081202_5506563cf3_n.jpg",
    "id_album": "-462831705",
    "description": "Cat_181041",
    "title": "Cat_181041",
    "link_img": "https://live.staticflickr.com/65535/50018081202_01c2b4ff4f_o.jpg",
    "id_image": "Cat_181041",
    "count_view": 0
  },
  {
    "link_thumb": "https://live.staticflickr.com/65535/50018081472_e2299c8b8c_n.jpg",
    "id_album": "-462831705",
    "description": "Cat_181043",
    "title": "Cat_181043",
    "link_img": "https://live.staticflickr.com/65535/50018081472_6b3b851c8a_o.jpg",
    "id_image": "Cat_181043",
    "count_view": 0
  },
  {
    "link_thumb": "https://live.staticflickr.com/65535/50017819931_424fe63ff2_n.jpg",
    "id_album": "-462831705",
    "description": "Cat_181044",
    "title": "Cat_181044",
    "link_img": "https://live.staticflickr.com/65535/50017819931_412177c8b6_o.jpg",
    "id_image": "Cat_181044",
    "count_view": 0
  },
  {
    "link_thumb": "https://live.staticflickr.com/65535/50018081707_4380b7afbb_n.jpg",
    "id_album": "-462831705",
    "description": "Cat_181045",
    "title": "Cat_181045",
    "link_img": "https://live.staticflickr.com/65535/50018081707_55003f0835_o.jpg",
    "id_image": "Cat_181045",
    "count_view": 0
  },
  {
    "link_thumb": "https://live.staticflickr.com/65535/50017293098_1887e5738d_n.jpg",
    "id_album": "-462831705",
    "description": "Cat_181046",
    "title": "Cat_181046",
    "link_img": "https://live.staticflickr.com/65535/50017293098_1c49458b82_o.jpg",
    "id_image": "Cat_181046",
    "count_view": 0
  },
  {
    "link_thumb": "https://live.staticflickr.com/65535/50018082017_52fe37e771_n.jpg",
    "id_album": "-462831705",
    "description": "Cat_181047",
    "title": "Cat_181047",
    "link_img": "https://live.staticflickr.com/65535/50018082017_4a832f2c0f_o.jpg",
    "id_image": "Cat_181047",
    "count_view": 0
  },
  {
    "link_thumb": "https://live.staticflickr.com/65535/50017293408_725f876d98_n.jpg",
    "id_album": "-462831705",
    "description": "Cat_181048",
    "title": "Cat_181048",
    "link_img": "https://live.staticflickr.com/65535/50017293408_5fdd9eaa84_o.jpg",
    "id_image": "Cat_181048",
    "count_view": 0
  },
  {
    "link_thumb": "https://live.staticflickr.com/65535/50017293573_a45f9c4106_n.jpg",
    "id_album": "-462831705",
    "description": "Cat_181049",
    "title": "Cat_181049",
    "link_img": "https://live.staticflickr.com/65535/50017293573_2dd58e82ab_o.jpg",
    "id_image": "Cat_181049",
    "count_view": 0
  },
  {
    "link_thumb": "https://live.staticflickr.com/65535/50017820786_38fd72de87_n.jpg",
    "id_album": "-462831705",
    "description": "Cat_181050",
    "title": "Cat_181050",
    "link_img": "https://live.staticflickr.com/65535/50017820786_460429c30e_o.jpg",
    "id_image": "Cat_181050",
    "count_view": 0
  },
  {
    "link_thumb": "https://live.staticflickr.com/65535/50018082512_389b4df857_n.jpg",
    "id_album": "-462831705",
    "description": "Cat_181051",
    "title": "Cat_181051",
    "link_img": "https://live.staticflickr.com/65535/50018082512_3c0efb5c0d_o.jpg",
    "id_image": "Cat_181051",
    "count_view": 0
  },
  {
    "link_thumb": "https://live.staticflickr.com/65535/50017821061_3a6fa822a6_n.jpg",
    "id_album": "-462831705",
    "description": "Cat_181052",
    "title": "Cat_181052",
    "link_img": "https://live.staticflickr.com/65535/50017821061_34a1994c60_o.jpg",
    "id_image": "Cat_181052",
    "count_view": 0
  },
  {
    "link_thumb": "https://live.staticflickr.com/65535/50017294123_b1e730f8ec_n.jpg",
    "id_album": "-462831705",
    "description": "Cat_181053",
    "title": "Cat_181053",
    "link_img": "https://live.staticflickr.com/65535/50017294123_f4cb7c9101_o.jpg",
    "id_image": "Cat_181053",
    "count_view": 0
  },
  {
    "link_thumb": "https://live.staticflickr.com/65535/50017821421_9fb47b6629_n.jpg",
    "id_album": "-462831705",
    "description": "Cat_181054",
    "title": "Cat_181054",
    "link_img": "https://live.staticflickr.com/65535/50017821421_2792952825_o.jpg",
    "id_image": "Cat_181054",
    "count_view": 0
  },
  {
    "link_thumb": "https://live.staticflickr.com/65535/50017821566_8db855e1fa_n.jpg",
    "id_album": "-462831705",
    "description": "Cat_181055",
    "title": "Cat_181055",
    "link_img": "https://live.staticflickr.com/65535/50017821566_f6b8f52cc3_o.jpg",
    "id_image": "Cat_181055",
    "count_view": 0
  },
  {
    "link_thumb": "https://live.staticflickr.com/65535/50017294443_e6b2480537_n.jpg",
    "id_album": "-462831705",
    "description": "Cat_181056",
    "title": "Cat_181056",
    "link_img": "https://live.staticflickr.com/65535/50017294443_0795ff225d_o.jpg",
    "id_image": "Cat_181056",
    "count_view": 0
  },
  {
    "link_thumb": "https://live.staticflickr.com/65535/50018083197_bdb8fe74f6_n.jpg",
    "id_album": "-462831705",
    "description": "Cat_181058",
    "title": "Cat_181058",
    "link_img": "https://live.staticflickr.com/65535/50018083197_b3dccb600a_o.jpg",
    "id_image": "Cat_181058",
    "count_view": 0
  },
  {
    "link_thumb": "https://live.staticflickr.com/65535/50017821981_abe43aaebc_n.jpg",
    "id_album": "-462831705",
    "description": "Cat_181059",
    "title": "Cat_181059",
    "link_img": "https://live.staticflickr.com/65535/50017821981_f3792d731d_o.jpg",
    "id_image": "Cat_181059",
    "count_view": 0
  },
  {
    "link_thumb": "https://live.staticflickr.com/65535/50018083422_2ce52c75d8_n.jpg",
    "id_album": "-462831705",
    "description": "Cat_181060",
    "title": "Cat_181060",
    "link_img": "https://live.staticflickr.com/65535/50018083422_13c2c62d1d_o.jpg",
    "id_image": "Cat_181060",
    "count_view": 0
  },
  {
    "link_thumb": "https://live.staticflickr.com/65535/50017294868_38f2deb552_n.jpg",
    "id_album": "-462831705",
    "description": "Cat_181061",
    "title": "Cat_181061",
    "link_img": "https://live.staticflickr.com/65535/50017294868_27ae41525e_o.jpg",
    "id_image": "Cat_181061",
    "count_view": 0
  },
  {
    "link_thumb": "https://live.staticflickr.com/65535/50017294973_e21bbc0a3c_n.jpg",
    "id_album": "-462831705",
    "description": "Cat_181062",
    "title": "Cat_181062",
    "link_img": "https://live.staticflickr.com/65535/50017294973_9a0193e872_o.jpg",
    "id_image": "Cat_181062",
    "count_view": 0
  },
  {
    "link_thumb": "https://live.staticflickr.com/65535/50017822456_49504392f1_n.jpg",
    "id_album": "-462831705",
    "description": "Cat_181063",
    "title": "Cat_181063",
    "link_img": "https://live.staticflickr.com/65535/50017822456_88451f354e_o.jpg",
    "id_image": "Cat_181063",
    "count_view": 0
  },
  {
    "link_thumb": "https://live.staticflickr.com/65535/50017295188_4c0b4f9f41_n.jpg",
    "id_album": "-462831705",
    "description": "Cat_181064",
    "title": "Cat_181064",
    "link_img": "https://live.staticflickr.com/65535/50017295188_4fc315dddd_o.jpg",
    "id_image": "Cat_181064",
    "count_view": 0
  }
]