[
  {
    "link_thumb": "https://live.staticflickr.com/65535/50021321653_183731f8d7_n.jpg",
    "id_album": "-1882491687",
    "description": "Ladybug_753404",
    "title": "Ladybug_753404",
    "link_img": "https://live.staticflickr.com/65535/50021321653_91d9598a40_o.jpg",
    "id_image": "Ladybug_753404",
    "count_view": 0
  },
  {
    "link_thumb": "https://live.staticflickr.com/65535/50017520761_f52a6088b1_n.jpg",
    "id_album": "1696155652",
    "description": "Boxer_865829",
    "title": "Boxer_865829",
    "link_img": "https://live.staticflickr.com/65535/50017520761_c16c7363b3_o.jpg",
    "id_image": "Boxer_865829",
    "count_view": 0
  },
  {
    "link_thumb": "https://live.staticflickr.com/65535/50017473012_0a333fa470_n.jpg",
    "id_album": "-1846011410",
    "description": "Bird_214614",
    "title": "Bird_214614",
    "link_img": "https://live.staticflickr.com/65535/50017473012_b068256f95_o.jpg",
    "id_image": "Bird_214614",
    "count_view": 0
  },
  {
    "link_thumb": "https://live.staticflickr.com/65535/50020651343_cbb1fc1b55_n.jpg",
    "id_album": "-462831704",
    "description": "Cat_711800",
    "title": "Cat_711800",
    "link_img": "https://live.staticflickr.com/65535/50020651343_ea7b22d18b_o.jpg",
    "id_image": "Cat_711800",
    "count_view": 0
  },
  {
    "link_thumb": "https://live.staticflickr.com/65535/50017211966_b4e5e49104_n.jpg",
    "id_album": "-1846011410",
    "description": "Bird_216471",
    "title": "Bird_216471",
    "link_img": "https://live.staticflickr.com/65535/50017211966_15819c94af_o.jpg",
    "id_image": "Bird_216471",
    "count_view": 0
  },
  {
    "link_thumb": "https://live.staticflickr.com/65535/50023357822_b8633358e3_n.jpg",
    "id_album": "-1940643173",
    "description": "Rabbit_372745",
    "title": "Rabbit_372745",
    "link_img": "https://live.staticflickr.com/65535/50023357822_19fd3f2201_o.jpg",
    "id_image": "Rabbit_372745",
    "count_view": 0
  },
  {
    "link_thumb": "https://live.staticflickr.com/65535/50016420108_9bbe0bd588_n.jpg",
    "id_album": "390697200",
    "description": "AustralianShepherd_910236",
    "title": "AustralianShepherd_910236",
    "link_img": "https://live.staticflickr.com/65535/50016420108_649df297b2_o.jpg",
    "id_image": "AustralianShepherd_910236",
    "count_view": 0
  },
  {
    "link_thumb": "https://live.staticflickr.com/65535/50022357142_815f2cab75_n.jpg",
    "id_album": "416744915",
    "description": "Lion_996368",
    "title": "Lion_996368",
    "link_img": "https://live.staticflickr.com/65535/50022357142_6f57e75bf8_o.jpg",
    "id_image": "Lion_996368",
    "count_view": 0
  },
  {
    "link_thumb": "https://live.staticflickr.com/65535/50352617582_def876c8fc_n.jpg",
    "id_album": "-462831703",
    "description": "Cat_346555",
    "title": "Cat_346555",
    "link_img": "https://live.staticflickr.com/65535/50352617582_91577304f7_o.jpg",
    "id_image": "Cat_346555",
    "count_view": 0
  },
  {
    "link_thumb": "https://live.staticflickr.com/65535/50020267792_d4f7f010d9_n.jpg",
    "id_album": "1903411565",
    "description": "Deer_443187",
    "title": "Deer_443187",
    "link_img": "https://live.staticflickr.com/65535/50020267792_4ed4cfac3f_o.jpg",
    "id_image": "Deer_443187",
    "count_view": 0
  },
  {
    "link_thumb": "https://live.staticflickr.com/65535/50022997073_d764437568_n.jpg",
    "id_album": "-800019164",
    "description": "Snail_734819",
    "title": "Snail_734819",
    "link_img": "https://live.staticflickr.com/65535/50022997073_69f88bf42f_o.jpg",
    "id_image": "Snail_734819",
    "count_view": 0
  },
  {
    "link_thumb": "https://live.staticflickr.com/65535/50016738403_c2fa63ff90_n.jpg",
    "id_album": "-1846011410",
    "description": "Bird_351565",
    "title": "Bird_351565",
    "link_img": "https://live.staticflickr.com/65535/50016738403_58029f5988_o.jpg",
    "id_image": "Bird_351565",
    "count_view": 0
  },
  {
    "link_thumb": "https://live.staticflickr.com/65535/50021354941_f974b8f8c8_n.jpg",
    "id_album": "2060159334",
    "description": "GoldenRetriever_697557",
    "title": "GoldenRetriever_697557",
    "link_img": "https://live.staticflickr.com/65535/50021354941_7ce5c05deb_o.jpg",
    "id_image": "GoldenRetriever_697557",
    "count_view": 0
  },
  {
    "link_thumb": "https://live.staticflickr.com/65535/50023643053_c8428e80e1_n.jpg",
    "id_album": "405170427",
    "description": "Tiger_658565",
    "title": "Tiger_658565",
    "link_img": "https://live.staticflickr.com/65535/50023643053_930b46bbaa_o.jpg",
    "id_image": "Tiger_658565",
    "count_view": 0
  },
  {
    "link_thumb": "https://live.staticflickr.com/65535/50016629958_9c9ec19189_n.jpg",
    "id_album": "1699594607",
    "description": "Bee_704918",
    "title": "Bee_704918",
    "link_img": "https://live.staticflickr.com/65535/50016629958_e7b94495c6_o.jpg",
    "id_image": "Bee_704918",
    "count_view": 0
  },
  {
    "link_thumb": "https://live.staticflickr.com/65535/50352625357_3b25abd317_n.jpg",
    "id_album": "-462831703",
    "description": "Cat_365118",
    "title": "Cat_365118",
    "link_img": "https://live.staticflickr.com/65535/50352625357_1ee4dd3e26_o.jpg",
    "id_image": "Cat_365118",
    "count_view": 0
  },
  {
    "link_thumb": "https://live.staticflickr.com/65535/50020651522_e8ffde03a5_n.jpg",
    "id_album": "-149330231",
    "description": "Dog_412571",
    "title": "Dog_412571",
    "link_img": "https://live.staticflickr.com/65535/50020651522_99a7feed93_o.jpg",
    "id_image": "Dog_412571",
    "count_view": 0
  },
  {
    "link_thumb": "https://live.staticflickr.com/65535/50018783963_a635e98139_n.jpg",
    "id_album": "-462831703",
    "description": "Cat_842245",
    "title": "Cat_842245",
    "link_img": "https://live.staticflickr.com/65535/50018783963_f09ae6997d_o.jpg",
    "id_image": "Cat_842245",
    "count_view": 0
  },
  {
    "link_thumb": "https://live.staticflickr.com/65535/50017582398_59d59f4d55_n.jpg",
    "id_album": "-462831702",
    "description": "Cat_383129",
    "title": "Cat_383129",
    "link_img": "https://live.staticflickr.com/65535/50017582398_8acfcc8884_o.jpg",
    "id_image": "Cat_383129",
    "count_view": 0
  },
  {
    "link_thumb": "https://live.staticflickr.com/65535/50017248451_41c8107d0c_n.jpg",
    "id_album": "-1846011410",
    "description": "Bird_339177",
    "title": "Bird_339177",
    "link_img": "https://live.staticflickr.com/65535/50017248451_a8933165b9_o.jpg",
    "id_image": "Bird_339177",
    "count_view": 0
  },
  {
    "link_thumb": "https://live.staticflickr.com/65535/50022170513_42b3299358_n.jpg",
    "id_album": "392248205",
    "description": "Penguin_673619",
    "title": "Penguin_673619",
    "link_img": "https://live.staticflickr.com/65535/50022170513_ca250fc44d_o.jpg",
    "id_image": "Penguin_673619",
    "count_view": 0
  },
  {
    "link_thumb": "https://live.staticflickr.com/65535/50020674053_e14643b45d_n.jpg",
    "id_album": "-462831703",
    "description": "Cat_737476",
    "title": "Cat_737476",
    "link_img": "https://live.staticflickr.com/65535/50020674053_061f21bdb0_o.jpg",
    "id_image": "Cat_737476",
    "count_view": 0
  },
  {
    "link_thumb": "https://live.staticflickr.com/65535/50020034568_0dde0db820_n.jpg",
    "id_album": "-54509188",
    "description": "Dolphin_339361",
    "title": "Dolphin_339361",
    "link_img": "https://live.staticflickr.com/65535/50020034568_3627ee504a_o.jpg",
    "id_image": "Dolphin_339361",
    "count_view": 0
  },
  {
    "link_thumb": "https://live.staticflickr.com/65535/50021785126_da04a855de_n.jpg",
    "id_album": "1562047127",
    "description": "Jellyfish_846682",
    "title": "Jellyfish_846682",
    "link_img": "https://live.staticflickr.com/65535/50021785126_b299e15237_o.jpg",
    "id_image": "Jellyfish_846682",
    "count_view": 0
  },
  {
    "link_thumb": "https://live.staticflickr.com/65535/50023215696_7fd798c752_n.jpg",
    "id_album": "332874268",
    "description": "RedPanda_585311",
    "title": "RedPanda_585311",
    "link_img": "https://live.staticflickr.com/65535/50023215696_cbc8598b68_o.jpg",
    "id_image": "RedPanda_585311",
    "count_view": 0
  },
  {
    "link_thumb": "https://live.staticflickr.com/65535/50019575876_9365c7c089_n.jpg",
    "id_album": "-462831703",
    "description": "Cat_998377",
    "title": "Cat_998377",
    "link_img": "https://live.staticflickr.com/65535/50019575876_031a363fc5_o.jpg",
    "id_image": "Cat_998377",
    "count_view": 0
  },
  {
    "link_thumb": "https://live.staticflickr.com/65535/50017982312_293f0c19e3_n.jpg",
    "id_album": "-401151552",
    "description": "Butterfly_985122",
    "title": "Butterfly_985122",
    "link_img": "https://live.staticflickr.com/65535/50017982312_2866e41123_o.jpg",
    "id_image": "Butterfly_985122",
    "count_view": 0
  },
  {
    "link_thumb": "https://live.staticflickr.com/65535/50019212951_f4014bb37b_n.jpg",
    "id_album": "-462831704",
    "description": "Cat_443295",
    "title": "Cat_443295",
    "link_img": "https://live.staticflickr.com/65535/50019212951_87ea345d23_o.jpg",
    "id_image": "Cat_443295",
    "count_view": 0
  },
  {
    "link_thumb": "https://live.staticflickr.com/65535/50021897376_5cd6ec0fd7_n.jpg",
    "id_album": "1392348450",
    "description": "Leopard_330426",
    "title": "Leopard_330426",
    "link_img": "https://live.staticflickr.com/65535/50021897376_f4b2f2af89_o.jpg",
    "id_image": "Leopard_330426",
    "count_view": 0
  },
  {
    "link_thumb": "https://live.staticflickr.com/65535/50019156091_ab9e611d7b_n.jpg",
    "id_album": "-462831702",
    "description": "Cat_419961",
    "title": "Cat_419961",
    "link_img": "https://live.staticflickr.com/65535/50019156091_e3b005cf23_o.jpg",
    "id_image": "Cat_419961",
    "count_view": 0
  },
  {
    "link_thumb": "https://live.staticflickr.com/65535/50023996677_5de2d81a00_n.jpg",
    "id_album": "-1082521515",
    "description": "Spider_378568",
    "title": "Spider_378568",
    "link_img": "https://live.staticflickr.com/65535/50023996677_a6391efbe5_o.jpg",
    "id_image": "Spider_378568",
    "count_view": 0
  },
  {
    "link_thumb": "https://live.staticflickr.com/65535/50024781192_b331a026ac_n.jpg",
    "id_album": "-709711865",
    "description": "Wolf_591423",
    "title": "Wolf_591423",
    "link_img": "https://live.staticflickr.com/65535/50024781192_e2b7ccfb7f_o.jpg",
    "id_image": "Wolf_591423",
    "count_view": 0
  },
  {
    "link_thumb": "https://live.staticflickr.com/65535/50020983467_eb93d3ebf1_n.jpg",
    "id_album": "1270947998",
    "description": "Elephant_104203",
    "title": "Elephant_104203",
    "link_img": "https://live.staticflickr.com/65535/50020983467_acff9829e7_o.jpg",
    "id_image": "Elephant_104203",
    "count_view": 0
  },
  {
    "link_thumb": "https://live.staticflickr.com/65535/50019921106_c4bd734e92_n.jpg",
    "id_album": "1273365283",
    "description": "Cute_274723",
    "title": "Cute_274723",
    "link_img": "https://live.staticflickr.com/65535/50019921106_17028a8b36_o.jpg",
    "id_image": "Cute_274723",
    "count_view": 0
  },
  {
    "link_thumb": "https://live.staticflickr.com/65535/50352649392_8c4bf3357c_n.jpg",
    "id_album": "-462831703",
    "description": "Cat_393377",
    "title": "Cat_393377",
    "link_img": "https://live.staticflickr.com/65535/50352649392_4506b94213_o.jpg",
    "id_image": "Cat_393377",
    "count_view": 0
  },
  {
    "link_thumb": "https://live.staticflickr.com/65535/50016366063_fb4216679d_n.jpg",
    "id_album": "523598895",
    "description": "Artistic_300906",
    "title": "Artistic_300906",
    "link_img": "https://live.staticflickr.com/65535/50016366063_009d624300_o.jpg",
    "id_image": "Artistic_300906",
    "count_view": 0
  },
  {
    "link_thumb": "https://live.staticflickr.com/65535/50017884966_1ce4a2260d_n.jpg",
    "id_album": "-462831705",
    "description": "Cat_236359",
    "title": "Cat_236359",
    "link_img": "https://live.staticflickr.com/65535/50017884966_c31ec1fdb0_o.jpg",
    "id_image": "Cat_236359",
    "count_view": 0
  },
  {
    "link_thumb": "https://live.staticflickr.com/65535/50019985281_02a8ea5706_n.jpg",
    "id_album": "1903411565",
    "description": "Deer_271685",
    "title": "Deer_271685",
    "link_img": "https://live.staticflickr.com/65535/50019985281_e8e36fc5d3_o.jpg",
    "id_image": "Deer_271685",
    "count_view": 0
  },
  {
    "link_thumb": "https://live.staticflickr.com/65535/50021310951_da36aea04c_n.jpg",
    "id_album": "-405626519",
    "description": "GermanShepherd_921788",
    "title": "GermanShepherd_921788",
    "link_img": "https://live.staticflickr.com/65535/50021310951_53bdb388e3_o.jpg",
    "id_image": "GermanShepherd_921788",
    "count_view": 0
  },
  {
    "link_thumb": "https://live.staticflickr.com/65535/50021432533_4bab8fe8bf_n.jpg",
    "id_album": "416744915",
    "description": "Lion_225097",
    "title": "Lion_225097",
    "link_img": "https://live.staticflickr.com/65535/50021432533_20422047d3_o.jpg",
    "id_image": "Lion_225097",
    "count_view": 0
  },
  {
    "link_thumb": "https://live.staticflickr.com/65535/50020284246_9b00ac54dd_n.jpg",
    "id_album": "-149330232",
    "description": "Dog_342741",
    "title": "Dog_342741",
    "link_img": "https://live.staticflickr.com/65535/50020284246_b33d04eae6_o.jpg",
    "id_image": "Dog_342741",
    "count_view": 0
  },
  {
    "link_thumb": "https://live.staticflickr.com/65535/50016726268_3693fd39b2_n.jpg",
    "id_album": "-1846011410",
    "description": "Bird_342668",
    "title": "Bird_342668",
    "link_img": "https://live.staticflickr.com/65535/50016726268_cd66aac9d7_o.jpg",
    "id_image": "Bird_342668",
    "count_view": 0
  },
  {
    "link_thumb": "https://live.staticflickr.com/65535/50021374921_69662e8b9d_n.jpg",
    "id_album": "2060159334",
    "description": "GoldenRetriever_991032",
    "title": "GoldenRetriever_991032",
    "link_img": "https://live.staticflickr.com/65535/50021374921_475587cfe1_o.jpg",
    "id_image": "GoldenRetriever_991032",
    "count_view": 0
  },
  {
    "link_thumb": "https://live.staticflickr.com/65535/50021923731_08b7b35af5_n.jpg",
    "id_album": "1392348450",
    "description": "Leopard_424701",
    "title": "Leopard_424701",
    "link_img": "https://live.staticflickr.com/65535/50021923731_d713012120_o.jpg",
    "id_image": "Leopard_424701",
    "count_view": 0
  },
  {
    "link_thumb": "https://live.staticflickr.com/65535/50017567877_7b2bcf4ae3_n.jpg",
    "id_album": "-1846011410",
    "description": "Bird_401701",
    "title": "Bird_401701",
    "link_img": "https://live.staticflickr.com/65535/50017567877_256603cc16_o.jpg",
    "id_image": "Bird_401701",
    "count_view": 0
  },
  {
    "link_thumb": "https://live.staticflickr.com/65535/50020523531_8663f65e9f_n.jpg",
    "id_album": "-149330231",
    "description": "Dog_852999",
    "title": "Dog_852999",
    "link_img": "https://live.staticflickr.com/65535/50020523531_f45cd8a296_o.jpg",
    "id_image": "Dog_852999",
    "count_view": 0
  },
  {
    "link_thumb": "https://live.staticflickr.com/65535/50019194583_ef8f41554b_n.jpg",
    "id_album": "-1481843714",
    "description": "Cheetah_721196",
    "title": "Cheetah_721196",
    "link_img": "https://live.staticflickr.com/65535/50019194583_6a045ec585_o.jpg",
    "id_image": "Cheetah_721196",
    "count_view": 0
  },
  {
    "link_thumb": "https://live.staticflickr.com/65535/50018653848_c98b31da7c_n.jpg",
    "id_album": "-462831702",
    "description": "Cat_431105",
    "title": "Cat_431105",
    "link_img": "https://live.staticflickr.com/65535/50018653848_7e41251ee8_o.jpg",
    "id_image": "Cat_431105",
    "count_view": 0
  },
  {
    "link_thumb": "https://live.staticflickr.com/65535/50352635137_5c4af2f570_n.jpg",
    "id_album": "-462831703",
    "description": "Cat_370113",
    "title": "Cat_370113",
    "link_img": "https://live.staticflickr.com/65535/50352635137_5cd6924d46_o.jpg",
    "id_image": "Cat_370113",
    "count_view": 0
  },
  {
    "link_thumb": "https://live.staticflickr.com/65535/50023401267_4d9e72cc40_n.jpg",
    "id_album": "248289288",
    "description": "Raccoon_385254",
    "title": "Raccoon_385254",
    "link_img": "https://live.staticflickr.com/65535/50023401267_6c2ddb30d5_o.jpg",
    "id_image": "Raccoon_385254",
    "count_view": 0
  },
  {
    "link_thumb": "https://live.staticflickr.com/65535/50023242102_854de3691a_n.jpg",
    "id_album": "-353898617",
    "description": "Puppy_409590",
    "title": "Puppy_409590",
    "link_img": "https://live.staticflickr.com/65535/50023242102_22d583372a_o.jpg",
    "id_image": "Puppy_409590",
    "count_view": 0
  },
  {
    "link_thumb": "https://live.staticflickr.com/65535/50017426607_0a670d616c_n.jpg",
    "id_album": "1699594607",
    "description": "Bee_925951",
    "title": "Bee_925951",
    "link_img": "https://live.staticflickr.com/65535/50017426607_2403bc1d44_o.jpg",
    "id_image": "Bee_925951",
    "count_view": 0
  },
  {
    "link_thumb": "https://live.staticflickr.com/65535/50018884368_8307227465_n.jpg",
    "id_album": "-462831703",
    "description": "Cat_900350",
    "title": "Cat_900350",
    "link_img": "https://live.staticflickr.com/65535/50018884368_fa3e217956_o.jpg",
    "id_image": "Cat_900350",
    "count_view": 0
  },
  {
    "link_thumb": "https://live.staticflickr.com/65535/50020692908_83c702a94d_n.jpg",
    "id_album": "-462831703",
    "description": "Cat_772087",
    "title": "Cat_772087",
    "link_img": "https://live.staticflickr.com/65535/50020692908_9084fd2e6a_o.jpg",
    "id_image": "Cat_772087",
    "count_view": 0
  },
  {
    "link_thumb": "https://live.staticflickr.com/65535/50017097106_09bfab305b_n.jpg",
    "id_album": "-422187261",
    "description": "Bear_888195",
    "title": "Bear_888195",
    "link_img": "https://live.staticflickr.com/65535/50017097106_7e53aae6ae_o.jpg",
    "id_image": "Bear_888195",
    "count_view": 0
  },
  {
    "link_thumb": "https://live.staticflickr.com/65535/50017806261_81ab766b64_n.jpg",
    "id_album": "-462831705",
    "description": "Cat_169240",
    "title": "Cat_169240",
    "link_img": "https://live.staticflickr.com/65535/50017806261_846655542d_o.jpg",
    "id_image": "Cat_169240",
    "count_view": 0
  },
  {
    "link_thumb": "https://live.staticflickr.com/65535/50022050728_a73098eb27_n.jpg",
    "id_album": "-801414987",
    "description": "Peacock_438574",
    "title": "Peacock_438574",
    "link_img": "https://live.staticflickr.com/65535/50022050728_1349ed1caf_o.jpg",
    "id_image": "Peacock_438574",
    "count_view": 0
  },
  {
    "link_thumb": "https://live.staticflickr.com/65535/50022489856_ea86d96053_n.jpg",
    "id_album": "-1384601601",
    "description": "Owl_879092",
    "title": "Owl_879092",
    "link_img": "https://live.staticflickr.com/65535/50022489856_eb8a367705_o.jpg",
    "id_image": "Owl_879092",
    "count_view": 0
  },
  {
    "link_thumb": "https://live.staticflickr.com/65535/50021306468_00eb5837ca_n.jpg",
    "id_album": "-1882491687",
    "description": "Ladybug_403428",
    "title": "Ladybug_403428",
    "link_img": "https://live.staticflickr.com/65535/50021306468_2d0452078b_o.jpg",
    "id_image": "Ladybug_403428",
    "count_view": 0
  },
  {
    "link_thumb": "https://live.staticflickr.com/65535/50022544568_b813be4c5f_n.jpg",
    "id_album": "-1940643173",
    "description": "Rabbit_131291",
    "title": "Rabbit_131291",
    "link_img": "https://live.staticflickr.com/65535/50022544568_e134dedff5_o.jpg",
    "id_image": "Rabbit_131291",
    "count_view": 0
  },
  {
    "link_thumb": "https://live.staticflickr.com/65535/50017769632_a78b4a4552_n.jpg",
    "id_album": "782930701",
    "description": "BorderCollie_911362",
    "title": "BorderCollie_911362",
    "link_img": "https://live.staticflickr.com/65535/50017769632_4538260ea8_o.jpg",
    "id_image": "BorderCollie_911362",
    "count_view": 0
  },
  {
    "link_thumb": "https://live.staticflickr.com/65535/50017329228_304969b95d_n.jpg",
    "id_album": "-462831705",
    "description": "Cat_210812",
    "title": "Cat_210812",
    "link_img": "https://live.staticflickr.com/65535/50017329228_b4cb471bcf_o.jpg",
    "id_image": "Cat_210812",
    "count_view": 0
  },
  {
    "link_thumb": "https://live.staticflickr.com/65535/50020748342_4667b2d2fe_n.jpg",
    "id_album": "-149330231",
    "description": "Dog_715258",
    "title": "Dog_715258",
    "link_img": "https://live.staticflickr.com/65535/50020748342_996dda9878_o.jpg",
    "id_image": "Dog_715258",
    "count_view": 0
  },
  {
    "link_thumb": "https://live.staticflickr.com/65535/50020889991_bf83ed9758_n.jpg",
    "id_album": "-1758557371",
    "description": "Flamingo_397455",
    "title": "Flamingo_397455",
    "link_img": "https://live.staticflickr.com/65535/50020889991_2b5a07f5f9_o.jpg",
    "id_image": "Flamingo_397455",
    "count_view": 0
  },
  {
    "link_thumb": "https://live.staticflickr.com/65535/50018262632_f13ccdd869_n.jpg",
    "id_album": "-462831702",
    "description": "Cat_336437",
    "title": "Cat_336437",
    "link_img": "https://live.staticflickr.com/65535/50018262632_51133decf1_o.jpg",
    "id_image": "Cat_336437",
    "count_view": 0
  },
  {
    "link_thumb": "https://live.staticflickr.com/65535/50019336286_73a4599df6_n.jpg",
    "id_album": "-462831703",
    "description": "Cat_863613",
    "title": "Cat_863613",
    "link_img": "https://live.staticflickr.com/65535/50019336286_6fd01c012b_o.jpg",
    "id_image": "Cat_863613",
    "count_view": 0
  },
  {
    "link_thumb": "https://live.staticflickr.com/65535/50023328761_a6424bf1f1_n.jpg",
    "id_album": "1512228924",
    "description": "ScarletMacaw_597020",
    "title": "ScarletMacaw_597020",
    "link_img": "https://live.staticflickr.com/65535/50023328761_145a5e72bb_o.jpg",
    "id_image": "ScarletMacaw_597020",
    "count_view": 0
  },
  {
    "link_thumb": "https://live.staticflickr.com/65535/50021892981_ba15b66b6f_n.jpg",
    "id_album": "1392348450",
    "description": "Leopard_247644",
    "title": "Leopard_247644",
    "link_img": "https://live.staticflickr.com/65535/50021892981_2f9d6f4175_o.jpg",
    "id_image": "Leopard_247644",
    "count_view": 0
  },
  {
    "link_thumb": "https://live.staticflickr.com/65535/50017373877_b2e450a081_n.jpg",
    "id_album": "-422187261",
    "description": "Bear_983476",
    "title": "Bear_983476",
    "link_img": "https://live.staticflickr.com/65535/50017373877_d4ed84a7aa_o.jpg",
    "id_image": "Bear_983476",
    "count_view": 0
  },
  {
    "link_thumb": "https://live.staticflickr.com/65535/50023965052_ef003db5c3_n.jpg",
    "id_album": "-359606417",
    "description": "Sparrow_437856",
    "title": "Sparrow_437856",
    "link_img": "https://live.staticflickr.com/65535/50023965052_36f8ef2025_o.jpg",
    "id_image": "Sparrow_437856",
    "count_view": 0
  },
  {
    "link_thumb": "https://live.staticflickr.com/65535/50017346498_1dc76ff6ba_n.jpg",
    "id_album": "-462831705",
    "description": "Cat_224977",
    "title": "Cat_224977",
    "link_img": "https://live.staticflickr.com/65535/50017346498_1483fe043b_o.jpg",
    "id_image": "Cat_224977",
    "count_view": 0
  },
  {
    "link_thumb": "https://live.staticflickr.com/65535/50023110421_0142e6de06_n.jpg",
    "id_album": "-1940643173",
    "description": "Rabbit_435864",
    "title": "Rabbit_435864",
    "link_img": "https://live.staticflickr.com/65535/50023110421_57828caea3_o.jpg",
    "id_image": "Rabbit_435864",
    "count_view": 0
  },
  {
    "link_thumb": "https://live.staticflickr.com/65535/50020816723_cf1878bbbd_n.jpg",
    "id_album": "2060159334",
    "description": "GoldenRetriever_790204",
    "title": "GoldenRetriever_790204",
    "link_img": "https://live.staticflickr.com/65535/50020816723_f4f8b29939_o.jpg",
    "id_image": "GoldenRetriever_790204",
    "count_view": 0
  },
  {
    "link_thumb": "https://live.staticflickr.com/65535/50023655797_9fd3ef862f_n.jpg",
    "id_album": "1961094930",
    "description": "Seal_235844",
    "title": "Seal_235844",
    "link_img": "https://live.staticflickr.com/65535/50023655797_e5d73a1769_o.jpg",
    "id_image": "Seal_235844",
    "count_view": 0
  },
  {
    "link_thumb": "https://live.staticflickr.com/65535/50023656336_a4dd3b1b0a_n.jpg",
    "id_album": "-1131363127",
    "description": "SnowLeopard_534065",
    "title": "SnowLeopard_534065",
    "link_img": "https://live.staticflickr.com/65535/50023656336_4fc3809b18_o.jpg",
    "id_image": "SnowLeopard_534065",
    "count_view": 0
  },
  {
    "link_thumb": "https://live.staticflickr.com/65535/50022929301_ab0442c31d_n.jpg",
    "id_album": "-356780855",
    "description": "Puffin_683816",
    "title": "Puffin_683816",
    "link_img": "https://live.staticflickr.com/65535/50022929301_7048691ebf_o.jpg",
    "id_image": "Puffin_683816",
    "count_view": 0
  },
  {
    "link_thumb": "https://live.staticflickr.com/65535/50017435847_f071790b77_n.jpg",
    "id_album": "172748811",
    "description": "Beeeater_669378",
    "title": "Beeeater_669378",
    "link_img": "https://live.staticflickr.com/65535/50017435847_ec82630f80_o.jpg",
    "id_image": "Beeeater_669378",
    "count_view": 0
  },
  {
    "link_thumb": "https://live.staticflickr.com/65535/50019611711_03d70889b8_n.jpg",
    "id_album": "-420782796",
    "description": "Caterpillar_724682",
    "title": "Caterpillar_724682",
    "link_img": "https://live.staticflickr.com/65535/50019611711_6a0bc64380_o.jpg",
    "id_image": "Caterpillar_724682",
    "count_view": 0
  },
  {
    "link_thumb": "https://live.staticflickr.com/65535/50023699628_9f30b4c175_n.jpg",
    "id_album": "405170427",
    "description": "Tiger_924909",
    "title": "Tiger_924909",
    "link_img": "https://live.staticflickr.com/65535/50023699628_0e6eb77b5f_o.jpg",
    "id_image": "Tiger_924909",
    "count_view": 0
  },
  {
    "link_thumb": "https://live.staticflickr.com/65535/50019421198_d1235e71ca_n.jpg",
    "id_album": "1831085598",
    "description": "Dachshund_507799",
    "title": "Dachshund_507799",
    "link_img": "https://live.staticflickr.com/65535/50019421198_c712906804_o.jpg",
    "id_image": "Dachshund_507799",
    "count_view": 0
  },
  {
    "link_thumb": "https://live.staticflickr.com/65535/50023329166_73b0fcfd4d_n.jpg",
    "id_album": "1512228924",
    "description": "ScarletMacaw_774252",
    "title": "ScarletMacaw_774252",
    "link_img": "https://live.staticflickr.com/65535/50023329166_52384a0373_o.jpg",
    "id_image": "ScarletMacaw_774252",
    "count_view": 0
  },
  {
    "link_thumb": "https://live.staticflickr.com/65535/50020126953_654492fba4_n.jpg",
    "id_album": "1168627767",
    "description": "Duck_444383",
    "title": "Duck_444383",
    "link_img": "https://live.staticflickr.com/65535/50020126953_b8a7e2c98b_o.jpg",
    "id_image": "Duck_444383",
    "count_view": 0
  },
  {
    "link_thumb": "https://live.staticflickr.com/65535/50019630886_882fe9163b_n.jpg",
    "id_album": "1889777354",
    "description": "CGI_744798",
    "title": "CGI_744798",
    "link_img": "https://live.staticflickr.com/65535/50019630886_6f4a14f86a_o.jpg",
    "id_image": "CGI_744798",
    "count_view": 0
  },
  {
    "link_thumb": "https://live.staticflickr.com/65535/50352691322_15733755c6_n.jpg",
    "id_album": "-462831703",
    "description": "Cat_453383",
    "title": "Cat_453383",
    "link_img": "https://live.staticflickr.com/65535/50352691322_7acd0192e7_o.jpg",
    "id_image": "Cat_453383",
    "count_view": 0
  },
  {
    "link_thumb": "https://live.staticflickr.com/65535/50021855971_54cea3b68f_n.jpg",
    "id_album": "-1882491687",
    "description": "Ladybug_533644",
    "title": "Ladybug_533644",
    "link_img": "https://live.staticflickr.com/65535/50021855971_ebcb53f361_o.jpg",
    "id_image": "Ladybug_533644",
    "count_view": 0
  },
  {
    "link_thumb": "https://live.staticflickr.com/65535/50016595363_57d07c3783_n.jpg",
    "id_album": "1699594607",
    "description": "Bee_268563",
    "title": "Bee_268563",
    "link_img": "https://live.staticflickr.com/65535/50016595363_c996dfae8e_o.jpg",
    "id_image": "Bee_268563",
    "count_view": 0
  },
  {
    "link_thumb": "https://live.staticflickr.com/65535/50021602583_369aeb3c4f_n.jpg",
    "id_album": "1894617400",
    "description": "Lynx_409518",
    "title": "Lynx_409518",
    "link_img": "https://live.staticflickr.com/65535/50021602583_fbe1f9ef5c_o.jpg",
    "id_image": "Lynx_409518",
    "count_view": 0
  },
  {
    "link_thumb": "https://live.staticflickr.com/65535/50021206386_5c3b2c39e8_n.jpg",
    "id_album": "-462831704",
    "description": "Cat_724675",
    "title": "Cat_724675",
    "link_img": "https://live.staticflickr.com/65535/50021206386_8728edb968_o.jpg",
    "id_image": "Cat_724675",
    "count_view": 0
  },
  {
    "link_thumb": "https://live.staticflickr.com/65535/50020577382_237d3f94a9_n.jpg",
    "id_album": "-149330232",
    "description": "Dog_361636",
    "title": "Dog_361636",
    "link_img": "https://live.staticflickr.com/65535/50020577382_9697ea6bf9_o.jpg",
    "id_image": "Dog_361636",
    "count_view": 0
  },
  {
    "link_thumb": "https://live.staticflickr.com/65535/50020864183_5c36ec5172_n.jpg",
    "id_album": "82558972",
    "description": "GuineaPig_341113",
    "title": "GuineaPig_341113",
    "link_img": "https://live.staticflickr.com/65535/50020864183_fe057df263_o.jpg",
    "id_image": "GuineaPig_341113",
    "count_view": 0
  },
  {
    "link_thumb": "https://live.staticflickr.com/65535/50023095621_a9021966e6_n.jpg",
    "id_album": "-1940643173",
    "description": "Rabbit_295969",
    "title": "Rabbit_295969",
    "link_img": "https://live.staticflickr.com/65535/50023095621_fda9bf41c1_o.jpg",
    "id_image": "Rabbit_295969",
    "count_view": 0
  },
  {
    "link_thumb": "https://live.staticflickr.com/65535/50018747218_9394747267_n.jpg",
    "id_album": "-462831704",
    "description": "Cat_518829",
    "title": "Cat_518829",
    "link_img": "https://live.staticflickr.com/65535/50018747218_181c87b2c4_o.jpg",
    "id_image": "Cat_518829",
    "count_view": 0
  },
  {
    "link_thumb": "https://live.staticflickr.com/65535/50020752758_63c55da11c_n.jpg",
    "id_album": "-405626519",
    "description": "GermanShepherd_673439",
    "title": "GermanShepherd_673439",
    "link_img": "https://live.staticflickr.com/65535/50020752758_f38488cffc_o.jpg",
    "id_image": "GermanShepherd_673439",
    "count_view": 0
  },
  {
    "link_thumb": "https://live.staticflickr.com/65535/50019672762_ab0a56f1b5_n.jpg",
    "id_album": "-462831703",
    "description": "Cat_900778",
    "title": "Cat_900778",
    "link_img": "https://live.staticflickr.com/65535/50019672762_8cb6a65b96_o.jpg",
    "id_image": "Cat_900778",
    "count_view": 0
  },
  {
    "link_thumb": "https://live.staticflickr.com/65535/50023283128_e8c1553688_n.jpg",
    "id_album": "702283289",
    "description": "Squirrel_329650",
    "title": "Squirrel_329650",
    "link_img": "https://live.staticflickr.com/65535/50023283128_d9a3ee7464_o.jpg",
    "id_image": "Squirrel_329650",
    "count_view": 0
  },
  {
    "link_thumb": "https://live.staticflickr.com/65535/50021899827_36e91308e3_n.jpg",
    "id_album": "-737856092",
    "description": "Iguana_344054",
    "title": "Iguana_344054",
    "link_img": "https://live.staticflickr.com/65535/50021899827_6a46016bf8_o.jpg",
    "id_image": "Iguana_344054",
    "count_view": 0
  },
  {
    "link_thumb": "https://live.staticflickr.com/65535/50016851461_e107d1b395_n.jpg",
    "id_album": "-834314226",
    "description": "ArcticFox_739688",
    "title": "ArcticFox_739688",
    "link_img": "https://live.staticflickr.com/65535/50016851461_dfa1614f78_o.jpg",
    "id_image": "ArcticFox_739688",
    "count_view": 0
  },
  {
    "link_thumb": "https://live.staticflickr.com/65535/50022550036_67b62fb3f0_n.jpg",
    "id_album": "-358592519",
    "description": "Panda_808239",
    "title": "Panda_808239",
    "link_img": "https://live.staticflickr.com/65535/50022550036_81ab1b3793_o.jpg",
    "id_image": "Panda_808239",
    "count_view": 0
  },
  {
    "link_thumb": "https://live.staticflickr.com/65535/50017528403_e8a0c14a41_n.jpg",
    "id_album": "-462831702",
    "description": "Cat_361467",
    "title": "Cat_361467",
    "link_img": "https://live.staticflickr.com/65535/50017528403_faf206bc3a_o.jpg",
    "id_image": "Cat_361467",
    "count_view": 0
  },
  {
    "link_thumb": "https://live.staticflickr.com/65535/50021292858_4fff780163_n.jpg",
    "id_album": "1307335982",
    "description": "LabradorRetriever_875246",
    "title": "LabradorRetriever_875246",
    "link_img": "https://live.staticflickr.com/65535/50021292858_07a3878582_o.jpg",
    "id_image": "LabradorRetriever_875246",
    "count_view": 0
  },
  {
    "link_thumb": "https://live.staticflickr.com/65535/50021083776_61b97de205_n.jpg",
    "id_album": "844170697",
    "description": "Frog_899259",
    "title": "Frog_899259",
    "link_img": "https://live.staticflickr.com/65535/50021083776_b9aed285e0_o.jpg",
    "id_image": "Frog_899259",
    "count_view": 0
  },
  {
    "link_thumb": "https://live.staticflickr.com/65535/50019682896_3a48bbecd6_n.jpg",
    "id_album": "-1481843714",
    "description": "Cheetah_232481",
    "title": "Cheetah_232481",
    "link_img": "https://live.staticflickr.com/65535/50019682896_f8338d3775_o.jpg",
    "id_image": "Cheetah_232481",
    "count_view": 0
  },
  {
    "link_thumb": "https://live.staticflickr.com/65535/50017040763_1bbebae3dd_n.jpg",
    "id_album": "-401151552",
    "description": "Butterfly_347410",
    "title": "Butterfly_347410",
    "link_img": "https://live.staticflickr.com/65535/50017040763_3e3c51430e_o.jpg",
    "id_image": "Butterfly_347410",
    "count_view": 0
  },
  {
    "link_thumb": "https://live.staticflickr.com/65535/50016487848_c676e58282_n.jpg",
    "id_album": "-422187261",
    "description": "Bear_276104",
    "title": "Bear_276104",
    "link_img": "https://live.staticflickr.com/65535/50016487848_a43d5c7239_o.jpg",
    "id_image": "Bear_276104",
    "count_view": 0
  },
  {
    "link_thumb": "https://live.staticflickr.com/65535/50021411071_11dccd8a5e_n.jpg",
    "id_album": "82558972",
    "description": "GuineaPig_822777",
    "title": "GuineaPig_822777",
    "link_img": "https://live.staticflickr.com/65535/50021411071_2ffe5fe9ea_o.jpg",
    "id_image": "GuineaPig_822777",
    "count_view": 0
  },
  {
    "link_thumb": "https://live.staticflickr.com/65535/50021725548_a11ed57074_n.jpg",
    "id_album": "-817970387",
    "description": "Moose_265861",
    "title": "Moose_265861",
    "link_img": "https://live.staticflickr.com/65535/50021725548_38ca96d2d5_o.jpg",
    "id_image": "Moose_265861",
    "count_view": 0
  },
  {
    "link_thumb": "https://live.staticflickr.com/65535/50020569768_a402028374_n.jpg",
    "id_album": "-462831704",
    "description": "Cat_555306",
    "title": "Cat_555306",
    "link_img": "https://live.staticflickr.com/65535/50020569768_fa34f61f55_o.jpg",
    "id_image": "Cat_555306",
    "count_view": 0
  },
  {
    "link_thumb": "https://live.staticflickr.com/65535/50022217607_03e0c4ce9e_n.jpg",
    "id_album": "1392348450",
    "description": "Leopard_932151",
    "title": "Leopard_932151",
    "link_img": "https://live.staticflickr.com/65535/50022217607_7f28bff3fb_o.jpg",
    "id_image": "Leopard_932151",
    "count_view": 0
  },
  {
    "link_thumb": "https://live.staticflickr.com/65535/50019662346_9529a6c66b_n.jpg",
    "id_album": "-766919393",
    "description": "Chameleon_760574",
    "title": "Chameleon_760574",
    "link_img": "https://live.staticflickr.com/65535/50019662346_66be62523e_o.jpg",
    "id_image": "Chameleon_760574",
    "count_view": 0
  },
  {
    "link_thumb": "https://live.staticflickr.com/65535/50020345441_69ced79f96_n.jpg",
    "id_album": "-149330232",
    "description": "Dog_371423",
    "title": "Dog_371423",
    "link_img": "https://live.staticflickr.com/65535/50020345441_3185d58416_o.jpg",
    "id_image": "Dog_371423",
    "count_view": 0
  },
  {
    "link_thumb": "https://live.staticflickr.com/65535/50018245102_4082cca254_n.jpg",
    "id_album": "-462831702",
    "description": "Cat_328982",
    "title": "Cat_328982",
    "link_img": "https://live.staticflickr.com/65535/50018245102_b8696c591c_o.jpg",
    "id_image": "Cat_328982",
    "count_view": 0
  },
  {
    "link_thumb": "https://live.staticflickr.com/65535/50017072013_680aa91a42_n.jpg",
    "id_album": "-401151552",
    "description": "Butterfly_439528",
    "title": "Butterfly_439528",
    "link_img": "https://live.staticflickr.com/65535/50017072013_cdce495be6_o.jpg",
    "id_image": "Butterfly_439528",
    "count_view": 0
  },
  {
    "link_thumb": "https://live.staticflickr.com/65535/50021936512_097ea85283_n.jpg",
    "id_album": "1658866795",
    "description": "Insect_403941",
    "title": "Insect_403941",
    "link_img": "https://live.staticflickr.com/65535/50021936512_dc3956edf1_o.jpg",
    "id_image": "Insect_403941",
    "count_view": 0
  },
  {
    "link_thumb": "https://live.staticflickr.com/65535/50019732882_477d0e83ca_n.jpg",
    "id_album": "-462831703",
    "description": "Cat_924973",
    "title": "Cat_924973",
    "link_img": "https://live.staticflickr.com/65535/50019732882_784061093a_o.jpg",
    "id_image": "Cat_924973",
    "count_view": 0
  },
  {
    "link_thumb": "https://live.staticflickr.com/65535/50020607742_20bbe6bce3_n.jpg",
    "id_album": "-149330232",
    "description": "Dog_375308",
    "title": "Dog_375308",
    "link_img": "https://live.staticflickr.com/65535/50020607742_2944790e27_o.jpg",
    "id_image": "Dog_375308",
    "count_view": 0
  },
  {
    "link_thumb": "https://live.staticflickr.com/65535/50020458653_dcf6c346cd_n.jpg",
    "id_album": "-128218148",
    "description": "Fox_764107",
    "title": "Fox_764107",
    "link_img": "https://live.staticflickr.com/65535/50020458653_987cb92071_o.jpg",
    "id_image": "Fox_764107",
    "count_view": 0
  },
  {
    "link_thumb": "https://live.staticflickr.com/65535/50022610378_2fc73c4109_n.jpg",
    "id_album": "248289288",
    "description": "Raccoon_571678",
    "title": "Raccoon_571678",
    "link_img": "https://live.staticflickr.com/65535/50022610378_34777dd48f_o.jpg",
    "id_image": "Raccoon_571678",
    "count_view": 0
  },
  {
    "link_thumb": "https://live.staticflickr.com/65535/50020669747_ac2bb00404_n.jpg",
    "id_album": "-149330231",
    "description": "Dog_435795",
    "title": "Dog_435795",
    "link_img": "https://live.staticflickr.com/65535/50020669747_5745b93582_o.jpg",
    "id_image": "Dog_435795",
    "count_view": 0
  },
  {
    "link_thumb": "https://live.staticflickr.com/65535/50020618161_52d4bf4d24_n.jpg",
    "id_album": "-405058657",
    "description": "Dragonfly_391799",
    "title": "Dragonfly_391799",
    "link_img": "https://live.staticflickr.com/65535/50020618161_13692fa4b1_o.jpg",
    "id_image": "Dragonfly_391799",
    "count_view": 0
  },
  {
    "link_thumb": "https://live.staticflickr.com/65535/50020487817_1a36ea5546_n.jpg",
    "id_album": "-149330232",
    "description": "Dog_30296",
    "title": "Dog_30296",
    "link_img": "https://live.staticflickr.com/65535/50020487817_06a730ceee_o.jpg",
    "id_image": "Dog_30296",
    "count_view": 0
  },
  {
    "link_thumb": "https://live.staticflickr.com/65535/50020066592_8febf1eb3a_n.jpg",
    "id_album": "-1868680171",
    "description": "Cougar_367684",
    "title": "Cougar_367684",
    "link_img": "https://live.staticflickr.com/65535/50020066592_43fb9efd6f_o.jpg",
    "id_image": "Cougar_367684",
    "count_view": 0
  },
  {
    "link_thumb": "https://live.staticflickr.com/65535/50018141141_25fb7dcccf_n.jpg",
    "id_album": "-462831702",
    "description": "Cat_400299",
    "title": "Cat_400299",
    "link_img": "https://live.staticflickr.com/65535/50018141141_a7992c92f3_o.jpg",
    "id_image": "Cat_400299",
    "count_view": 0
  },
  {
    "link_thumb": "https://live.staticflickr.com/65535/50020559217_8a0c887ae1_n.jpg",
    "id_album": "-149330232",
    "description": "Dog_352164",
    "title": "Dog_352164",
    "link_img": "https://live.staticflickr.com/65535/50020559217_7cb157e541_o.jpg",
    "id_image": "Dog_352164",
    "count_view": 0
  },
  {
    "link_thumb": "https://live.staticflickr.com/65535/50023704418_7ec9554bc8_n.jpg",
    "id_album": "405170427",
    "description": "Tiger_945299",
    "title": "Tiger_945299",
    "link_img": "https://live.staticflickr.com/65535/50023704418_41f224de97_o.jpg",
    "id_image": "Tiger_945299",
    "count_view": 0
  },
  {
    "link_thumb": "https://live.staticflickr.com/65535/50019373188_014951fc28_n.jpg",
    "id_album": "-392100404",
    "description": "Crow_399208",
    "title": "Crow_399208",
    "link_img": "https://live.staticflickr.com/65535/50019373188_5c5f960a30_o.jpg",
    "id_image": "Crow_399208",
    "count_view": 0
  },
  {
    "link_thumb": "https://live.staticflickr.com/65535/50022174167_780c3e3860_n.jpg",
    "id_album": "1392348450",
    "description": "Leopard_387934",
    "title": "Leopard_387934",
    "link_img": "https://live.staticflickr.com/65535/50022174167_3a97e6f7c1_o.jpg",
    "id_image": "Leopard_387934",
    "count_view": 0
  },
  {
    "link_thumb": "https://live.staticflickr.com/65535/50023136336_f6f570b30d_n.jpg",
    "id_album": "-1940643173",
    "description": "Rabbit_982308",
    "title": "Rabbit_982308",
    "link_img": "https://live.staticflickr.com/65535/50023136336_e99c76ff00_o.jpg",
    "id_image": "Rabbit_982308",
    "count_view": 0
  },
  {
    "link_thumb": "https://live.staticflickr.com/65535/50017353292_f05f8b59d9_n.jpg",
    "id_album": "-422187261",
    "description": "Bear_867527",
    "title": "Bear_867527",
    "link_img": "https://live.staticflickr.com/65535/50017353292_9720b73c30_o.jpg",
    "id_image": "Bear_867527",
    "count_view": 0
  },
  {
    "link_thumb": "https://live.staticflickr.com/65535/50017740721_5eea62fd84_n.jpg",
    "id_album": "-462831703",
    "description": "Cat_1000938",
    "title": "Cat_1000938",
    "link_img": "https://live.staticflickr.com/65535/50017740721_d446e69768_o.jpg",
    "id_image": "Cat_1000938",
    "count_view": 0
  },
  {
    "link_thumb": "https://live.staticflickr.com/65535/50017418183_ccc26dfc71_n.jpg",
    "id_album": "-462831702",
    "description": "Cat_298509",
    "title": "Cat_298509",
    "link_img": "https://live.staticflickr.com/65535/50017418183_a075767e00_o.jpg",
    "id_image": "Cat_298509",
    "count_view": 0
  },
  {
    "link_thumb": "https://live.staticflickr.com/65535/50020558702_8af99c689c_n.jpg",
    "id_album": "-149330232",
    "description": "Dog_351535",
    "title": "Dog_351535",
    "link_img": "https://live.staticflickr.com/65535/50020558702_edd87359f8_o.jpg",
    "id_image": "Dog_351535",
    "count_view": 0
  },
  {
    "link_thumb": "https://live.staticflickr.com/65535/50020481337_f85935bf72_n.jpg",
    "id_album": "-149330232",
    "description": "Dog_286196",
    "title": "Dog_286196",
    "link_img": "https://live.staticflickr.com/65535/50020481337_5a0bd711d9_o.jpg",
    "id_image": "Dog_286196",
    "count_view": 0
  },
  {
    "link_thumb": "https://live.staticflickr.com/65535/50018821543_ac36aa8791_n.jpg",
    "id_album": "-462831705",
    "description": "Cat_86797",
    "title": "Cat_86797",
    "link_img": "https://live.staticflickr.com/65535/50018821543_95cfa5fdeb_o.jpg",
    "id_image": "Cat_86797",
    "count_view": 0
  },
  {
    "link_thumb": "https://live.staticflickr.com/65535/50016636043_0bf223b4d8_n.jpg",
    "id_album": "1699594607",
    "description": "Bee_800037",
    "title": "Bee_800037",
    "link_img": "https://live.staticflickr.com/65535/50016636043_e4142aee7e_o.jpg",
    "id_image": "Bee_800037",
    "count_view": 0
  },
  {
    "link_thumb": "https://live.staticflickr.com/65535/50022940587_06dd1e871e_n.jpg",
    "id_album": "392248205",
    "description": "Penguin_247635",
    "title": "Penguin_247635",
    "link_img": "https://live.staticflickr.com/65535/50022940587_d847fccf68_o.jpg",
    "id_image": "Penguin_247635",
    "count_view": 0
  },
  {
    "link_thumb": "https://live.staticflickr.com/65535/50021863291_ccf7aea20c_n.jpg",
    "id_album": "-1882491687",
    "description": "Ladybug_759322",
    "title": "Ladybug_759322",
    "link_img": "https://live.staticflickr.com/65535/50021863291_2cb5138838_o.jpg",
    "id_image": "Ladybug_759322",
    "count_view": 0
  },
  {
    "link_thumb": "https://live.staticflickr.com/65535/50017382713_ba26415a97_n.jpg",
    "id_album": "-462831705",
    "description": "Cat_259565",
    "title": "Cat_259565",
    "link_img": "https://live.staticflickr.com/65535/50017382713_1fa20b7d6d_o.jpg",
    "id_image": "Cat_259565",
    "count_view": 0
  },
  {
    "link_thumb": "https://live.staticflickr.com/65535/50016438378_c3c9a985f4_n.jpg",
    "id_album": "231236068",
    "description": "BaldEagle_677483",
    "title": "BaldEagle_677483",
    "link_img": "https://live.staticflickr.com/65535/50016438378_fe647dd92f_o.jpg",
    "id_image": "BaldEagle_677483",
    "count_view": 0
  },
  {
    "link_thumb": "https://live.staticflickr.com/65535/50022961443_d2856e7db9_n.jpg",
    "id_album": "692487763",
    "description": "SiberianHusky_937212",
    "title": "SiberianHusky_937212",
    "link_img": "https://live.staticflickr.com/65535/50022961443_b9c1d7f9e2_o.jpg",
    "id_image": "SiberianHusky_937212",
    "count_view": 0
  },
  {
    "link_thumb": "https://live.staticflickr.com/65535/50023675536_43e7bf30bc_n.jpg",
    "id_album": "-1131363127",
    "description": "SnowLeopard_895792",
    "title": "SnowLeopard_895792",
    "link_img": "https://live.staticflickr.com/65535/50023675536_7ac9659b0c_o.jpg",
    "id_image": "SnowLeopard_895792",
    "count_view": 0
  },
  {
    "link_thumb": "https://live.staticflickr.com/65535/50016436818_86691c2f23_n.jpg",
    "id_album": "231236068",
    "description": "BaldEagle_597076",
    "title": "BaldEagle_597076",
    "link_img": "https://live.staticflickr.com/65535/50016436818_648f0ce382_o.jpg",
    "id_image": "BaldEagle_597076",
    "count_view": 0
  },
  {
    "link_thumb": "https://live.staticflickr.com/65535/50021934191_a270206be7_n.jpg",
    "id_album": "1392348450",
    "description": "Leopard_543318",
    "title": "Leopard_543318",
    "link_img": "https://live.staticflickr.com/65535/50021934191_db451e335b_o.jpg",
    "id_image": "Leopard_543318",
    "count_view": 0
  },
  {
    "link_thumb": "https://live.staticflickr.com/65535/50018107862_5de5a40a5c_n.jpg",
    "id_album": "-462831705",
    "description": "Cat_206619",
    "title": "Cat_206619",
    "link_img": "https://live.staticflickr.com/65535/50018107862_f9a84dede4_o.jpg",
    "id_image": "Cat_206619",
    "count_view": 0
  },
  {
    "link_thumb": "https://live.staticflickr.com/65535/50352641767_c517c273c4_n.jpg",
    "id_album": "-462831703",
    "description": "Cat_377296",
    "title": "Cat_377296",
    "link_img": "https://live.staticflickr.com/65535/50352641767_d10b29ba16_o.jpg",
    "id_image": "Cat_377296",
    "count_view": 0
  },
  {
    "link_thumb": "https://live.staticflickr.com/65535/50021297391_f2c07d7b42_n.jpg",
    "id_album": "-405626519",
    "description": "GermanShepherd_727495",
    "title": "GermanShepherd_727495",
    "link_img": "https://live.staticflickr.com/65535/50021297391_593e93b9c8_o.jpg",
    "id_image": "GermanShepherd_727495",
    "count_view": 0
  },
  {
    "link_thumb": "https://live.staticflickr.com/65535/50020859003_0b253669d1_n.jpg",
    "id_album": "-1168906494",
    "description": "Grasshopper_423378",
    "title": "Grasshopper_423378",
    "link_img": "https://live.staticflickr.com/65535/50020859003_f638508a88_o.jpg",
    "id_image": "Grasshopper_423378",
    "count_view": 0
  },
  {
    "link_thumb": "https://live.staticflickr.com/65535/50021270903_d29bf0cff2_n.jpg",
    "id_album": "770105808",
    "description": "Kingfisher_917176",
    "title": "Kingfisher_917176",
    "link_img": "https://live.staticflickr.com/65535/50021270903_fbda9959e4_o.jpg",
    "id_image": "Kingfisher_917176",
    "count_view": 0
  },
  {
    "link_thumb": "https://live.staticflickr.com/65535/50020741478_88becf53b7_n.jpg",
    "id_album": "-405626519",
    "description": "GermanShepherd_328387",
    "title": "GermanShepherd_328387",
    "link_img": "https://live.staticflickr.com/65535/50020741478_2375423a98_o.jpg",
    "id_image": "GermanShepherd_328387",
    "count_view": 0
  },
  {
    "link_thumb": "https://live.staticflickr.com/65535/50022335188_05d712eee0_n.jpg",
    "id_album": "1008910300",
    "description": "PolarBear_995978",
    "title": "PolarBear_995978",
    "link_img": "https://live.staticflickr.com/65535/50022335188_2212772c67_o.jpg",
    "id_image": "PolarBear_995978",
    "count_view": 0
  },
  {
    "link_thumb": "https://live.staticflickr.com/65535/50017759852_11b4494d37_n.jpg",
    "id_album": "782930701",
    "description": "BorderCollie_846343",
    "title": "BorderCollie_846343",
    "link_img": "https://live.staticflickr.com/65535/50017759852_9dd0cd72e8_o.jpg",
    "id_image": "BorderCollie_846343",
    "count_view": 0
  },
  {
    "link_thumb": "https://live.staticflickr.com/65535/50021414396_ace7528240_n.jpg",
    "id_album": "109779448",
    "description": "Hare_420919",
    "title": "Hare_420919",
    "link_img": "https://live.staticflickr.com/65535/50021414396_990b760f8a_o.jpg",
    "id_image": "Hare_420919",
    "count_view": 0
  },
  {
    "link_thumb": "https://live.staticflickr.com/65535/50018044786_92768b343b_n.jpg",
    "id_album": "-462831702",
    "description": "Cat_356675",
    "title": "Cat_356675",
    "link_img": "https://live.staticflickr.com/65535/50018044786_f9104b096b_o.jpg",
    "id_image": "Cat_356675",
    "count_view": 0
  },
  {
    "link_thumb": "https://live.staticflickr.com/65535/50019910531_cc40773d93_n.jpg",
    "id_album": "-392100404",
    "description": "Crow_718109",
    "title": "Crow_718109",
    "link_img": "https://live.staticflickr.com/65535/50019910531_09a417d2e6_o.jpg",
    "id_image": "Crow_718109",
    "count_view": 0
  },
  {
    "link_thumb": "https://live.staticflickr.com/65535/50017570681_48a06bec73_n.jpg",
    "id_album": "-401151552",
    "description": "Butterfly_364088",
    "title": "Butterfly_364088",
    "link_img": "https://live.staticflickr.com/65535/50017570681_56a857b10d_o.jpg",
    "id_image": "Butterfly_364088",
    "count_view": 0
  },
  {
    "link_thumb": "https://live.staticflickr.com/65535/50020661593_52f22e0dc4_n.jpg",
    "id_album": "-462831704",
    "description": "Cat_724063",
    "title": "Cat_724063",
    "link_img": "https://live.staticflickr.com/65535/50020661593_9b2abd8fbd_o.jpg",
    "id_image": "Cat_724063",
    "count_view": 0
  },
  {
    "link_thumb": "https://live.staticflickr.com/65535/50018300647_c08fe0358d_n.jpg",
    "id_album": "-462831702",
    "description": "Cat_354604",
    "title": "Cat_354604",
    "link_img": "https://live.staticflickr.com/65535/50018300647_cc32083537_o.jpg",
    "id_image": "Cat_354604",
    "count_view": 0
  },
  {
    "link_thumb": "https://live.staticflickr.com/65535/50018166817_0f6a936ba7_n.jpg",
    "id_album": "-462831705",
    "description": "Cat_252964",
    "title": "Cat_252964",
    "link_img": "https://live.staticflickr.com/65535/50018166817_a2ae310aa6_o.jpg",
    "id_image": "Cat_252964",
    "count_view": 0
  },
  {
    "link_thumb": "https://live.staticflickr.com/65535/50351792063_4e47471df4_n.jpg",
    "id_album": "-462831703",
    "description": "Cat_388436",
    "title": "Cat_388436",
    "link_img": "https://live.staticflickr.com/65535/50351792063_c067e384d0_o.jpg",
    "id_image": "Cat_388436",
    "count_view": 0
  },
  {
    "link_thumb": "https://live.staticflickr.com/65535/50019397997_553bc3d10a_n.jpg",
    "id_album": "-462831702",
    "description": "Cat_411427",
    "title": "Cat_411427",
    "link_img": "https://live.staticflickr.com/65535/50019397997_e5bac13eea_o.jpg",
    "id_image": "Cat_411427",
    "count_view": 0
  },
  {
    "link_thumb": "https://live.staticflickr.com/65535/50023640812_dd7d0ee82c_n.jpg",
    "id_album": "1656131695",
    "description": "Seagull_656663",
    "title": "Seagull_656663",
    "link_img": "https://live.staticflickr.com/65535/50023640812_11f2af823c_o.jpg",
    "id_image": "Seagull_656663",
    "count_view": 0
  },
  {
    "link_thumb": "https://live.staticflickr.com/65535/50018160416_073af1e47e_n.jpg",
    "id_album": "-462831702",
    "description": "Cat_410649",
    "title": "Cat_410649",
    "link_img": "https://live.staticflickr.com/65535/50018160416_1d6e4228a4_o.jpg",
    "id_image": "Cat_410649",
    "count_view": 0
  },
  {
    "link_thumb": "https://live.staticflickr.com/65535/50022119887_64a57636ac_n.jpg",
    "id_album": "-1882491687",
    "description": "Ladybug_775097",
    "title": "Ladybug_775097",
    "link_img": "https://live.staticflickr.com/65535/50022119887_e6de5d493e_o.jpg",
    "id_image": "Ladybug_775097",
    "count_view": 0
  },
  {
    "link_thumb": "https://live.staticflickr.com/65535/50020476911_3dc423d1fa_n.jpg",
    "id_album": "-149330231",
    "description": "Dog_679479",
    "title": "Dog_679479",
    "link_img": "https://live.staticflickr.com/65535/50020476911_7caa5e1dd8_o.jpg",
    "id_image": "Dog_679479",
    "count_view": 0
  },
  {
    "link_thumb": "https://live.staticflickr.com/65535/50017856332_f81664d9a7_n.jpg",
    "id_album": "-401151552",
    "description": "Butterfly_431667",
    "title": "Butterfly_431667",
    "link_img": "https://live.staticflickr.com/65535/50017856332_e803026aab_o.jpg",
    "id_image": "Butterfly_431667",
    "count_view": 0
  },
  {
    "link_thumb": "https://live.staticflickr.com/65535/50021894751_e8431a496a_n.jpg",
    "id_album": "1392348450",
    "description": "Leopard_279496",
    "title": "Leopard_279496",
    "link_img": "https://live.staticflickr.com/65535/50021894751_5c884b08ce_o.jpg",
    "id_image": "Leopard_279496",
    "count_view": 0
  },
  {
    "link_thumb": "https://live.staticflickr.com/65535/50022173882_2e2fc27ca6_n.jpg",
    "id_album": "1392348450",
    "description": "Leopard_386763",
    "title": "Leopard_386763",
    "link_img": "https://live.staticflickr.com/65535/50022173882_cc7d0c6d0e_o.jpg",
    "id_image": "Leopard_386763",
    "count_view": 0
  },
  {
    "link_thumb": "https://live.staticflickr.com/65535/50020112828_1ff047072e_n.jpg",
    "id_album": "1168627767",
    "description": "Duck_206083",
    "title": "Duck_206083",
    "link_img": "https://live.staticflickr.com/65535/50020112828_b3434ffb58_o.jpg",
    "id_image": "Duck_206083",
    "count_view": 0
  },
  {
    "link_thumb": "https://live.staticflickr.com/65535/50017732761_fb6f85720e_n.jpg",
    "id_album": "189994021",
    "description": "Cardinal_380994",
    "title": "Cardinal_380994",
    "link_img": "https://live.staticflickr.com/65535/50017732761_8de43ce62b_o.jpg",
    "id_image": "Cardinal_380994",
    "count_view": 0
  },
  {
    "link_thumb": "https://live.staticflickr.com/65535/50021422402_850f1c0473_n.jpg",
    "id_album": "-462831704",
    "description": "Cat_687069",
    "title": "Cat_687069",
    "link_img": "https://live.staticflickr.com/65535/50021422402_8dc2d2d1dc_o.jpg",
    "id_image": "Cat_687069",
    "count_view": 0
  },
  {
    "link_thumb": "https://live.staticflickr.com/65535/50021429557_34d34be03d_n.jpg",
    "id_album": "-462831704",
    "description": "Cat_697454",
    "title": "Cat_697454",
    "link_img": "https://live.staticflickr.com/65535/50021429557_81fbc49d9d_o.jpg",
    "id_image": "Cat_697454",
    "count_view": 0
  },
  {
    "link_thumb": "https://live.staticflickr.com/65535/50021995523_79d98f0e40_n.jpg",
    "id_album": "-358592519",
    "description": "Panda_466397",
    "title": "Panda_466397",
    "link_img": "https://live.staticflickr.com/65535/50021995523_5414e7b1d8_o.jpg",
    "id_image": "Panda_466397",
    "count_view": 0
  },
  {
    "link_thumb": "https://live.staticflickr.com/65535/50020274661_e8ee0d6975_n.jpg",
    "id_album": "-149330232",
    "description": "Dog_338340",
    "title": "Dog_338340",
    "link_img": "https://live.staticflickr.com/65535/50020274661_b68c9f365c_o.jpg",
    "id_image": "Dog_338340",
    "count_view": 0
  },
  {
    "link_thumb": "https://live.staticflickr.com/65535/50019909222_02129b6643_n.jpg",
    "id_album": "-766919393",
    "description": "Chameleon_462044",
    "title": "Chameleon_462044",
    "link_img": "https://live.staticflickr.com/65535/50019909222_32aa8a50eb_o.jpg",
    "id_image": "Chameleon_462044",
    "count_view": 0
  },
  {
    "link_thumb": "https://live.staticflickr.com/65535/50021236821_3665f00708_n.jpg",
    "id_album": "-462831703",
    "description": "Cat_774214",
    "title": "Cat_774214",
    "link_img": "https://live.staticflickr.com/65535/50021236821_ddd515b5c1_o.jpg",
    "id_image": "Cat_774214",
    "count_view": 0
  },
  {
    "link_thumb": "https://live.staticflickr.com/65535/50018868193_cdc7d3a677_n.jpg",
    "id_album": "-462831703",
    "description": "Cat_887810",
    "title": "Cat_887810",
    "link_img": "https://live.staticflickr.com/65535/50018868193_65d4696829_o.jpg",
    "id_image": "Cat_887810",
    "count_view": 0
  },
  {
    "link_thumb": "https://live.staticflickr.com/65535/50020854522_cb8dbd5a16_n.jpg",
    "id_album": "-1859457960",
    "description": "Dove_444133",
    "title": "Dove_444133",
    "link_img": "https://live.staticflickr.com/65535/50020854522_6166aaefbb_o.jpg",
    "id_image": "Dove_444133",
    "count_view": 0
  },
  {
    "link_thumb": "https://live.staticflickr.com/65535/50019965188_f31a10d728_n.jpg",
    "id_album": "-149330231",
    "description": "Dog_729980",
    "title": "Dog_729980",
    "link_img": "https://live.staticflickr.com/65535/50019965188_52f649f260_o.jpg",
    "id_image": "Dog_729980",
    "count_view": 0
  },
  {
    "link_thumb": "https://live.staticflickr.com/65535/50021352372_8d0e5480b7_n.jpg",
    "id_album": "-462831704",
    "description": "Cat_541864",
    "title": "Cat_541864",
    "link_img": "https://live.staticflickr.com/65535/50021352372_fba9dec402_o.jpg",
    "id_image": "Cat_541864",
    "count_view": 0
  },
  {
    "link_thumb": "https://live.staticflickr.com/65535/50022638663_a7b4d02464_n.jpg",
    "id_album": "-434874555",
    "description": "RainbowLorikeet_707477",
    "title": "RainbowLorikeet_707477",
    "link_img": "https://live.staticflickr.com/65535/50022638663_01419bcf1a_o.jpg",
    "id_image": "RainbowLorikeet_707477",
    "count_view": 0
  },
  {
    "link_thumb": "https://live.staticflickr.com/65535/50017995056_dbcc6d4859_n.jpg",
    "id_album": "-462831702",
    "description": "Cat_333397",
    "title": "Cat_333397",
    "link_img": "https://live.staticflickr.com/65535/50017995056_cf3b61a90b_o.jpg",
    "id_image": "Cat_333397",
    "count_view": 0
  },
  {
    "link_thumb": "https://live.staticflickr.com/65535/50018191837_e5fc19f1b2_n.jpg",
    "id_album": "-462831702",
    "description": "Cat_275351",
    "title": "Cat_275351",
    "link_img": "https://live.staticflickr.com/65535/50018191837_1abcbc5e04_o.jpg",
    "id_image": "Cat_275351",
    "count_view": 0
  },
  {
    "link_thumb": "https://live.staticflickr.com/65535/50019602687_4c7ff065ac_n.jpg",
    "id_album": "-462831703",
    "description": "Cat_865953",
    "title": "Cat_865953",
    "link_img": "https://live.staticflickr.com/65535/50019602687_472b44921e_o.jpg",
    "id_image": "Cat_865953",
    "count_view": 0
  },
  {
    "link_thumb": "https://live.staticflickr.com/65535/50351708058_ee40ba910b_n.jpg",
    "id_album": "-462831703",
    "description": "Cat_170912",
    "title": "Cat_170912",
    "link_img": "https://live.staticflickr.com/65535/50351708058_e4de006dcb_o.jpg",
    "id_image": "Cat_170912",
    "count_view": 0
  },
  {
    "link_thumb": "https://live.staticflickr.com/65535/50016485648_43c56ba2be_n.jpg",
    "id_album": "-422187261",
    "description": "Bear_253419",
    "title": "Bear_253419",
    "link_img": "https://live.staticflickr.com/65535/50016485648_a97590d142_o.jpg",
    "id_image": "Bear_253419",
    "count_view": 0
  },
  {
    "link_thumb": "https://live.staticflickr.com/65535/50017004228_ddfecf51fc_n.jpg",
    "id_album": "-401151552",
    "description": "Butterfly_110228",
    "title": "Butterfly_110228",
    "link_img": "https://live.staticflickr.com/65535/50017004228_b084a4c06a_o.jpg",
    "id_image": "Butterfly_110228",
    "count_view": 0
  },
  {
    "link_thumb": "https://live.staticflickr.com/65535/50024150256_bf96e11e26_n.jpg",
    "id_album": "405170427",
    "description": "Tiger_525106",
    "title": "Tiger_525106",
    "link_img": "https://live.staticflickr.com/65535/50024150256_4ab2ee142c_o.jpg",
    "id_image": "Tiger_525106",
    "count_view": 0
  },
  {
    "link_thumb": "https://live.staticflickr.com/65535/50021100853_6ddbb48f8e_n.jpg",
    "id_album": "-712553376",
    "description": "Husky_914552",
    "title": "Husky_914552",
    "link_img": "https://live.staticflickr.com/65535/50021100853_966de8b0c2_o.jpg",
    "id_image": "Husky_914552",
    "count_view": 0
  },
  {
    "link_thumb": "https://live.staticflickr.com/65535/50016661353_90ca66817f_n.jpg",
    "id_album": "325287329",
    "description": "Beetle_529442",
    "title": "Beetle_529442",
    "link_img": "https://live.staticflickr.com/65535/50016661353_9911869594_o.jpg",
    "id_image": "Beetle_529442",
    "count_view": 0
  },
  {
    "link_thumb": "https://live.staticflickr.com/65535/50021536277_65073c645a_n.jpg",
    "id_album": "-405626519",
    "description": "GermanShepherd_275612",
    "title": "GermanShepherd_275612",
    "link_img": "https://live.staticflickr.com/65535/50021536277_e65b810aff_o.jpg",
    "id_image": "GermanShepherd_275612",
    "count_view": 0
  },
  {
    "link_thumb": "https://live.staticflickr.com/65535/50020523183_59b912edeb_n.jpg",
    "id_album": "844170697",
    "description": "Frog_505718",
    "title": "Frog_505718",
    "link_img": "https://live.staticflickr.com/65535/50020523183_6336860cf3_o.jpg",
    "id_image": "Frog_505718",
    "count_view": 0
  },
  {
    "link_thumb": "https://live.staticflickr.com/65535/50019156988_c144ed42c9_n.jpg",
    "id_album": "-1481843714",
    "description": "Cheetah_282650",
    "title": "Cheetah_282650",
    "link_img": "https://live.staticflickr.com/65535/50019156988_603a7d6bfd_o.jpg",
    "id_image": "Cheetah_282650",
    "count_view": 0
  },
  {
    "link_thumb": "https://live.staticflickr.com/65535/50021483406_8deb56554c_n.jpg",
    "id_album": "-1933715543",
    "description": "Horse_294050",
    "title": "Horse_294050",
    "link_img": "https://live.staticflickr.com/65535/50021483406_c59ceb9b94_o.jpg",
    "id_image": "Horse_294050",
    "count_view": 0
  },
  {
    "link_thumb": "https://live.staticflickr.com/65535/50017594513_e9530f7783_n.jpg",
    "id_album": "-462831702",
    "description": "Cat_391399",
    "title": "Cat_391399",
    "link_img": "https://live.staticflickr.com/65535/50017594513_466c1b0686_o.jpg",
    "id_image": "Cat_391399",
    "count_view": 0
  },
  {
    "link_thumb": "https://live.staticflickr.com/65535/50020880587_9ab248bdbf_n.jpg",
    "id_album": "-405058657",
    "description": "Dragonfly_451573",
    "title": "Dragonfly_451573",
    "link_img": "https://live.staticflickr.com/65535/50020880587_68ded33d6b_o.jpg",
    "id_image": "Dragonfly_451573",
    "count_view": 0
  },
  {
    "link_thumb": "https://live.staticflickr.com/65535/50017777867_2edf877008_n.jpg",
    "id_album": "1696155652",
    "description": "Boxer_245785",
    "title": "Boxer_245785",
    "link_img": "https://live.staticflickr.com/65535/50017777867_1cc7748be3_o.jpg",
    "id_image": "Boxer_245785",
    "count_view": 0
  },
  {
    "link_thumb": "https://live.staticflickr.com/65535/50023452582_3fc0d0c059_n.jpg",
    "id_album": "-1862965835",
    "description": "RedEyedTreeFrog_874929",
    "title": "RedEyedTreeFrog_874929",
    "link_img": "https://live.staticflickr.com/65535/50023452582_ceea8c218b_o.jpg",
    "id_image": "RedEyedTreeFrog_874929",
    "count_view": 0
  },
  {
    "link_thumb": "https://live.staticflickr.com/65535/50017298807_9f7aa62d91_n.jpg",
    "id_album": "-422187261",
    "description": "Bear_383125",
    "title": "Bear_383125",
    "link_img": "https://live.staticflickr.com/65535/50017298807_067214674f_o.jpg",
    "id_image": "Bear_383125",
    "count_view": 0
  },
  {
    "link_thumb": "https://live.staticflickr.com/65535/50020402321_b4472db5fb_n.jpg",
    "id_album": "-149330231",
    "description": "Dog_423375",
    "title": "Dog_423375",
    "link_img": "https://live.staticflickr.com/65535/50020402321_b0f0371f3a_o.jpg",
    "id_image": "Dog_423375",
    "count_view": 0
  },
  {
    "link_thumb": "https://live.staticflickr.com/65535/50016290023_5ff9679f06_n.jpg",
    "id_album": "-1473450542",
    "description": "Alpaca_548410",
    "title": "Alpaca_548410",
    "link_img": "https://live.staticflickr.com/65535/50016290023_7a69be035d_o.jpg",
    "id_image": "Alpaca_548410",
    "count_view": 0
  },
  {
    "link_thumb": "https://live.staticflickr.com/65535/50017440928_73c40fe8cd_n.jpg",
    "id_album": "-462831702",
    "description": "Cat_323972",
    "title": "Cat_323972",
    "link_img": "https://live.staticflickr.com/65535/50017440928_8b46bd739b_o.jpg",
    "id_image": "Cat_323972",
    "count_view": 0
  },
  {
    "link_thumb": "https://live.staticflickr.com/65535/50019754573_046f0d01c3_n.jpg",
    "id_album": "-149330232",
    "description": "Dog_343882",
    "title": "Dog_343882",
    "link_img": "https://live.staticflickr.com/65535/50019754573_5a41eb467a_o.jpg",
    "id_image": "Dog_343882",
    "count_view": 0
  },
  {
    "link_thumb": "https://live.staticflickr.com/65535/50019781197_34921492f0_n.jpg",
    "id_album": "-462831703",
    "description": "Cat_960301",
    "title": "Cat_960301",
    "link_img": "https://live.staticflickr.com/65535/50019781197_59060ef791_o.jpg",
    "id_image": "Cat_960301",
    "count_view": 0
  },
  {
    "link_thumb": "https://live.staticflickr.com/65535/50020631811_a42af0d2de_n.jpg",
    "id_album": "-405058657",
    "description": "Dragonfly_588140",
    "title": "Dragonfly_588140",
    "link_img": "https://live.staticflickr.com/65535/50020631811_e83c7c95ca_o.jpg",
    "id_image": "Dragonfly_588140",
    "count_view": 0
  },
  {
    "link_thumb": "https://live.staticflickr.com/65535/50016574788_567c1eaf75_n.jpg",
    "id_album": "-422187261",
    "description": "Bear_922156",
    "title": "Bear_922156",
    "link_img": "https://live.staticflickr.com/65535/50016574788_c913fa5064_o.jpg",
    "id_image": "Bear_922156",
    "count_view": 0
  },
  {
    "link_thumb": "https://live.staticflickr.com/65535/50017705156_61dac4b663_n.jpg",
    "id_album": "-401151552",
    "description": "Butterfly_926772",
    "title": "Butterfly_926772",
    "link_img": "https://live.staticflickr.com/65535/50017705156_1a0d581b12_o.jpg",
    "id_image": "Butterfly_926772",
    "count_view": 0
  },
  {
    "link_thumb": "https://live.staticflickr.com/65535/50019947942_ab9d3afae4_n.jpg",
    "id_album": "-1481843714",
    "description": "Cheetah_337467",
    "title": "Cheetah_337467",
    "link_img": "https://live.staticflickr.com/65535/50019947942_8212cbb5d0_o.jpg",
    "id_image": "Cheetah_337467",
    "count_view": 0
  },
  {
    "link_thumb": "https://live.staticflickr.com/65535/50024016457_6b27cd000b_n.jpg",
    "id_album": "-1082521515",
    "description": "Spider_411036",
    "title": "Spider_411036",
    "link_img": "https://live.staticflickr.com/65535/50024016457_527e4b202f_o.jpg",
    "id_image": "Spider_411036",
    "count_view": 0
  },
  {
    "link_thumb": "https://live.staticflickr.com/65535/50022191522_26b735e594_n.jpg",
    "id_album": "1392348450",
    "description": "Leopard_541936",
    "title": "Leopard_541936",
    "link_img": "https://live.staticflickr.com/65535/50022191522_b486f8b757_o.jpg",
    "id_image": "Leopard_541936",
    "count_view": 0
  },
  {
    "link_thumb": "https://live.staticflickr.com/65535/50021257008_53ecc17f80_n.jpg",
    "id_album": "770105808",
    "description": "Kingfisher_416142",
    "title": "Kingfisher_416142",
    "link_img": "https://live.staticflickr.com/65535/50021257008_e4fc28819a_o.jpg",
    "id_image": "Kingfisher_416142",
    "count_view": 0
  },
  {
    "link_thumb": "https://live.staticflickr.com/65535/50017935556_8a93d04ab2_n.jpg",
    "id_album": "-462831702",
    "description": "Cat_280304",
    "title": "Cat_280304",
    "link_img": "https://live.staticflickr.com/65535/50017935556_6888ef6b35_o.jpg",
    "id_image": "Cat_280304",
    "count_view": 0
  },
  {
    "link_thumb": "https://live.staticflickr.com/65535/50024155497_531cf6d8c3_n.jpg",
    "id_album": "702283289",
    "description": "Squirrel_529436",
    "title": "Squirrel_529436",
    "link_img": "https://live.staticflickr.com/65535/50024155497_0a91cb7055_o.jpg",
    "id_image": "Squirrel_529436",
    "count_view": 0
  },
  {
    "link_thumb": "https://live.staticflickr.com/65535/50016444753_2ccf20b99b_n.jpg",
    "id_album": "231236068",
    "description": "BaldEagle_901775",
    "title": "BaldEagle_901775",
    "link_img": "https://live.staticflickr.com/65535/50016444753_827846f48f_o.jpg",
    "id_image": "BaldEagle_901775",
    "count_view": 0
  },
  {
    "link_thumb": "https://live.staticflickr.com/65535/50016324078_df74f32f9f_n.jpg",
    "id_album": "-834314226",
    "description": "ArcticFox_760306",
    "title": "ArcticFox_760306",
    "link_img": "https://live.staticflickr.com/65535/50016324078_76b4de31c3_o.jpg",
    "id_image": "ArcticFox_760306",
    "count_view": 0
  },
  {
    "link_thumb": "https://live.staticflickr.com/65535/50022084017_387f353818_n.jpg",
    "id_album": "1307335982",
    "description": "LabradorRetriever_424847",
    "title": "LabradorRetriever_424847",
    "link_img": "https://live.staticflickr.com/65535/50022084017_0c8e0685c5_o.jpg",
    "id_image": "LabradorRetriever_424847",
    "count_view": 0
  },
  {
    "link_thumb": "https://live.staticflickr.com/65535/50021101383_7ca60d6ba7_n.jpg",
    "id_album": "-712553376",
    "description": "Husky_938573",
    "title": "Husky_938573",
    "link_img": "https://live.staticflickr.com/65535/50021101383_5e938a64bd_o.jpg",
    "id_image": "Husky_938573",
    "count_view": 0
  },
  {
    "link_thumb": "https://live.staticflickr.com/65535/50017934971_3ca1d4f79b_n.jpg",
    "id_album": "-462831702",
    "description": "Cat_278475",
    "title": "Cat_278475",
    "link_img": "https://live.staticflickr.com/65535/50017934971_34afb43443_o.jpg",
    "id_image": "Cat_278475",
    "count_view": 0
  },
  {
    "link_thumb": "https://live.staticflickr.com/65535/50022641118_a3b1cd8fc7_n.jpg",
    "id_album": "-434874555",
    "description": "RainbowLorikeet_898512",
    "title": "RainbowLorikeet_898512",
    "link_img": "https://live.staticflickr.com/65535/50022641118_68353c12a4_o.jpg",
    "id_image": "RainbowLorikeet_898512",
    "count_view": 0
  },
  {
    "link_thumb": "https://live.staticflickr.com/65535/50023920567_c7ba3b4b22_n.jpg",
    "id_album": "-1131363127",
    "description": "SnowLeopard_585145",
    "title": "SnowLeopard_585145",
    "link_img": "https://live.staticflickr.com/65535/50023920567_c707455cbd_o.jpg",
    "id_image": "SnowLeopard_585145",
    "count_view": 0
  },
  {
    "link_thumb": "https://live.staticflickr.com/65535/50016569148_bfddaa4984_n.jpg",
    "id_album": "-422187261",
    "description": "Bear_876821",
    "title": "Bear_876821",
    "link_img": "https://live.staticflickr.com/65535/50016569148_e39141c579_o.jpg",
    "id_image": "Bear_876821",
    "count_view": 0
  },
  {
    "link_thumb": "https://live.staticflickr.com/65535/50021633166_48b3a56026_n.jpg",
    "id_album": "-712553376",
    "description": "Husky_425358",
    "title": "Husky_425358",
    "link_img": "https://live.staticflickr.com/65535/50021633166_7b786b8d9a_o.jpg",
    "id_image": "Husky_425358",
    "count_view": 0
  },
  {
    "link_thumb": "https://live.staticflickr.com/65535/50021721232_74dec108db_n.jpg",
    "id_album": "-1933715543",
    "description": "Horse_215696",
    "title": "Horse_215696",
    "link_img": "https://live.staticflickr.com/65535/50021721232_0af26f630a_o.jpg",
    "id_image": "Horse_215696",
    "count_view": 0
  },
  {
    "link_thumb": "https://live.staticflickr.com/65535/50020728262_f9a5d960f1_n.jpg",
    "id_album": "-149330231",
    "description": "Dog_656567",
    "title": "Dog_656567",
    "link_img": "https://live.staticflickr.com/65535/50020728262_aa8cac2a4f_o.jpg",
    "id_image": "Dog_656567",
    "count_view": 0
  },
  {
    "link_thumb": "https://live.staticflickr.com/65535/50021701206_3302f15a37_n.jpg",
    "id_album": "1658866795",
    "description": "Insect_495930",
    "title": "Insect_495930",
    "link_img": "https://live.staticflickr.com/65535/50021701206_d9236a6b30_o.jpg",
    "id_image": "Insect_495930",
    "count_view": 0
  },
  {
    "link_thumb": "https://live.staticflickr.com/65535/50020174773_e6f3e46dc7_n.jpg",
    "id_album": "-39098563",
    "description": "Eagle_430529",
    "title": "Eagle_430529",
    "link_img": "https://live.staticflickr.com/65535/50020174773_01aa0f5c16_o.jpg",
    "id_image": "Eagle_430529",
    "count_view": 0
  },
  {
    "link_thumb": "https://live.staticflickr.com/65535/50351812963_29ebc210af_n.jpg",
    "id_album": "-462831703",
    "description": "Cat_423642",
    "title": "Cat_423642",
    "link_img": "https://live.staticflickr.com/65535/50351812963_155c1cc35e_o.jpg",
    "id_image": "Cat_423642",
    "count_view": 0
  },
  {
    "link_thumb": "https://live.staticflickr.com/65535/50020724811_580db5447a_n.jpg",
    "id_album": "-39098563",
    "description": "Eagle_847779",
    "title": "Eagle_847779",
    "link_img": "https://live.staticflickr.com/65535/50020724811_b3bda2caf3_o.jpg",
    "id_image": "Eagle_847779",
    "count_view": 0
  },
  {
    "link_thumb": "https://live.staticflickr.com/65535/50017226137_b69a5dfe95_n.jpg",
    "id_album": "231236068",
    "description": "BaldEagle_665990",
    "title": "BaldEagle_665990",
    "link_img": "https://live.staticflickr.com/65535/50017226137_db63dd5384_o.jpg",
    "id_image": "BaldEagle_665990",
    "count_view": 0
  },
  {
    "link_thumb": "https://live.staticflickr.com/65535/50017992446_2d9847a983_n.jpg",
    "id_album": "-462831702",
    "description": "Cat_332170",
    "title": "Cat_332170",
    "link_img": "https://live.staticflickr.com/65535/50017992446_db3c3733ee_o.jpg",
    "id_image": "Cat_332170",
    "count_view": 0
  },
  {
    "link_thumb": "https://live.staticflickr.com/65535/50022933418_c8ef4175fa_n.jpg",
    "id_album": "-755466332",
    "description": "Sheep_363527",
    "title": "Sheep_363527",
    "link_img": "https://live.staticflickr.com/65535/50022933418_e973d0eb26_o.jpg",
    "id_image": "Sheep_363527",
    "count_view": 0
  },
  {
    "link_thumb": "https://live.staticflickr.com/65535/50017482851_71970d9419_n.jpg",
    "id_album": "782930701",
    "description": "BorderCollie_532792",
    "title": "BorderCollie_532792",
    "link_img": "https://live.staticflickr.com/65535/50017482851_2b1638d77c_o.jpg",
    "id_image": "BorderCollie_532792",
    "count_view": 0
  },
  {
    "link_thumb": "https://live.staticflickr.com/65535/50017605876_cd907327f4_n.jpg",
    "id_album": "-401151552",
    "description": "Butterfly_467026",
    "title": "Butterfly_467026",
    "link_img": "https://live.staticflickr.com/65535/50017605876_0688957476_o.jpg",
    "id_image": "Butterfly_467026",
    "count_view": 0
  },
  {
    "link_thumb": "https://live.staticflickr.com/65535/50017547566_91d4e4fb7d_n.jpg",
    "id_album": "-401151552",
    "description": "Butterfly_234447",
    "title": "Butterfly_234447",
    "link_img": "https://live.staticflickr.com/65535/50017547566_6a4ce971ac_o.jpg",
    "id_image": "Butterfly_234447",
    "count_view": 0
  },
  {
    "link_thumb": "https://live.staticflickr.com/65535/50019502398_0037c24d78_n.jpg",
    "id_album": "1903411565",
    "description": "Deer_652303",
    "title": "Deer_652303",
    "link_img": "https://live.staticflickr.com/65535/50019502398_8258520c3c_o.jpg",
    "id_image": "Deer_652303",
    "count_view": 0
  },
  {
    "link_thumb": "https://live.staticflickr.com/65535/50020366238_589737bfe1_n.jpg",
    "id_album": "-1758557371",
    "description": "Flamingo_732484",
    "title": "Flamingo_732484",
    "link_img": "https://live.staticflickr.com/65535/50020366238_809013aeb0_o.jpg",
    "id_image": "Flamingo_732484",
    "count_view": 0
  },
  {
    "link_thumb": "https://live.staticflickr.com/65535/50021430577_f39922a034_n.jpg",
    "id_album": "-462831704",
    "description": "Cat_697617",
    "title": "Cat_697617",
    "link_img": "https://live.staticflickr.com/65535/50021430577_40ff91b568_o.jpg",
    "id_image": "Cat_697617",
    "count_view": 0
  },
  {
    "link_thumb": "https://live.staticflickr.com/65535/50019785756_4820432828_n.jpg",
    "id_album": "643379324",
    "description": "Clownfish_709204",
    "title": "Clownfish_709204",
    "link_img": "https://live.staticflickr.com/65535/50019785756_1c3125f9d1_o.jpg",
    "id_image": "Clownfish_709204",
    "count_view": 0
  },
  {
    "link_thumb": "https://live.staticflickr.com/65535/50018842428_654ef1cd54_n.jpg",
    "id_album": "-462831703",
    "description": "Cat_875876",
    "title": "Cat_875876",
    "link_img": "https://live.staticflickr.com/65535/50018842428_33c2894064_o.jpg",
    "id_image": "Cat_875876",
    "count_view": 0
  },
  {
    "link_thumb": "https://live.staticflickr.com/65535/50021860146_e13bdba78a_n.jpg",
    "id_album": "-1882491687",
    "description": "Ladybug_693140",
    "title": "Ladybug_693140",
    "link_img": "https://live.staticflickr.com/65535/50021860146_e98e2eecc3_o.jpg",
    "id_image": "Ladybug_693140",
    "count_view": 0
  },
  {
    "link_thumb": "https://live.staticflickr.com/65535/50020052877_343f0644a6_n.jpg",
    "id_album": "-1462118852",
    "description": "Corgi_817932",
    "title": "Corgi_817932",
    "link_img": "https://live.staticflickr.com/65535/50020052877_f1c476e16b_o.jpg",
    "id_image": "Corgi_817932",
    "count_view": 0
  },
  {
    "link_thumb": "https://live.staticflickr.com/65535/50022556038_dabcdd608c_n.jpg",
    "id_album": "-1940643173",
    "description": "Rabbit_346193",
    "title": "Rabbit_346193",
    "link_img": "https://live.staticflickr.com/65535/50022556038_6264e91f61_o.jpg",
    "id_image": "Rabbit_346193",
    "count_view": 0
  },
  {
    "link_thumb": "https://live.staticflickr.com/65535/50019895518_9719694ac3_n.jpg",
    "id_album": "-149330231",
    "description": "Dog_462642",
    "title": "Dog_462642",
    "link_img": "https://live.staticflickr.com/65535/50019895518_bd08e7df03_o.jpg",
    "id_image": "Dog_462642",
    "count_view": 0
  },
  {
    "link_thumb": "https://live.staticflickr.com/65535/50019691163_76b4296c60_n.jpg",
    "id_album": "-149330232",
    "description": "Dog_285634",
    "title": "Dog_285634",
    "link_img": "https://live.staticflickr.com/65535/50019691163_a6994a3dea_o.jpg",
    "id_image": "Dog_285634",
    "count_view": 0
  },
  {
    "link_thumb": "https://live.staticflickr.com/65535/50019771988_8567984a78_n.jpg",
    "id_album": "-149330232",
    "description": "Dog_354047",
    "title": "Dog_354047",
    "link_img": "https://live.staticflickr.com/65535/50019771988_2567c8b82b_o.jpg",
    "id_image": "Dog_354047",
    "count_view": 0
  },
  {
    "link_thumb": "https://live.staticflickr.com/65535/50017238898_aa636dd22c_n.jpg",
    "id_album": "-462831705",
    "description": "Cat_117113",
    "title": "Cat_117113",
    "link_img": "https://live.staticflickr.com/65535/50017238898_8f8a18e2bc_o.jpg",
    "id_image": "Cat_117113",
    "count_view": 0
  },
  {
    "link_thumb": "https://live.staticflickr.com/65535/50351853638_35eb834db3_n.jpg",
    "id_album": "-462831703",
    "description": "Cat_467519",
    "title": "Cat_467519",
    "link_img": "https://live.staticflickr.com/65535/50351853638_33642531a9_o.jpg",
    "id_image": "Cat_467519",
    "count_view": 0
  },
  {
    "link_thumb": "https://live.staticflickr.com/65535/50021404671_1ea8ca6f6f_n.jpg",
    "id_album": "-1168906494",
    "description": "Grasshopper_737962",
    "title": "Grasshopper_737962",
    "link_img": "https://live.staticflickr.com/65535/50021404671_3690618c61_o.jpg",
    "id_image": "Grasshopper_737962",
    "count_view": 0
  },
  {
    "link_thumb": "https://live.staticflickr.com/65535/50019938903_1194bff091_n.jpg",
    "id_album": "-149330231",
    "description": "Dog_652490",
    "title": "Dog_652490",
    "link_img": "https://live.staticflickr.com/65535/50019938903_f3b7b6a2e7_o.jpg",
    "id_image": "Dog_652490",
    "count_view": 0
  },
  {
    "link_thumb": "https://live.staticflickr.com/65535/50021023381_54e004bd99_n.jpg",
    "id_album": "-128218148",
    "description": "Fox_912153",
    "title": "Fox_912153",
    "link_img": "https://live.staticflickr.com/65535/50021023381_69a267496d_o.jpg",
    "id_image": "Fox_912153",
    "count_view": 0
  },
  {
    "link_thumb": "https://live.staticflickr.com/65535/50352527396_cb2cdc4469_n.jpg",
    "id_album": "-462831703",
    "description": "Cat_442649",
    "title": "Cat_442649",
    "link_img": "https://live.staticflickr.com/65535/50352527396_3efed9ac51_o.jpg",
    "id_image": "Cat_442649",
    "count_view": 0
  },
  {
    "link_thumb": "https://live.staticflickr.com/65535/50018003022_8c8a722fd4_n.jpg",
    "id_album": "-462831703",
    "description": "Cat_1002211",
    "title": "Cat_1002211",
    "link_img": "https://live.staticflickr.com/65535/50018003022_f6716f1e1c_o.jpg",
    "id_image": "Cat_1002211",
    "count_view": 0
  }
]