[
  {
    "link_thumb": "https://live.staticflickr.com/65535/50023275233_0ab7381d6c_n.jpg",
    "id_album": "702283289",
    "description": "Squirrel_262923",
    "title": "Squirrel_262923",
    "link_img": "https://live.staticflickr.com/65535/50023275233_9d04cef32e_o.jpg",
    "id_image": "Squirrel_262923",
    "count_view": 0
  },
  {
    "link_thumb": "https://live.staticflickr.com/65535/50019899163_13760d0e06_n.jpg",
    "id_album": "-149330231",
    "description": "Dog_464842",
    "title": "Dog_464842",
    "link_img": "https://live.staticflickr.com/65535/50019899163_03f215377f_o.jpg",
    "id_image": "Dog_464842",
    "count_view": 0
  },
  {
    "link_thumb": "https://live.staticflickr.com/65535/50019723833_6c076004eb_n.jpg",
    "id_album": "-149330232",
    "description": "Dog_332067",
    "title": "Dog_332067",
    "link_img": "https://live.staticflickr.com/65535/50019723833_89db7f9849_o.jpg",
    "id_image": "Dog_332067",
    "count_view": 0
  },
  {
    "link_thumb": "https://live.staticflickr.com/65535/50020695791_aa5420d820_n.jpg",
    "id_album": "-39098563",
    "description": "Eagle_352568",
    "title": "Eagle_352568",
    "link_img": "https://live.staticflickr.com/65535/50020695791_89c8a3d898_o.jpg",
    "id_image": "Eagle_352568",
    "count_view": 0
  },
  {
    "link_thumb": "https://live.staticflickr.com/65535/50018253487_94cda621e9_n.jpg",
    "id_album": "-462831702",
    "description": "Cat_333078",
    "title": "Cat_333078",
    "link_img": "https://live.staticflickr.com/65535/50018253487_1012ba0e83_o.jpg",
    "id_image": "Cat_333078",
    "count_view": 0
  },
  {
    "link_thumb": "https://live.staticflickr.com/65535/50021309156_0bdc6de42d_n.jpg",
    "id_album": "-405626519",
    "description": "GermanShepherd_903325",
    "title": "GermanShepherd_903325",
    "link_img": "https://live.staticflickr.com/65535/50021309156_c4d0ff1d2a_o.jpg",
    "id_image": "GermanShepherd_903325",
    "count_view": 0
  },
  {
    "link_thumb": "https://live.staticflickr.com/65535/50020891076_075a57f315_n.jpg",
    "id_album": "-1758557371",
    "description": "Flamingo_428054",
    "title": "Flamingo_428054",
    "link_img": "https://live.staticflickr.com/65535/50020891076_9e6a512fdf_o.jpg",
    "id_image": "Flamingo_428054",
    "count_view": 0
  },
  {
    "link_thumb": "https://live.staticflickr.com/65535/50022125992_4ae3281a5d_n.jpg",
    "id_album": "-1882491687",
    "description": "Ladybug_991034",
    "title": "Ladybug_991034",
    "link_img": "https://live.staticflickr.com/65535/50022125992_4a4de591c6_o.jpg",
    "id_image": "Ladybug_991034",
    "count_view": 0
  },
  {
    "link_thumb": "https://live.staticflickr.com/65535/50017403987_05c905bd0b_n.jpg",
    "id_album": "1699594607",
    "description": "Bee_512633",
    "title": "Bee_512633",
    "link_img": "https://live.staticflickr.com/65535/50017403987_dcb5f4bc0e_o.jpg",
    "id_image": "Bee_512633",
    "count_view": 0
  },
  {
    "link_thumb": "https://live.staticflickr.com/65535/50022226167_0dc3f73e11_n.jpg",
    "id_album": "416744915",
    "description": "Lion_167161",
    "title": "Lion_167161",
    "link_img": "https://live.staticflickr.com/65535/50022226167_b6e6129b2b_o.jpg",
    "id_image": "Lion_167161",
    "count_view": 0
  },
  {
    "link_thumb": "https://live.staticflickr.com/65535/50023692901_d1321a959e_n.jpg",
    "id_album": "1933547265",
    "description": "SnowyOwl_803337",
    "title": "SnowyOwl_803337",
    "link_img": "https://live.staticflickr.com/65535/50023692901_db6dee7df1_o.jpg",
    "id_image": "SnowyOwl_803337",
    "count_view": 0
  },
  {
    "link_thumb": "https://live.staticflickr.com/65535/50351774568_a1a8bd49fa_n.jpg",
    "id_album": "-462831703",
    "description": "Cat_365250",
    "title": "Cat_365250",
    "link_img": "https://live.staticflickr.com/65535/50351774568_bd5d4e4d9b_o.jpg",
    "id_image": "Cat_365250",
    "count_view": 0
  },
  {
    "link_thumb": "https://live.staticflickr.com/65535/50020966177_df9a747d1b_n.jpg",
    "id_album": "-39098563",
    "description": "Eagle_433036",
    "title": "Eagle_433036",
    "link_img": "https://live.staticflickr.com/65535/50020966177_8f97c41189_o.jpg",
    "id_image": "Eagle_433036",
    "count_view": 0
  },
  {
    "link_thumb": "https://live.staticflickr.com/65535/50022679402_5263f8cc07_n.jpg",
    "id_album": "-1384601601",
    "description": "Owl_414969",
    "title": "Owl_414969",
    "link_img": "https://live.staticflickr.com/65535/50022679402_2e1d051a59_o.jpg",
    "id_image": "Owl_414969",
    "count_view": 0
  },
  {
    "link_thumb": "https://live.staticflickr.com/65535/50352704961_0f1c68caf6_n.jpg",
    "id_album": "-462831702",
    "description": "Cat_75736",
    "title": "Cat_75736",
    "link_img": "https://live.staticflickr.com/65535/50352704961_09d24ed15d_o.jpg",
    "id_image": "Cat_75736",
    "count_view": 0
  },
  {
    "link_thumb": "https://live.staticflickr.com/65535/50023066616_1a1aba1ae4_n.jpg",
    "id_album": "-353898617",
    "description": "Puppy_865704",
    "title": "Puppy_865704",
    "link_img": "https://live.staticflickr.com/65535/50023066616_5f82be3ea7_o.jpg",
    "id_image": "Puppy_865704",
    "count_view": 0
  },
  {
    "link_thumb": "https://live.staticflickr.com/65535/50017312317_2e578a3fc5_n.jpg",
    "id_album": "-422187261",
    "description": "Bear_468359",
    "title": "Bear_468359",
    "link_img": "https://live.staticflickr.com/65535/50017312317_319a576e27_o.jpg",
    "id_image": "Bear_468359",
    "count_view": 0
  },
  {
    "link_thumb": "https://live.staticflickr.com/65535/50018125017_0ba0b2f67b_n.jpg",
    "id_album": "-462831705",
    "description": "Cat_216412",
    "title": "Cat_216412",
    "link_img": "https://live.staticflickr.com/65535/50018125017_ec1d7b2444_o.jpg",
    "id_image": "Cat_216412",
    "count_view": 0
  },
  {
    "link_thumb": "https://live.staticflickr.com/65535/50019982092_f807b9140a_n.jpg",
    "id_album": "-1481843714",
    "description": "Cheetah_739835",
    "title": "Cheetah_739835",
    "link_img": "https://live.staticflickr.com/65535/50019982092_e6d4b8232b_o.jpg",
    "id_image": "Cheetah_739835",
    "count_view": 0
  },
  {
    "link_thumb": "https://live.staticflickr.com/65535/50021561003_c988208e42_n.jpg",
    "id_album": "-656526748",
    "description": "Lizard_307577",
    "title": "Lizard_307577",
    "link_img": "https://live.staticflickr.com/65535/50021561003_743fa0a781_o.jpg",
    "id_image": "Lizard_307577",
    "count_view": 0
  },
  {
    "link_thumb": "https://live.staticflickr.com/65535/50352609512_c7865beb7e_n.jpg",
    "id_album": "-462831703",
    "description": "Cat_272311",
    "title": "Cat_272311",
    "link_img": "https://live.staticflickr.com/65535/50352609512_4763efe3e6_o.jpg",
    "id_image": "Cat_272311",
    "count_view": 0
  },
  {
    "link_thumb": "https://live.staticflickr.com/65535/50018617053_75dc43cbd1_n.jpg",
    "id_album": "-462831702",
    "description": "Cat_414935",
    "title": "Cat_414935",
    "link_img": "https://live.staticflickr.com/65535/50018617053_aed23b6117_o.jpg",
    "id_image": "Cat_414935",
    "count_view": 0
  },
  {
    "link_thumb": "https://live.staticflickr.com/65535/50020709497_c9e3f28bd6_n.jpg",
    "id_album": "-149330231",
    "description": "Dog_530222",
    "title": "Dog_530222",
    "link_img": "https://live.staticflickr.com/65535/50020709497_5957832cff_o.jpg",
    "id_image": "Dog_530222",
    "count_view": 0
  },
  {
    "link_thumb": "https://live.staticflickr.com/65535/50018113102_fd3870705c_n.jpg",
    "id_album": "-462831705",
    "description": "Cat_208864",
    "title": "Cat_208864",
    "link_img": "https://live.staticflickr.com/65535/50018113102_2d11315b22_o.jpg",
    "id_image": "Cat_208864",
    "count_view": 0
  },
  {
    "link_thumb": "https://live.staticflickr.com/65535/50019108173_1b7f52fc9e_n.jpg",
    "id_album": "-766919393",
    "description": "Chameleon_322160",
    "title": "Chameleon_322160",
    "link_img": "https://live.staticflickr.com/65535/50019108173_8991471e00_o.jpg",
    "id_image": "Chameleon_322160",
    "count_view": 0
  },
  {
    "link_thumb": "https://live.staticflickr.com/65535/50020972477_12784ee503_n.jpg",
    "id_album": "-39098563",
    "description": "Eagle_565393",
    "title": "Eagle_565393",
    "link_img": "https://live.staticflickr.com/65535/50020972477_ebe4440dc6_o.jpg",
    "id_image": "Eagle_565393",
    "count_view": 0
  },
  {
    "link_thumb": "https://live.staticflickr.com/65535/50018772448_cec71730cd_n.jpg",
    "id_album": "-462831704",
    "description": "Cat_534074",
    "title": "Cat_534074",
    "link_img": "https://live.staticflickr.com/65535/50018772448_7a085f8dd4_o.jpg",
    "id_image": "Cat_534074",
    "count_view": 0
  },
  {
    "link_thumb": "https://live.staticflickr.com/65535/50351781228_857062936e_n.jpg",
    "id_album": "-462831703",
    "description": "Cat_373083",
    "title": "Cat_373083",
    "link_img": "https://live.staticflickr.com/65535/50351781228_155bb0c5c5_o.jpg",
    "id_image": "Cat_373083",
    "count_view": 0
  },
  {
    "link_thumb": "https://live.staticflickr.com/65535/50017737761_cb887e33de_n.jpg",
    "id_album": "189994021",
    "description": "Cardinal_781504",
    "title": "Cardinal_781504",
    "link_img": "https://live.staticflickr.com/65535/50017737761_0be881db7d_o.jpg",
    "id_image": "Cardinal_781504",
    "count_view": 0
  },
  {
    "link_thumb": "https://live.staticflickr.com/65535/50020658937_181610431b_n.jpg",
    "id_album": "-149330231",
    "description": "Dog_421949",
    "title": "Dog_421949",
    "link_img": "https://live.staticflickr.com/65535/50020658937_9ba014d2ce_o.jpg",
    "id_image": "Dog_421949",
    "count_view": 0
  },
  {
    "link_thumb": "https://live.staticflickr.com/65535/50019789506_2d8a6093bb_n.jpg",
    "id_album": "-1462118852",
    "description": "Corgi_1002456",
    "title": "Corgi_1002456",
    "link_img": "https://live.staticflickr.com/65535/50019789506_a40f5fc2f4_o.jpg",
    "id_image": "Corgi_1002456",
    "count_view": 0
  },
  {
    "link_thumb": "https://live.staticflickr.com/65535/50018813368_770d84cc4e_n.jpg",
    "id_album": "-462831705",
    "description": "Cat_86546",
    "title": "Cat_86546",
    "link_img": "https://live.staticflickr.com/65535/50018813368_d5698176e2_o.jpg",
    "id_image": "Cat_86546",
    "count_view": 0
  },
  {
    "link_thumb": "https://live.staticflickr.com/65535/50017567826_2c6b9bc212_n.jpg",
    "id_album": "-401151552",
    "description": "Butterfly_354483",
    "title": "Butterfly_354483",
    "link_img": "https://live.staticflickr.com/65535/50017567826_da379b1076_o.jpg",
    "id_image": "Butterfly_354483",
    "count_view": 0
  },
  {
    "link_thumb": "https://live.staticflickr.com/65535/50017515248_e8d5c117c3_n.jpg",
    "id_album": "-462831702",
    "description": "Cat_355949",
    "title": "Cat_355949",
    "link_img": "https://live.staticflickr.com/65535/50017515248_8a4624a300_o.jpg",
    "id_image": "Cat_355949",
    "count_view": 0
  },
  {
    "link_thumb": "https://live.staticflickr.com/65535/50021884271_d64657c59d_n.jpg",
    "id_album": "1392348450",
    "description": "Leopard_172762",
    "title": "Leopard_172762",
    "link_img": "https://live.staticflickr.com/65535/50021884271_8e4c001ed9_o.jpg",
    "id_image": "Leopard_172762",
    "count_view": 0
  },
  {
    "link_thumb": "https://live.staticflickr.com/65535/50020248641_da208108d7_n.jpg",
    "id_album": "-149330232",
    "description": "Dog_329702",
    "title": "Dog_329702",
    "link_img": "https://live.staticflickr.com/65535/50020248641_8c4fbeb5ff_o.jpg",
    "id_image": "Dog_329702",
    "count_view": 0
  },
  {
    "link_thumb": "https://live.staticflickr.com/65535/50021163907_43e61936cd_n.jpg",
    "id_album": "-1758557371",
    "description": "Flamingo_750729",
    "title": "Flamingo_750729",
    "link_img": "https://live.staticflickr.com/65535/50021163907_c9526c0506_o.jpg",
    "id_image": "Flamingo_750729",
    "count_view": 0
  },
  {
    "link_thumb": "https://live.staticflickr.com/65535/50023332637_6bf33fe12b_n.jpg",
    "id_album": "-353898617",
    "description": "Puppy_992877",
    "title": "Puppy_992877",
    "link_img": "https://live.staticflickr.com/65535/50023332637_c7a24c5854_o.jpg",
    "id_image": "Puppy_992877",
    "count_view": 0
  },
  {
    "link_thumb": "https://live.staticflickr.com/65535/50021567247_f44e5fbdcb_n.jpg",
    "id_album": "-405626519",
    "description": "GermanShepherd_951100",
    "title": "GermanShepherd_951100",
    "link_img": "https://live.staticflickr.com/65535/50021567247_b4fa8f3c12_o.jpg",
    "id_image": "GermanShepherd_951100",
    "count_view": 0
  },
  {
    "link_thumb": "https://live.staticflickr.com/65535/50022424117_6dfef47dde_n.jpg",
    "id_album": "1894617400",
    "description": "Lynx_859373",
    "title": "Lynx_859373",
    "link_img": "https://live.staticflickr.com/65535/50022424117_4511f5604c_o.jpg",
    "id_image": "Lynx_859373",
    "count_view": 0
  },
  {
    "link_thumb": "https://live.staticflickr.com/65535/50020252002_2b9153a2cb_n.jpg",
    "id_album": "1903411565",
    "description": "Deer_343861",
    "title": "Deer_343861",
    "link_img": "https://live.staticflickr.com/65535/50020252002_7ff42ce15b_o.jpg",
    "id_image": "Deer_343861",
    "count_view": 0
  },
  {
    "link_thumb": "https://live.staticflickr.com/65535/50021225446_3a66a3ee04_n.jpg",
    "id_album": "-462831703",
    "description": "Cat_745211",
    "title": "Cat_745211",
    "link_img": "https://live.staticflickr.com/65535/50021225446_53c4552d60_o.jpg",
    "id_image": "Cat_745211",
    "count_view": 0
  },
  {
    "link_thumb": "https://live.staticflickr.com/65535/50017560081_d69be76c5b_n.jpg",
    "id_album": "-401151552",
    "description": "Butterfly_314908",
    "title": "Butterfly_314908",
    "link_img": "https://live.staticflickr.com/65535/50017560081_a3451c8d5f_o.jpg",
    "id_image": "Butterfly_314908",
    "count_view": 0
  },
  {
    "link_thumb": "https://live.staticflickr.com/65535/50021112511_a50a689272_n.jpg",
    "id_album": "-462831704",
    "description": "Cat_555317",
    "title": "Cat_555317",
    "link_img": "https://live.staticflickr.com/65535/50021112511_54926d5089_o.jpg",
    "id_image": "Cat_555317",
    "count_view": 0
  },
  {
    "link_thumb": "https://live.staticflickr.com/65535/50017843287_03854d83f7_n.jpg",
    "id_album": "-401151552",
    "description": "Butterfly_395126",
    "title": "Butterfly_395126",
    "link_img": "https://live.staticflickr.com/65535/50017843287_3e05b8e1e4_o.jpg",
    "id_image": "Butterfly_395126",
    "count_view": 0
  },
  {
    "link_thumb": "https://live.staticflickr.com/65535/50018179217_81787eab5d_n.jpg",
    "id_album": "-462831705",
    "description": "Cat_266652",
    "title": "Cat_266652",
    "link_img": "https://live.staticflickr.com/65535/50018179217_7949794751_o.jpg",
    "id_image": "Cat_266652",
    "count_view": 0
  },
  {
    "link_thumb": "https://live.staticflickr.com/65535/50021168996_68147b5b96_n.jpg",
    "id_album": "-462831704",
    "description": "Cat_686793",
    "title": "Cat_686793",
    "link_img": "https://live.staticflickr.com/65535/50021168996_4b20b8bfb4_o.jpg",
    "id_image": "Cat_686793",
    "count_view": 0
  },
  {
    "link_thumb": "https://live.staticflickr.com/65535/50020983036_c377668f6f_n.jpg",
    "id_album": "-128218148",
    "description": "Fox_612130",
    "title": "Fox_612130",
    "link_img": "https://live.staticflickr.com/65535/50020983036_c48929448a_o.jpg",
    "id_image": "Fox_612130",
    "count_view": 0
  },
  {
    "link_thumb": "https://live.staticflickr.com/65535/50021587168_a585b6f8cf_n.jpg",
    "id_album": "1894617400",
    "description": "Lynx_253210",
    "title": "Lynx_253210",
    "link_img": "https://live.staticflickr.com/65535/50021587168_cfed5b27e2_o.jpg",
    "id_image": "Lynx_253210",
    "count_view": 0
  },
  {
    "link_thumb": "https://live.staticflickr.com/65535/50019103133_953e22cc54_n.jpg",
    "id_album": "-766919393",
    "description": "Chameleon_105513",
    "title": "Chameleon_105513",
    "link_img": "https://live.staticflickr.com/65535/50019103133_47d671a9f3_o.jpg",
    "id_image": "Chameleon_105513",
    "count_view": 0
  },
  {
    "link_thumb": "https://live.staticflickr.com/65535/50020663802_67cc2c85ef_n.jpg",
    "id_album": "-149330231",
    "description": "Dog_427631",
    "title": "Dog_427631",
    "link_img": "https://live.staticflickr.com/65535/50020663802_cbbfac6c72_o.jpg",
    "id_image": "Dog_427631",
    "count_view": 0
  },
  {
    "link_thumb": "https://live.staticflickr.com/65535/50020654426_ed8642d7d7_n.jpg",
    "id_album": "1168627767",
    "description": "Duck_368579",
    "title": "Duck_368579",
    "link_img": "https://live.staticflickr.com/65535/50020654426_68bcd530ef_o.jpg",
    "id_image": "Duck_368579",
    "count_view": 0
  },
  {
    "link_thumb": "https://live.staticflickr.com/65535/50019680101_f3b21b0510_n.jpg",
    "id_album": "-1481843714",
    "description": "Cheetah_208081",
    "title": "Cheetah_208081",
    "link_img": "https://live.staticflickr.com/65535/50019680101_e555f96e6f_o.jpg",
    "id_image": "Cheetah_208081",
    "count_view": 0
  },
  {
    "link_thumb": "https://live.staticflickr.com/65535/50022861736_33da29a800_n.jpg",
    "id_album": "1008910300",
    "description": "PolarBear_796454",
    "title": "PolarBear_796454",
    "link_img": "https://live.staticflickr.com/65535/50022861736_68c9f50bd6_o.jpg",
    "id_image": "PolarBear_796454",
    "count_view": 0
  },
  {
    "link_thumb": "https://live.staticflickr.com/65535/50016411843_ab11e39e56_n.jpg",
    "id_album": "390697200",
    "description": "AustralianShepherd_819598",
    "title": "AustralianShepherd_819598",
    "link_img": "https://live.staticflickr.com/65535/50016411843_1a3390b6ea_o.jpg",
    "id_image": "AustralianShepherd_819598",
    "count_view": 0
  },
  {
    "link_thumb": "https://live.staticflickr.com/65535/50022432522_08dabc4af6_n.jpg",
    "id_album": "1894617400",
    "description": "Lynx_983508",
    "title": "Lynx_983508",
    "link_img": "https://live.staticflickr.com/65535/50022432522_71567a460e_o.jpg",
    "id_image": "Lynx_983508",
    "count_view": 0
  },
  {
    "link_thumb": "https://live.staticflickr.com/65535/50020579948_922b3e5954_n.jpg",
    "id_album": "-462831704",
    "description": "Cat_572029",
    "title": "Cat_572029",
    "link_img": "https://live.staticflickr.com/65535/50020579948_730a0a5806_o.jpg",
    "id_image": "Cat_572029",
    "count_view": 0
  },
  {
    "link_thumb": "https://live.staticflickr.com/65535/50023720668_a8636dbf42_n.jpg",
    "id_album": "-809392728",
    "description": "Titmouse_925210",
    "title": "Titmouse_925210",
    "link_img": "https://live.staticflickr.com/65535/50023720668_6866ecc5fa_o.jpg",
    "id_image": "Titmouse_925210",
    "count_view": 0
  },
  {
    "link_thumb": "https://live.staticflickr.com/65535/50019853767_8ab76a56c2_n.jpg",
    "id_album": "-1930903528",
    "description": "CatDog_883607",
    "title": "CatDog_883607",
    "link_img": "https://live.staticflickr.com/65535/50019853767_e49516aa87_o.jpg",
    "id_image": "CatDog_883607",
    "count_view": 0
  },
  {
    "link_thumb": "https://live.staticflickr.com/65535/50020813733_720ef3638f_n.jpg",
    "id_album": "2060159334",
    "description": "GoldenRetriever_716048",
    "title": "GoldenRetriever_716048",
    "link_img": "https://live.staticflickr.com/65535/50020813733_f948c48b54_o.jpg",
    "id_image": "GoldenRetriever_716048",
    "count_view": 0
  },
  {
    "link_thumb": "https://live.staticflickr.com/65535/50020419957_877a964fe7_n.jpg",
    "id_album": "-149330232",
    "description": "Dog_224001",
    "title": "Dog_224001",
    "link_img": "https://live.staticflickr.com/65535/50020419957_c99cba5b60_o.jpg",
    "id_image": "Dog_224001",
    "count_view": 0
  },
  {
    "link_thumb": "https://live.staticflickr.com/65535/50020464897_19b252e4c4_n.jpg",
    "id_album": "-149330232",
    "description": "Dog_275570",
    "title": "Dog_275570",
    "link_img": "https://live.staticflickr.com/65535/50020464897_f2284d1072_o.jpg",
    "id_image": "Dog_275570",
    "count_view": 0
  },
  {
    "link_thumb": "https://live.staticflickr.com/65535/50020525827_48e63a921a_n.jpg",
    "id_album": "-149330232",
    "description": "Dog_336428",
    "title": "Dog_336428",
    "link_img": "https://live.staticflickr.com/65535/50020525827_81e90c60d7_o.jpg",
    "id_image": "Dog_336428",
    "count_view": 0
  },
  {
    "link_thumb": "https://live.staticflickr.com/65535/50019267638_9b4767aa8d_n.jpg",
    "id_album": "-1462118852",
    "description": "Corgi_871861",
    "title": "Corgi_871861",
    "link_img": "https://live.staticflickr.com/65535/50019267638_b76fc9f03d_o.jpg",
    "id_image": "Corgi_871861",
    "count_view": 0
  },
  {
    "link_thumb": "https://live.staticflickr.com/65535/50018218912_b18ae0fe5f_n.jpg",
    "id_album": "-462831702",
    "description": "Cat_314482",
    "title": "Cat_314482",
    "link_img": "https://live.staticflickr.com/65535/50018218912_c513009e7d_o.jpg",
    "id_image": "Cat_314482",
    "count_view": 0
  },
  {
    "link_thumb": "https://live.staticflickr.com/65535/50020737302_f147e8888a_n.jpg",
    "id_album": "-149330231",
    "description": "Dog_686240",
    "title": "Dog_686240",
    "link_img": "https://live.staticflickr.com/65535/50020737302_3077bfea3a_o.jpg",
    "id_image": "Dog_686240",
    "count_view": 0
  },
  {
    "link_thumb": "https://live.staticflickr.com/65535/50020960546_7fa996217b_n.jpg",
    "id_album": "-128218148",
    "description": "Fox_397195",
    "title": "Fox_397195",
    "link_img": "https://live.staticflickr.com/65535/50020960546_5a367dabd2_o.jpg",
    "id_image": "Fox_397195",
    "count_view": 0
  },
  {
    "link_thumb": "https://live.staticflickr.com/65535/50352633097_ed18bc7cb8_n.jpg",
    "id_album": "-462831703",
    "description": "Cat_366828",
    "title": "Cat_366828",
    "link_img": "https://live.staticflickr.com/65535/50352633097_c33f8dd95e_o.jpg",
    "id_image": "Cat_366828",
    "count_view": 0
  },
  {
    "link_thumb": "https://live.staticflickr.com/65535/50019397222_047bea27c1_n.jpg",
    "id_album": "-462831702",
    "description": "Cat_411157",
    "title": "Cat_411157",
    "link_img": "https://live.staticflickr.com/65535/50019397222_4a7e397503_o.jpg",
    "id_image": "Cat_411157",
    "count_view": 0
  },
  {
    "link_thumb": "https://live.staticflickr.com/65535/50021309358_2bbe134e1e_n.jpg",
    "id_album": "-1882491687",
    "description": "Ladybug_437051",
    "title": "Ladybug_437051",
    "link_img": "https://live.staticflickr.com/65535/50021309358_0d3ec6ca2b_o.jpg",
    "id_image": "Ladybug_437051",
    "count_view": 0
  },
  {
    "link_thumb": "https://live.staticflickr.com/65535/50019884481_73002ed30b_n.jpg",
    "id_album": "1475096665",
    "description": "Crocodile_102764",
    "title": "Crocodile_102764",
    "link_img": "https://live.staticflickr.com/65535/50019884481_9921dcd4d7_o.jpg",
    "id_image": "Crocodile_102764",
    "count_view": 0
  },
  {
    "link_thumb": "https://live.staticflickr.com/65535/50022125072_0851dda586_n.jpg",
    "id_album": "-1882491687",
    "description": "Ladybug_927364",
    "title": "Ladybug_927364",
    "link_img": "https://live.staticflickr.com/65535/50022125072_2970fc9bed_o.jpg",
    "id_image": "Ladybug_927364",
    "count_view": 0
  },
  {
    "link_thumb": "https://live.staticflickr.com/65535/50021884747_81f68533f2_n.jpg",
    "id_album": "-712553376",
    "description": "Husky_408098",
    "title": "Husky_408098",
    "link_img": "https://live.staticflickr.com/65535/50021884747_8171762e66_o.jpg",
    "id_image": "Husky_408098",
    "count_view": 0
  },
  {
    "link_thumb": "https://live.staticflickr.com/65535/50019443478_a126b3a44f_n.jpg",
    "id_album": "1903411565",
    "description": "Deer_1000939",
    "title": "Deer_1000939",
    "link_img": "https://live.staticflickr.com/65535/50019443478_b7598c9717_o.jpg",
    "id_image": "Deer_1000939",
    "count_view": 0
  },
  {
    "link_thumb": "https://live.staticflickr.com/65535/50021288478_65f46eafc6_n.jpg",
    "id_album": "1307335982",
    "description": "LabradorRetriever_696232",
    "title": "LabradorRetriever_696232",
    "link_img": "https://live.staticflickr.com/65535/50021288478_e8e6376e26_o.jpg",
    "id_image": "LabradorRetriever_696232",
    "count_view": 0
  },
  {
    "link_thumb": "https://live.staticflickr.com/65535/50021616342_a631092448_n.jpg",
    "id_album": "2060159334",
    "description": "GoldenRetriever_864309",
    "title": "GoldenRetriever_864309",
    "link_img": "https://live.staticflickr.com/65535/50021616342_312406da14_o.jpg",
    "id_image": "GoldenRetriever_864309",
    "count_view": 0
  },
  {
    "link_thumb": "https://live.staticflickr.com/65535/50021152696_35f666e6e0_n.jpg",
    "id_album": "-462831704",
    "description": "Cat_655407",
    "title": "Cat_655407",
    "link_img": "https://live.staticflickr.com/65535/50021152696_52915b52fd_o.jpg",
    "id_image": "Cat_655407",
    "count_view": 0
  },
  {
    "link_thumb": "https://live.staticflickr.com/65535/50017944291_b8eb4a4f2c_n.jpg",
    "id_album": "-462831702",
    "description": "Cat_292908",
    "title": "Cat_292908",
    "link_img": "https://live.staticflickr.com/65535/50017944291_026e924c9e_o.jpg",
    "id_image": "Cat_292908",
    "count_view": 0
  },
  {
    "link_thumb": "https://live.staticflickr.com/65535/50020402781_193d27420a_n.jpg",
    "id_album": "-149330231",
    "description": "Dog_424030",
    "title": "Dog_424030",
    "link_img": "https://live.staticflickr.com/65535/50020402781_2b5fb8d462_o.jpg",
    "id_image": "Dog_424030",
    "count_view": 0
  },
  {
    "link_thumb": "https://live.staticflickr.com/65535/50017042408_c072650857_n.jpg",
    "id_album": "-401151552",
    "description": "Butterfly_357037",
    "title": "Butterfly_357037",
    "link_img": "https://live.staticflickr.com/65535/50017042408_1c4335fcd3_o.jpg",
    "id_image": "Butterfly_357037",
    "count_view": 0
  },
  {
    "link_thumb": "https://live.staticflickr.com/65535/50020889342_a44d497690_n.jpg",
    "id_album": "-405058657",
    "description": "Dragonfly_588147",
    "title": "Dragonfly_588147",
    "link_img": "https://live.staticflickr.com/65535/50020889342_822dcb7cdd_o.jpg",
    "id_image": "Dragonfly_588147",
    "count_view": 0
  },
  {
    "link_thumb": "https://live.staticflickr.com/65535/50019617641_1cfffa21da_n.jpg",
    "id_album": "1889777354",
    "description": "CGI_106358",
    "title": "CGI_106358",
    "link_img": "https://live.staticflickr.com/65535/50019617641_f410f76494_o.jpg",
    "id_image": "CGI_106358",
    "count_view": 0
  },
  {
    "link_thumb": "https://live.staticflickr.com/65535/50020197596_fb317e9b52_n.jpg",
    "id_album": "-149330232",
    "description": "Dog_266727",
    "title": "Dog_266727",
    "link_img": "https://live.staticflickr.com/65535/50020197596_1b0e923acb_o.jpg",
    "id_image": "Dog_266727",
    "count_view": 0
  },
  {
    "link_thumb": "https://live.staticflickr.com/65535/50020449538_cbb6680587_n.jpg",
    "id_album": "-128218148",
    "description": "Fox_705825",
    "title": "Fox_705825",
    "link_img": "https://live.staticflickr.com/65535/50020449538_79ed8edebd_o.jpg",
    "id_image": "Fox_705825",
    "count_view": 0
  },
  {
    "link_thumb": "https://live.staticflickr.com/65535/50017983922_cf8f56c209_n.jpg",
    "id_album": "-1131161368",
    "description": "Camel_106463",
    "title": "Camel_106463",
    "link_img": "https://live.staticflickr.com/65535/50017983922_662528dc6a_o.jpg",
    "id_image": "Camel_106463",
    "count_view": 0
  },
  {
    "link_thumb": "https://live.staticflickr.com/65535/50021191573_bc27aa441b_n.jpg",
    "id_album": "-843028318",
    "description": "Jaguar_599247",
    "title": "Jaguar_599247",
    "link_img": "https://live.staticflickr.com/65535/50021191573_b0628347ac_o.jpg",
    "id_image": "Jaguar_599247",
    "count_view": 0
  },
  {
    "link_thumb": "https://live.staticflickr.com/65535/50021936342_e86aaf3fbf_n.jpg",
    "id_album": "1658866795",
    "description": "Insect_403940",
    "title": "Insect_403940",
    "link_img": "https://live.staticflickr.com/65535/50021936342_8c92396d07_o.jpg",
    "id_image": "Insect_403940",
    "count_view": 0
  },
  {
    "link_thumb": "https://live.staticflickr.com/65535/50023700153_95eb66d10f_n.jpg",
    "id_album": "405170427",
    "description": "Tiger_928202",
    "title": "Tiger_928202",
    "link_img": "https://live.staticflickr.com/65535/50023700153_5914e77d37_o.jpg",
    "id_image": "Tiger_928202",
    "count_view": 0
  },
  {
    "link_thumb": "https://live.staticflickr.com/65535/50022197006_101ce6d4ab_n.jpg",
    "id_album": "-784970094",
    "description": "Monkey_264478",
    "title": "Monkey_264478",
    "link_img": "https://live.staticflickr.com/65535/50022197006_201508170a_o.jpg",
    "id_image": "Monkey_264478",
    "count_view": 0
  },
  {
    "link_thumb": "https://live.staticflickr.com/65535/50016958638_8a4b803050_n.jpg",
    "id_album": "782930701",
    "description": "BorderCollie_684747",
    "title": "BorderCollie_684747",
    "link_img": "https://live.staticflickr.com/65535/50016958638_07916b00cb_o.jpg",
    "id_image": "BorderCollie_684747",
    "count_view": 0
  },
  {
    "link_thumb": "https://live.staticflickr.com/65535/50019558442_651c5e813e_n.jpg",
    "id_album": "-462831704",
    "description": "Cat_533003",
    "title": "Cat_533003",
    "link_img": "https://live.staticflickr.com/65535/50019558442_3185de89de_o.jpg",
    "id_image": "Cat_533003",
    "count_view": 0
  },
  {
    "link_thumb": "https://live.staticflickr.com/65535/50023019651_63de590ac9_n.jpg",
    "id_album": "-353898617",
    "description": "Puppy_549943",
    "title": "Puppy_549943",
    "link_img": "https://live.staticflickr.com/65535/50023019651_d8569bea88_o.jpg",
    "id_image": "Puppy_549943",
    "count_view": 0
  },
  {
    "link_thumb": "https://live.staticflickr.com/65535/50016574503_67a00be73d_n.jpg",
    "id_album": "-422187261",
    "description": "Bear_921633",
    "title": "Bear_921633",
    "link_img": "https://live.staticflickr.com/65535/50016574503_4033b6312b_o.jpg",
    "id_image": "Bear_921633",
    "count_view": 0
  },
  {
    "link_thumb": "https://live.staticflickr.com/65535/50017836222_1bdc41d29f_n.jpg",
    "id_album": "-401151552",
    "description": "Butterfly_372134",
    "title": "Butterfly_372134",
    "link_img": "https://live.staticflickr.com/65535/50017836222_86ca0c1c5b_o.jpg",
    "id_image": "Butterfly_372134",
    "count_view": 0
  },
  {
    "link_thumb": "https://live.staticflickr.com/65535/50017174767_6811d9d8bf_n.jpg",
    "id_album": "523598895",
    "description": "Artistic_708877",
    "title": "Artistic_708877",
    "link_img": "https://live.staticflickr.com/65535/50017174767_4ca52541e3_o.jpg",
    "id_image": "Artistic_708877",
    "count_view": 0
  },
  {
    "link_thumb": "https://live.staticflickr.com/65535/50021206273_8bbe0c112f_n.jpg",
    "id_album": "665694624",
    "description": "JapaneseMacaque_407687",
    "title": "JapaneseMacaque_407687",
    "link_img": "https://live.staticflickr.com/65535/50021206273_6c02483312_o.jpg",
    "id_image": "JapaneseMacaque_407687",
    "count_view": 0
  },
  {
    "link_thumb": "https://live.staticflickr.com/65535/50018138316_5db0ca21d9_n.jpg",
    "id_album": "-462831702",
    "description": "Cat_399051",
    "title": "Cat_399051",
    "link_img": "https://live.staticflickr.com/65535/50018138316_7b1bc986a4_o.jpg",
    "id_image": "Cat_399051",
    "count_view": 0
  },
  {
    "link_thumb": "https://live.staticflickr.com/65535/50021425497_6cddf54d98_n.jpg",
    "id_album": "-462831704",
    "description": "Cat_691744",
    "title": "Cat_691744",
    "link_img": "https://live.staticflickr.com/65535/50021425497_96ac5a702f_o.jpg",
    "id_image": "Cat_691744",
    "count_view": 0
  },
  {
    "link_thumb": "https://live.staticflickr.com/65535/50352628777_e5b365944e_n.jpg",
    "id_album": "-462831703",
    "description": "Cat_365189",
    "title": "Cat_365189",
    "link_img": "https://live.staticflickr.com/65535/50352628777_c191e07b1a_o.jpg",
    "id_image": "Cat_365189",
    "count_view": 0
  },
  {
    "link_thumb": "https://live.staticflickr.com/65535/50020944107_d134f83e02_n.jpg",
    "id_album": "-39098563",
    "description": "Eagle_275187",
    "title": "Eagle_275187",
    "link_img": "https://live.staticflickr.com/65535/50020944107_acd67021e9_o.jpg",
    "id_image": "Eagle_275187",
    "count_view": 0
  },
  {
    "link_thumb": "https://live.staticflickr.com/65535/50020808131_950294c87b_n.jpg",
    "id_album": "822895535",
    "description": "Falcon_352599",
    "title": "Falcon_352599",
    "link_img": "https://live.staticflickr.com/65535/50020808131_fcf8cf6a99_o.jpg",
    "id_image": "Falcon_352599",
    "count_view": 0
  },
  {
    "link_thumb": "https://live.staticflickr.com/65535/50021367896_cba1d7636f_n.jpg",
    "id_album": "2060159334",
    "description": "GoldenRetriever_909794",
    "title": "GoldenRetriever_909794",
    "link_img": "https://live.staticflickr.com/65535/50021367896_d3d258d2cd_o.jpg",
    "id_image": "GoldenRetriever_909794",
    "count_view": 0
  },
  {
    "link_thumb": "https://live.staticflickr.com/65535/50017232098_7124ef6499_n.jpg",
    "id_album": "-462831705",
    "description": "Cat_113760",
    "title": "Cat_113760",
    "link_img": "https://live.staticflickr.com/65535/50017232098_61ef5c8b8e_o.jpg",
    "id_image": "Cat_113760",
    "count_view": 0
  },
  {
    "link_thumb": "https://live.staticflickr.com/65535/50016735708_07230101f2_n.jpg",
    "id_album": "-1846011410",
    "description": "Bird_349705",
    "title": "Bird_349705",
    "link_img": "https://live.staticflickr.com/65535/50016735708_393e7a8d42_o.jpg",
    "id_image": "Bird_349705",
    "count_view": 0
  },
  {
    "link_thumb": "https://live.staticflickr.com/65535/50022039896_8349867501_n.jpg",
    "id_album": "416744915",
    "description": "Lion_669487",
    "title": "Lion_669487",
    "link_img": "https://live.staticflickr.com/65535/50022039896_282209237b_o.jpg",
    "id_image": "Lion_669487",
    "count_view": 0
  },
  {
    "link_thumb": "https://live.staticflickr.com/65535/50352557237_c7a02dfec2_n.jpg",
    "id_album": "-462831703",
    "description": "Cat_113587",
    "title": "Cat_113587",
    "link_img": "https://live.staticflickr.com/65535/50352557237_77e4b00966_o.jpg",
    "id_image": "Cat_113587",
    "count_view": 0
  },
  {
    "link_thumb": "https://live.staticflickr.com/65535/50022383658_8961a6a3eb_n.jpg",
    "id_album": "-356780855",
    "description": "Puffin_544006",
    "title": "Puffin_544006",
    "link_img": "https://live.staticflickr.com/65535/50022383658_f89a8de120_o.jpg",
    "id_image": "Puffin_544006",
    "count_view": 0
  },
  {
    "link_thumb": "https://live.staticflickr.com/65535/50018153546_38f0ca9451_n.jpg",
    "id_album": "-462831702",
    "description": "Cat_407996",
    "title": "Cat_407996",
    "link_img": "https://live.staticflickr.com/65535/50018153546_2dcae56d21_o.jpg",
    "id_image": "Cat_407996",
    "count_view": 0
  },
  {
    "link_thumb": "https://live.staticflickr.com/65535/50020518553_45b8234d63_n.jpg",
    "id_album": "844170697",
    "description": "Frog_403004",
    "title": "Frog_403004",
    "link_img": "https://live.staticflickr.com/65535/50020518553_110b3063ed_o.jpg",
    "id_image": "Frog_403004",
    "count_view": 0
  },
  {
    "link_thumb": "https://live.staticflickr.com/65535/50020576883_8029283592_n.jpg",
    "id_album": "-462831704",
    "description": "Cat_569585",
    "title": "Cat_569585",
    "link_img": "https://live.staticflickr.com/65535/50020576883_579d5a5d45_o.jpg",
    "id_image": "Cat_569585",
    "count_view": 0
  },
  {
    "link_thumb": "https://live.staticflickr.com/65535/50019932663_0671444781_n.jpg",
    "id_album": "-149330231",
    "description": "Dog_593079",
    "title": "Dog_593079",
    "link_img": "https://live.staticflickr.com/65535/50019932663_07fe4512fd_o.jpg",
    "id_image": "Dog_593079",
    "count_view": 0
  },
  {
    "link_thumb": "https://live.staticflickr.com/65535/50017882011_f4a4c3b596_n.jpg",
    "id_album": "-462831705",
    "description": "Cat_235816",
    "title": "Cat_235816",
    "link_img": "https://live.staticflickr.com/65535/50017882011_b95e4b7e0e_o.jpg",
    "id_image": "Cat_235816",
    "count_view": 0
  },
  {
    "link_thumb": "https://live.staticflickr.com/65535/50020808708_2f755edc93_n.jpg",
    "id_album": "2060159334",
    "description": "GoldenRetriever_650863",
    "title": "GoldenRetriever_650863",
    "link_img": "https://live.staticflickr.com/65535/50020808708_e326b83ea3_o.jpg",
    "id_image": "GoldenRetriever_650863",
    "count_view": 0
  },
  {
    "link_thumb": "https://live.staticflickr.com/65535/50019154771_68fbf2802c_n.jpg",
    "id_album": "-462831702",
    "description": "Cat_419592",
    "title": "Cat_419592",
    "link_img": "https://live.staticflickr.com/65535/50019154771_e92d02172e_o.jpg",
    "id_image": "Cat_419592",
    "count_view": 0
  },
  {
    "link_thumb": "https://live.staticflickr.com/65535/50022051682_64afddd7b8_n.jpg",
    "id_album": "770105808",
    "description": "Kingfisher_234955",
    "title": "Kingfisher_234955",
    "link_img": "https://live.staticflickr.com/65535/50022051682_881931751f_o.jpg",
    "id_image": "Kingfisher_234955",
    "count_view": 0
  },
  {
    "link_thumb": "https://live.staticflickr.com/65535/50016810703_95491695d1_n.jpg",
    "id_album": "-1846011410",
    "description": "Bird_439542",
    "title": "Bird_439542",
    "link_img": "https://live.staticflickr.com/65535/50016810703_b529e485d6_o.jpg",
    "id_image": "Bird_439542",
    "count_view": 0
  },
  {
    "link_thumb": "https://live.staticflickr.com/65535/50023574057_8d7189be8e_n.jpg",
    "id_album": "1926701726",
    "description": "Robin_744037",
    "title": "Robin_744037",
    "link_img": "https://live.staticflickr.com/65535/50023574057_fb03820d8f_o.jpg",
    "id_image": "Robin_744037",
    "count_view": 0
  },
  {
    "link_thumb": "https://live.staticflickr.com/65535/50020888501_8ae99f58d4_n.jpg",
    "id_album": "-1758557371",
    "description": "Flamingo_368019",
    "title": "Flamingo_368019",
    "link_img": "https://live.staticflickr.com/65535/50020888501_3505b40885_o.jpg",
    "id_image": "Flamingo_368019",
    "count_view": 0
  },
  {
    "link_thumb": "https://live.staticflickr.com/65535/50017642912_27bddbfd3d_n.jpg",
    "id_album": "-1846011410",
    "description": "Bird_593952",
    "title": "Bird_593952",
    "link_img": "https://live.staticflickr.com/65535/50017642912_74b70d0c61_o.jpg",
    "id_image": "Bird_593952",
    "count_view": 0
  },
  {
    "link_thumb": "https://live.staticflickr.com/65535/50017458213_31c99f0887_n.jpg",
    "id_album": "-462831702",
    "description": "Cat_329654",
    "title": "Cat_329654",
    "link_img": "https://live.staticflickr.com/65535/50017458213_6e81d7acfa_o.jpg",
    "id_image": "Cat_329654",
    "count_view": 0
  },
  {
    "link_thumb": "https://live.staticflickr.com/65535/50021914071_16b3a82c6a_n.jpg",
    "id_album": "1392348450",
    "description": "Leopard_376854",
    "title": "Leopard_376854",
    "link_img": "https://live.staticflickr.com/65535/50021914071_9a14040c44_o.jpg",
    "id_image": "Leopard_376854",
    "count_view": 0
  },
  {
    "link_thumb": "https://live.staticflickr.com/65535/50020285747_fd718314bc_n.jpg",
    "id_album": "1903411565",
    "description": "Deer_594195",
    "title": "Deer_594195",
    "link_img": "https://live.staticflickr.com/65535/50020285747_9234a2de71_o.jpg",
    "id_image": "Deer_594195",
    "count_view": 0
  },
  {
    "link_thumb": "https://live.staticflickr.com/65535/50022290371_300f630b09_n.jpg",
    "id_album": "1957967135",
    "description": "Mouse_509037",
    "title": "Mouse_509037",
    "link_img": "https://live.staticflickr.com/65535/50022290371_5654115502_o.jpg",
    "id_image": "Mouse_509037",
    "count_view": 0
  },
  {
    "link_thumb": "https://live.staticflickr.com/65535/50020286822_aa0c2195c6_n.jpg",
    "id_album": "1903411565",
    "description": "Deer_596078",
    "title": "Deer_596078",
    "link_img": "https://live.staticflickr.com/65535/50020286822_188635a323_o.jpg",
    "id_image": "Deer_596078",
    "count_view": 0
  },
  {
    "link_thumb": "https://live.staticflickr.com/65535/50020767708_e681e341c2_n.jpg",
    "id_album": "-405626519",
    "description": "GermanShepherd_901184",
    "title": "GermanShepherd_901184",
    "link_img": "https://live.staticflickr.com/65535/50020767708_9d2646fa1a_o.jpg",
    "id_image": "GermanShepherd_901184",
    "count_view": 0
  },
  {
    "link_thumb": "https://live.staticflickr.com/65535/50023674288_7dc45438a4_n.jpg",
    "id_album": "405170427",
    "description": "Tiger_828677",
    "title": "Tiger_828677",
    "link_img": "https://live.staticflickr.com/65535/50023674288_777d3144b3_o.jpg",
    "id_image": "Tiger_828677",
    "count_view": 0
  },
  {
    "link_thumb": "https://live.staticflickr.com/65535/50352625591_f24cc495a7_n.jpg",
    "id_album": "-462831703",
    "description": "Cat_603626",
    "title": "Cat_603626",
    "link_img": "https://live.staticflickr.com/65535/50352625591_575f3b18a9_o.jpg",
    "id_image": "Cat_603626",
    "count_view": 0
  },
  {
    "link_thumb": "https://live.staticflickr.com/65535/50020131478_e7eb774b37_n.jpg",
    "id_album": "1168627767",
    "description": "Duck_603829",
    "title": "Duck_603829",
    "link_img": "https://live.staticflickr.com/65535/50020131478_56942a56d2_o.jpg",
    "id_image": "Duck_603829",
    "count_view": 0
  },
  {
    "link_thumb": "https://live.staticflickr.com/65535/50017996352_d459b8e34d_n.jpg",
    "id_album": "189994021",
    "description": "Cardinal_678096",
    "title": "Cardinal_678096",
    "link_img": "https://live.staticflickr.com/65535/50017996352_179d9648bf_o.jpg",
    "id_image": "Cardinal_678096",
    "count_view": 0
  },
  {
    "link_thumb": "https://live.staticflickr.com/65535/50351727138_b9278c83b9_n.jpg",
    "id_album": "-462831703",
    "description": "Cat_206698",
    "title": "Cat_206698",
    "link_img": "https://live.staticflickr.com/65535/50351727138_60bed53602_o.jpg",
    "id_image": "Cat_206698",
    "count_view": 0
  },
  {
    "link_thumb": "https://live.staticflickr.com/65535/50022798597_9648f87228_n.jpg",
    "id_album": "-358592519",
    "description": "Panda_541627",
    "title": "Panda_541627",
    "link_img": "https://live.staticflickr.com/65535/50022798597_c2c50a3326_o.jpg",
    "id_image": "Panda_541627",
    "count_view": 0
  },
  {
    "link_thumb": "https://live.staticflickr.com/65535/50019245498_06ee32a270_n.jpg",
    "id_album": "791455625",
    "description": "Chipmunk_902177",
    "title": "Chipmunk_902177",
    "link_img": "https://live.staticflickr.com/65535/50019245498_7964212f7f_o.jpg",
    "id_image": "Chipmunk_902177",
    "count_view": 0
  },
  {
    "link_thumb": "https://live.staticflickr.com/65535/50017080386_72e28b2793_n.jpg",
    "id_album": "-422187261",
    "description": "Bear_782385",
    "title": "Bear_782385",
    "link_img": "https://live.staticflickr.com/65535/50017080386_8ac143cb58_o.jpg",
    "id_image": "Bear_782385",
    "count_view": 0
  },
  {
    "link_thumb": "https://live.staticflickr.com/65535/50019086228_cec208e4f6_n.jpg",
    "id_album": "1889777354",
    "description": "CGI_102705",
    "title": "CGI_102705",
    "link_img": "https://live.staticflickr.com/65535/50019086228_d4ee7a898b_o.jpg",
    "id_image": "CGI_102705",
    "count_view": 0
  },
  {
    "link_thumb": "https://live.staticflickr.com/65535/50022358007_39732ddb9b_n.jpg",
    "id_album": "-656526748",
    "description": "Lizard_150694",
    "title": "Lizard_150694",
    "link_img": "https://live.staticflickr.com/65535/50022358007_d043f9c0cd_o.jpg",
    "id_image": "Lizard_150694",
    "count_view": 0
  },
  {
    "link_thumb": "https://live.staticflickr.com/65535/50021488402_d1f79f6aca_n.jpg",
    "id_album": "-462831703",
    "description": "Cat_772240",
    "title": "Cat_772240",
    "link_img": "https://live.staticflickr.com/65535/50021488402_aa8beebea9_o.jpg",
    "id_image": "Cat_772240",
    "count_view": 0
  },
  {
    "link_thumb": "https://live.staticflickr.com/65535/50022994578_fca0971525_n.jpg",
    "id_album": "-800019164",
    "description": "Snail_718118",
    "title": "Snail_718118",
    "link_img": "https://live.staticflickr.com/65535/50022994578_f4a3b3b484_o.jpg",
    "id_image": "Snail_718118",
    "count_view": 0
  },
  {
    "link_thumb": "https://live.staticflickr.com/65535/50023482036_5050a0accc_n.jpg",
    "id_album": "-755466332",
    "description": "Sheep_491502",
    "title": "Sheep_491502",
    "link_img": "https://live.staticflickr.com/65535/50023482036_6a87740ab2_o.jpg",
    "id_image": "Sheep_491502",
    "count_view": 0
  },
  {
    "link_thumb": "https://live.staticflickr.com/65535/50022125747_2795f14676_n.jpg",
    "id_album": "-1882491687",
    "description": "Ladybug_986073",
    "title": "Ladybug_986073",
    "link_img": "https://live.staticflickr.com/65535/50022125747_b1e23a5d96_o.jpg",
    "id_image": "Ladybug_986073",
    "count_view": 0
  },
  {
    "link_thumb": "https://live.staticflickr.com/65535/50017093911_c107af7cc8_n.jpg",
    "id_album": "-422187261",
    "description": "Bear_872250",
    "title": "Bear_872250",
    "link_img": "https://live.staticflickr.com/65535/50017093911_5f183e55c3_o.jpg",
    "id_image": "Bear_872250",
    "count_view": 0
  },
  {
    "link_thumb": "https://live.staticflickr.com/65535/50021456342_7051635edf_n.jpg",
    "id_album": "-462831704",
    "description": "Cat_721185",
    "title": "Cat_721185",
    "link_img": "https://live.staticflickr.com/65535/50021456342_6210d66c89_o.jpg",
    "id_image": "Cat_721185",
    "count_view": 0
  },
  {
    "link_thumb": "https://live.staticflickr.com/65535/50017176941_cdca952077_n.jpg",
    "id_album": "172748811",
    "description": "Beeeater_856931",
    "title": "Beeeater_856931",
    "link_img": "https://live.staticflickr.com/65535/50017176941_4b01fe6962_o.jpg",
    "id_image": "Beeeater_856931",
    "count_view": 0
  },
  {
    "link_thumb": "https://live.staticflickr.com/65535/50021440783_dfd0aa4c0c_n.jpg",
    "id_album": "416744915",
    "description": "Lion_260610",
    "title": "Lion_260610",
    "link_img": "https://live.staticflickr.com/65535/50021440783_5e8e8a60c5_o.jpg",
    "id_image": "Lion_260610",
    "count_view": 0
  },
  {
    "link_thumb": "https://live.staticflickr.com/65535/50021089208_474e54921e_n.jpg",
    "id_album": "-712553376",
    "description": "Husky_395763",
    "title": "Husky_395763",
    "link_img": "https://live.staticflickr.com/65535/50021089208_e98c0832b9_o.jpg",
    "id_image": "Husky_395763",
    "count_view": 0
  },
  {
    "link_thumb": "https://live.staticflickr.com/65535/50024030246_137fc077e9_n.jpg",
    "id_album": "405170427",
    "description": "Tiger_191083",
    "title": "Tiger_191083",
    "link_img": "https://live.staticflickr.com/65535/50024030246_d6c58fdff4_o.jpg",
    "id_image": "Tiger_191083",
    "count_view": 0
  },
  {
    "link_thumb": "https://live.staticflickr.com/65535/50017969112_a2bcc3c8b8_n.jpg",
    "id_album": "-401151552",
    "description": "Butterfly_926944",
    "title": "Butterfly_926944",
    "link_img": "https://live.staticflickr.com/65535/50017969112_f15914d56f_o.jpg",
    "id_image": "Butterfly_926944",
    "count_view": 0
  },
  {
    "link_thumb": "https://live.staticflickr.com/65535/50023933658_72504e772a_n.jpg",
    "id_album": "-709711865",
    "description": "Wolf_335276",
    "title": "Wolf_335276",
    "link_img": "https://live.staticflickr.com/65535/50023933658_d6d72e62ab_o.jpg",
    "id_image": "Wolf_335276",
    "count_view": 0
  },
  {
    "link_thumb": "https://live.staticflickr.com/65535/50017145313_a53fff0b86_n.jpg",
    "id_album": "-401151552",
    "description": "Butterfly_806097",
    "title": "Butterfly_806097",
    "link_img": "https://live.staticflickr.com/65535/50017145313_426c8ce63a_o.jpg",
    "id_image": "Butterfly_806097",
    "count_view": 0
  },
  {
    "link_thumb": "https://live.staticflickr.com/65535/50016600768_6bd81600b0_n.jpg",
    "id_album": "1699594607",
    "description": "Bee_352262",
    "title": "Bee_352262",
    "link_img": "https://live.staticflickr.com/65535/50016600768_b95820a90e_o.jpg",
    "id_image": "Bee_352262",
    "count_view": 0
  },
  {
    "link_thumb": "https://live.staticflickr.com/65535/50021156617_ab51a9ce10_n.jpg",
    "id_album": "-1758557371",
    "description": "Flamingo_514334",
    "title": "Flamingo_514334",
    "link_img": "https://live.staticflickr.com/65535/50021156617_48a1083a2a_o.jpg",
    "id_image": "Flamingo_514334",
    "count_view": 0
  },
  {
    "link_thumb": "https://live.staticflickr.com/65535/50020416218_d159dbfdb3_n.jpg",
    "id_album": "-128218148",
    "description": "Fox_390973",
    "title": "Fox_390973",
    "link_img": "https://live.staticflickr.com/65535/50020416218_b69fb583de_o.jpg",
    "id_image": "Fox_390973",
    "count_view": 0
  },
  {
    "link_thumb": "https://live.staticflickr.com/65535/50020635513_c6d4c8bddd_n.jpg",
    "id_album": "-462831704",
    "description": "Cat_698202",
    "title": "Cat_698202",
    "link_img": "https://live.staticflickr.com/65535/50020635513_8c8f62b0b0_o.jpg",
    "id_image": "Cat_698202",
    "count_view": 0
  },
  {
    "link_thumb": "https://live.staticflickr.com/65535/50020892188_fd0f628004_n.jpg",
    "id_album": "1469520430",
    "description": "Hedgehog_658821",
    "title": "Hedgehog_658821",
    "link_img": "https://live.staticflickr.com/65535/50020892188_e225498cb9_o.jpg",
    "id_image": "Hedgehog_658821",
    "count_view": 0
  },
  {
    "link_thumb": "https://live.staticflickr.com/65535/50017417802_7560d62e3d_n.jpg",
    "id_album": "1699594607",
    "description": "Bee_711100",
    "title": "Bee_711100",
    "link_img": "https://live.staticflickr.com/65535/50017417802_64f828cf17_o.jpg",
    "id_image": "Bee_711100",
    "count_view": 0
  },
  {
    "link_thumb": "https://live.staticflickr.com/65535/50017578928_8d9da51c12_n.jpg",
    "id_album": "-462831702",
    "description": "Cat_380938",
    "title": "Cat_380938",
    "link_img": "https://live.staticflickr.com/65535/50017578928_1769c60a0e_o.jpg",
    "id_image": "Cat_380938",
    "count_view": 0
  },
  {
    "link_thumb": "https://live.staticflickr.com/65535/50352587101_174d2a5e48_n.jpg",
    "id_album": "-462831703",
    "description": "Cat_526060",
    "title": "Cat_526060",
    "link_img": "https://live.staticflickr.com/65535/50352587101_2fd4a1edc7_o.jpg",
    "id_image": "Cat_526060",
    "count_view": 0
  },
  {
    "link_thumb": "https://live.staticflickr.com/65535/50016612283_2c19e0af8a_n.jpg",
    "id_album": "1699594607",
    "description": "Bee_443222",
    "title": "Bee_443222",
    "link_img": "https://live.staticflickr.com/65535/50016612283_7cea13cdfa_o.jpg",
    "id_image": "Bee_443222",
    "count_view": 0
  },
  {
    "link_thumb": "https://live.staticflickr.com/65535/50352629277_b395e15016_n.jpg",
    "id_album": "-462831703",
    "description": "Cat_365206",
    "title": "Cat_365206",
    "link_img": "https://live.staticflickr.com/65535/50352629277_a6219da9ec_o.jpg",
    "id_image": "Cat_365206",
    "count_view": 0
  },
  {
    "link_thumb": "https://live.staticflickr.com/65535/50016819621_d87e28d7c6_n.jpg",
    "id_album": "-1473450542",
    "description": "Alpaca_548441",
    "title": "Alpaca_548441",
    "link_img": "https://live.staticflickr.com/65535/50016819621_034f930a82_o.jpg",
    "id_image": "Alpaca_548441",
    "count_view": 0
  },
  {
    "link_thumb": "https://live.staticflickr.com/65535/50019987113_e66217f36e_n.jpg",
    "id_album": "-149330231",
    "description": "Dog_831247",
    "title": "Dog_831247",
    "link_img": "https://live.staticflickr.com/65535/50019987113_127f8a6fdd_o.jpg",
    "id_image": "Dog_831247",
    "count_view": 0
  },
  {
    "link_thumb": "https://live.staticflickr.com/65535/50023712298_d986090699_n.jpg",
    "id_album": "405170427",
    "description": "Tiger_995497",
    "title": "Tiger_995497",
    "link_img": "https://live.staticflickr.com/65535/50023712298_9fdfdb894d_o.jpg",
    "id_image": "Tiger_995497",
    "count_view": 0
  },
  {
    "link_thumb": "https://live.staticflickr.com/65535/50021612083_f1ffeb2abe_n.jpg",
    "id_album": "1894617400",
    "description": "Lynx_591174",
    "title": "Lynx_591174",
    "link_img": "https://live.staticflickr.com/65535/50021612083_c8446ebd70_o.jpg",
    "id_image": "Lynx_591174",
    "count_view": 0
  },
  {
    "link_thumb": "https://live.staticflickr.com/65535/50019752498_a1668d241d_n.jpg",
    "id_album": "-149330232",
    "description": "Dog_343061",
    "title": "Dog_343061",
    "link_img": "https://live.staticflickr.com/65535/50019752498_3d92c16951_o.jpg",
    "id_image": "Dog_343061",
    "count_view": 0
  },
  {
    "link_thumb": "https://live.staticflickr.com/65535/50023502077_ca224dc121_n.jpg",
    "id_album": "-2087362619",
    "description": "RedandgreenMacaw_418248",
    "title": "RedandgreenMacaw_418248",
    "link_img": "https://live.staticflickr.com/65535/50023502077_fe681c993f_o.jpg",
    "id_image": "RedandgreenMacaw_418248",
    "count_view": 0
  },
  {
    "link_thumb": "https://live.staticflickr.com/65535/50022468408_43b707828d_n.jpg",
    "id_album": "-353898617",
    "description": "Puppy_528319",
    "title": "Puppy_528319",
    "link_img": "https://live.staticflickr.com/65535/50022468408_6c35d984b8_o.jpg",
    "id_image": "Puppy_528319",
    "count_view": 0
  },
  {
    "link_thumb": "https://live.staticflickr.com/65535/50019720837_8d59854222_n.jpg",
    "id_album": "-462831703",
    "description": "Cat_916844",
    "title": "Cat_916844",
    "link_img": "https://live.staticflickr.com/65535/50019720837_07492f5bf8_o.jpg",
    "id_image": "Cat_916844",
    "count_view": 0
  },
  {
    "link_thumb": "https://live.staticflickr.com/65535/50016473348_e4662f3ca6_n.jpg",
    "id_album": "-422187261",
    "description": "Bear_1000894",
    "title": "Bear_1000894",
    "link_img": "https://live.staticflickr.com/65535/50016473348_1936450a94_o.jpg",
    "id_image": "Bear_1000894",
    "count_view": 0
  },
  {
    "link_thumb": "https://live.staticflickr.com/65535/50018795563_1f49e50a56_n.jpg",
    "id_album": "-462831703",
    "description": "Cat_855058",
    "title": "Cat_855058",
    "link_img": "https://live.staticflickr.com/65535/50018795563_b192d48fba_o.jpg",
    "id_image": "Cat_855058",
    "count_view": 0
  },
  {
    "link_thumb": "https://live.staticflickr.com/65535/50020219202_6f59119e55_n.jpg",
    "id_album": "1831085598",
    "description": "Dachshund_904760",
    "title": "Dachshund_904760",
    "link_img": "https://live.staticflickr.com/65535/50020219202_757c0b52bd_o.jpg",
    "id_image": "Dachshund_904760",
    "count_view": 0
  },
  {
    "link_thumb": "https://live.staticflickr.com/65535/50019402581_8c3c9f7f52_n.jpg",
    "id_album": "-462831703",
    "description": "Cat_893460",
    "title": "Cat_893460",
    "link_img": "https://live.staticflickr.com/65535/50019402581_4612c6c623_o.jpg",
    "id_image": "Cat_893460",
    "count_view": 0
  },
  {
    "link_thumb": "https://live.staticflickr.com/65535/50022445657_2f043f3a45_n.jpg",
    "id_album": "-1720012921",
    "description": "Meerkat_459947",
    "title": "Meerkat_459947",
    "link_img": "https://live.staticflickr.com/65535/50022445657_2f5c8be280_o.jpg",
    "id_image": "Meerkat_459947",
    "count_view": 0
  },
  {
    "link_thumb": "https://live.staticflickr.com/65535/50020619371_e1497e9761_n.jpg",
    "id_album": "-405058657",
    "description": "Dragonfly_401708",
    "title": "Dragonfly_401708",
    "link_img": "https://live.staticflickr.com/65535/50020619371_01bdd96bb4_o.jpg",
    "id_image": "Dragonfly_401708",
    "count_view": 0
  },
  {
    "link_thumb": "https://live.staticflickr.com/65535/50021608247_89dc39343f_n.jpg",
    "id_album": "2060159334",
    "description": "GoldenRetriever_657519",
    "title": "GoldenRetriever_657519",
    "link_img": "https://live.staticflickr.com/65535/50021608247_0da13b0b82_o.jpg",
    "id_image": "GoldenRetriever_657519",
    "count_view": 0
  },
  {
    "link_thumb": "https://live.staticflickr.com/65535/50023452843_9f0ee4f324_n.jpg",
    "id_album": "1244464375",
    "description": "Starfish_554996",
    "title": "Starfish_554996",
    "link_img": "https://live.staticflickr.com/65535/50023452843_0c316c7c80_o.jpg",
    "id_image": "Starfish_554996",
    "count_view": 0
  },
  {
    "link_thumb": "https://live.staticflickr.com/65535/50352580596_d9eda6f85f_n.jpg",
    "id_album": "-462831703",
    "description": "Cat_514541",
    "title": "Cat_514541",
    "link_img": "https://live.staticflickr.com/65535/50352580596_f9d7b23dc1_o.jpg",
    "id_image": "Cat_514541",
    "count_view": 0
  },
  {
    "link_thumb": "https://live.staticflickr.com/65535/50019469047_33d81eba2c_n.jpg",
    "id_album": "-462831704",
    "description": "Cat_442127",
    "title": "Cat_442127",
    "link_img": "https://live.staticflickr.com/65535/50019469047_e9eb552e6f_o.jpg",
    "id_image": "Cat_442127",
    "count_view": 0
  },
  {
    "link_thumb": "https://live.staticflickr.com/65535/50021757347_e92f1768f5_n.jpg",
    "id_album": "-1933715543",
    "description": "Horse_367354",
    "title": "Horse_367354",
    "link_img": "https://live.staticflickr.com/65535/50021757347_84f2c5c6d8_o.jpg",
    "id_image": "Horse_367354",
    "count_view": 0
  },
  {
    "link_thumb": "https://live.staticflickr.com/65535/50021114506_52b6ed275e_n.jpg",
    "id_album": "-462831704",
    "description": "Cat_559911",
    "title": "Cat_559911",
    "link_img": "https://live.staticflickr.com/65535/50021114506_c273ae9763_o.jpg",
    "id_image": "Cat_559911",
    "count_view": 0
  },
  {
    "link_thumb": "https://live.staticflickr.com/65535/50019535066_2e76d66490_n.jpg",
    "id_album": "-462831703",
    "description": "Cat_968521",
    "title": "Cat_968521",
    "link_img": "https://live.staticflickr.com/65535/50019535066_b0cfd092a9_o.jpg",
    "id_image": "Cat_968521",
    "count_view": 0
  },
  {
    "link_thumb": "https://live.staticflickr.com/65535/50017602907_2bd0c5f671_n.jpg",
    "id_album": "-1846011410",
    "description": "Bird_449618",
    "title": "Bird_449618",
    "link_img": "https://live.staticflickr.com/65535/50017602907_87c4149cdd_o.jpg",
    "id_image": "Bird_449618",
    "count_view": 0
  },
  {
    "link_thumb": "https://live.staticflickr.com/65535/50021746811_9f75e606ed_n.jpg",
    "id_album": "665694624",
    "description": "JapaneseMacaque_245640",
    "title": "JapaneseMacaque_245640",
    "link_img": "https://live.staticflickr.com/65535/50021746811_1b071b23be_o.jpg",
    "id_image": "JapaneseMacaque_245640",
    "count_view": 0
  },
  {
    "link_thumb": "https://live.staticflickr.com/65535/50021794216_1fa538428f_n.jpg",
    "id_album": "-649286029",
    "description": "Kangaroo_692274",
    "title": "Kangaroo_692274",
    "link_img": "https://live.staticflickr.com/65535/50021794216_ba3b4c9ca4_o.jpg",
    "id_image": "Kangaroo_692274",
    "count_view": 0
  },
  {
    "link_thumb": "https://live.staticflickr.com/65535/50023749398_96e7d9d7a1_n.jpg",
    "id_album": "901523298",
    "description": "TreeFrog_592522",
    "title": "TreeFrog_592522",
    "link_img": "https://live.staticflickr.com/65535/50023749398_57d9b9bb66_o.jpg",
    "id_image": "TreeFrog_592522",
    "count_view": 0
  },
  {
    "link_thumb": "https://live.staticflickr.com/65535/50021216977_56f2390916_n.jpg",
    "id_album": "-128218148",
    "description": "Fox_425420",
    "title": "Fox_425420",
    "link_img": "https://live.staticflickr.com/65535/50021216977_03cb75cb1e_o.jpg",
    "id_image": "Fox_425420",
    "count_view": 0
  },
  {
    "link_thumb": "https://live.staticflickr.com/65535/50022274217_fed40274f4_n.jpg",
    "id_album": "416744915",
    "description": "Lion_427148",
    "title": "Lion_427148",
    "link_img": "https://live.staticflickr.com/65535/50022274217_4702aab87f_o.jpg",
    "id_image": "Lion_427148",
    "count_view": 0
  },
  {
    "link_thumb": "https://live.staticflickr.com/65535/50017996511_90c409648c_n.jpg",
    "id_album": "-462831702",
    "description": "Cat_333651",
    "title": "Cat_333651",
    "link_img": "https://live.staticflickr.com/65535/50017996511_38167c226f_o.jpg",
    "id_image": "Cat_333651",
    "count_view": 0
  },
  {
    "link_thumb": "https://live.staticflickr.com/65535/50020242983_e96b80585e_n.jpg",
    "id_album": "1270947998",
    "description": "Elephant_650734",
    "title": "Elephant_650734",
    "link_img": "https://live.staticflickr.com/65535/50020242983_2c8c5660cb_o.jpg",
    "id_image": "Elephant_650734",
    "count_view": 0
  },
  {
    "link_thumb": "https://live.staticflickr.com/65535/50352674701_d57067db73_n.jpg",
    "id_album": "-462831703",
    "description": "Cat_970838",
    "title": "Cat_970838",
    "link_img": "https://live.staticflickr.com/65535/50352674701_bb6ba15dd0_o.jpg",
    "id_image": "Cat_970838",
    "count_view": 0
  },
  {
    "link_thumb": "https://live.staticflickr.com/65535/50020720033_295a947b43_n.jpg",
    "id_album": "-462831703",
    "description": "Cat_814497",
    "title": "Cat_814497",
    "link_img": "https://live.staticflickr.com/65535/50020720033_559cd19640_o.jpg",
    "id_image": "Cat_814497",
    "count_view": 0
  },
  {
    "link_thumb": "https://live.staticflickr.com/65535/50017011841_e01083faae_n.jpg",
    "id_album": "-422187261",
    "description": "Bear_241995",
    "title": "Bear_241995",
    "link_img": "https://live.staticflickr.com/65535/50017011841_d7757da4ea_o.jpg",
    "id_image": "Bear_241995",
    "count_view": 0
  },
  {
    "link_thumb": "https://live.staticflickr.com/65535/50017762352_bf2af7cc9e_n.jpg",
    "id_album": "782930701",
    "description": "BorderCollie_864022",
    "title": "BorderCollie_864022",
    "link_img": "https://live.staticflickr.com/65535/50017762352_9cc380fee9_o.jpg",
    "id_image": "BorderCollie_864022",
    "count_view": 0
  },
  {
    "link_thumb": "https://live.staticflickr.com/65535/50020768586_55d2ce2fc3_n.jpg",
    "id_album": "1270947998",
    "description": "Elephant_546297",
    "title": "Elephant_546297",
    "link_img": "https://live.staticflickr.com/65535/50020768586_0660bb7ae8_o.jpg",
    "id_image": "Elephant_546297",
    "count_view": 0
  },
  {
    "link_thumb": "https://live.staticflickr.com/65535/50351758223_8dd292b08b_n.jpg",
    "id_album": "-462831703",
    "description": "Cat_321583",
    "title": "Cat_321583",
    "link_img": "https://live.staticflickr.com/65535/50351758223_784a8e1c00_o.jpg",
    "id_image": "Cat_321583",
    "count_view": 0
  },
  {
    "link_thumb": "https://live.staticflickr.com/65535/50016622578_8f47eca0f8_n.jpg",
    "id_album": "1699594607",
    "description": "Bee_584283",
    "title": "Bee_584283",
    "link_img": "https://live.staticflickr.com/65535/50016622578_658d837951_o.jpg",
    "id_image": "Bee_584283",
    "count_view": 0
  },
  {
    "link_thumb": "https://live.staticflickr.com/65535/50020888092_de4d072cc7_n.jpg",
    "id_album": "-405058657",
    "description": "Dragonfly_571953",
    "title": "Dragonfly_571953",
    "link_img": "https://live.staticflickr.com/65535/50020888092_d73bc1b887_o.jpg",
    "id_image": "Dragonfly_571953",
    "count_view": 0
  },
  {
    "link_thumb": "https://live.staticflickr.com/65535/50019981518_38ef95722e_n.jpg",
    "id_album": "-149330231",
    "description": "Dog_789850",
    "title": "Dog_789850",
    "link_img": "https://live.staticflickr.com/65535/50019981518_4b28eb1f7a_o.jpg",
    "id_image": "Dog_789850",
    "count_view": 0
  },
  {
    "link_thumb": "https://live.staticflickr.com/65535/50020679191_7ec44076b6_n.jpg",
    "id_album": "1168627767",
    "description": "Duck_971373",
    "title": "Duck_971373",
    "link_img": "https://live.staticflickr.com/65535/50020679191_9e93020d8a_o.jpg",
    "id_image": "Duck_971373",
    "count_view": 0
  },
  {
    "link_thumb": "https://live.staticflickr.com/65535/50022718933_8f7e106e89_n.jpg",
    "id_album": "-2087362619",
    "description": "RedandgreenMacaw_999051",
    "title": "RedandgreenMacaw_999051",
    "link_img": "https://live.staticflickr.com/65535/50022718933_00308750ef_o.jpg",
    "id_image": "RedandgreenMacaw_999051",
    "count_view": 0
  },
  {
    "link_thumb": "https://live.staticflickr.com/65535/50021566392_007655b72e_n.jpg",
    "id_album": "-405626519",
    "description": "GermanShepherd_942660",
    "title": "GermanShepherd_942660",
    "link_img": "https://live.staticflickr.com/65535/50021566392_d6c0c52b58_o.jpg",
    "id_image": "GermanShepherd_942660",
    "count_view": 0
  },
  {
    "link_thumb": "https://live.staticflickr.com/65535/50017124472_a1b8245a4b_n.jpg",
    "id_album": "523598895",
    "description": "Artistic_115928",
    "title": "Artistic_115928",
    "link_img": "https://live.staticflickr.com/65535/50017124472_727c3eed35_o.jpg",
    "id_image": "Artistic_115928",
    "count_view": 0
  },
  {
    "link_thumb": "https://live.staticflickr.com/65535/50018875003_241de4f840_n.jpg",
    "id_album": "-462831703",
    "description": "Cat_894962",
    "title": "Cat_894962",
    "link_img": "https://live.staticflickr.com/65535/50018875003_fb15730396_o.jpg",
    "id_image": "Cat_894962",
    "count_view": 0
  },
  {
    "link_thumb": "https://live.staticflickr.com/65535/50017812467_101b5495a7_n.jpg",
    "id_album": "-401151552",
    "description": "Butterfly_243883",
    "title": "Butterfly_243883",
    "link_img": "https://live.staticflickr.com/65535/50017812467_4b32d95d7f_o.jpg",
    "id_image": "Butterfly_243883",
    "count_view": 0
  },
  {
    "link_thumb": "https://live.staticflickr.com/65535/50017376967_50ef9218f2_n.jpg",
    "id_album": "1699594607",
    "description": "Bee_110822",
    "title": "Bee_110822",
    "link_img": "https://live.staticflickr.com/65535/50017376967_79141faf3f_o.jpg",
    "id_image": "Bee_110822",
    "count_view": 0
  },
  {
    "link_thumb": "https://live.staticflickr.com/65535/50017169776_95855b0239_n.jpg",
    "id_album": "1699594607",
    "description": "Bee_96198",
    "title": "Bee_96198",
    "link_img": "https://live.staticflickr.com/65535/50017169776_07e062b1af_o.jpg",
    "id_image": "Bee_96198",
    "count_view": 0
  },
  {
    "link_thumb": "https://live.staticflickr.com/65535/50020084371_7292e6cd61_n.jpg",
    "id_album": "297232732",
    "description": "Dinosaur_359186",
    "title": "Dinosaur_359186",
    "link_img": "https://live.staticflickr.com/65535/50020084371_2b2c7e2955_o.jpg",
    "id_image": "Dinosaur_359186",
    "count_view": 0
  },
  {
    "link_thumb": "https://live.staticflickr.com/65535/50022196942_6264e832c7_n.jpg",
    "id_album": "1392348450",
    "description": "Leopard_593061",
    "title": "Leopard_593061",
    "link_img": "https://live.staticflickr.com/65535/50022196942_0cdba4165b_o.jpg",
    "id_image": "Leopard_593061",
    "count_view": 0
  },
  {
    "link_thumb": "https://live.staticflickr.com/65535/50022363826_6f5f7fd820_n.jpg",
    "id_album": "106807275",
    "description": "Otter_350120",
    "title": "Otter_350120",
    "link_img": "https://live.staticflickr.com/65535/50022363826_9c1818e968_o.jpg",
    "id_image": "Otter_350120",
    "count_view": 0
  },
  {
    "link_thumb": "https://live.staticflickr.com/65535/50024016457_6b27cd000b_n.jpg",
    "id_album": "-1082521515",
    "description": "Spider_411036",
    "title": "Spider_411036",
    "link_img": "https://live.staticflickr.com/65535/50024016457_527e4b202f_o.jpg",
    "id_image": "Spider_411036",
    "count_view": 0
  },
  {
    "link_thumb": "https://live.staticflickr.com/65535/50020618676_283557ee9c_n.jpg",
    "id_album": "-405058657",
    "description": "Dragonfly_398194",
    "title": "Dragonfly_398194",
    "link_img": "https://live.staticflickr.com/65535/50020618676_1074044484_o.jpg",
    "id_image": "Dragonfly_398194",
    "count_view": 0
  },
  {
    "link_thumb": "https://live.staticflickr.com/65535/50022232297_ce78a618e8_n.jpg",
    "id_album": "416744915",
    "description": "Lion_225201",
    "title": "Lion_225201",
    "link_img": "https://live.staticflickr.com/65535/50022232297_01ae33f01f_o.jpg",
    "id_image": "Lion_225201",
    "count_view": 0
  },
  {
    "link_thumb": "https://live.staticflickr.com/65535/50019041013_c863dfc09e_n.jpg",
    "id_album": "-462831703",
    "description": "Cat_996792",
    "title": "Cat_996792",
    "link_img": "https://live.staticflickr.com/65535/50019041013_956f1ca4c6_o.jpg",
    "id_image": "Cat_996792",
    "count_view": 0
  },
  {
    "link_thumb": "https://live.staticflickr.com/65535/50017428368_9149dd6a04_n.jpg",
    "id_album": "-462831702",
    "description": "Cat_311654",
    "title": "Cat_311654",
    "link_img": "https://live.staticflickr.com/65535/50017428368_54433f7bf0_o.jpg",
    "id_image": "Cat_311654",
    "count_view": 0
  },
  {
    "link_thumb": "https://live.staticflickr.com/65535/50019246176_d3343a13f8_n.jpg",
    "id_album": "-462831704",
    "description": "Cat_478874",
    "title": "Cat_478874",
    "link_img": "https://live.staticflickr.com/65535/50019246176_1049a07173_o.jpg",
    "id_image": "Cat_478874",
    "count_view": 0
  },
  {
    "link_thumb": "https://live.staticflickr.com/65535/50017462253_5369702cbf_n.jpg",
    "id_album": "-462831702",
    "description": "Cat_331241",
    "title": "Cat_331241",
    "link_img": "https://live.staticflickr.com/65535/50017462253_e3f35736d2_o.jpg",
    "id_image": "Cat_331241",
    "count_view": 0
  },
  {
    "link_thumb": "https://live.staticflickr.com/65535/50021221732_67ff2463e3_n.jpg",
    "id_album": "-128218148",
    "description": "Fox_456935",
    "title": "Fox_456935",
    "link_img": "https://live.staticflickr.com/65535/50021221732_6c864fb869_o.jpg",
    "id_image": "Fox_456935",
    "count_view": 0
  },
  {
    "link_thumb": "https://live.staticflickr.com/65535/50023728631_39f69344a7_n.jpg",
    "id_album": "-1082521515",
    "description": "Spider_334213",
    "title": "Spider_334213",
    "link_img": "https://live.staticflickr.com/65535/50023728631_7fc2d1105c_o.jpg",
    "id_image": "Spider_334213",
    "count_view": 0
  },
  {
    "link_thumb": "https://live.staticflickr.com/65535/50021903062_4d97509aed_n.jpg",
    "id_album": "-737856092",
    "description": "Iguana_428187",
    "title": "Iguana_428187",
    "link_img": "https://live.staticflickr.com/65535/50021903062_fe6cdef134_o.jpg",
    "id_image": "Iguana_428187",
    "count_view": 0
  },
  {
    "link_thumb": "https://live.staticflickr.com/65535/50020247307_87312c1a02_n.jpg",
    "id_album": "1903411565",
    "description": "Deer_315142",
    "title": "Deer_315142",
    "link_img": "https://live.staticflickr.com/65535/50020247307_4e7e161907_o.jpg",
    "id_image": "Deer_315142",
    "count_view": 0
  },
  {
    "link_thumb": "https://live.staticflickr.com/65535/50021971347_6ae1f1d8de_n.jpg",
    "id_album": "-843028318",
    "description": "Jaguar_248478",
    "title": "Jaguar_248478",
    "link_img": "https://live.staticflickr.com/65535/50021971347_e96ced0cf4_o.jpg",
    "id_image": "Jaguar_248478",
    "count_view": 0
  },
  {
    "link_thumb": "https://live.staticflickr.com/65535/50017058423_d9069404a9_n.jpg",
    "id_album": "-401151552",
    "description": "Butterfly_405690",
    "title": "Butterfly_405690",
    "link_img": "https://live.staticflickr.com/65535/50017058423_190c0961f6_o.jpg",
    "id_image": "Butterfly_405690",
    "count_view": 0
  },
  {
    "link_thumb": "https://live.staticflickr.com/65535/50018357347_7df300ddf2_n.jpg",
    "id_album": "-462831702",
    "description": "Cat_373224",
    "title": "Cat_373224",
    "link_img": "https://live.staticflickr.com/65535/50018357347_846639299d_o.jpg",
    "id_image": "Cat_373224",
    "count_view": 0
  },
  {
    "link_thumb": "https://live.staticflickr.com/65535/50023076826_f2cf15d3bd_n.jpg",
    "id_album": "470794721",
    "description": "Python_398637",
    "title": "Python_398637",
    "link_img": "https://live.staticflickr.com/65535/50023076826_503b1d3d67_o.jpg",
    "id_image": "Python_398637",
    "count_view": 0
  },
  {
    "link_thumb": "https://live.staticflickr.com/65535/50019934543_825e5a8f2a_n.jpg",
    "id_album": "-149330231",
    "description": "Dog_597434",
    "title": "Dog_597434",
    "link_img": "https://live.staticflickr.com/65535/50019934543_d5f3ff10c3_o.jpg",
    "id_image": "Dog_597434",
    "count_view": 0
  },
  {
    "link_thumb": "https://live.staticflickr.com/65535/50020512088_464f9bbd06_n.jpg",
    "id_album": "844170697",
    "description": "Frog_318008",
    "title": "Frog_318008",
    "link_img": "https://live.staticflickr.com/65535/50020512088_f85931e722_o.jpg",
    "id_image": "Frog_318008",
    "count_view": 0
  },
  {
    "link_thumb": "https://live.staticflickr.com/65535/50021361532_8fe44a2679_n.jpg",
    "id_album": "-462831704",
    "description": "Cat_548999",
    "title": "Cat_548999",
    "link_img": "https://live.staticflickr.com/65535/50021361532_d145ddca08_o.jpg",
    "id_image": "Cat_548999",
    "count_view": 0
  },
  {
    "link_thumb": "https://live.staticflickr.com/65535/50019814653_45ea70e625_n.jpg",
    "id_album": "-149330232",
    "description": "Dog_372130",
    "title": "Dog_372130",
    "link_img": "https://live.staticflickr.com/65535/50019814653_81133fa28f_o.jpg",
    "id_image": "Dog_372130",
    "count_view": 0
  },
  {
    "link_thumb": "https://live.staticflickr.com/65535/50020374351_4a9681f605_n.jpg",
    "id_album": "-149330231",
    "description": "Dog_398791",
    "title": "Dog_398791",
    "link_img": "https://live.staticflickr.com/65535/50020374351_a651cdd20d_o.jpg",
    "id_image": "Dog_398791",
    "count_view": 0
  },
  {
    "link_thumb": "https://live.staticflickr.com/65535/50017886672_21c59acb91_n.jpg",
    "id_album": "-401151552",
    "description": "Butterfly_553073",
    "title": "Butterfly_553073",
    "link_img": "https://live.staticflickr.com/65535/50017886672_2034d77f1c_o.jpg",
    "id_image": "Butterfly_553073",
    "count_view": 0
  },
  {
    "link_thumb": "https://live.staticflickr.com/65535/50021709266_7a232d1385_n.jpg",
    "id_album": "1658866795",
    "description": "Insect_588130",
    "title": "Insect_588130",
    "link_img": "https://live.staticflickr.com/65535/50021709266_223e4cd2f6_o.jpg",
    "id_image": "Insect_588130",
    "count_view": 0
  },
  {
    "link_thumb": "https://live.staticflickr.com/65535/50021691336_1f88c6dbde_n.jpg",
    "id_album": "1658866795",
    "description": "Insect_404780",
    "title": "Insect_404780",
    "link_img": "https://live.staticflickr.com/65535/50021691336_651cca388d_o.jpg",
    "id_image": "Insect_404780",
    "count_view": 0
  },
  {
    "link_thumb": "https://live.staticflickr.com/65535/50016952288_98ac26e2d0_n.jpg",
    "id_album": "782930701",
    "description": "BorderCollie_246200",
    "title": "BorderCollie_246200",
    "link_img": "https://live.staticflickr.com/65535/50016952288_624b3d1a4d_o.jpg",
    "id_image": "BorderCollie_246200",
    "count_view": 0
  },
  {
    "link_thumb": "https://live.staticflickr.com/65535/50020874873_475fac6478_n.jpg",
    "id_album": "109779448",
    "description": "Hare_938147",
    "title": "Hare_938147",
    "link_img": "https://live.staticflickr.com/65535/50020874873_ae868c5cbe_o.jpg",
    "id_image": "Hare_938147",
    "count_view": 0
  },
  {
    "link_thumb": "https://live.staticflickr.com/65535/50019351006_ecd78d0be6_n.jpg",
    "id_album": "-462831703",
    "description": "Cat_867714",
    "title": "Cat_867714",
    "link_img": "https://live.staticflickr.com/65535/50019351006_115e51c57a_o.jpg",
    "id_image": "Cat_867714",
    "count_view": 0
  },
  {
    "link_thumb": "https://live.staticflickr.com/65535/50352470041_246874a721_n.jpg",
    "id_album": "-462831703",
    "description": "Cat_365196",
    "title": "Cat_365196",
    "link_img": "https://live.staticflickr.com/65535/50352470041_c4c5312048_o.jpg",
    "id_image": "Cat_365196",
    "count_view": 0
  },
  {
    "link_thumb": "https://live.staticflickr.com/65535/50021038101_c6f297b63d_n.jpg",
    "id_album": "704811092",
    "description": "FrenchBulldog_275599",
    "title": "FrenchBulldog_275599",
    "link_img": "https://live.staticflickr.com/65535/50021038101_4c0284e376_o.jpg",
    "id_image": "FrenchBulldog_275599",
    "count_view": 0
  },
  {
    "link_thumb": "https://live.staticflickr.com/65535/50019712478_50dc614f0f_n.jpg",
    "id_album": "-149330232",
    "description": "Dog_325471",
    "title": "Dog_325471",
    "link_img": "https://live.staticflickr.com/65535/50019712478_e21db99133_o.jpg",
    "id_image": "Dog_325471",
    "count_view": 0
  },
  {
    "link_thumb": "https://live.staticflickr.com/65535/50018273442_634c60cf8b_n.jpg",
    "id_album": "-462831702",
    "description": "Cat_341674",
    "title": "Cat_341674",
    "link_img": "https://live.staticflickr.com/65535/50018273442_d68d88ed4a_o.jpg",
    "id_image": "Cat_341674",
    "count_view": 0
  },
  {
    "link_thumb": "https://live.staticflickr.com/65535/50021423202_6dc47c1a6c_n.jpg",
    "id_album": "-462831704",
    "description": "Cat_687503",
    "title": "Cat_687503",
    "link_img": "https://live.staticflickr.com/65535/50021423202_ecb491203b_o.jpg",
    "id_image": "Cat_687503",
    "count_view": 0
  },
  {
    "link_thumb": "https://live.staticflickr.com/65535/50024393937_2081ac2d51_n.jpg",
    "id_album": "405170427",
    "description": "Tiger_436294",
    "title": "Tiger_436294",
    "link_img": "https://live.staticflickr.com/65535/50024393937_4c4fd85749_o.jpg",
    "id_image": "Tiger_436294",
    "count_view": 0
  },
  {
    "link_thumb": "https://live.staticflickr.com/65535/50021091056_ce5ea39c34_n.jpg",
    "id_album": "-34696179",
    "description": "Gecko_351319",
    "title": "Gecko_351319",
    "link_img": "https://live.staticflickr.com/65535/50021091056_5b008f8322_o.jpg",
    "id_image": "Gecko_351319",
    "count_view": 0
  },
  {
    "link_thumb": "https://live.staticflickr.com/65535/50352669937_bfbb7519c3_n.jpg",
    "id_album": "-462831703",
    "description": "Cat_425697",
    "title": "Cat_425697",
    "link_img": "https://live.staticflickr.com/65535/50352669937_d7d1007ab8_o.jpg",
    "id_image": "Cat_425697",
    "count_view": 0
  },
  {
    "link_thumb": "https://live.staticflickr.com/65535/50017189506_e8ff527e1f_n.jpg",
    "id_album": "-1846011410",
    "description": "Bird_102074",
    "title": "Bird_102074",
    "link_img": "https://live.staticflickr.com/65535/50017189506_5ae56c7d1d_o.jpg",
    "id_image": "Bird_102074",
    "count_view": 0
  },
  {
    "link_thumb": "https://live.staticflickr.com/65535/50022422971_297a036115_n.jpg",
    "id_album": "-1384601601",
    "description": "Owl_430959",
    "title": "Owl_430959",
    "link_img": "https://live.staticflickr.com/65535/50022422971_37e6a55978_o.jpg",
    "id_image": "Owl_430959",
    "count_view": 0
  },
  {
    "link_thumb": "https://live.staticflickr.com/65535/50351792463_d63769afd8_n.jpg",
    "id_album": "-462831703",
    "description": "Cat_389941",
    "title": "Cat_389941",
    "link_img": "https://live.staticflickr.com/65535/50351792463_552d4bb6b3_o.jpg",
    "id_image": "Cat_389941",
    "count_view": 0
  },
  {
    "link_thumb": "https://live.staticflickr.com/65535/50020981586_693055e887_n.jpg",
    "id_album": "-128218148",
    "description": "Fox_596235",
    "title": "Fox_596235",
    "link_img": "https://live.staticflickr.com/65535/50020981586_52c00b87a4_o.jpg",
    "id_image": "Fox_596235",
    "count_view": 0
  },
  {
    "link_thumb": "https://live.staticflickr.com/65535/50019499296_1e0c9a26c3_n.jpg",
    "id_album": "-462831703",
    "description": "Cat_939769",
    "title": "Cat_939769",
    "link_img": "https://live.staticflickr.com/65535/50019499296_01f0f4656e_o.jpg",
    "id_image": "Cat_939769",
    "count_view": 0
  },
  {
    "link_thumb": "https://live.staticflickr.com/65535/50019010823_8e3cdb07e0_n.jpg",
    "id_album": "-462831703",
    "description": "Cat_972340",
    "title": "Cat_972340",
    "link_img": "https://live.staticflickr.com/65535/50019010823_bd18bf0dd2_o.jpg",
    "id_image": "Cat_972340",
    "count_view": 0
  },
  {
    "link_thumb": "https://live.staticflickr.com/65535/50020026581_a175fc4852_n.jpg",
    "id_album": "1903411565",
    "description": "Deer_573047",
    "title": "Deer_573047",
    "link_img": "https://live.staticflickr.com/65535/50020026581_29bbb68802_o.jpg",
    "id_image": "Deer_573047",
    "count_view": 0
  },
  {
    "link_thumb": "https://live.staticflickr.com/65535/50023483042_416292eec8_n.jpg",
    "id_album": "332874268",
    "description": "RedPanda_682193",
    "title": "RedPanda_682193",
    "link_img": "https://live.staticflickr.com/65535/50023483042_fd9884d167_o.jpg",
    "id_image": "RedPanda_682193",
    "count_view": 0
  },
  {
    "link_thumb": "https://live.staticflickr.com/65535/50017174227_812d05d92f_n.jpg",
    "id_album": "523598895",
    "description": "Artistic_687141",
    "title": "Artistic_687141",
    "link_img": "https://live.staticflickr.com/65535/50017174227_384fb2de30_o.jpg",
    "id_image": "Artistic_687141",
    "count_view": 0
  }
]