[
  {
    "link_thumb": "https://live.staticflickr.com/65535/50021999812_75bedc0c1b_n.jpg",
    "id_album": "665694624",
    "description": "JapaneseMacaque_106502",
    "title": "JapaneseMacaque_106502",
    "link_img": "https://live.staticflickr.com/65535/50021999812_f86784bf44_o.jpg",
    "id_image": "JapaneseMacaque_106502",
    "count_view": 0
  },
  {
    "link_thumb": "https://live.staticflickr.com/65535/50021202193_0af140b8cd_n.jpg",
    "id_album": "665694624",
    "description": "JapaneseMacaque_193522",
    "title": "JapaneseMacaque_193522",
    "link_img": "https://live.staticflickr.com/65535/50021202193_f419d32682_o.jpg",
    "id_image": "JapaneseMacaque_193522",
    "count_view": 0
  },
  {
    "link_thumb": "https://live.staticflickr.com/65535/50022000097_abaf6ae90c_n.jpg",
    "id_album": "665694624",
    "description": "JapaneseMacaque_201130",
    "title": "JapaneseMacaque_201130",
    "link_img": "https://live.staticflickr.com/65535/50022000097_6e53e0a251_o.jpg",
    "id_image": "JapaneseMacaque_201130",
    "count_view": 0
  },
  {
    "link_thumb": "https://live.staticflickr.com/65535/50022000237_c47afd1172_n.jpg",
    "id_album": "665694624",
    "description": "JapaneseMacaque_217070",
    "title": "JapaneseMacaque_217070",
    "link_img": "https://live.staticflickr.com/65535/50022000237_5ffbba897f_o.jpg",
    "id_image": "JapaneseMacaque_217070",
    "count_view": 0
  },
  {
    "link_thumb": "https://live.staticflickr.com/65535/50021746811_9f75e606ed_n.jpg",
    "id_album": "665694624",
    "description": "JapaneseMacaque_245640",
    "title": "JapaneseMacaque_245640",
    "link_img": "https://live.staticflickr.com/65535/50021746811_1b071b23be_o.jpg",
    "id_image": "JapaneseMacaque_245640",
    "count_view": 0
  },
  {
    "link_thumb": "https://live.staticflickr.com/65535/50021747031_767c10c5a6_n.jpg",
    "id_album": "665694624",
    "description": "JapaneseMacaque_249290",
    "title": "JapaneseMacaque_249290",
    "link_img": "https://live.staticflickr.com/65535/50021747031_a2645b6f57_o.jpg",
    "id_image": "JapaneseMacaque_249290",
    "count_view": 0
  },
  {
    "link_thumb": "https://live.staticflickr.com/65535/50021203003_c9f45ec647_n.jpg",
    "id_album": "665694624",
    "description": "JapaneseMacaque_284162",
    "title": "JapaneseMacaque_284162",
    "link_img": "https://live.staticflickr.com/65535/50021203003_72283bcd98_o.jpg",
    "id_image": "JapaneseMacaque_284162",
    "count_view": 0
  },
  {
    "link_thumb": "https://live.staticflickr.com/65535/50021747326_cde40cc8c7_n.jpg",
    "id_album": "665694624",
    "description": "JapaneseMacaque_290935",
    "title": "JapaneseMacaque_290935",
    "link_img": "https://live.staticflickr.com/65535/50021747326_5d9d128691_o.jpg",
    "id_image": "JapaneseMacaque_290935",
    "count_view": 0
  },
  {
    "link_thumb": "https://live.staticflickr.com/65535/50021747436_d87647e5d3_n.jpg",
    "id_album": "665694624",
    "description": "JapaneseMacaque_331135",
    "title": "JapaneseMacaque_331135",
    "link_img": "https://live.staticflickr.com/65535/50021747436_8e09589024_o.jpg",
    "id_image": "JapaneseMacaque_331135",
    "count_view": 0
  },
  {
    "link_thumb": "https://live.staticflickr.com/65535/50021203453_3c967a36a9_n.jpg",
    "id_album": "665694624",
    "description": "JapaneseMacaque_332056",
    "title": "JapaneseMacaque_332056",
    "link_img": "https://live.staticflickr.com/65535/50021203453_5649b62615_o.jpg",
    "id_image": "JapaneseMacaque_332056",
    "count_view": 0
  },
  {
    "link_thumb": "https://live.staticflickr.com/65535/50022001277_983affe96d_n.jpg",
    "id_album": "665694624",
    "description": "JapaneseMacaque_333062",
    "title": "JapaneseMacaque_333062",
    "link_img": "https://live.staticflickr.com/65535/50022001277_134b4d3161_o.jpg",
    "id_image": "JapaneseMacaque_333062",
    "count_view": 0
  },
  {
    "link_thumb": "https://live.staticflickr.com/65535/50021747741_01b4e68034_n.jpg",
    "id_album": "665694624",
    "description": "JapaneseMacaque_334569",
    "title": "JapaneseMacaque_334569",
    "link_img": "https://live.staticflickr.com/65535/50021747741_960bd01d16_o.jpg",
    "id_image": "JapaneseMacaque_334569",
    "count_view": 0
  },
  {
    "link_thumb": "https://live.staticflickr.com/65535/50021203808_c452a8bf51_n.jpg",
    "id_album": "665694624",
    "description": "JapaneseMacaque_336082",
    "title": "JapaneseMacaque_336082",
    "link_img": "https://live.staticflickr.com/65535/50021203808_9e41c76f67_o.jpg",
    "id_image": "JapaneseMacaque_336082",
    "count_view": 0
  },
  {
    "link_thumb": "https://live.staticflickr.com/65535/50022001557_de2a2aba45_n.jpg",
    "id_album": "665694624",
    "description": "JapaneseMacaque_337108",
    "title": "JapaneseMacaque_337108",
    "link_img": "https://live.staticflickr.com/65535/50022001557_39d1cd9864_o.jpg",
    "id_image": "JapaneseMacaque_337108",
    "count_view": 0
  },
  {
    "link_thumb": "https://live.staticflickr.com/65535/50021204073_80e1856628_n.jpg",
    "id_album": "665694624",
    "description": "JapaneseMacaque_339702",
    "title": "JapaneseMacaque_339702",
    "link_img": "https://live.staticflickr.com/65535/50021204073_f034e6115e_o.jpg",
    "id_image": "JapaneseMacaque_339702",
    "count_view": 0
  },
  {
    "link_thumb": "https://live.staticflickr.com/65535/50021204183_c0c655ec59_n.jpg",
    "id_album": "665694624",
    "description": "JapaneseMacaque_339814",
    "title": "JapaneseMacaque_339814",
    "link_img": "https://live.staticflickr.com/65535/50021204183_636b22e8ef_o.jpg",
    "id_image": "JapaneseMacaque_339814",
    "count_view": 0
  },
  {
    "link_thumb": "https://live.staticflickr.com/65535/50021204278_014a89afb3_n.jpg",
    "id_album": "665694624",
    "description": "JapaneseMacaque_346899",
    "title": "JapaneseMacaque_346899",
    "link_img": "https://live.staticflickr.com/65535/50021204278_f7a45ac99c_o.jpg",
    "id_image": "JapaneseMacaque_346899",
    "count_view": 0
  },
  {
    "link_thumb": "https://live.staticflickr.com/65535/50022001982_44496a3f68_n.jpg",
    "id_album": "665694624",
    "description": "JapaneseMacaque_347393",
    "title": "JapaneseMacaque_347393",
    "link_img": "https://live.staticflickr.com/65535/50022001982_9e30c1c88e_o.jpg",
    "id_image": "JapaneseMacaque_347393",
    "count_view": 0
  },
  {
    "link_thumb": "https://live.staticflickr.com/65535/50022002172_925d384316_n.jpg",
    "id_album": "665694624",
    "description": "JapaneseMacaque_349161",
    "title": "JapaneseMacaque_349161",
    "link_img": "https://live.staticflickr.com/65535/50022002172_1215c4a39d_o.jpg",
    "id_image": "JapaneseMacaque_349161",
    "count_view": 0
  },
  {
    "link_thumb": "https://live.staticflickr.com/65535/50021204688_6a89f837e9_n.jpg",
    "id_album": "665694624",
    "description": "JapaneseMacaque_352627",
    "title": "JapaneseMacaque_352627",
    "link_img": "https://live.staticflickr.com/65535/50021204688_e53438784e_o.jpg",
    "id_image": "JapaneseMacaque_352627",
    "count_view": 0
  },
  {
    "link_thumb": "https://live.staticflickr.com/65535/50021204823_6608ccc3e7_n.jpg",
    "id_album": "665694624",
    "description": "JapaneseMacaque_359768",
    "title": "JapaneseMacaque_359768",
    "link_img": "https://live.staticflickr.com/65535/50021204823_21d2460b22_o.jpg",
    "id_image": "JapaneseMacaque_359768",
    "count_view": 0
  },
  {
    "link_thumb": "https://live.staticflickr.com/65535/50022002607_c8dff058cb_n.jpg",
    "id_album": "665694624",
    "description": "JapaneseMacaque_362122",
    "title": "JapaneseMacaque_362122",
    "link_img": "https://live.staticflickr.com/65535/50022002607_1e862545f0_o.jpg",
    "id_image": "JapaneseMacaque_362122",
    "count_view": 0
  },
  {
    "link_thumb": "https://live.staticflickr.com/65535/50021749126_3e1e694269_n.jpg",
    "id_album": "665694624",
    "description": "JapaneseMacaque_365056",
    "title": "JapaneseMacaque_365056",
    "link_img": "https://live.staticflickr.com/65535/50021749126_225e99bbf2_o.jpg",
    "id_image": "JapaneseMacaque_365056",
    "count_view": 0
  },
  {
    "link_thumb": "https://live.staticflickr.com/65535/50022003092_03a97837cc_n.jpg",
    "id_album": "665694624",
    "description": "JapaneseMacaque_365060",
    "title": "JapaneseMacaque_365060",
    "link_img": "https://live.staticflickr.com/65535/50022003092_b4f112a88a_o.jpg",
    "id_image": "JapaneseMacaque_365060",
    "count_view": 0
  },
  {
    "link_thumb": "https://live.staticflickr.com/65535/50022003507_82f6153065_n.jpg",
    "id_album": "665694624",
    "description": "JapaneseMacaque_373218",
    "title": "JapaneseMacaque_373218",
    "link_img": "https://live.staticflickr.com/65535/50022003507_30fa56f866_o.jpg",
    "id_image": "JapaneseMacaque_373218",
    "count_view": 0
  },
  {
    "link_thumb": "https://live.staticflickr.com/65535/50021749776_e6430e99ec_n.jpg",
    "id_album": "665694624",
    "description": "JapaneseMacaque_390683",
    "title": "JapaneseMacaque_390683",
    "link_img": "https://live.staticflickr.com/65535/50021749776_187ca8aba7_o.jpg",
    "id_image": "JapaneseMacaque_390683",
    "count_view": 0
  },
  {
    "link_thumb": "https://live.staticflickr.com/65535/50021206008_90f79dd325_n.jpg",
    "id_album": "665694624",
    "description": "JapaneseMacaque_395405",
    "title": "JapaneseMacaque_395405",
    "link_img": "https://live.staticflickr.com/65535/50021206008_fc43c92f2e_o.jpg",
    "id_image": "JapaneseMacaque_395405",
    "count_view": 0
  },
  {
    "link_thumb": "https://live.staticflickr.com/65535/50021206273_8bbe0c112f_n.jpg",
    "id_album": "665694624",
    "description": "JapaneseMacaque_407687",
    "title": "JapaneseMacaque_407687",
    "link_img": "https://live.staticflickr.com/65535/50021206273_6c02483312_o.jpg",
    "id_image": "JapaneseMacaque_407687",
    "count_view": 0
  },
  {
    "link_thumb": "https://live.staticflickr.com/65535/50022004102_5f3a53cbfe_n.jpg",
    "id_album": "665694624",
    "description": "JapaneseMacaque_407890",
    "title": "JapaneseMacaque_407890",
    "link_img": "https://live.staticflickr.com/65535/50022004102_a3f12596d4_o.jpg",
    "id_image": "JapaneseMacaque_407890",
    "count_view": 0
  },
  {
    "link_thumb": "https://live.staticflickr.com/65535/50021206638_62b10a11df_n.jpg",
    "id_album": "665694624",
    "description": "JapaneseMacaque_423817",
    "title": "JapaneseMacaque_423817",
    "link_img": "https://live.staticflickr.com/65535/50021206638_0dc31f5c30_o.jpg",
    "id_image": "JapaneseMacaque_423817",
    "count_view": 0
  },
  {
    "link_thumb": "https://live.staticflickr.com/65535/50022004522_207d6c97a3_n.jpg",
    "id_album": "665694624",
    "description": "JapaneseMacaque_423908",
    "title": "JapaneseMacaque_423908",
    "link_img": "https://live.staticflickr.com/65535/50022004522_1c9c0eb4f5_o.jpg",
    "id_image": "JapaneseMacaque_423908",
    "count_view": 0
  },
  {
    "link_thumb": "https://live.staticflickr.com/65535/50022004912_c0ff27603b_n.jpg",
    "id_album": "665694624",
    "description": "JapaneseMacaque_459503",
    "title": "JapaneseMacaque_459503",
    "link_img": "https://live.staticflickr.com/65535/50022004912_6e21a3dee5_o.jpg",
    "id_image": "JapaneseMacaque_459503",
    "count_view": 0
  },
  {
    "link_thumb": "https://live.staticflickr.com/65535/50021207268_18f10c18c6_n.jpg",
    "id_album": "665694624",
    "description": "JapaneseMacaque_501025",
    "title": "JapaneseMacaque_501025",
    "link_img": "https://live.staticflickr.com/65535/50021207268_e349974901_o.jpg",
    "id_image": "JapaneseMacaque_501025",
    "count_view": 0
  },
  {
    "link_thumb": "https://live.staticflickr.com/65535/50022005132_ba849e9951_n.jpg",
    "id_album": "665694624",
    "description": "JapaneseMacaque_519336",
    "title": "JapaneseMacaque_519336",
    "link_img": "https://live.staticflickr.com/65535/50022005132_172b4b1e26_o.jpg",
    "id_image": "JapaneseMacaque_519336",
    "count_view": 0
  },
  {
    "link_thumb": "https://live.staticflickr.com/65535/50021751451_0730892739_n.jpg",
    "id_album": "665694624",
    "description": "JapaneseMacaque_529209",
    "title": "JapaneseMacaque_529209",
    "link_img": "https://live.staticflickr.com/65535/50021751451_beddeb65d1_o.jpg",
    "id_image": "JapaneseMacaque_529209",
    "count_view": 0
  },
  {
    "link_thumb": "https://live.staticflickr.com/65535/50021207728_7ab017f394_n.jpg",
    "id_album": "665694624",
    "description": "JapaneseMacaque_534688",
    "title": "JapaneseMacaque_534688",
    "link_img": "https://live.staticflickr.com/65535/50021207728_a075a4cbe1_o.jpg",
    "id_image": "JapaneseMacaque_534688",
    "count_view": 0
  },
  {
    "link_thumb": "https://live.staticflickr.com/65535/50022005717_4238d664ea_n.jpg",
    "id_album": "665694624",
    "description": "JapaneseMacaque_663816",
    "title": "JapaneseMacaque_663816",
    "link_img": "https://live.staticflickr.com/65535/50022005717_ac0c185ce4_o.jpg",
    "id_image": "JapaneseMacaque_663816",
    "count_view": 0
  },
  {
    "link_thumb": "https://live.staticflickr.com/65535/50021752161_8e69029f6d_n.jpg",
    "id_album": "665694624",
    "description": "JapaneseMacaque_668039",
    "title": "JapaneseMacaque_668039",
    "link_img": "https://live.staticflickr.com/65535/50021752161_1022852d14_o.jpg",
    "id_image": "JapaneseMacaque_668039",
    "count_view": 0
  },
  {
    "link_thumb": "https://live.staticflickr.com/65535/50022006217_fd4bcd449d_n.jpg",
    "id_album": "665694624",
    "description": "JapaneseMacaque_668042",
    "title": "JapaneseMacaque_668042",
    "link_img": "https://live.staticflickr.com/65535/50022006217_9598f7f0b1_o.jpg",
    "id_image": "JapaneseMacaque_668042",
    "count_view": 0
  },
  {
    "link_thumb": "https://live.staticflickr.com/65535/50021752606_d0a95d18de_n.jpg",
    "id_album": "665694624",
    "description": "JapaneseMacaque_668973",
    "title": "JapaneseMacaque_668973",
    "link_img": "https://live.staticflickr.com/65535/50021752606_8f16021819_o.jpg",
    "id_image": "JapaneseMacaque_668973",
    "count_view": 0
  },
  {
    "link_thumb": "https://live.staticflickr.com/65535/50021752761_3686044a24_n.jpg",
    "id_album": "665694624",
    "description": "JapaneseMacaque_668974",
    "title": "JapaneseMacaque_668974",
    "link_img": "https://live.staticflickr.com/65535/50021752761_1aac661486_o.jpg",
    "id_image": "JapaneseMacaque_668974",
    "count_view": 0
  },
  {
    "link_thumb": "https://live.staticflickr.com/65535/50022006857_41d6665bd6_n.jpg",
    "id_album": "665694624",
    "description": "JapaneseMacaque_668975",
    "title": "JapaneseMacaque_668975",
    "link_img": "https://live.staticflickr.com/65535/50022006857_ed2cbb9553_o.jpg",
    "id_image": "JapaneseMacaque_668975",
    "count_view": 0
  },
  {
    "link_thumb": "https://live.staticflickr.com/65535/50021753056_09239d4bfa_n.jpg",
    "id_album": "665694624",
    "description": "JapaneseMacaque_668976",
    "title": "JapaneseMacaque_668976",
    "link_img": "https://live.staticflickr.com/65535/50021753056_d47a8a4840_o.jpg",
    "id_image": "JapaneseMacaque_668976",
    "count_view": 0
  },
  {
    "link_thumb": "https://live.staticflickr.com/65535/50021209398_b09da85409_n.jpg",
    "id_album": "665694624",
    "description": "JapaneseMacaque_670216",
    "title": "JapaneseMacaque_670216",
    "link_img": "https://live.staticflickr.com/65535/50021209398_821fed3a55_o.jpg",
    "id_image": "JapaneseMacaque_670216",
    "count_view": 0
  },
  {
    "link_thumb": "https://live.staticflickr.com/65535/50021209583_9d0c5a1011_n.jpg",
    "id_album": "665694624",
    "description": "JapaneseMacaque_670217",
    "title": "JapaneseMacaque_670217",
    "link_img": "https://live.staticflickr.com/65535/50021209583_a9dfd437dd_o.jpg",
    "id_image": "JapaneseMacaque_670217",
    "count_view": 0
  },
  {
    "link_thumb": "https://live.staticflickr.com/65535/50021211018_b69ebdf1ef_n.jpg",
    "id_album": "665694624",
    "description": "JapaneseMacaque_670242",
    "title": "JapaneseMacaque_670242",
    "link_img": "https://live.staticflickr.com/65535/50021211018_7f19feb034_o.jpg",
    "id_image": "JapaneseMacaque_670242",
    "count_view": 0
  },
  {
    "link_thumb": "https://live.staticflickr.com/65535/50021755401_b33e0c12b4_n.jpg",
    "id_album": "665694624",
    "description": "JapaneseMacaque_690446",
    "title": "JapaneseMacaque_690446",
    "link_img": "https://live.staticflickr.com/65535/50021755401_ff335d0599_o.jpg",
    "id_image": "JapaneseMacaque_690446",
    "count_view": 0
  },
  {
    "link_thumb": "https://live.staticflickr.com/65535/50022009257_64e54dd38b_n.jpg",
    "id_album": "665694624",
    "description": "JapaneseMacaque_694139",
    "title": "JapaneseMacaque_694139",
    "link_img": "https://live.staticflickr.com/65535/50022009257_8cac07bdf6_o.jpg",
    "id_image": "JapaneseMacaque_694139",
    "count_view": 0
  },
  {
    "link_thumb": "https://live.staticflickr.com/65535/50022009407_b9510e2b0b_n.jpg",
    "id_album": "665694624",
    "description": "JapaneseMacaque_705119",
    "title": "JapaneseMacaque_705119",
    "link_img": "https://live.staticflickr.com/65535/50022009407_81c8b48517_o.jpg",
    "id_image": "JapaneseMacaque_705119",
    "count_view": 0
  },
  {
    "link_thumb": "https://live.staticflickr.com/65535/50021211783_2d8b6a17ae_n.jpg",
    "id_album": "665694624",
    "description": "JapaneseMacaque_714697",
    "title": "JapaneseMacaque_714697",
    "link_img": "https://live.staticflickr.com/65535/50021211783_f15a16757f_o.jpg",
    "id_image": "JapaneseMacaque_714697",
    "count_view": 0
  },
  {
    "link_thumb": "https://live.staticflickr.com/65535/50021212193_a3b364afbe_n.jpg",
    "id_album": "665694624",
    "description": "JapaneseMacaque_718868",
    "title": "JapaneseMacaque_718868",
    "link_img": "https://live.staticflickr.com/65535/50021212193_b3b0d80b69_o.jpg",
    "id_image": "JapaneseMacaque_718868",
    "count_view": 0
  },
  {
    "link_thumb": "https://live.staticflickr.com/65535/50021756441_dc0aea2889_n.jpg",
    "id_album": "665694624",
    "description": "JapaneseMacaque_737243",
    "title": "JapaneseMacaque_737243",
    "link_img": "https://live.staticflickr.com/65535/50021756441_331c7be246_o.jpg",
    "id_image": "JapaneseMacaque_737243",
    "count_view": 0
  },
  {
    "link_thumb": "https://live.staticflickr.com/65535/50022010292_c1e5246601_n.jpg",
    "id_album": "665694624",
    "description": "JapaneseMacaque_741995",
    "title": "JapaneseMacaque_741995",
    "link_img": "https://live.staticflickr.com/65535/50022010292_6244a95634_o.jpg",
    "id_image": "JapaneseMacaque_741995",
    "count_view": 0
  },
  {
    "link_thumb": "https://live.staticflickr.com/65535/50021757321_7e3193f88e_n.jpg",
    "id_album": "665694624",
    "description": "JapaneseMacaque_796862",
    "title": "JapaneseMacaque_796862",
    "link_img": "https://live.staticflickr.com/65535/50021757321_e1dfc03107_o.jpg",
    "id_image": "JapaneseMacaque_796862",
    "count_view": 0
  },
  {
    "link_thumb": "https://live.staticflickr.com/65535/50022011147_1f489c7e54_n.jpg",
    "id_album": "665694624",
    "description": "JapaneseMacaque_808773",
    "title": "JapaneseMacaque_808773",
    "link_img": "https://live.staticflickr.com/65535/50022011147_7f5c52d3da_o.jpg",
    "id_image": "JapaneseMacaque_808773",
    "count_view": 0
  },
  {
    "link_thumb": "https://live.staticflickr.com/65535/50022011237_05e5bf2891_n.jpg",
    "id_album": "665694624",
    "description": "JapaneseMacaque_808799",
    "title": "JapaneseMacaque_808799",
    "link_img": "https://live.staticflickr.com/65535/50022011237_3d3c116c3d_o.jpg",
    "id_image": "JapaneseMacaque_808799",
    "count_view": 0
  },
  {
    "link_thumb": "https://live.staticflickr.com/65535/50021757551_372d2c7c1c_n.jpg",
    "id_album": "665694624",
    "description": "JapaneseMacaque_814977",
    "title": "JapaneseMacaque_814977",
    "link_img": "https://live.staticflickr.com/65535/50021757551_fb84e5af37_o.jpg",
    "id_image": "JapaneseMacaque_814977",
    "count_view": 0
  },
  {
    "link_thumb": "https://live.staticflickr.com/65535/50022011447_c8f7bfae08_n.jpg",
    "id_album": "665694624",
    "description": "JapaneseMacaque_826129",
    "title": "JapaneseMacaque_826129",
    "link_img": "https://live.staticflickr.com/65535/50022011447_87e8870456_o.jpg",
    "id_image": "JapaneseMacaque_826129",
    "count_view": 0
  },
  {
    "link_thumb": "https://live.staticflickr.com/65535/50021757791_86ba5c05fb_n.jpg",
    "id_album": "665694624",
    "description": "JapaneseMacaque_828074",
    "title": "JapaneseMacaque_828074",
    "link_img": "https://live.staticflickr.com/65535/50021757791_a778bf1364_o.jpg",
    "id_image": "JapaneseMacaque_828074",
    "count_view": 0
  },
  {
    "link_thumb": "https://live.staticflickr.com/65535/50021757876_a1807b17a6_n.jpg",
    "id_album": "665694624",
    "description": "JapaneseMacaque_831521",
    "title": "JapaneseMacaque_831521",
    "link_img": "https://live.staticflickr.com/65535/50021757876_b69e320d0e_o.jpg",
    "id_image": "JapaneseMacaque_831521",
    "count_view": 0
  },
  {
    "link_thumb": "https://live.staticflickr.com/65535/50022011712_34c2c664b4_n.jpg",
    "id_album": "665694624",
    "description": "JapaneseMacaque_853392",
    "title": "JapaneseMacaque_853392",
    "link_img": "https://live.staticflickr.com/65535/50022011712_41d978f9de_o.jpg",
    "id_image": "JapaneseMacaque_853392",
    "count_view": 0
  },
  {
    "link_thumb": "https://live.staticflickr.com/65535/50021214203_b5f6bef8aa_n.jpg",
    "id_album": "665694624",
    "description": "JapaneseMacaque_857504",
    "title": "JapaneseMacaque_857504",
    "link_img": "https://live.staticflickr.com/65535/50021214203_f1ae799b85_o.jpg",
    "id_image": "JapaneseMacaque_857504",
    "count_view": 0
  },
  {
    "link_thumb": "https://live.staticflickr.com/65535/50021214253_95213fa9ca_n.jpg",
    "id_album": "665694624",
    "description": "JapaneseMacaque_864635",
    "title": "JapaneseMacaque_864635",
    "link_img": "https://live.staticflickr.com/65535/50021214253_f76858353b_o.jpg",
    "id_image": "JapaneseMacaque_864635",
    "count_view": 0
  },
  {
    "link_thumb": "https://live.staticflickr.com/65535/50021214343_f1b45585d3_n.jpg",
    "id_album": "665694624",
    "description": "JapaneseMacaque_864647",
    "title": "JapaneseMacaque_864647",
    "link_img": "https://live.staticflickr.com/65535/50021214343_cf3d2b61c0_o.jpg",
    "id_image": "JapaneseMacaque_864647",
    "count_view": 0
  },
  {
    "link_thumb": "https://live.staticflickr.com/65535/50021758481_de50c7215f_n.jpg",
    "id_album": "665694624",
    "description": "JapaneseMacaque_888663",
    "title": "JapaneseMacaque_888663",
    "link_img": "https://live.staticflickr.com/65535/50021758481_0c0d858517_o.jpg",
    "id_image": "JapaneseMacaque_888663",
    "count_view": 0
  },
  {
    "link_thumb": "https://live.staticflickr.com/65535/50022012357_b19c047a68_n.jpg",
    "id_album": "665694624",
    "description": "JapaneseMacaque_902526",
    "title": "JapaneseMacaque_902526",
    "link_img": "https://live.staticflickr.com/65535/50022012357_498e90771e_o.jpg",
    "id_image": "JapaneseMacaque_902526",
    "count_view": 0
  },
  {
    "link_thumb": "https://live.staticflickr.com/65535/50021214798_8ba0e7ed6f_n.jpg",
    "id_album": "665694624",
    "description": "JapaneseMacaque_925389",
    "title": "JapaneseMacaque_925389",
    "link_img": "https://live.staticflickr.com/65535/50021214798_31be8180f7_o.jpg",
    "id_image": "JapaneseMacaque_925389",
    "count_view": 0
  },
  {
    "link_thumb": "https://live.staticflickr.com/65535/50021758881_e00ff1d0af_n.jpg",
    "id_album": "665694624",
    "description": "JapaneseMacaque_930071",
    "title": "JapaneseMacaque_930071",
    "link_img": "https://live.staticflickr.com/65535/50021758881_6f631c328d_o.jpg",
    "id_image": "JapaneseMacaque_930071",
    "count_view": 0
  }
]