[
  {
    "link_thumb": "https://live.staticflickr.com/65535/50018390717_0b266ebae2_n.jpg",
    "id_album": "-462831702",
    "description": "Cat_394674",
    "title": "Cat_394674",
    "link_img": "https://live.staticflickr.com/65535/50018390717_aef0a34f14_o.jpg",
    "id_image": "Cat_394674",
    "count_view": 0
  },
  {
    "link_thumb": "https://live.staticflickr.com/65535/50022143576_b8bc80b751_n.jpg",
    "id_album": "1894617400",
    "description": "Lynx_408970",
    "title": "Lynx_408970",
    "link_img": "https://live.staticflickr.com/65535/50022143576_c9e323b9d2_o.jpg",
    "id_image": "Lynx_408970",
    "count_view": 0
  },
  {
    "link_thumb": "https://live.staticflickr.com/65535/50021087108_ec8254edac_n.jpg",
    "id_album": "-712553376",
    "description": "Husky_360053",
    "title": "Husky_360053",
    "link_img": "https://live.staticflickr.com/65535/50021087108_187f787da4_o.jpg",
    "id_image": "Husky_360053",
    "count_view": 0
  },
  {
    "link_thumb": "https://live.staticflickr.com/65535/50019294201_e99a90ae31_n.jpg",
    "id_album": "-462831704",
    "description": "Cat_529618",
    "title": "Cat_529618",
    "link_img": "https://live.staticflickr.com/65535/50019294201_995a3a656f_o.jpg",
    "id_image": "Cat_529618",
    "count_view": 0
  },
  {
    "link_thumb": "https://live.staticflickr.com/65535/50020544988_0f79795200_n.jpg",
    "id_album": "844170697",
    "description": "Frog_943823",
    "title": "Frog_943823",
    "link_img": "https://live.staticflickr.com/65535/50020544988_1efd2e5fcd_o.jpg",
    "id_image": "Frog_943823",
    "count_view": 0
  },
  {
    "link_thumb": "https://live.staticflickr.com/65535/50021599606_6fe1d56d8e_n.jpg",
    "id_album": "773713550",
    "description": "Hoverfly_926125",
    "title": "Hoverfly_926125",
    "link_img": "https://live.staticflickr.com/65535/50021599606_a4bb95777b_o.jpg",
    "id_image": "Hoverfly_926125",
    "count_view": 0
  },
  {
    "link_thumb": "https://live.staticflickr.com/65535/50021729456_c5c43d4d5c_n.jpg",
    "id_album": "-843028318",
    "description": "Jaguar_456574",
    "title": "Jaguar_456574",
    "link_img": "https://live.staticflickr.com/65535/50021729456_71d7d9a09c_o.jpg",
    "id_image": "Jaguar_456574",
    "count_view": 0
  },
  {
    "link_thumb": "https://live.staticflickr.com/65535/50021388486_0726fce10a_n.jpg",
    "id_album": "-817970789",
    "description": "Goose_986818",
    "title": "Goose_986818",
    "link_img": "https://live.staticflickr.com/65535/50021388486_bc3d3d4262_o.jpg",
    "id_image": "Goose_986818",
    "count_view": 0
  },
  {
    "link_thumb": "https://live.staticflickr.com/65535/50022363257_da239932fd_n.jpg",
    "id_album": "-656526748",
    "description": "Lizard_312214",
    "title": "Lizard_312214",
    "link_img": "https://live.staticflickr.com/65535/50022363257_209a9de743_o.jpg",
    "id_image": "Lizard_312214",
    "count_view": 0
  },
  {
    "link_thumb": "https://live.staticflickr.com/65535/50020184486_26ddc043ce_n.jpg",
    "id_album": "-149330232",
    "description": "Dog_255608",
    "title": "Dog_255608",
    "link_img": "https://live.staticflickr.com/65535/50020184486_785e1b0f56_o.jpg",
    "id_image": "Dog_255608",
    "count_view": 0
  },
  {
    "link_thumb": "https://live.staticflickr.com/65535/50022087192_332a6e015d_n.jpg",
    "id_album": "1307335982",
    "description": "LabradorRetriever_714995",
    "title": "LabradorRetriever_714995",
    "link_img": "https://live.staticflickr.com/65535/50022087192_46d588d142_o.jpg",
    "id_image": "LabradorRetriever_714995",
    "count_view": 0
  },
  {
    "link_thumb": "https://live.staticflickr.com/65535/50020161061_96bcee2f3a_n.jpg",
    "id_album": "-149330232",
    "description": "Dog_223737",
    "title": "Dog_223737",
    "link_img": "https://live.staticflickr.com/65535/50020161061_5926f19505_o.jpg",
    "id_image": "Dog_223737",
    "count_view": 0
  },
  {
    "link_thumb": "https://live.staticflickr.com/65535/50352683207_f9b9f85caa_n.jpg",
    "id_album": "-462831703",
    "description": "Cat_439367",
    "title": "Cat_439367",
    "link_img": "https://live.staticflickr.com/65535/50352683207_1946b5a9b9_o.jpg",
    "id_image": "Cat_439367",
    "count_view": 0
  },
  {
    "link_thumb": "https://live.staticflickr.com/65535/50020453688_4803614eed_n.jpg",
    "id_album": "-128218148",
    "description": "Fox_738049",
    "title": "Fox_738049",
    "link_img": "https://live.staticflickr.com/65535/50020453688_0b14c10497_o.jpg",
    "id_image": "Fox_738049",
    "count_view": 0
  },
  {
    "link_thumb": "https://live.staticflickr.com/65535/50019983203_b6138f10cb_n.jpg",
    "id_album": "-149330231",
    "description": "Dog_803250",
    "title": "Dog_803250",
    "link_img": "https://live.staticflickr.com/65535/50019983203_29dbae6662_o.jpg",
    "id_image": "Dog_803250",
    "count_view": 0
  },
  {
    "link_thumb": "https://live.staticflickr.com/65535/50019994608_bee1812360_n.jpg",
    "id_album": "-149330231",
    "description": "Dog_864835",
    "title": "Dog_864835",
    "link_img": "https://live.staticflickr.com/65535/50019994608_8a71b66414_o.jpg",
    "id_image": "Dog_864835",
    "count_view": 0
  },
  {
    "link_thumb": "https://live.staticflickr.com/65535/50020104502_85a92a2957_n.jpg",
    "id_album": "-2144640780",
    "description": "Cow_441957",
    "title": "Cow_441957",
    "link_img": "https://live.staticflickr.com/65535/50020104502_44103c40f2_o.jpg",
    "id_image": "Cow_441957",
    "count_view": 0
  },
  {
    "link_thumb": "https://live.staticflickr.com/65535/50023558361_8e4ceec569_n.jpg",
    "id_album": "-1182356179",
    "description": "Snake_172313",
    "title": "Snake_172313",
    "link_img": "https://live.staticflickr.com/65535/50023558361_aef474e247_o.jpg",
    "id_image": "Snake_172313",
    "count_view": 0
  },
  {
    "link_thumb": "https://live.staticflickr.com/65535/50017135667_38afecd1a5_n.jpg",
    "id_album": "523598895",
    "description": "Artistic_176321",
    "title": "Artistic_176321",
    "link_img": "https://live.staticflickr.com/65535/50017135667_5124d54a2b_o.jpg",
    "id_image": "Artistic_176321",
    "count_view": 0
  },
  {
    "link_thumb": "https://live.staticflickr.com/65535/50021176921_959ce1f385_n.jpg",
    "id_album": "-462831704",
    "description": "Cat_697581",
    "title": "Cat_697581",
    "link_img": "https://live.staticflickr.com/65535/50021176921_b5617a7689_o.jpg",
    "id_image": "Cat_697581",
    "count_view": 0
  },
  {
    "link_thumb": "https://live.staticflickr.com/65535/50019369088_90d91ae2ea_n.jpg",
    "id_album": "1475096665",
    "description": "Crocodile_818959",
    "title": "Crocodile_818959",
    "link_img": "https://live.staticflickr.com/65535/50019369088_dc9440aa47_o.jpg",
    "id_image": "Crocodile_818959",
    "count_view": 0
  },
  {
    "link_thumb": "https://live.staticflickr.com/65535/50017420207_bf564e97d9_n.jpg",
    "id_album": "1699594607",
    "description": "Bee_739499",
    "title": "Bee_739499",
    "link_img": "https://live.staticflickr.com/65535/50017420207_87c8e6a460_o.jpg",
    "id_image": "Bee_739499",
    "count_view": 0
  },
  {
    "link_thumb": "https://live.staticflickr.com/65535/50017023566_b554524800_n.jpg",
    "id_album": "-422187261",
    "description": "Bear_341083",
    "title": "Bear_341083",
    "link_img": "https://live.staticflickr.com/65535/50017023566_34ea234736_o.jpg",
    "id_image": "Bear_341083",
    "count_view": 0
  },
  {
    "link_thumb": "https://live.staticflickr.com/65535/50022156696_829899440a_n.jpg",
    "id_album": "1894617400",
    "description": "Lynx_692267",
    "title": "Lynx_692267",
    "link_img": "https://live.staticflickr.com/65535/50022156696_965089b09e_o.jpg",
    "id_image": "Lynx_692267",
    "count_view": 0
  },
  {
    "link_thumb": "https://live.staticflickr.com/65535/50019944511_f6a74aa2fd_n.jpg",
    "id_album": "1273365283",
    "description": "Cute_530001",
    "title": "Cute_530001",
    "link_img": "https://live.staticflickr.com/65535/50019944511_e249639169_o.jpg",
    "id_image": "Cute_530001",
    "count_view": 0
  },
  {
    "link_thumb": "https://live.staticflickr.com/65535/50020210421_bf8502d507_n.jpg",
    "id_album": "-149330232",
    "description": "Dog_275600",
    "title": "Dog_275600",
    "link_img": "https://live.staticflickr.com/65535/50020210421_a1debc2312_o.jpg",
    "id_image": "Dog_275600",
    "count_view": 0
  },
  {
    "link_thumb": "https://live.staticflickr.com/65535/50020285976_06af5e57bb_n.jpg",
    "id_album": "-149330232",
    "description": "Dog_343149",
    "title": "Dog_343149",
    "link_img": "https://live.staticflickr.com/65535/50020285976_f9c1b3b2f3_o.jpg",
    "id_image": "Dog_343149",
    "count_view": 0
  },
  {
    "link_thumb": "https://live.staticflickr.com/65535/50020352711_e70bb2a9a6_n.jpg",
    "id_album": "-149330232",
    "description": "Dog_377351",
    "title": "Dog_377351",
    "link_img": "https://live.staticflickr.com/65535/50020352711_dc731870a3_o.jpg",
    "id_image": "Dog_377351",
    "count_view": 0
  },
  {
    "link_thumb": "https://live.staticflickr.com/65535/50020008453_e8184abcff_n.jpg",
    "id_album": "-149330231",
    "description": "Dog_904997",
    "title": "Dog_904997",
    "link_img": "https://live.staticflickr.com/65535/50020008453_37fc025a5d_o.jpg",
    "id_image": "Dog_904997",
    "count_view": 0
  },
  {
    "link_thumb": "https://live.staticflickr.com/65535/50022632902_82d52c3f79_n.jpg",
    "id_album": "106807275",
    "description": "Otter_902171",
    "title": "Otter_902171",
    "link_img": "https://live.staticflickr.com/65535/50022632902_687f83b61a_o.jpg",
    "id_image": "Otter_902171",
    "count_view": 0
  },
  {
    "link_thumb": "https://live.staticflickr.com/65535/50017402771_2f9fcb5061_n.jpg",
    "id_album": "-1846011410",
    "description": "Bird_686740",
    "title": "Bird_686740",
    "link_img": "https://live.staticflickr.com/65535/50017402771_98440a6fd3_o.jpg",
    "id_image": "Bird_686740",
    "count_view": 0
  },
  {
    "link_thumb": "https://live.staticflickr.com/65535/50024245356_1621aace76_n.jpg",
    "id_album": "405170427",
    "description": "Tiger_925233",
    "title": "Tiger_925233",
    "link_img": "https://live.staticflickr.com/65535/50024245356_5eec98e76f_o.jpg",
    "id_image": "Tiger_925233",
    "count_view": 0
  },
  {
    "link_thumb": "https://live.staticflickr.com/65535/50020054173_046b93e812_n.jpg",
    "id_album": "-54509188",
    "description": "Dolphin_653560",
    "title": "Dolphin_653560",
    "link_img": "https://live.staticflickr.com/65535/50020054173_7abfbc9284_o.jpg",
    "id_image": "Dolphin_653560",
    "count_view": 0
  },
  {
    "link_thumb": "https://live.staticflickr.com/65535/50021804563_f288fcf3b0_n.jpg",
    "id_album": "1015034486",
    "description": "Muteswan_986383",
    "title": "Muteswan_986383",
    "link_img": "https://live.staticflickr.com/65535/50021804563_c3dd114839_o.jpg",
    "id_image": "Muteswan_986383",
    "count_view": 0
  },
  {
    "link_thumb": "https://live.staticflickr.com/65535/50016590513_08e3935574_n.jpg",
    "id_album": "1699594607",
    "description": "Bee_156693",
    "title": "Bee_156693",
    "link_img": "https://live.staticflickr.com/65535/50016590513_3556c4d8ce_o.jpg",
    "id_image": "Bee_156693",
    "count_view": 0
  },
  {
    "link_thumb": "https://live.staticflickr.com/65535/50020247307_87312c1a02_n.jpg",
    "id_album": "1903411565",
    "description": "Deer_315142",
    "title": "Deer_315142",
    "link_img": "https://live.staticflickr.com/65535/50020247307_4e7e161907_o.jpg",
    "id_image": "Deer_315142",
    "count_view": 0
  },
  {
    "link_thumb": "https://live.staticflickr.com/65535/50017760212_e8a996a7e9_n.jpg",
    "id_album": "782930701",
    "description": "BorderCollie_847785",
    "title": "BorderCollie_847785",
    "link_img": "https://live.staticflickr.com/65535/50017760212_dfb3c08ddb_o.jpg",
    "id_image": "BorderCollie_847785",
    "count_view": 0
  },
  {
    "link_thumb": "https://live.staticflickr.com/65535/50020118306_845d3bf7f1_n.jpg",
    "id_album": "-149330232",
    "description": "Dog_113659",
    "title": "Dog_113659",
    "link_img": "https://live.staticflickr.com/65535/50020118306_f11d157309_o.jpg",
    "id_image": "Dog_113659",
    "count_view": 0
  },
  {
    "link_thumb": "https://live.staticflickr.com/65535/50020150333_12fca39f32_n.jpg",
    "id_album": "-39098563",
    "description": "Eagle_200546",
    "title": "Eagle_200546",
    "link_img": "https://live.staticflickr.com/65535/50020150333_a8f7db1407_o.jpg",
    "id_image": "Eagle_200546",
    "count_view": 0
  },
  {
    "link_thumb": "https://live.staticflickr.com/65535/50023039816_affbf096e6_n.jpg",
    "id_album": "-353898617",
    "description": "Puppy_595780",
    "title": "Puppy_595780",
    "link_img": "https://live.staticflickr.com/65535/50023039816_39b81490f0_o.jpg",
    "id_image": "Puppy_595780",
    "count_view": 0
  },
  {
    "link_thumb": "https://live.staticflickr.com/65535/50017129601_3a9b032f4e_n.jpg",
    "id_album": "1699594607",
    "description": "Bee_364920",
    "title": "Bee_364920",
    "link_img": "https://live.staticflickr.com/65535/50017129601_f80df8be37_o.jpg",
    "id_image": "Bee_364920",
    "count_view": 0
  },
  {
    "link_thumb": "https://live.staticflickr.com/65535/50018103971_984cb4a7d5_n.jpg",
    "id_album": "-462831702",
    "description": "Cat_379001",
    "title": "Cat_379001",
    "link_img": "https://live.staticflickr.com/65535/50018103971_c173d058f7_o.jpg",
    "id_image": "Cat_379001",
    "count_view": 0
  },
  {
    "link_thumb": "https://live.staticflickr.com/65535/50017933641_8f84340316_n.jpg",
    "id_album": "-462831702",
    "description": "Cat_277251",
    "title": "Cat_277251",
    "link_img": "https://live.staticflickr.com/65535/50017933641_afa3757e7d_o.jpg",
    "id_image": "Cat_277251",
    "count_view": 0
  },
  {
    "link_thumb": "https://live.staticflickr.com/65535/50017072241_bb7d5db6bb_n.jpg",
    "id_album": "-422187261",
    "description": "Bear_721923",
    "title": "Bear_721923",
    "link_img": "https://live.staticflickr.com/65535/50017072241_7734fc9413_o.jpg",
    "id_image": "Bear_721923",
    "count_view": 0
  },
  {
    "link_thumb": "https://live.staticflickr.com/65535/50017962912_d19bf2ac71_n.jpg",
    "id_album": "-401151552",
    "description": "Butterfly_926549",
    "title": "Butterfly_926549",
    "link_img": "https://live.staticflickr.com/65535/50017962912_3a9a1b0799_o.jpg",
    "id_image": "Butterfly_926549",
    "count_view": 0
  },
  {
    "link_thumb": "https://live.staticflickr.com/65535/50018161377_59ecea4fb3_n.jpg",
    "id_album": "-462831705",
    "description": "Cat_246321",
    "title": "Cat_246321",
    "link_img": "https://live.staticflickr.com/65535/50018161377_d3b185d258_o.jpg",
    "id_image": "Cat_246321",
    "count_view": 0
  },
  {
    "link_thumb": "https://live.staticflickr.com/65535/50021000896_7fd9d0eb82_n.jpg",
    "id_album": "-128218148",
    "description": "Fox_755422",
    "title": "Fox_755422",
    "link_img": "https://live.staticflickr.com/65535/50021000896_66d563692b_o.jpg",
    "id_image": "Fox_755422",
    "count_view": 0
  },
  {
    "link_thumb": "https://live.staticflickr.com/65535/50019198913_ae477dffd9_n.jpg",
    "id_album": "-1481843714",
    "description": "Cheetah_770839",
    "title": "Cheetah_770839",
    "link_img": "https://live.staticflickr.com/65535/50019198913_2cb56e764c_o.jpg",
    "id_image": "Cheetah_770839",
    "count_view": 0
  },
  {
    "link_thumb": "https://live.staticflickr.com/65535/50019751948_c4314005d2_n.jpg",
    "id_album": "-149330232",
    "description": "Dog_342760",
    "title": "Dog_342760",
    "link_img": "https://live.staticflickr.com/65535/50019751948_cf4cf8da25_o.jpg",
    "id_image": "Dog_342760",
    "count_view": 0
  },
  {
    "link_thumb": "https://live.staticflickr.com/65535/50020744973_ef5fea5958_n.jpg",
    "id_album": "-405626519",
    "description": "GermanShepherd_382799",
    "title": "GermanShepherd_382799",
    "link_img": "https://live.staticflickr.com/65535/50020744973_cdb88061b8_o.jpg",
    "id_image": "GermanShepherd_382799",
    "count_view": 0
  },
  {
    "link_thumb": "https://live.staticflickr.com/65535/50017089932_1a1d1b9674_n.jpg",
    "id_album": "-229810103",
    "description": "AmericanBison_997035",
    "title": "AmericanBison_997035",
    "link_img": "https://live.staticflickr.com/65535/50017089932_04a3797ecd_o.jpg",
    "id_image": "AmericanBison_997035",
    "count_view": 0
  },
  {
    "link_thumb": "https://live.staticflickr.com/65535/50022139362_e7fd12e3c1_n.jpg",
    "id_album": "1392348450",
    "description": "Leopard_115567",
    "title": "Leopard_115567",
    "link_img": "https://live.staticflickr.com/65535/50022139362_d537e4a51a_o.jpg",
    "id_image": "Leopard_115567",
    "count_view": 0
  },
  {
    "link_thumb": "https://live.staticflickr.com/65535/50017023671_1c9b504343_n.jpg",
    "id_album": "-422187261",
    "description": "Bear_341088",
    "title": "Bear_341088",
    "link_img": "https://live.staticflickr.com/65535/50017023671_e214496a78_o.jpg",
    "id_image": "Bear_341088",
    "count_view": 0
  },
  {
    "link_thumb": "https://live.staticflickr.com/65535/50020189971_02637099a1_n.jpg",
    "id_album": "-149330232",
    "description": "Dog_262492",
    "title": "Dog_262492",
    "link_img": "https://live.staticflickr.com/65535/50020189971_4f7528b9dd_o.jpg",
    "id_image": "Dog_262492",
    "count_view": 0
  },
  {
    "link_thumb": "https://live.staticflickr.com/65535/50020326886_0e3d1c9ba2_n.jpg",
    "id_album": "-149330232",
    "description": "Dog_365109",
    "title": "Dog_365109",
    "link_img": "https://live.staticflickr.com/65535/50020326886_76b50ba3a9_o.jpg",
    "id_image": "Dog_365109",
    "count_view": 0
  },
  {
    "link_thumb": "https://live.staticflickr.com/65535/50021296296_d5e98659ff_n.jpg",
    "id_album": "-405626519",
    "description": "GermanShepherd_701088",
    "title": "GermanShepherd_701088",
    "link_img": "https://live.staticflickr.com/65535/50021296296_5b8ded9d21_o.jpg",
    "id_image": "GermanShepherd_701088",
    "count_view": 0
  },
  {
    "link_thumb": "https://live.staticflickr.com/65535/50023756358_65cfb3d16a_n.jpg",
    "id_album": "46520366",
    "description": "Turtle_235107",
    "title": "Turtle_235107",
    "link_img": "https://live.staticflickr.com/65535/50023756358_e9ec1b4b9a_o.jpg",
    "id_image": "Turtle_235107",
    "count_view": 0
  },
  {
    "link_thumb": "https://live.staticflickr.com/65535/50018054727_e02df14aed_n.jpg",
    "id_album": "-462831705",
    "description": "Cat_165584",
    "title": "Cat_165584",
    "link_img": "https://live.staticflickr.com/65535/50018054727_67968c7691_o.jpg",
    "id_image": "Cat_165584",
    "count_view": 0
  },
  {
    "link_thumb": "https://live.staticflickr.com/65535/50019940547_9d625f5ea9_n.jpg",
    "id_album": "-1481843714",
    "description": "Cheetah_235808",
    "title": "Cheetah_235808",
    "link_img": "https://live.staticflickr.com/65535/50019940547_26924f5b0a_o.jpg",
    "id_image": "Cheetah_235808",
    "count_view": 0
  },
  {
    "link_thumb": "https://live.staticflickr.com/65535/50019679317_decbf6e6c0_n.jpg",
    "id_album": "-462831703",
    "description": "Cat_903447",
    "title": "Cat_903447",
    "link_img": "https://live.staticflickr.com/65535/50019679317_291d51e198_o.jpg",
    "id_image": "Cat_903447",
    "count_view": 0
  },
  {
    "link_thumb": "https://live.staticflickr.com/65535/50021182648_fcb5f51e57_n.jpg",
    "id_album": "-843028318",
    "description": "Jaguar_430733",
    "title": "Jaguar_430733",
    "link_img": "https://live.staticflickr.com/65535/50021182648_e69434daa2_o.jpg",
    "id_image": "Jaguar_430733",
    "count_view": 0
  },
  {
    "link_thumb": "https://live.staticflickr.com/65535/50017433297_4ee640dd6a_n.jpg",
    "id_album": "172748811",
    "description": "Beeeater_419495",
    "title": "Beeeater_419495",
    "link_img": "https://live.staticflickr.com/65535/50017433297_7c9dae8e4b_o.jpg",
    "id_image": "Beeeater_419495",
    "count_view": 0
  },
  {
    "link_thumb": "https://live.staticflickr.com/65535/50021284748_d09edf0762_n.jpg",
    "id_album": "1307335982",
    "description": "LabradorRetriever_352711",
    "title": "LabradorRetriever_352711",
    "link_img": "https://live.staticflickr.com/65535/50021284748_8d4a446737_o.jpg",
    "id_image": "LabradorRetriever_352711",
    "count_view": 0
  },
  {
    "link_thumb": "https://live.staticflickr.com/65535/50017172296_a8c06c7762_n.jpg",
    "id_album": "172748811",
    "description": "Beeeater_541630",
    "title": "Beeeater_541630",
    "link_img": "https://live.staticflickr.com/65535/50017172296_2d5f9d06f0_o.jpg",
    "id_image": "Beeeater_541630",
    "count_view": 0
  },
  {
    "link_thumb": "https://live.staticflickr.com/65535/50017980731_5e21c7ae30_n.jpg",
    "id_album": "-462831702",
    "description": "Cat_327163",
    "title": "Cat_327163",
    "link_img": "https://live.staticflickr.com/65535/50017980731_e5ce929033_o.jpg",
    "id_image": "Cat_327163",
    "count_view": 0
  },
  {
    "link_thumb": "https://live.staticflickr.com/65535/50021383031_6704572333_n.jpg",
    "id_album": "-817970789",
    "description": "Goose_445370",
    "title": "Goose_445370",
    "link_img": "https://live.staticflickr.com/65535/50021383031_889b6de425_o.jpg",
    "id_image": "Goose_445370",
    "count_view": 0
  },
  {
    "link_thumb": "https://live.staticflickr.com/65535/50020546623_25bc987b30_n.jpg",
    "id_album": "844170697",
    "description": "Frog_986598",
    "title": "Frog_986598",
    "link_img": "https://live.staticflickr.com/65535/50020546623_79cf7e8844_o.jpg",
    "id_image": "Frog_986598",
    "count_view": 0
  },
  {
    "link_thumb": "https://live.staticflickr.com/65535/50021114506_52b6ed275e_n.jpg",
    "id_album": "-462831704",
    "description": "Cat_559911",
    "title": "Cat_559911",
    "link_img": "https://live.staticflickr.com/65535/50021114506_c273ae9763_o.jpg",
    "id_image": "Cat_559911",
    "count_view": 0
  },
  {
    "link_thumb": "https://live.staticflickr.com/65535/50024111851_9bbf7b5eb6_n.jpg",
    "id_album": "405170427",
    "description": "Tiger_394118",
    "title": "Tiger_394118",
    "link_img": "https://live.staticflickr.com/65535/50024111851_e1eceba0b2_o.jpg",
    "id_image": "Tiger_394118",
    "count_view": 0
  },
  {
    "link_thumb": "https://live.staticflickr.com/65535/50017778756_77edd26eda_n.jpg",
    "id_album": "-462831705",
    "description": "Cat_129215",
    "title": "Cat_129215",
    "link_img": "https://live.staticflickr.com/65535/50017778756_5b22be5689_o.jpg",
    "id_image": "Cat_129215",
    "count_view": 0
  },
  {
    "link_thumb": "https://live.staticflickr.com/65535/50017445572_e55c57952a_n.jpg",
    "id_album": "325287329",
    "description": "Beetle_436216",
    "title": "Beetle_436216",
    "link_img": "https://live.staticflickr.com/65535/50017445572_42749e54f3_o.jpg",
    "id_image": "Beetle_436216",
    "count_view": 0
  },
  {
    "link_thumb": "https://live.staticflickr.com/65535/50019511788_0b1d80b861_n.jpg",
    "id_album": "1903411565",
    "description": "Deer_709389",
    "title": "Deer_709389",
    "link_img": "https://live.staticflickr.com/65535/50019511788_3fb9de6f94_o.jpg",
    "id_image": "Deer_709389",
    "count_view": 0
  },
  {
    "link_thumb": "https://live.staticflickr.com/65535/50021639677_55e4b64743_n.jpg",
    "id_album": "-817970789",
    "description": "Goose_752176",
    "title": "Goose_752176",
    "link_img": "https://live.staticflickr.com/65535/50021639677_0c98136fd8_o.jpg",
    "id_image": "Goose_752176",
    "count_view": 0
  },
  {
    "link_thumb": "https://live.staticflickr.com/65535/50021224696_4dfd574e80_n.jpg",
    "id_album": "-462831703",
    "description": "Cat_744420",
    "title": "Cat_744420",
    "link_img": "https://live.staticflickr.com/65535/50021224696_da1055e74b_o.jpg",
    "id_image": "Cat_744420",
    "count_view": 0
  },
  {
    "link_thumb": "https://live.staticflickr.com/65535/50018129676_15d612b57a_n.jpg",
    "id_album": "-462831702",
    "description": "Cat_395024",
    "title": "Cat_395024",
    "link_img": "https://live.staticflickr.com/65535/50018129676_5d5f9bc175_o.jpg",
    "id_image": "Cat_395024",
    "count_view": 0
  },
  {
    "link_thumb": "https://live.staticflickr.com/65535/50017954071_3ac411260f_n.jpg",
    "id_album": "-462831702",
    "description": "Cat_309884",
    "title": "Cat_309884",
    "link_img": "https://live.staticflickr.com/65535/50017954071_8a347ba920_o.jpg",
    "id_image": "Cat_309884",
    "count_view": 0
  },
  {
    "link_thumb": "https://live.staticflickr.com/65535/50021671157_92a0d27fd4_n.jpg",
    "id_album": "-1513987841",
    "description": "Hawk_240598",
    "title": "Hawk_240598",
    "link_img": "https://live.staticflickr.com/65535/50021671157_f63f471134_o.jpg",
    "id_image": "Hawk_240598",
    "count_view": 0
  },
  {
    "link_thumb": "https://live.staticflickr.com/65535/50019202946_4574c48929_n.jpg",
    "id_album": "-462831704",
    "description": "Cat_439085",
    "title": "Cat_439085",
    "link_img": "https://live.staticflickr.com/65535/50019202946_bc586b059c_o.jpg",
    "id_image": "Cat_439085",
    "count_view": 0
  },
  {
    "link_thumb": "https://live.staticflickr.com/65535/50021425218_4f35e53d3a_n.jpg",
    "id_album": "416744915",
    "description": "Lion_113295",
    "title": "Lion_113295",
    "link_img": "https://live.staticflickr.com/65535/50021425218_e4564cca29_o.jpg",
    "id_image": "Lion_113295",
    "count_view": 0
  },
  {
    "link_thumb": "https://live.staticflickr.com/65535/50021978551_e13c56f596_n.jpg",
    "id_album": "416744915",
    "description": "Lion_246327",
    "title": "Lion_246327",
    "link_img": "https://live.staticflickr.com/65535/50021978551_491761c9a8_o.jpg",
    "id_image": "Lion_246327",
    "count_view": 0
  },
  {
    "link_thumb": "https://live.staticflickr.com/65535/50352009003_2ac239d399_n.jpg",
    "id_album": "-462831702",
    "description": "Cat_86688",
    "title": "Cat_86688",
    "link_img": "https://live.staticflickr.com/65535/50352009003_f95aafc41c_o.jpg",
    "id_image": "Cat_86688",
    "count_view": 0
  },
  {
    "link_thumb": "https://live.staticflickr.com/65535/50017223887_fd97c2c7dc_n.jpg",
    "id_album": "231236068",
    "description": "BaldEagle_596043",
    "title": "BaldEagle_596043",
    "link_img": "https://live.staticflickr.com/65535/50017223887_bd5e833535_o.jpg",
    "id_image": "BaldEagle_596043",
    "count_view": 0
  },
  {
    "link_thumb": "https://live.staticflickr.com/65535/50023977667_863e08bf82_n.jpg",
    "id_album": "-1082521515",
    "description": "Spider_153469",
    "title": "Spider_153469",
    "link_img": "https://live.staticflickr.com/65535/50023977667_a5be862df1_o.jpg",
    "id_image": "Spider_153469",
    "count_view": 0
  },
  {
    "link_thumb": "https://live.staticflickr.com/65535/50020079618_cafc644b19_n.jpg",
    "id_album": "-405058657",
    "description": "Dragonfly_346722",
    "title": "Dragonfly_346722",
    "link_img": "https://live.staticflickr.com/65535/50020079618_517fedbdda_o.jpg",
    "id_image": "Dragonfly_346722",
    "count_view": 0
  },
  {
    "link_thumb": "https://live.staticflickr.com/65535/50019941992_c6f2861394_n.jpg",
    "id_album": "-1481843714",
    "description": "Cheetah_247206",
    "title": "Cheetah_247206",
    "link_img": "https://live.staticflickr.com/65535/50019941992_0eb310fb7d_o.jpg",
    "id_image": "Cheetah_247206",
    "count_view": 0
  },
  {
    "link_thumb": "https://live.staticflickr.com/65535/50020968518_47e6281507_n.jpg",
    "id_album": "-1933715543",
    "description": "Horse_391475",
    "title": "Horse_391475",
    "link_img": "https://live.staticflickr.com/65535/50020968518_ba76c148bc_o.jpg",
    "id_image": "Horse_391475",
    "count_view": 0
  },
  {
    "link_thumb": "https://live.staticflickr.com/65535/50018927428_3c617d2582_n.jpg",
    "id_album": "-462831705",
    "description": "Cat_91473",
    "title": "Cat_91473",
    "link_img": "https://live.staticflickr.com/65535/50018927428_ca726c898b_o.jpg",
    "id_image": "Cat_91473",
    "count_view": 0
  },
  {
    "link_thumb": "https://live.staticflickr.com/65535/50016438378_c3c9a985f4_n.jpg",
    "id_album": "231236068",
    "description": "BaldEagle_677483",
    "title": "BaldEagle_677483",
    "link_img": "https://live.staticflickr.com/65535/50016438378_fe647dd92f_o.jpg",
    "id_image": "BaldEagle_677483",
    "count_view": 0
  },
  {
    "link_thumb": "https://live.staticflickr.com/65535/50017700782_1aec9579d9_n.jpg",
    "id_album": "-1846011410",
    "description": "Bird_910513",
    "title": "Bird_910513",
    "link_img": "https://live.staticflickr.com/65535/50017700782_b70a5cd22d_o.jpg",
    "id_image": "Bird_910513",
    "count_view": 0
  },
  {
    "link_thumb": "https://live.staticflickr.com/65535/50019599283_a15eab5973_n.jpg",
    "id_album": "-149330232",
    "description": "Dog_175705",
    "title": "Dog_175705",
    "link_img": "https://live.staticflickr.com/65535/50019599283_94901590e5_o.jpg",
    "id_image": "Dog_175705",
    "count_view": 0
  },
  {
    "link_thumb": "https://live.staticflickr.com/65535/50016842156_5f1b434eb3_n.jpg",
    "id_album": "-834314226",
    "description": "ArcticFox_264032",
    "title": "ArcticFox_264032",
    "link_img": "https://live.staticflickr.com/65535/50016842156_92c9e1293c_o.jpg",
    "id_image": "ArcticFox_264032",
    "count_view": 0
  },
  {
    "link_thumb": "https://live.staticflickr.com/65535/50021070698_741a551cd7_n.jpg",
    "id_album": "2144294979",
    "description": "Hummingbird_523706",
    "title": "Hummingbird_523706",
    "link_img": "https://live.staticflickr.com/65535/50021070698_f97cf31b08_o.jpg",
    "id_image": "Hummingbird_523706",
    "count_view": 0
  },
  {
    "link_thumb": "https://live.staticflickr.com/65535/50024552351_b0a1ce0be9_n.jpg",
    "id_album": "-709711865",
    "description": "Wolf_867808",
    "title": "Wolf_867808",
    "link_img": "https://live.staticflickr.com/65535/50024552351_d99f40219e_o.jpg",
    "id_image": "Wolf_867808",
    "count_view": 0
  },
  {
    "link_thumb": "https://live.staticflickr.com/65535/50021953757_6b830c468b_n.jpg",
    "id_album": "1658866795",
    "description": "Insect_431239",
    "title": "Insect_431239",
    "link_img": "https://live.staticflickr.com/65535/50021953757_9cfff775a9_o.jpg",
    "id_image": "Insect_431239",
    "count_view": 0
  },
  {
    "link_thumb": "https://live.staticflickr.com/65535/50022135607_59b67f8d41_n.jpg",
    "id_album": "1918884325",
    "description": "Lemur_765100",
    "title": "Lemur_765100",
    "link_img": "https://live.staticflickr.com/65535/50022135607_7e4c3e458c_o.jpg",
    "id_image": "Lemur_765100",
    "count_view": 0
  },
  {
    "link_thumb": "https://live.staticflickr.com/65535/50018730678_7dd8df2c64_n.jpg",
    "id_album": "-462831704",
    "description": "Cat_499238",
    "title": "Cat_499238",
    "link_img": "https://live.staticflickr.com/65535/50018730678_aa876efaf7_o.jpg",
    "id_image": "Cat_499238",
    "count_view": 0
  },
  {
    "link_thumb": "https://live.staticflickr.com/65535/50018131282_a8958dc1cf_n.jpg",
    "id_album": "-462831705",
    "description": "Cat_220339",
    "title": "Cat_220339",
    "link_img": "https://live.staticflickr.com/65535/50018131282_1bcea658bb_o.jpg",
    "id_image": "Cat_220339",
    "count_view": 0
  },
  {
    "link_thumb": "https://live.staticflickr.com/65535/50017911787_d2e0643e27_n.jpg",
    "id_album": "-401151552",
    "description": "Butterfly_708386",
    "title": "Butterfly_708386",
    "link_img": "https://live.staticflickr.com/65535/50017911787_490b1036a2_o.jpg",
    "id_image": "Butterfly_708386",
    "count_view": 0
  },
  {
    "link_thumb": "https://live.staticflickr.com/65535/50021422201_9e6792df9a_n.jpg",
    "id_album": "-1513987841",
    "description": "Hawk_443202",
    "title": "Hawk_443202",
    "link_img": "https://live.staticflickr.com/65535/50021422201_82927f2aec_o.jpg",
    "id_image": "Hawk_443202",
    "count_view": 0
  },
  {
    "link_thumb": "https://live.staticflickr.com/65535/50017289763_402f87c5c2_n.jpg",
    "id_album": "-462831705",
    "description": "Cat_179272",
    "title": "Cat_179272",
    "link_img": "https://live.staticflickr.com/65535/50017289763_53c09c8c97_o.jpg",
    "id_image": "Cat_179272",
    "count_view": 0
  },
  {
    "link_thumb": "https://live.staticflickr.com/65535/50023383116_1469e68fc1_n.jpg",
    "id_album": "1656131695",
    "description": "Seagull_600537",
    "title": "Seagull_600537",
    "link_img": "https://live.staticflickr.com/65535/50023383116_90cfcd9078_o.jpg",
    "id_image": "Seagull_600537",
    "count_view": 0
  },
  {
    "link_thumb": "https://live.staticflickr.com/65535/50021785976_75bc892055_n.jpg",
    "id_album": "1562047127",
    "description": "Jellyfish_872484",
    "title": "Jellyfish_872484",
    "link_img": "https://live.staticflickr.com/65535/50021785976_647589fc2d_o.jpg",
    "id_image": "Jellyfish_872484",
    "count_view": 0
  },
  {
    "link_thumb": "https://live.staticflickr.com/65535/50021187017_96388484ef_n.jpg",
    "id_album": "-128218148",
    "description": "Fox_106581",
    "title": "Fox_106581",
    "link_img": "https://live.staticflickr.com/65535/50021187017_8e3005fc59_o.jpg",
    "id_image": "Fox_106581",
    "count_view": 0
  },
  {
    "link_thumb": "https://live.staticflickr.com/65535/50019503446_04fb29690f_n.jpg",
    "id_album": "-462831703",
    "description": "Cat_942827",
    "title": "Cat_942827",
    "link_img": "https://live.staticflickr.com/65535/50019503446_6b488e86a1_o.jpg",
    "id_image": "Cat_942827",
    "count_view": 0
  },
  {
    "link_thumb": "https://live.staticflickr.com/65535/50020615061_7eef45cdcb_n.jpg",
    "id_album": "-405058657",
    "description": "Dragonfly_373214",
    "title": "Dragonfly_373214",
    "link_img": "https://live.staticflickr.com/65535/50020615061_082c3e28a6_o.jpg",
    "id_image": "Dragonfly_373214",
    "count_view": 0
  },
  {
    "link_thumb": "https://live.staticflickr.com/65535/50019999261_3fc164c8d6_n.jpg",
    "id_album": "1903411565",
    "description": "Deer_368319",
    "title": "Deer_368319",
    "link_img": "https://live.staticflickr.com/65535/50019999261_d7bb23e4e7_o.jpg",
    "id_image": "Deer_368319",
    "count_view": 0
  },
  {
    "link_thumb": "https://live.staticflickr.com/65535/50016301148_a097411f0c_n.jpg",
    "id_album": "-1741290715",
    "description": "Ant_1001175",
    "title": "Ant_1001175",
    "link_img": "https://live.staticflickr.com/65535/50016301148_1bd02d9727_o.jpg",
    "id_image": "Ant_1001175",
    "count_view": 0
  },
  {
    "link_thumb": "https://live.staticflickr.com/65535/50019496888_aac3925f56_n.jpg",
    "id_album": "1903411565",
    "description": "Deer_591518",
    "title": "Deer_591518",
    "link_img": "https://live.staticflickr.com/65535/50019496888_b148dce529_o.jpg",
    "id_image": "Deer_591518",
    "count_view": 0
  },
  {
    "link_thumb": "https://live.staticflickr.com/65535/50021407718_48fda1bf94_n.jpg",
    "id_album": "1392348450",
    "description": "Leopard_766531",
    "title": "Leopard_766531",
    "link_img": "https://live.staticflickr.com/65535/50021407718_ee227b3ffd_o.jpg",
    "id_image": "Leopard_766531",
    "count_view": 0
  },
  {
    "link_thumb": "https://live.staticflickr.com/65535/50020729933_b6f3477805_n.jpg",
    "id_album": "-462831703",
    "description": "Cat_834203",
    "title": "Cat_834203",
    "link_img": "https://live.staticflickr.com/65535/50020729933_9752dbbafc_o.jpg",
    "id_image": "Cat_834203",
    "count_view": 0
  },
  {
    "link_thumb": "https://live.staticflickr.com/65535/50017994346_14aa38604a_n.jpg",
    "id_album": "-462831702",
    "description": "Cat_333236",
    "title": "Cat_333236",
    "link_img": "https://live.staticflickr.com/65535/50017994346_a19014a33f_o.jpg",
    "id_image": "Cat_333236",
    "count_view": 0
  },
  {
    "link_thumb": "https://live.staticflickr.com/65535/50024181771_586bb7f7e2_n.jpg",
    "id_album": "405170427",
    "description": "Tiger_590491",
    "title": "Tiger_590491",
    "link_img": "https://live.staticflickr.com/65535/50024181771_74b3535fd6_o.jpg",
    "id_image": "Tiger_590491",
    "count_view": 0
  },
  {
    "link_thumb": "https://live.staticflickr.com/65535/50022565212_9fe484b68e_n.jpg",
    "id_album": "1015034486",
    "description": "Muteswan_239600",
    "title": "Muteswan_239600",
    "link_img": "https://live.staticflickr.com/65535/50022565212_b36358321d_o.jpg",
    "id_image": "Muteswan_239600",
    "count_view": 0
  },
  {
    "link_thumb": "https://live.staticflickr.com/65535/50020464926_c32103d202_n.jpg",
    "id_album": "-149330231",
    "description": "Dog_592746",
    "title": "Dog_592746",
    "link_img": "https://live.staticflickr.com/65535/50020464926_8748f8791f_o.jpg",
    "id_image": "Dog_592746",
    "count_view": 0
  },
  {
    "link_thumb": "https://live.staticflickr.com/65535/50352674701_d57067db73_n.jpg",
    "id_album": "-462831703",
    "description": "Cat_970838",
    "title": "Cat_970838",
    "link_img": "https://live.staticflickr.com/65535/50352674701_bb6ba15dd0_o.jpg",
    "id_image": "Cat_970838",
    "count_view": 0
  },
  {
    "link_thumb": "https://live.staticflickr.com/65535/50023154868_b81e855438_n.jpg",
    "id_album": "-359606417",
    "description": "Sparrow_326625",
    "title": "Sparrow_326625",
    "link_img": "https://live.staticflickr.com/65535/50023154868_1d0b8a202c_o.jpg",
    "id_image": "Sparrow_326625",
    "count_view": 0
  },
  {
    "link_thumb": "https://live.staticflickr.com/65535/50016463868_f1e9ac6984_n.jpg",
    "id_album": "809937717",
    "description": "Beagle_669476",
    "title": "Beagle_669476",
    "link_img": "https://live.staticflickr.com/65535/50016463868_781062fe56_o.jpg",
    "id_image": "Beagle_669476",
    "count_view": 0
  },
  {
    "link_thumb": "https://live.staticflickr.com/65535/50021114753_aa9aed7220_n.jpg",
    "id_album": "1658866795",
    "description": "Insect_109954",
    "title": "Insect_109954",
    "link_img": "https://live.staticflickr.com/65535/50021114753_1398fddb04_o.jpg",
    "id_image": "Insect_109954",
    "count_view": 0
  },
  {
    "link_thumb": "https://live.staticflickr.com/65535/50022309198_9e554057a4_n.jpg",
    "id_album": "1008910300",
    "description": "PolarBear_715086",
    "title": "PolarBear_715086",
    "link_img": "https://live.staticflickr.com/65535/50022309198_f5596e9f0c_o.jpg",
    "id_image": "PolarBear_715086",
    "count_view": 0
  },
  {
    "link_thumb": "https://live.staticflickr.com/65535/50016699303_765c817d9a_n.jpg",
    "id_album": "-1846011410",
    "description": "Bird_271706",
    "title": "Bird_271706",
    "link_img": "https://live.staticflickr.com/65535/50016699303_f82e380466_o.jpg",
    "id_image": "Bird_271706",
    "count_view": 0
  },
  {
    "link_thumb": "https://live.staticflickr.com/65535/50021764522_3e6cd86002_n.jpg",
    "id_album": "-1933715543",
    "description": "Horse_407619",
    "title": "Horse_407619",
    "link_img": "https://live.staticflickr.com/65535/50021764522_6471bc3ba1_o.jpg",
    "id_image": "Horse_407619",
    "count_view": 0
  },
  {
    "link_thumb": "https://live.staticflickr.com/65535/50022522978_252acf2992_n.jpg",
    "id_album": "-353898617",
    "description": "Puppy_856358",
    "title": "Puppy_856358",
    "link_img": "https://live.staticflickr.com/65535/50022522978_a5ec5af97f_o.jpg",
    "id_image": "Puppy_856358",
    "count_view": 0
  },
  {
    "link_thumb": "https://live.staticflickr.com/65535/50022658137_f672b6a685_n.jpg",
    "id_album": "-1384601601",
    "description": "Owl_346010",
    "title": "Owl_346010",
    "link_img": "https://live.staticflickr.com/65535/50022658137_a484c7e873_o.jpg",
    "id_image": "Owl_346010",
    "count_view": 0
  },
  {
    "link_thumb": "https://live.staticflickr.com/65535/50352524846_185be1e4f6_n.jpg",
    "id_album": "-462831703",
    "description": "Cat_439570",
    "title": "Cat_439570",
    "link_img": "https://live.staticflickr.com/65535/50352524846_d263013859_o.jpg",
    "id_image": "Cat_439570",
    "count_view": 0
  },
  {
    "link_thumb": "https://live.staticflickr.com/65535/50018633143_9f7c796afb_n.jpg",
    "id_album": "-462831702",
    "description": "Cat_423686",
    "title": "Cat_423686",
    "link_img": "https://live.staticflickr.com/65535/50018633143_a1eb01e05c_o.jpg",
    "id_image": "Cat_423686",
    "count_view": 0
  },
  {
    "link_thumb": "https://live.staticflickr.com/65535/50016300688_437d36b547_n.jpg",
    "id_album": "-229810103",
    "description": "AmericanBison_981029",
    "title": "AmericanBison_981029",
    "link_img": "https://live.staticflickr.com/65535/50016300688_1f16ceed25_o.jpg",
    "id_image": "AmericanBison_981029",
    "count_view": 0
  },
  {
    "link_thumb": "https://live.staticflickr.com/65535/50022468583_3817752aa3_n.jpg",
    "id_album": "-353898617",
    "description": "Puppy_528602",
    "title": "Puppy_528602",
    "link_img": "https://live.staticflickr.com/65535/50022468583_43b5cab03f_o.jpg",
    "id_image": "Puppy_528602",
    "count_view": 0
  },
  {
    "link_thumb": "https://live.staticflickr.com/65535/50017905802_634396d135_n.jpg",
    "id_album": "-401151552",
    "description": "Butterfly_696188",
    "title": "Butterfly_696188",
    "link_img": "https://live.staticflickr.com/65535/50017905802_92a6d6cf77_o.jpg",
    "id_image": "Butterfly_696188",
    "count_view": 0
  },
  {
    "link_thumb": "https://live.staticflickr.com/65535/50017030181_eb0f02f808_n.jpg",
    "id_album": "-422187261",
    "description": "Bear_361460",
    "title": "Bear_361460",
    "link_img": "https://live.staticflickr.com/65535/50017030181_85df3e03ae_o.jpg",
    "id_image": "Bear_361460",
    "count_view": 0
  },
  {
    "link_thumb": "https://live.staticflickr.com/65535/50017429878_00dd21cfd5_n.jpg",
    "id_album": "-462831702",
    "description": "Cat_313210",
    "title": "Cat_313210",
    "link_img": "https://live.staticflickr.com/65535/50017429878_ced27d9493_o.jpg",
    "id_image": "Cat_313210",
    "count_view": 0
  },
  {
    "link_thumb": "https://live.staticflickr.com/65535/50017870006_b00a9c1326_n.jpg",
    "id_album": "-462831705",
    "description": "Cat_219598",
    "title": "Cat_219598",
    "link_img": "https://live.staticflickr.com/65535/50017870006_0b4409f45c_o.jpg",
    "id_image": "Cat_219598",
    "count_view": 0
  },
  {
    "link_thumb": "https://live.staticflickr.com/65535/50352683012_88f6941627_n.jpg",
    "id_album": "-462831703",
    "description": "Cat_439362",
    "title": "Cat_439362",
    "link_img": "https://live.staticflickr.com/65535/50352683012_b0732f585b_o.jpg",
    "id_image": "Cat_439362",
    "count_view": 0
  },
  {
    "link_thumb": "https://live.staticflickr.com/65535/50020957206_e630dbc897_n.jpg",
    "id_album": "-128218148",
    "description": "Fox_380897",
    "title": "Fox_380897",
    "link_img": "https://live.staticflickr.com/65535/50020957206_f38c4bbb28_o.jpg",
    "id_image": "Fox_380897",
    "count_view": 0
  },
  {
    "link_thumb": "https://live.staticflickr.com/65535/50021321327_30a7edb512_n.jpg",
    "id_album": "844170697",
    "description": "Frog_535210",
    "title": "Frog_535210",
    "link_img": "https://live.staticflickr.com/65535/50021321327_2faa25425f_o.jpg",
    "id_image": "Frog_535210",
    "count_view": 0
  },
  {
    "link_thumb": "https://live.staticflickr.com/65535/50020835758_ed0fc8d22a_n.jpg",
    "id_album": "-975314166",
    "description": "Goldfish_387816",
    "title": "Goldfish_387816",
    "link_img": "https://live.staticflickr.com/65535/50020835758_b86ff2fc5f_o.jpg",
    "id_image": "Goldfish_387816",
    "count_view": 0
  },
  {
    "link_thumb": "https://live.staticflickr.com/65535/50023918448_1dc68f8b95_n.jpg",
    "id_album": "-709711865",
    "description": "Wolf_207677",
    "title": "Wolf_207677",
    "link_img": "https://live.staticflickr.com/65535/50023918448_6e66c76eb9_o.jpg",
    "id_image": "Wolf_207677",
    "count_view": 0
  },
  {
    "link_thumb": "https://live.staticflickr.com/65535/50021485537_a306d61145_n.jpg",
    "id_album": "-462831703",
    "description": "Cat_764675",
    "title": "Cat_764675",
    "link_img": "https://live.staticflickr.com/65535/50021485537_6dc40935e1_o.jpg",
    "id_image": "Cat_764675",
    "count_view": 0
  },
  {
    "link_thumb": "https://live.staticflickr.com/65535/50017074018_c4ddeb1fa9_n.jpg",
    "id_album": "-401151552",
    "description": "Butterfly_443212",
    "title": "Butterfly_443212",
    "link_img": "https://live.staticflickr.com/65535/50017074018_1e3851267d_o.jpg",
    "id_image": "Butterfly_443212",
    "count_view": 0
  },
  {
    "link_thumb": "https://live.staticflickr.com/65535/50016832246_e724cf6a33_n.jpg",
    "id_album": "-1741290715",
    "description": "Ant_384616",
    "title": "Ant_384616",
    "link_img": "https://live.staticflickr.com/65535/50016832246_36e7bd2766_o.jpg",
    "id_image": "Ant_384616",
    "count_view": 0
  },
  {
    "link_thumb": "https://live.staticflickr.com/65535/50020223931_a186e7d770_n.jpg",
    "id_album": "-149330232",
    "description": "Dog_286740",
    "title": "Dog_286740",
    "link_img": "https://live.staticflickr.com/65535/50020223931_461cc6a895_o.jpg",
    "id_image": "Dog_286740",
    "count_view": 0
  },
  {
    "link_thumb": "https://live.staticflickr.com/65535/50352411041_50ccb3850d_n.jpg",
    "id_album": "-462831703",
    "description": "Cat_181037",
    "title": "Cat_181037",
    "link_img": "https://live.staticflickr.com/65535/50352411041_7534f1f83f_o.jpg",
    "id_image": "Cat_181037",
    "count_view": 0
  },
  {
    "link_thumb": "https://live.staticflickr.com/65535/50023593678_eaa217d647_n.jpg",
    "id_album": "405170427",
    "description": "Tiger_460162",
    "title": "Tiger_460162",
    "link_img": "https://live.staticflickr.com/65535/50023593678_3b42494990_o.jpg",
    "id_image": "Tiger_460162",
    "count_view": 0
  },
  {
    "link_thumb": "https://live.staticflickr.com/65535/50020640542_1602651b4f_n.jpg",
    "id_album": "-149330231",
    "description": "Dog_407377",
    "title": "Dog_407377",
    "link_img": "https://live.staticflickr.com/65535/50020640542_78ffca5a2a_o.jpg",
    "id_image": "Dog_407377",
    "count_view": 0
  },
  {
    "link_thumb": "https://live.staticflickr.com/65535/50020593277_300ba2c42a_n.jpg",
    "id_album": "-149330232",
    "description": "Dog_367905",
    "title": "Dog_367905",
    "link_img": "https://live.staticflickr.com/65535/50020593277_458745f1c7_o.jpg",
    "id_image": "Dog_367905",
    "count_view": 0
  },
  {
    "link_thumb": "https://live.staticflickr.com/65535/50017450477_ec3a98128b_n.jpg",
    "id_album": "325287329",
    "description": "Beetle_721353",
    "title": "Beetle_721353",
    "link_img": "https://live.staticflickr.com/65535/50017450477_773ffae4d8_o.jpg",
    "id_image": "Beetle_721353",
    "count_view": 0
  },
  {
    "link_thumb": "https://live.staticflickr.com/65535/50021097368_21fe532a84_n.jpg",
    "id_album": "-712553376",
    "description": "Husky_780061",
    "title": "Husky_780061",
    "link_img": "https://live.staticflickr.com/65535/50021097368_849e5d581f_o.jpg",
    "id_image": "Husky_780061",
    "count_view": 0
  },
  {
    "link_thumb": "https://live.staticflickr.com/65535/50018348732_cef5a2810c_n.jpg",
    "id_album": "-462831702",
    "description": "Cat_369254",
    "title": "Cat_369254",
    "link_img": "https://live.staticflickr.com/65535/50018348732_5c88269d67_o.jpg",
    "id_image": "Cat_369254",
    "count_view": 0
  },
  {
    "link_thumb": "https://live.staticflickr.com/65535/50016450718_8b56fd4d45_n.jpg",
    "id_album": "-80092825",
    "description": "Barnowl_347043",
    "title": "Barnowl_347043",
    "link_img": "https://live.staticflickr.com/65535/50016450718_f36377fabe_o.jpg",
    "id_image": "Barnowl_347043",
    "count_view": 0
  },
  {
    "link_thumb": "https://live.staticflickr.com/65535/50017224652_57d0b77e8d_n.jpg",
    "id_album": "231236068",
    "description": "BaldEagle_597064",
    "title": "BaldEagle_597064",
    "link_img": "https://live.staticflickr.com/65535/50017224652_4d489af701_o.jpg",
    "id_image": "BaldEagle_597064",
    "count_view": 0
  },
  {
    "link_thumb": "https://live.staticflickr.com/65535/50021375773_36ba69e1ac_n.jpg",
    "id_album": "1392348450",
    "description": "Leopard_394950",
    "title": "Leopard_394950",
    "link_img": "https://live.staticflickr.com/65535/50021375773_185053cffc_o.jpg",
    "id_image": "Leopard_394950",
    "count_view": 0
  },
  {
    "link_thumb": "https://live.staticflickr.com/65535/50022164792_45f1369e0d_n.jpg",
    "id_album": "1392348450",
    "description": "Leopard_365030",
    "title": "Leopard_365030",
    "link_img": "https://live.staticflickr.com/65535/50022164792_b0a7a3c3f6_o.jpg",
    "id_image": "Leopard_365030",
    "count_view": 0
  },
  {
    "link_thumb": "https://live.staticflickr.com/65535/50352564122_9491812e85_n.jpg",
    "id_album": "-462831703",
    "description": "Cat_169843",
    "title": "Cat_169843",
    "link_img": "https://live.staticflickr.com/65535/50352564122_39cd4290a3_o.jpg",
    "id_image": "Cat_169843",
    "count_view": 0
  },
  {
    "link_thumb": "https://live.staticflickr.com/65535/50020440403_a2a39ec2f5_n.jpg",
    "id_album": "-128218148",
    "description": "Fox_631689",
    "title": "Fox_631689",
    "link_img": "https://live.staticflickr.com/65535/50020440403_0c12092e8f_o.jpg",
    "id_image": "Fox_631689",
    "count_view": 0
  },
  {
    "link_thumb": "https://live.staticflickr.com/65535/50021663832_51e57236cd_n.jpg",
    "id_album": "82558972",
    "description": "GuineaPig_792600",
    "title": "GuineaPig_792600",
    "link_img": "https://live.staticflickr.com/65535/50021663832_09f4095376_o.jpg",
    "id_image": "GuineaPig_792600",
    "count_view": 0
  },
  {
    "link_thumb": "https://live.staticflickr.com/65535/50024347767_31e75aebb3_n.jpg",
    "id_album": "405170427",
    "description": "Tiger_364969",
    "title": "Tiger_364969",
    "link_img": "https://live.staticflickr.com/65535/50024347767_961b59c421_o.jpg",
    "id_image": "Tiger_364969",
    "count_view": 0
  },
  {
    "link_thumb": "https://live.staticflickr.com/65535/50351973278_a32e2b07e7_n.jpg",
    "id_album": "-462831703",
    "description": "Cat_940506",
    "title": "Cat_940506",
    "link_img": "https://live.staticflickr.com/65535/50351973278_c975c0f2ea_o.jpg",
    "id_image": "Cat_940506",
    "count_view": 0
  },
  {
    "link_thumb": "https://live.staticflickr.com/65535/50018019761_4f2b003746_n.jpg",
    "id_album": "-462831702",
    "description": "Cat_344725",
    "title": "Cat_344725",
    "link_img": "https://live.staticflickr.com/65535/50018019761_45c3a937a6_o.jpg",
    "id_image": "Cat_344725",
    "count_view": 0
  },
  {
    "link_thumb": "https://live.staticflickr.com/65535/50017779542_91b4eafbe5_n.jpg",
    "id_album": "1696155652",
    "description": "Boxer_433191",
    "title": "Boxer_433191",
    "link_img": "https://live.staticflickr.com/65535/50017779542_915ef3fc50_o.jpg",
    "id_image": "Boxer_433191",
    "count_view": 0
  },
  {
    "link_thumb": "https://live.staticflickr.com/65535/50020208641_8049d4845b_n.jpg",
    "id_album": "-149330232",
    "description": "Dog_275586",
    "title": "Dog_275586",
    "link_img": "https://live.staticflickr.com/65535/50020208641_b7c98b8233_o.jpg",
    "id_image": "Dog_275586",
    "count_view": 0
  },
  {
    "link_thumb": "https://live.staticflickr.com/65535/50017614273_11c05499e2_n.jpg",
    "id_album": "-462831702",
    "description": "Cat_403906",
    "title": "Cat_403906",
    "link_img": "https://live.staticflickr.com/65535/50017614273_c2f00ce459_o.jpg",
    "id_image": "Cat_403906",
    "count_view": 0
  },
  {
    "link_thumb": "https://live.staticflickr.com/65535/50022545271_63b3fff71a_n.jpg",
    "id_album": "-358592519",
    "description": "Panda_650147",
    "title": "Panda_650147",
    "link_img": "https://live.staticflickr.com/65535/50022545271_5745348b6f_o.jpg",
    "id_image": "Panda_650147",
    "count_view": 0
  },
  {
    "link_thumb": "https://live.staticflickr.com/65535/50021738331_f7231641a8_n.jpg",
    "id_album": "-843028318",
    "description": "Jaguar_699717",
    "title": "Jaguar_699717",
    "link_img": "https://live.staticflickr.com/65535/50021738331_be48c9f12e_o.jpg",
    "id_image": "Jaguar_699717",
    "count_view": 0
  },
  {
    "link_thumb": "https://live.staticflickr.com/65535/50017264706_340121e444_n.jpg",
    "id_album": "-1846011410",
    "description": "Bird_352544",
    "title": "Bird_352544",
    "link_img": "https://live.staticflickr.com/65535/50017264706_50cbca9f53_o.jpg",
    "id_image": "Bird_352544",
    "count_view": 0
  },
  {
    "link_thumb": "https://live.staticflickr.com/65535/50019868726_f06c29f72f_n.jpg",
    "id_album": "-2144640780",
    "description": "Cow_932564",
    "title": "Cow_932564",
    "link_img": "https://live.staticflickr.com/65535/50019868726_06423c238b_o.jpg",
    "id_image": "Cow_932564",
    "count_view": 0
  },
  {
    "link_thumb": "https://live.staticflickr.com/65535/50023706161_ac5a2f4e3a_n.jpg",
    "id_album": "-359606417",
    "description": "Sparrow_435785",
    "title": "Sparrow_435785",
    "link_img": "https://live.staticflickr.com/65535/50023706161_fdffcbb0c3_o.jpg",
    "id_image": "Sparrow_435785",
    "count_view": 0
  },
  {
    "link_thumb": "https://live.staticflickr.com/65535/50016731728_a309548173_n.jpg",
    "id_album": "-1846011410",
    "description": "Bird_347095",
    "title": "Bird_347095",
    "link_img": "https://live.staticflickr.com/65535/50016731728_0fe0293b10_o.jpg",
    "id_image": "Bird_347095",
    "count_view": 0
  },
  {
    "link_thumb": "https://live.staticflickr.com/65535/50024287362_5ebdec6837_n.jpg",
    "id_album": "405170427",
    "description": "Tiger_167474",
    "title": "Tiger_167474",
    "link_img": "https://live.staticflickr.com/65535/50024287362_3782086132_o.jpg",
    "id_image": "Tiger_167474",
    "count_view": 0
  },
  {
    "link_thumb": "https://live.staticflickr.com/65535/50020525317_9d22687712_n.jpg",
    "id_album": "-149330232",
    "description": "Dog_336138",
    "title": "Dog_336138",
    "link_img": "https://live.staticflickr.com/65535/50020525317_26336ea538_o.jpg",
    "id_image": "Dog_336138",
    "count_view": 0
  },
  {
    "link_thumb": "https://live.staticflickr.com/65535/50022164622_e5b575d322_n.jpg",
    "id_album": "1392348450",
    "description": "Leopard_365028",
    "title": "Leopard_365028",
    "link_img": "https://live.staticflickr.com/65535/50022164622_a60fca5c2d_o.jpg",
    "id_image": "Leopard_365028",
    "count_view": 0
  },
  {
    "link_thumb": "https://live.staticflickr.com/65535/50352421916_b1ca316d28_n.jpg",
    "id_album": "-462831703",
    "description": "Cat_205058",
    "title": "Cat_205058",
    "link_img": "https://live.staticflickr.com/65535/50352421916_de533c718e_o.jpg",
    "id_image": "Cat_205058",
    "count_view": 0
  },
  {
    "link_thumb": "https://live.staticflickr.com/65535/50019477183_fc3d124c06_n.jpg",
    "id_album": "1903411565",
    "description": "Deer_427190",
    "title": "Deer_427190",
    "link_img": "https://live.staticflickr.com/65535/50019477183_e5c279ec15_o.jpg",
    "id_image": "Deer_427190",
    "count_view": 0
  },
  {
    "link_thumb": "https://live.staticflickr.com/65535/50020698087_39bccdba09_n.jpg",
    "id_album": "-149330231",
    "description": "Dog_495208",
    "title": "Dog_495208",
    "link_img": "https://live.staticflickr.com/65535/50020698087_5cd3b0c735_o.jpg",
    "id_image": "Dog_495208",
    "count_view": 0
  },
  {
    "link_thumb": "https://live.staticflickr.com/65535/50017866231_796e121ea8_n.jpg",
    "id_album": "-462831705",
    "description": "Cat_217068",
    "title": "Cat_217068",
    "link_img": "https://live.staticflickr.com/65535/50017866231_1a9a59ed87_o.jpg",
    "id_image": "Cat_217068",
    "count_view": 0
  },
  {
    "link_thumb": "https://live.staticflickr.com/65535/50017075031_08e9bc732c_n.jpg",
    "id_album": "-422187261",
    "description": "Bear_732408",
    "title": "Bear_732408",
    "link_img": "https://live.staticflickr.com/65535/50017075031_783e227dc2_o.jpg",
    "id_image": "Bear_732408",
    "count_view": 0
  },
  {
    "link_thumb": "https://live.staticflickr.com/65535/50351785378_742469d8fe_n.jpg",
    "id_album": "-462831703",
    "description": "Cat_376516",
    "title": "Cat_376516",
    "link_img": "https://live.staticflickr.com/65535/50351785378_71771885a5_o.jpg",
    "id_image": "Cat_376516",
    "count_view": 0
  },
  {
    "link_thumb": "https://live.staticflickr.com/65535/50352570962_b944cfeb2e_n.jpg",
    "id_album": "-462831703",
    "description": "Cat_184961",
    "title": "Cat_184961",
    "link_img": "https://live.staticflickr.com/65535/50352570962_6c4b23e794_o.jpg",
    "id_image": "Cat_184961",
    "count_view": 0
  },
  {
    "link_thumb": "https://live.staticflickr.com/65535/50017032896_4f277d7c14_n.jpg",
    "id_album": "-422187261",
    "description": "Bear_364321",
    "title": "Bear_364321",
    "link_img": "https://live.staticflickr.com/65535/50017032896_a9808d3547_o.jpg",
    "id_image": "Bear_364321",
    "count_view": 0
  },
  {
    "link_thumb": "https://live.staticflickr.com/65535/50020948241_d9154e8ec4_n.jpg",
    "id_album": "-128218148",
    "description": "Fox_337134",
    "title": "Fox_337134",
    "link_img": "https://live.staticflickr.com/65535/50020948241_6cc8bec82d_o.jpg",
    "id_image": "Fox_337134",
    "count_view": 0
  },
  {
    "link_thumb": "https://live.staticflickr.com/65535/50020431037_e8db2792b8_n.jpg",
    "id_album": "-149330232",
    "description": "Dog_241945",
    "title": "Dog_241945",
    "link_img": "https://live.staticflickr.com/65535/50020431037_e0a679e000_o.jpg",
    "id_image": "Dog_241945",
    "count_view": 0
  },
  {
    "link_thumb": "https://live.staticflickr.com/65535/50019496991_0df0f1eef9_n.jpg",
    "id_album": "-462831703",
    "description": "Cat_938184",
    "title": "Cat_938184",
    "link_img": "https://live.staticflickr.com/65535/50019496991_7d3c065787_o.jpg",
    "id_image": "Cat_938184",
    "count_view": 0
  },
  {
    "link_thumb": "https://live.staticflickr.com/65535/50021275521_498bb85eda_n.jpg",
    "id_album": "1831085598",
    "description": "Dachshund_783158",
    "title": "Dachshund_783158",
    "link_img": "https://live.staticflickr.com/65535/50021275521_1e25ca6499_o.jpg",
    "id_image": "Dachshund_783158",
    "count_view": 0
  },
  {
    "link_thumb": "https://live.staticflickr.com/65535/50021313551_fda0505c13_n.jpg",
    "id_album": "-405626519",
    "description": "GermanShepherd_974432",
    "title": "GermanShepherd_974432",
    "link_img": "https://live.staticflickr.com/65535/50021313551_812c930d62_o.jpg",
    "id_image": "GermanShepherd_974432",
    "count_view": 0
  },
  {
    "link_thumb": "https://live.staticflickr.com/65535/50020462143_cb9e08021b_n.jpg",
    "id_album": "-128218148",
    "description": "Fox_790142",
    "title": "Fox_790142",
    "link_img": "https://live.staticflickr.com/65535/50020462143_04c5195927_o.jpg",
    "id_image": "Fox_790142",
    "count_view": 0
  },
  {
    "link_thumb": "https://live.staticflickr.com/65535/50021207506_4fdd1333bd_n.jpg",
    "id_album": "-462831704",
    "description": "Cat_725341",
    "title": "Cat_725341",
    "link_img": "https://live.staticflickr.com/65535/50021207506_38a4714f5b_o.jpg",
    "id_image": "Cat_725341",
    "count_view": 0
  },
  {
    "link_thumb": "https://live.staticflickr.com/65535/50024009751_8772645737_n.jpg",
    "id_album": "1579675410",
    "description": "Swan_550135",
    "title": "Swan_550135",
    "link_img": "https://live.staticflickr.com/65535/50024009751_655f0f6a57_o.jpg",
    "id_image": "Swan_550135",
    "count_view": 0
  },
  {
    "link_thumb": "https://live.staticflickr.com/65535/50020170041_49b13faa12_n.jpg",
    "id_album": "-149330232",
    "description": "Dog_237735",
    "title": "Dog_237735",
    "link_img": "https://live.staticflickr.com/65535/50020170041_ef09b6f8e9_o.jpg",
    "id_image": "Dog_237735",
    "count_view": 0
  },
  {
    "link_thumb": "https://live.staticflickr.com/65535/50021597666_98780f2336_n.jpg",
    "id_album": "773713550",
    "description": "Hoverfly_499455",
    "title": "Hoverfly_499455",
    "link_img": "https://live.staticflickr.com/65535/50021597666_84d37f181a_o.jpg",
    "id_image": "Hoverfly_499455",
    "count_view": 0
  },
  {
    "link_thumb": "https://live.staticflickr.com/65535/50020720587_255d49bd80_n.jpg",
    "id_album": "-149330231",
    "description": "Dog_591325",
    "title": "Dog_591325",
    "link_img": "https://live.staticflickr.com/65535/50020720587_7bafbd8d78_o.jpg",
    "id_image": "Dog_591325",
    "count_view": 0
  },
  {
    "link_thumb": "https://live.staticflickr.com/65535/50024369612_a445fd5560_n.jpg",
    "id_album": "405170427",
    "description": "Tiger_388803",
    "title": "Tiger_388803",
    "link_img": "https://live.staticflickr.com/65535/50024369612_df7fb60957_o.jpg",
    "id_image": "Tiger_388803",
    "count_view": 0
  },
  {
    "link_thumb": "https://live.staticflickr.com/65535/50023351891_9440c316c3_n.jpg",
    "id_album": "1656131695",
    "description": "Seagull_316925",
    "title": "Seagull_316925",
    "link_img": "https://live.staticflickr.com/65535/50023351891_4b42932acf_o.jpg",
    "id_image": "Seagull_316925",
    "count_view": 0
  },
  {
    "link_thumb": "https://live.staticflickr.com/65535/50352815687_7ba036b6c3_n.jpg",
    "id_album": "-462831703",
    "description": "Cat_707382",
    "title": "Cat_707382",
    "link_img": "https://live.staticflickr.com/65535/50352815687_f144962d83_o.jpg",
    "id_image": "Cat_707382",
    "count_view": 0
  },
  {
    "link_thumb": "https://live.staticflickr.com/65535/50017689391_4f4b99a6d9_n.jpg",
    "id_album": "-401151552",
    "description": "Butterfly_890758",
    "title": "Butterfly_890758",
    "link_img": "https://live.staticflickr.com/65535/50017689391_a0380a7cf7_o.jpg",
    "id_image": "Butterfly_890758",
    "count_view": 0
  },
  {
    "link_thumb": "https://live.staticflickr.com/65535/50017076683_b6c4b5de43_n.jpg",
    "id_album": "-401151552",
    "description": "Butterfly_454173",
    "title": "Butterfly_454173",
    "link_img": "https://live.staticflickr.com/65535/50017076683_71e62cb0f5_o.jpg",
    "id_image": "Butterfly_454173",
    "count_view": 0
  },
  {
    "link_thumb": "https://live.staticflickr.com/65535/50017307256_2b8f1db256_n.jpg",
    "id_album": "-1846011410",
    "description": "Bird_401020",
    "title": "Bird_401020",
    "link_img": "https://live.staticflickr.com/65535/50017307256_56a430b7ea_o.jpg",
    "id_image": "Bird_401020",
    "count_view": 0
  },
  {
    "link_thumb": "https://live.staticflickr.com/65535/50020357887_705e590a9d_n.jpg",
    "id_album": "297232732",
    "description": "Dinosaur_639411",
    "title": "Dinosaur_639411",
    "link_img": "https://live.staticflickr.com/65535/50020357887_938a6888fa_o.jpg",
    "id_image": "Dinosaur_639411",
    "count_view": 0
  },
  {
    "link_thumb": "https://live.staticflickr.com/65535/50016720793_64fc8f8cb9_n.jpg",
    "id_album": "-1846011410",
    "description": "Bird_336438",
    "title": "Bird_336438",
    "link_img": "https://live.staticflickr.com/65535/50016720793_90557bc09f_o.jpg",
    "id_image": "Bird_336438",
    "count_view": 0
  },
  {
    "link_thumb": "https://live.staticflickr.com/65535/50019160421_0a1707c0b5_n.jpg",
    "id_album": "-462831702",
    "description": "Cat_423081",
    "title": "Cat_423081",
    "link_img": "https://live.staticflickr.com/65535/50019160421_0f34e3ff68_o.jpg",
    "id_image": "Cat_423081",
    "count_view": 0
  },
  {
    "link_thumb": "https://live.staticflickr.com/65535/50023746843_5b22bb14c9_n.jpg",
    "id_album": "901523298",
    "description": "TreeFrog_425281",
    "title": "TreeFrog_425281",
    "link_img": "https://live.staticflickr.com/65535/50023746843_6a9a1bd024_o.jpg",
    "id_image": "TreeFrog_425281",
    "count_view": 0
  },
  {
    "link_thumb": "https://live.staticflickr.com/65535/50022566482_d13ef66c30_n.jpg",
    "id_album": "1015034486",
    "description": "Muteswan_283938",
    "title": "Muteswan_283938",
    "link_img": "https://live.staticflickr.com/65535/50022566482_e5808dcabc_o.jpg",
    "id_image": "Muteswan_283938",
    "count_view": 0
  },
  {
    "link_thumb": "https://live.staticflickr.com/65535/50023447853_d56b582fc2_n.jpg",
    "id_album": "1244464375",
    "description": "Starfish_405727",
    "title": "Starfish_405727",
    "link_img": "https://live.staticflickr.com/65535/50023447853_a031942b8c_o.jpg",
    "id_image": "Starfish_405727",
    "count_view": 0
  },
  {
    "link_thumb": "https://live.staticflickr.com/65535/50020019037_c8d3028193_n.jpg",
    "id_album": "791455625",
    "description": "Chipmunk_480812",
    "title": "Chipmunk_480812",
    "link_img": "https://live.staticflickr.com/65535/50020019037_537ba8026b_o.jpg",
    "id_image": "Chipmunk_480812",
    "count_view": 0
  },
  {
    "link_thumb": "https://live.staticflickr.com/65535/50021679337_d07ebb2fb9_n.jpg",
    "id_album": "-1513987841",
    "description": "Hawk_746339",
    "title": "Hawk_746339",
    "link_img": "https://live.staticflickr.com/65535/50021679337_33873883c9_o.jpg",
    "id_image": "Hawk_746339",
    "count_view": 0
  },
  {
    "link_thumb": "https://live.staticflickr.com/65535/50017807522_bc1016db47_n.jpg",
    "id_album": "-401151552",
    "description": "Butterfly_219949",
    "title": "Butterfly_219949",
    "link_img": "https://live.staticflickr.com/65535/50017807522_a00df2bcce_o.jpg",
    "id_image": "Butterfly_219949",
    "count_view": 0
  },
  {
    "link_thumb": "https://live.staticflickr.com/65535/50020761802_1a87fcebf9_n.jpg",
    "id_album": "-149330231",
    "description": "Dog_748102",
    "title": "Dog_748102",
    "link_img": "https://live.staticflickr.com/65535/50020761802_d81d0179ae_o.jpg",
    "id_image": "Dog_748102",
    "count_view": 0
  },
  {
    "link_thumb": "https://live.staticflickr.com/65535/50022521111_22a478b225_n.jpg",
    "id_album": "-358592519",
    "description": "Panda_289515",
    "title": "Panda_289515",
    "link_img": "https://live.staticflickr.com/65535/50022521111_c4e59b31db_o.jpg",
    "id_image": "Panda_289515",
    "count_view": 0
  },
  {
    "link_thumb": "https://live.staticflickr.com/65535/50020836966_d587b534f7_n.jpg",
    "id_album": "-1118073211",
    "description": "Fish_325967",
    "title": "Fish_325967",
    "link_img": "https://live.staticflickr.com/65535/50020836966_46d9430594_o.jpg",
    "id_image": "Fish_325967",
    "count_view": 0
  },
  {
    "link_thumb": "https://live.staticflickr.com/65535/50020688863_7737c1fc0f_n.jpg",
    "id_album": "-462831703",
    "description": "Cat_760873",
    "title": "Cat_760873",
    "link_img": "https://live.staticflickr.com/65535/50020688863_2ba8cd186e_o.jpg",
    "id_image": "Cat_760873",
    "count_view": 0
  },
  {
    "link_thumb": "https://live.staticflickr.com/65535/50020641688_78b08b6ecf_n.jpg",
    "id_album": "-462831704",
    "description": "Cat_704452",
    "title": "Cat_704452",
    "link_img": "https://live.staticflickr.com/65535/50020641688_d1b6a19191_o.jpg",
    "id_image": "Cat_704452",
    "count_view": 0
  },
  {
    "link_thumb": "https://live.staticflickr.com/65535/50018257392_c079852e04_n.jpg",
    "id_album": "-462831702",
    "description": "Cat_334535",
    "title": "Cat_334535",
    "link_img": "https://live.staticflickr.com/65535/50018257392_e260bb6ca8_o.jpg",
    "id_image": "Cat_334535",
    "count_view": 0
  },
  {
    "link_thumb": "https://live.staticflickr.com/65535/50021613786_5f853604bd_n.jpg",
    "id_album": "2144294979",
    "description": "Hummingbird_531413",
    "title": "Hummingbird_531413",
    "link_img": "https://live.staticflickr.com/65535/50021613786_46dbae0284_o.jpg",
    "id_image": "Hummingbird_531413",
    "count_view": 0
  },
  {
    "link_thumb": "https://live.staticflickr.com/65535/50020931677_b5cff109d8_n.jpg",
    "id_album": "1168627767",
    "description": "Duck_866759",
    "title": "Duck_866759",
    "link_img": "https://live.staticflickr.com/65535/50020931677_c65f2251d4_o.jpg",
    "id_image": "Duck_866759",
    "count_view": 0
  },
  {
    "link_thumb": "https://live.staticflickr.com/65535/50024792782_8622d79ec1_n.jpg",
    "id_album": "-709711865",
    "description": "Wolf_693499",
    "title": "Wolf_693499",
    "link_img": "https://live.staticflickr.com/65535/50024792782_be452db3ef_o.jpg",
    "id_image": "Wolf_693499",
    "count_view": 0
  },
  {
    "link_thumb": "https://live.staticflickr.com/65535/50018937558_0523c2a63e_n.jpg",
    "id_album": "-462831703",
    "description": "Cat_918920",
    "title": "Cat_918920",
    "link_img": "https://live.staticflickr.com/65535/50018937558_44ab9f206d_o.jpg",
    "id_image": "Cat_918920",
    "count_view": 0
  },
  {
    "link_thumb": "https://live.staticflickr.com/65535/50021730901_d09b819392_n.jpg",
    "id_album": "-843028318",
    "description": "Jaguar_514230",
    "title": "Jaguar_514230",
    "link_img": "https://live.staticflickr.com/65535/50021730901_b893a86368_o.jpg",
    "id_image": "Jaguar_514230",
    "count_view": 0
  },
  {
    "link_thumb": "https://live.staticflickr.com/65535/50024107221_61f5ca0db1_n.jpg",
    "id_album": "405170427",
    "description": "Tiger_384835",
    "title": "Tiger_384835",
    "link_img": "https://live.staticflickr.com/65535/50024107221_af116f64c7_o.jpg",
    "id_image": "Tiger_384835",
    "count_view": 0
  },
  {
    "link_thumb": "https://live.staticflickr.com/65535/50020382163_cfa47e7579_n.jpg",
    "id_album": "-1694105481",
    "description": "Fly_592433",
    "title": "Fly_592433",
    "link_img": "https://live.staticflickr.com/65535/50020382163_722bd7ed6d_o.jpg",
    "id_image": "Fly_592433",
    "count_view": 0
  },
  {
    "link_thumb": "https://live.staticflickr.com/65535/50022368566_9a6335decf_n.jpg",
    "id_album": "106807275",
    "description": "Otter_686483",
    "title": "Otter_686483",
    "link_img": "https://live.staticflickr.com/65535/50022368566_8b45c25216_o.jpg",
    "id_image": "Otter_686483",
    "count_view": 0
  },
  {
    "link_thumb": "https://live.staticflickr.com/65535/50351813318_8e662cb076_n.jpg",
    "id_album": "-462831703",
    "description": "Cat_423684",
    "title": "Cat_423684",
    "link_img": "https://live.staticflickr.com/65535/50351813318_93bf2cc0bd_o.jpg",
    "id_image": "Cat_423684",
    "count_view": 0
  },
  {
    "link_thumb": "https://live.staticflickr.com/65535/50023370737_b0b482158b_n.jpg",
    "id_album": "-1940643173",
    "description": "Rabbit_473481",
    "title": "Rabbit_473481",
    "link_img": "https://live.staticflickr.com/65535/50023370737_3fd5436b1d_o.jpg",
    "id_image": "Rabbit_473481",
    "count_view": 0
  },
  {
    "link_thumb": "https://live.staticflickr.com/65535/50021223618_6a4d547545_n.jpg",
    "id_album": "1562047127",
    "description": "Jellyfish_552686",
    "title": "Jellyfish_552686",
    "link_img": "https://live.staticflickr.com/65535/50021223618_bd2c788a13_o.jpg",
    "id_image": "Jellyfish_552686",
    "count_view": 0
  },
  {
    "link_thumb": "https://live.staticflickr.com/65535/50019451081_4fba475209_n.jpg",
    "id_album": "-462831703",
    "description": "Cat_913950",
    "title": "Cat_913950",
    "link_img": "https://live.staticflickr.com/65535/50019451081_d6e2882980_o.jpg",
    "id_image": "Cat_913950",
    "count_view": 0
  },
  {
    "link_thumb": "https://live.staticflickr.com/65535/50018284817_d2339667d5_n.jpg",
    "id_album": "-462831702",
    "description": "Cat_346944",
    "title": "Cat_346944",
    "link_img": "https://live.staticflickr.com/65535/50018284817_a12065f7e5_o.jpg",
    "id_image": "Cat_346944",
    "count_view": 0
  },
  {
    "link_thumb": "https://live.staticflickr.com/65535/50024487002_44d55553d3_n.jpg",
    "id_album": "405170427",
    "description": "Tiger_872442",
    "title": "Tiger_872442",
    "link_img": "https://live.staticflickr.com/65535/50024487002_137e1f8b54_o.jpg",
    "id_image": "Tiger_872442",
    "count_view": 0
  },
  {
    "link_thumb": "https://live.staticflickr.com/65535/50020960546_7fa996217b_n.jpg",
    "id_album": "-128218148",
    "description": "Fox_397195",
    "title": "Fox_397195",
    "link_img": "https://live.staticflickr.com/65535/50020960546_5a367dabd2_o.jpg",
    "id_image": "Fox_397195",
    "count_view": 0
  },
  {
    "link_thumb": "https://live.staticflickr.com/65535/50017910576_974f237146_n.jpg",
    "id_album": "-462831705",
    "description": "Cat_260124",
    "title": "Cat_260124",
    "link_img": "https://live.staticflickr.com/65535/50017910576_71fa199bbd_o.jpg",
    "id_image": "Cat_260124",
    "count_view": 0
  },
  {
    "link_thumb": "https://live.staticflickr.com/65535/50022687877_39bf8d65b6_n.jpg",
    "id_album": "-1384601601",
    "description": "Owl_439422",
    "title": "Owl_439422",
    "link_img": "https://live.staticflickr.com/65535/50022687877_fccd7cc3c9_o.jpg",
    "id_image": "Owl_439422",
    "count_view": 0
  },
  {
    "link_thumb": "https://live.staticflickr.com/65535/50017214197_95f0e593db_n.jpg",
    "id_album": "231236068",
    "description": "BaldEagle_308309",
    "title": "BaldEagle_308309",
    "link_img": "https://live.staticflickr.com/65535/50017214197_21058d9fc2_o.jpg",
    "id_image": "BaldEagle_308309",
    "count_view": 0
  },
  {
    "link_thumb": "https://live.staticflickr.com/65535/50024180701_ed28fe77aa_n.jpg",
    "id_album": "405170427",
    "description": "Tiger_588621",
    "title": "Tiger_588621",
    "link_img": "https://live.staticflickr.com/65535/50024180701_913acbe665_o.jpg",
    "id_image": "Tiger_588621",
    "count_view": 0
  },
  {
    "link_thumb": "https://live.staticflickr.com/65535/50023506446_9754b6d710_n.jpg",
    "id_album": "692487763",
    "description": "SiberianHusky_986364",
    "title": "SiberianHusky_986364",
    "link_img": "https://live.staticflickr.com/65535/50023506446_91f120d0b8_o.jpg",
    "id_image": "SiberianHusky_986364",
    "count_view": 0
  },
  {
    "link_thumb": "https://live.staticflickr.com/65535/50022733713_eb2b64ea07_n.jpg",
    "id_album": "48367914",
    "description": "Rhino_347381",
    "title": "Rhino_347381",
    "link_img": "https://live.staticflickr.com/65535/50022733713_518322a6b8_o.jpg",
    "id_image": "Rhino_347381",
    "count_view": 0
  },
  {
    "link_thumb": "https://live.staticflickr.com/65535/50020857698_4332bf7cf2_n.jpg",
    "id_album": "-1168906494",
    "description": "Grasshopper_359943",
    "title": "Grasshopper_359943",
    "link_img": "https://live.staticflickr.com/65535/50020857698_a9547dc118_o.jpg",
    "id_image": "Grasshopper_359943",
    "count_view": 0
  },
  {
    "link_thumb": "https://live.staticflickr.com/65535/50022275516_896f699e35_n.jpg",
    "id_album": "1610416937",
    "description": "Moth_429476",
    "title": "Moth_429476",
    "link_img": "https://live.staticflickr.com/65535/50022275516_73279c5da4_o.jpg",
    "id_image": "Moth_429476",
    "count_view": 0
  },
  {
    "link_thumb": "https://live.staticflickr.com/65535/50351900848_56deedac48_n.jpg",
    "id_album": "-462831703",
    "description": "Cat_548282",
    "title": "Cat_548282",
    "link_img": "https://live.staticflickr.com/65535/50351900848_f83da54f21_o.jpg",
    "id_image": "Cat_548282",
    "count_view": 0
  },
  {
    "link_thumb": "https://live.staticflickr.com/65535/50016485648_43c56ba2be_n.jpg",
    "id_album": "-422187261",
    "description": "Bear_253419",
    "title": "Bear_253419",
    "link_img": "https://live.staticflickr.com/65535/50016485648_a97590d142_o.jpg",
    "id_image": "Bear_253419",
    "count_view": 0
  },
  {
    "link_thumb": "https://live.staticflickr.com/65535/50021359623_431bda12a0_n.jpg",
    "id_album": "1392348450",
    "description": "Leopard_347890",
    "title": "Leopard_347890",
    "link_img": "https://live.staticflickr.com/65535/50021359623_cd9a2bac53_o.jpg",
    "id_image": "Leopard_347890",
    "count_view": 0
  },
  {
    "link_thumb": "https://live.staticflickr.com/65535/50024518542_b91bff43b9_n.jpg",
    "id_album": "-809392728",
    "description": "Titmouse_337098",
    "title": "Titmouse_337098",
    "link_img": "https://live.staticflickr.com/65535/50024518542_7be0c4f5b2_o.jpg",
    "id_image": "Titmouse_337098",
    "count_view": 0
  },
  {
    "link_thumb": "https://live.staticflickr.com/65535/50017177926_b3e18717d1_n.jpg",
    "id_album": "172748811",
    "description": "Beeeater_906476",
    "title": "Beeeater_906476",
    "link_img": "https://live.staticflickr.com/65535/50017177926_701e35dc7e_o.jpg",
    "id_image": "Beeeater_906476",
    "count_view": 0
  },
  {
    "link_thumb": "https://live.staticflickr.com/65535/50018834313_48a55de306_n.jpg",
    "id_album": "-462831703",
    "description": "Cat_873377",
    "title": "Cat_873377",
    "link_img": "https://live.staticflickr.com/65535/50018834313_5d3f7626b8_o.jpg",
    "id_image": "Cat_873377",
    "count_view": 0
  },
  {
    "link_thumb": "https://live.staticflickr.com/65535/50020311827_2cfc9dd4ba_n.jpg",
    "id_album": "1903411565",
    "description": "Deer_796139",
    "title": "Deer_796139",
    "link_img": "https://live.staticflickr.com/65535/50020311827_5bdd86ebf9_o.jpg",
    "id_image": "Deer_796139",
    "count_view": 0
  },
  {
    "link_thumb": "https://live.staticflickr.com/65535/50020816221_d4eaa0f50a_n.jpg",
    "id_album": "822895535",
    "description": "Falcon_551002",
    "title": "Falcon_551002",
    "link_img": "https://live.staticflickr.com/65535/50020816221_87f36a5296_o.jpg",
    "id_image": "Falcon_551002",
    "count_view": 0
  },
  {
    "link_thumb": "https://live.staticflickr.com/65535/50017376967_50ef9218f2_n.jpg",
    "id_album": "1699594607",
    "description": "Bee_110822",
    "title": "Bee_110822",
    "link_img": "https://live.staticflickr.com/65535/50017376967_79141faf3f_o.jpg",
    "id_image": "Bee_110822",
    "count_view": 0
  },
  {
    "link_thumb": "https://live.staticflickr.com/65535/50020561101_c3e1917f30_n.jpg",
    "id_album": "-54509188",
    "description": "Dolphin_172389",
    "title": "Dolphin_172389",
    "link_img": "https://live.staticflickr.com/65535/50020561101_b63b717426_o.jpg",
    "id_image": "Dolphin_172389",
    "count_view": 0
  },
  {
    "link_thumb": "https://live.staticflickr.com/65535/50017486947_2a580c6f44_n.jpg",
    "id_album": "-1846011410",
    "description": "Bird_275189",
    "title": "Bird_275189",
    "link_img": "https://live.staticflickr.com/65535/50017486947_825122a397_o.jpg",
    "id_image": "Bird_275189",
    "count_view": 0
  },
  {
    "link_thumb": "https://live.staticflickr.com/65535/50019819563_65417cbf5b_n.jpg",
    "id_album": "-149330232",
    "description": "Dog_376124",
    "title": "Dog_376124",
    "link_img": "https://live.staticflickr.com/65535/50019819563_21ab95a384_o.jpg",
    "id_image": "Dog_376124",
    "count_view": 0
  },
  {
    "link_thumb": "https://live.staticflickr.com/65535/50023361652_e042077676_n.jpg",
    "id_album": "-1940643173",
    "description": "Rabbit_408043",
    "title": "Rabbit_408043",
    "link_img": "https://live.staticflickr.com/65535/50023361652_0f0309d306_o.jpg",
    "id_image": "Rabbit_408043",
    "count_view": 0
  },
  {
    "link_thumb": "https://live.staticflickr.com/65535/50019585057_e336e16e16_n.jpg",
    "id_album": "-462831703",
    "description": "Cat_856789",
    "title": "Cat_856789",
    "link_img": "https://live.staticflickr.com/65535/50019585057_3ab8949282_o.jpg",
    "id_image": "Cat_856789",
    "count_view": 0
  },
  {
    "link_thumb": "https://live.staticflickr.com/65535/50023588318_062083c51f_n.jpg",
    "id_album": "405170427",
    "description": "Tiger_437656",
    "title": "Tiger_437656",
    "link_img": "https://live.staticflickr.com/65535/50023588318_5779c86625_o.jpg",
    "id_image": "Tiger_437656",
    "count_view": 0
  },
  {
    "link_thumb": "https://live.staticflickr.com/65535/50017780891_6f4767fa42_n.jpg",
    "id_album": "-462831705",
    "description": "Cat_144315",
    "title": "Cat_144315",
    "link_img": "https://live.staticflickr.com/65535/50017780891_c9bf137a59_o.jpg",
    "id_image": "Cat_144315",
    "count_view": 0
  },
  {
    "link_thumb": "https://live.staticflickr.com/65535/50017274901_d75af201ea_n.jpg",
    "id_album": "-1846011410",
    "description": "Bird_364470",
    "title": "Bird_364470",
    "link_img": "https://live.staticflickr.com/65535/50017274901_3c916129b5_o.jpg",
    "id_image": "Bird_364470",
    "count_view": 0
  },
  {
    "link_thumb": "https://live.staticflickr.com/65535/50022459007_9fe77002f7_n.jpg",
    "id_album": "-784970094",
    "description": "Monkey_326112",
    "title": "Monkey_326112",
    "link_img": "https://live.staticflickr.com/65535/50022459007_5215d08e93_o.jpg",
    "id_image": "Monkey_326112",
    "count_view": 0
  }
]