[
  {
    "link_thumb": "https://live.staticflickr.com/65535/50023308026_c2d2d43bf2_n.jpg",
    "id_album": "1926701726",
    "description": "Robin_390397",
    "title": "Robin_390397",
    "link_img": "https://live.staticflickr.com/65535/50023308026_b4607e4739_o.jpg",
    "id_image": "Robin_390397",
    "count_view": 0
  },
  {
    "link_thumb": "https://live.staticflickr.com/65535/50022765158_fda357b4b1_n.jpg",
    "id_album": "1926701726",
    "description": "Robin_429630",
    "title": "Robin_429630",
    "link_img": "https://live.staticflickr.com/65535/50022765158_df91633489_o.jpg",
    "id_image": "Robin_429630",
    "count_view": 0
  },
  {
    "link_thumb": "https://live.staticflickr.com/65535/50023308781_93a5fafeb6_n.jpg",
    "id_album": "1926701726",
    "description": "Robin_455628",
    "title": "Robin_455628",
    "link_img": "https://live.staticflickr.com/65535/50023308781_329fc08e9e_o.jpg",
    "id_image": "Robin_455628",
    "count_view": 0
  },
  {
    "link_thumb": "https://live.staticflickr.com/65535/50023567162_140acb4049_n.jpg",
    "id_album": "1926701726",
    "description": "Robin_455630",
    "title": "Robin_455630",
    "link_img": "https://live.staticflickr.com/65535/50023567162_b75c3fa752_o.jpg",
    "id_image": "Robin_455630",
    "count_view": 0
  },
  {
    "link_thumb": "https://live.staticflickr.com/65535/50022767098_4127762a72_n.jpg",
    "id_album": "1926701726",
    "description": "Robin_455644",
    "title": "Robin_455644",
    "link_img": "https://live.staticflickr.com/65535/50022767098_2849a2f6ec_o.jpg",
    "id_image": "Robin_455644",
    "count_view": 0
  },
  {
    "link_thumb": "https://live.staticflickr.com/65535/50023312076_b223b6a0fa_n.jpg",
    "id_album": "1926701726",
    "description": "Robin_509799",
    "title": "Robin_509799",
    "link_img": "https://live.staticflickr.com/65535/50023312076_7309b4814b_o.jpg",
    "id_image": "Robin_509799",
    "count_view": 0
  },
  {
    "link_thumb": "https://live.staticflickr.com/65535/50022769903_8991fc2b15_n.jpg",
    "id_album": "1926701726",
    "description": "Robin_616088",
    "title": "Robin_616088",
    "link_img": "https://live.staticflickr.com/65535/50022769903_a48b290304_o.jpg",
    "id_image": "Robin_616088",
    "count_view": 0
  },
  {
    "link_thumb": "https://live.staticflickr.com/65535/50022770143_2e499835d0_n.jpg",
    "id_album": "1926701726",
    "description": "Robin_698514",
    "title": "Robin_698514",
    "link_img": "https://live.staticflickr.com/65535/50022770143_118092fdc2_o.jpg",
    "id_image": "Robin_698514",
    "count_view": 0
  },
  {
    "link_thumb": "https://live.staticflickr.com/65535/50022770513_f08d204af2_n.jpg",
    "id_album": "1926701726",
    "description": "Robin_705252",
    "title": "Robin_705252",
    "link_img": "https://live.staticflickr.com/65535/50022770513_1c02a0d96d_o.jpg",
    "id_image": "Robin_705252",
    "count_view": 0
  },
  {
    "link_thumb": "https://live.staticflickr.com/65535/50023572112_9b4a88a5f6_n.jpg",
    "id_album": "1926701726",
    "description": "Robin_707150",
    "title": "Robin_707150",
    "link_img": "https://live.staticflickr.com/65535/50023572112_b3ef4150c2_o.jpg",
    "id_image": "Robin_707150",
    "count_view": 0
  },
  {
    "link_thumb": "https://live.staticflickr.com/65535/50023314411_01a7553ab3_n.jpg",
    "id_album": "1926701726",
    "description": "Robin_707173",
    "title": "Robin_707173",
    "link_img": "https://live.staticflickr.com/65535/50023314411_ed49807fe9_o.jpg",
    "id_image": "Robin_707173",
    "count_view": 0
  },
  {
    "link_thumb": "https://live.staticflickr.com/65535/50023572657_f83a454839_n.jpg",
    "id_album": "1926701726",
    "description": "Robin_707177",
    "title": "Robin_707177",
    "link_img": "https://live.staticflickr.com/65535/50023572657_6150f30dbb_o.jpg",
    "id_image": "Robin_707177",
    "count_view": 0
  },
  {
    "link_thumb": "https://live.staticflickr.com/65535/50022771403_f7d8866057_n.jpg",
    "id_album": "1926701726",
    "description": "Robin_707182",
    "title": "Robin_707182",
    "link_img": "https://live.staticflickr.com/65535/50022771403_9a63453b2e_o.jpg",
    "id_image": "Robin_707182",
    "count_view": 0
  },
  {
    "link_thumb": "https://live.staticflickr.com/65535/50022771698_c75b4a17e7_n.jpg",
    "id_album": "1926701726",
    "description": "Robin_712662",
    "title": "Robin_712662",
    "link_img": "https://live.staticflickr.com/65535/50022771698_a6ebf86d0b_o.jpg",
    "id_image": "Robin_712662",
    "count_view": 0
  },
  {
    "link_thumb": "https://live.staticflickr.com/65535/50023573642_f4ba325811_n.jpg",
    "id_album": "1926701726",
    "description": "Robin_733559",
    "title": "Robin_733559",
    "link_img": "https://live.staticflickr.com/65535/50023573642_1288d5f4b7_o.jpg",
    "id_image": "Robin_733559",
    "count_view": 0
  },
  {
    "link_thumb": "https://live.staticflickr.com/65535/50023574057_8d7189be8e_n.jpg",
    "id_album": "1926701726",
    "description": "Robin_744037",
    "title": "Robin_744037",
    "link_img": "https://live.staticflickr.com/65535/50023574057_fb03820d8f_o.jpg",
    "id_image": "Robin_744037",
    "count_view": 0
  },
  {
    "link_thumb": "https://live.staticflickr.com/65535/50023574227_303f975d9d_n.jpg",
    "id_album": "1926701726",
    "description": "Robin_746802",
    "title": "Robin_746802",
    "link_img": "https://live.staticflickr.com/65535/50023574227_4d3369cac3_o.jpg",
    "id_image": "Robin_746802",
    "count_view": 0
  },
  {
    "link_thumb": "https://live.staticflickr.com/65535/50023316576_228b472262_n.jpg",
    "id_album": "1926701726",
    "description": "Robin_779106",
    "title": "Robin_779106",
    "link_img": "https://live.staticflickr.com/65535/50023316576_d4bd889702_o.jpg",
    "id_image": "Robin_779106",
    "count_view": 0
  },
  {
    "link_thumb": "https://live.staticflickr.com/65535/50023574817_e413b8b536_n.jpg",
    "id_album": "1926701726",
    "description": "Robin_779522",
    "title": "Robin_779522",
    "link_img": "https://live.staticflickr.com/65535/50023574817_09497ac81f_o.jpg",
    "id_image": "Robin_779522",
    "count_view": 0
  },
  {
    "link_thumb": "https://live.staticflickr.com/65535/50023317491_88f4d4cded_n.jpg",
    "id_album": "1926701726",
    "description": "Robin_817050",
    "title": "Robin_817050",
    "link_img": "https://live.staticflickr.com/65535/50023317491_f828bac6f8_o.jpg",
    "id_image": "Robin_817050",
    "count_view": 0
  },
  {
    "link_thumb": "https://live.staticflickr.com/65535/50023576062_0762481147_n.jpg",
    "id_album": "1926701726",
    "description": "Robin_872441",
    "title": "Robin_872441",
    "link_img": "https://live.staticflickr.com/65535/50023576062_5f3d3b882f_o.jpg",
    "id_image": "Robin_872441",
    "count_view": 0
  },
  {
    "link_thumb": "https://live.staticflickr.com/65535/50023318421_a9f129bfe2_n.jpg",
    "id_album": "1926701726",
    "description": "Robin_879228",
    "title": "Robin_879228",
    "link_img": "https://live.staticflickr.com/65535/50023318421_4a38c0243b_o.jpg",
    "id_image": "Robin_879228",
    "count_view": 0
  },
  {
    "link_thumb": "https://live.staticflickr.com/65535/50023318621_0d284f4da1_n.jpg",
    "id_album": "1926701726",
    "description": "Robin_886571",
    "title": "Robin_886571",
    "link_img": "https://live.staticflickr.com/65535/50023318621_52c4566cd6_o.jpg",
    "id_image": "Robin_886571",
    "count_view": 0
  },
  {
    "link_thumb": "https://live.staticflickr.com/65535/50023576627_eede870abd_n.jpg",
    "id_album": "1926701726",
    "description": "Robin_889609",
    "title": "Robin_889609",
    "link_img": "https://live.staticflickr.com/65535/50023576627_42bfec37e6_o.jpg",
    "id_image": "Robin_889609",
    "count_view": 0
  },
  {
    "link_thumb": "https://live.staticflickr.com/65535/50022775283_bc0a5ddeb5_n.jpg",
    "id_album": "1926701726",
    "description": "Robin_911632",
    "title": "Robin_911632",
    "link_img": "https://live.staticflickr.com/65535/50022775283_981d12c67f_o.jpg",
    "id_image": "Robin_911632",
    "count_view": 0
  },
  {
    "link_thumb": "https://live.staticflickr.com/65535/50023319171_81ef914138_n.jpg",
    "id_album": "1926701726",
    "description": "Robin_922345",
    "title": "Robin_922345",
    "link_img": "https://live.staticflickr.com/65535/50023319171_b3b3e082b8_o.jpg",
    "id_image": "Robin_922345",
    "count_view": 0
  },
  {
    "link_thumb": "https://live.staticflickr.com/65535/50023577472_c0fa30b385_n.jpg",
    "id_album": "1926701726",
    "description": "Robin_930347",
    "title": "Robin_930347",
    "link_img": "https://live.staticflickr.com/65535/50023577472_decc6fb183_o.jpg",
    "id_image": "Robin_930347",
    "count_view": 0
  },
  {
    "link_thumb": "https://live.staticflickr.com/65535/50023577632_a7408a363e_n.jpg",
    "id_album": "1926701726",
    "description": "Robin_953680",
    "title": "Robin_953680",
    "link_img": "https://live.staticflickr.com/65535/50023577632_64e1cb0807_o.jpg",
    "id_image": "Robin_953680",
    "count_view": 0
  },
  {
    "link_thumb": "https://live.staticflickr.com/65535/50022776473_b1118a448a_n.jpg",
    "id_album": "1926701726",
    "description": "Robin_984639",
    "title": "Robin_984639",
    "link_img": "https://live.staticflickr.com/65535/50022776473_54d23e7a30_o.jpg",
    "id_image": "Robin_984639",
    "count_view": 0
  }
]