[
  {
    "link_thumb": "https://live.staticflickr.com/65535/50018308992_0929257b49_n.jpg",
    "id_album": "-462831702",
    "description": "Cat_358658",
    "title": "Cat_358658",
    "link_img": "https://live.staticflickr.com/65535/50018308992_2e9890572e_o.jpg",
    "id_image": "Cat_358658",
    "count_view": 0
  },
  {
    "link_thumb": "https://live.staticflickr.com/65535/50023877232_73230464e0_n.jpg",
    "id_album": "-1131363127",
    "description": "SnowLeopard_184491",
    "title": "SnowLeopard_184491",
    "link_img": "https://live.staticflickr.com/65535/50023877232_ca1613e63a_o.jpg",
    "id_image": "SnowLeopard_184491",
    "count_view": 0
  },
  {
    "link_thumb": "https://live.staticflickr.com/65535/50021175606_46747a9d94_n.jpg",
    "id_album": "-462831704",
    "description": "Cat_697435",
    "title": "Cat_697435",
    "link_img": "https://live.staticflickr.com/65535/50021175606_2d9c102dc4_o.jpg",
    "id_image": "Cat_697435",
    "count_view": 0
  },
  {
    "link_thumb": "https://live.staticflickr.com/65535/50020191713_21bbabd20b_n.jpg",
    "id_album": "-39098563",
    "description": "Eagle_950829",
    "title": "Eagle_950829",
    "link_img": "https://live.staticflickr.com/65535/50020191713_4402e3e54e_o.jpg",
    "id_image": "Eagle_950829",
    "count_view": 0
  },
  {
    "link_thumb": "https://live.staticflickr.com/65535/50016443308_9bc41be66c_n.jpg",
    "id_album": "231236068",
    "description": "BaldEagle_817277",
    "title": "BaldEagle_817277",
    "link_img": "https://live.staticflickr.com/65535/50016443308_d3f0397196_o.jpg",
    "id_image": "BaldEagle_817277",
    "count_view": 0
  },
  {
    "link_thumb": "https://live.staticflickr.com/65535/50020423038_6025618b6a_n.jpg",
    "id_album": "-128218148",
    "description": "Fox_433583",
    "title": "Fox_433583",
    "link_img": "https://live.staticflickr.com/65535/50020423038_3287c9a531_o.jpg",
    "id_image": "Fox_433583",
    "count_view": 0
  },
  {
    "link_thumb": "https://live.staticflickr.com/65535/50017304228_823edcfbf5_n.jpg",
    "id_album": "-462831705",
    "description": "Cat_186283",
    "title": "Cat_186283",
    "link_img": "https://live.staticflickr.com/65535/50017304228_9a2dd09633_o.jpg",
    "id_image": "Cat_186283",
    "count_view": 0
  },
  {
    "link_thumb": "https://live.staticflickr.com/65535/50018416872_e0a0843b56_n.jpg",
    "id_album": "-462831702",
    "description": "Cat_408380",
    "title": "Cat_408380",
    "link_img": "https://live.staticflickr.com/65535/50018416872_d6cfa8e2e9_o.jpg",
    "id_image": "Cat_408380",
    "count_view": 0
  },
  {
    "link_thumb": "https://live.staticflickr.com/65535/50352673396_55ffeabe19_n.jpg",
    "id_album": "-462831703",
    "description": "Cat_969185",
    "title": "Cat_969185",
    "link_img": "https://live.staticflickr.com/65535/50352673396_c7d0f163a4_o.jpg",
    "id_image": "Cat_969185",
    "count_view": 0
  },
  {
    "link_thumb": "https://live.staticflickr.com/65535/50019625148_5c07fdb58b_n.jpg",
    "id_album": "-149330232",
    "description": "Dog_216629",
    "title": "Dog_216629",
    "link_img": "https://live.staticflickr.com/65535/50019625148_8bd7b228c6_o.jpg",
    "id_image": "Dog_216629",
    "count_view": 0
  },
  {
    "link_thumb": "https://live.staticflickr.com/65535/50020339997_3da292a348_n.jpg",
    "id_album": "297232732",
    "description": "Dinosaur_275510",
    "title": "Dinosaur_275510",
    "link_img": "https://live.staticflickr.com/65535/50020339997_8952553d15_o.jpg",
    "id_image": "Dinosaur_275510",
    "count_view": 0
  },
  {
    "link_thumb": "https://live.staticflickr.com/65535/50024461881_2773dece09_n.jpg",
    "id_album": "-709711865",
    "description": "Wolf_199794",
    "title": "Wolf_199794",
    "link_img": "https://live.staticflickr.com/65535/50024461881_fc6293c894_o.jpg",
    "id_image": "Wolf_199794",
    "count_view": 0
  },
  {
    "link_thumb": "https://live.staticflickr.com/65535/50017932167_d9291da546_n.jpg",
    "id_album": "-401151552",
    "description": "Butterfly_800044",
    "title": "Butterfly_800044",
    "link_img": "https://live.staticflickr.com/65535/50017932167_b1e7aea316_o.jpg",
    "id_image": "Butterfly_800044",
    "count_view": 0
  },
  {
    "link_thumb": "https://live.staticflickr.com/65535/50017298238_a28e32d46e_n.jpg",
    "id_album": "-462831705",
    "description": "Cat_181922",
    "title": "Cat_181922",
    "link_img": "https://live.staticflickr.com/65535/50017298238_618f7ee3cd_o.jpg",
    "id_image": "Cat_181922",
    "count_view": 0
  },
  {
    "link_thumb": "https://live.staticflickr.com/65535/50020505767_a40e2d7dc2_n.jpg",
    "id_album": "-149330232",
    "description": "Dog_329021",
    "title": "Dog_329021",
    "link_img": "https://live.staticflickr.com/65535/50020505767_4b0eeb876d_o.jpg",
    "id_image": "Dog_329021",
    "count_view": 0
  },
  {
    "link_thumb": "https://live.staticflickr.com/65535/50019457571_2a31d77560_n.jpg",
    "id_album": "-462831705",
    "description": "Cat_91457",
    "title": "Cat_91457",
    "link_img": "https://live.staticflickr.com/65535/50019457571_a37f1faafa_o.jpg",
    "id_image": "Cat_91457",
    "count_view": 0
  },
  {
    "link_thumb": "https://live.staticflickr.com/65535/50017535233_fcd97b668a_n.jpg",
    "id_album": "-462831702",
    "description": "Cat_363465",
    "title": "Cat_363465",
    "link_img": "https://live.staticflickr.com/65535/50017535233_f217775f3e_o.jpg",
    "id_image": "Cat_363465",
    "count_view": 0
  },
  {
    "link_thumb": "https://live.staticflickr.com/65535/50022150136_58209d2f63_n.jpg",
    "id_album": "1894617400",
    "description": "Lynx_529660",
    "title": "Lynx_529660",
    "link_img": "https://live.staticflickr.com/65535/50022150136_1e150f6387_o.jpg",
    "id_image": "Lynx_529660",
    "count_view": 0
  },
  {
    "link_thumb": "https://live.staticflickr.com/65535/50020443992_9004057aaa_n.jpg",
    "id_album": "-149330232",
    "description": "Dog_256966",
    "title": "Dog_256966",
    "link_img": "https://live.staticflickr.com/65535/50020443992_c19aaa79a3_o.jpg",
    "id_image": "Dog_256966",
    "count_view": 0
  },
  {
    "link_thumb": "https://live.staticflickr.com/65535/50022739456_a85e8e770b_n.jpg",
    "id_album": "-1431786825",
    "description": "Pig_570516",
    "title": "Pig_570516",
    "link_img": "https://live.staticflickr.com/65535/50022739456_f2e593e9f1_o.jpg",
    "id_image": "Pig_570516",
    "count_view": 0
  },
  {
    "link_thumb": "https://live.staticflickr.com/65535/50019775068_2030747071_n.jpg",
    "id_album": "-149330232",
    "description": "Dog_354496",
    "title": "Dog_354496",
    "link_img": "https://live.staticflickr.com/65535/50019775068_9de5b4fa55_o.jpg",
    "id_image": "Dog_354496",
    "count_view": 0
  },
  {
    "link_thumb": "https://live.staticflickr.com/65535/50021870303_02752d0d8c_n.jpg",
    "id_album": "-1384601601",
    "description": "Owl_405796",
    "title": "Owl_405796",
    "link_img": "https://live.staticflickr.com/65535/50021870303_1037d1a8f7_o.jpg",
    "id_image": "Owl_405796",
    "count_view": 0
  },
  {
    "link_thumb": "https://live.staticflickr.com/65535/50020392762_e56aa7ddb5_n.jpg",
    "id_album": "-149330232",
    "description": "Dog_177431",
    "title": "Dog_177431",
    "link_img": "https://live.staticflickr.com/65535/50020392762_7cd3caceb3_o.jpg",
    "id_image": "Dog_177431",
    "count_view": 0
  },
  {
    "link_thumb": "https://live.staticflickr.com/65535/50020231537_308d8d7925_n.jpg",
    "id_album": "-1783645069",
    "description": "Dalmatian_971384",
    "title": "Dalmatian_971384",
    "link_img": "https://live.staticflickr.com/65535/50020231537_0b603e86f1_o.jpg",
    "id_image": "Dalmatian_971384",
    "count_view": 0
  },
  {
    "link_thumb": "https://live.staticflickr.com/65535/50022663758_94f62f051e_n.jpg",
    "id_album": "332874268",
    "description": "RedPanda_356823",
    "title": "RedPanda_356823",
    "link_img": "https://live.staticflickr.com/65535/50022663758_7a36b4c002_o.jpg",
    "id_image": "RedPanda_356823",
    "count_view": 0
  },
  {
    "link_thumb": "https://live.staticflickr.com/65535/50021209583_9d0c5a1011_n.jpg",
    "id_album": "665694624",
    "description": "JapaneseMacaque_670217",
    "title": "JapaneseMacaque_670217",
    "link_img": "https://live.staticflickr.com/65535/50021209583_a9dfd437dd_o.jpg",
    "id_image": "JapaneseMacaque_670217",
    "count_view": 0
  },
  {
    "link_thumb": "https://live.staticflickr.com/65535/50021796746_b2e0105e12_n.jpg",
    "id_album": "770105808",
    "description": "Kingfisher_264001",
    "title": "Kingfisher_264001",
    "link_img": "https://live.staticflickr.com/65535/50021796746_19b86248ba_o.jpg",
    "id_image": "Kingfisher_264001",
    "count_view": 0
  },
  {
    "link_thumb": "https://live.staticflickr.com/65535/50019778152_3a7c037366_n.jpg",
    "id_album": "-462831703",
    "description": "Cat_958800",
    "title": "Cat_958800",
    "link_img": "https://live.staticflickr.com/65535/50019778152_f01cf8ceff_o.jpg",
    "id_image": "Cat_958800",
    "count_view": 0
  },
  {
    "link_thumb": "https://live.staticflickr.com/65535/50018048446_7f9a3f98f4_n.jpg",
    "id_album": "-462831702",
    "description": "Cat_358561",
    "title": "Cat_358561",
    "link_img": "https://live.staticflickr.com/65535/50018048446_951289a90a_o.jpg",
    "id_image": "Cat_358561",
    "count_view": 0
  },
  {
    "link_thumb": "https://live.staticflickr.com/65535/50020884177_63d68aa0d4_n.jpg",
    "id_album": "-405058657",
    "description": "Dragonfly_469148",
    "title": "Dragonfly_469148",
    "link_img": "https://live.staticflickr.com/65535/50020884177_eeee1c534e_o.jpg",
    "id_image": "Dragonfly_469148",
    "count_view": 0
  },
  {
    "link_thumb": "https://live.staticflickr.com/65535/50017048163_529f34b7f1_n.jpg",
    "id_album": "-401151552",
    "description": "Butterfly_369880",
    "title": "Butterfly_369880",
    "link_img": "https://live.staticflickr.com/65535/50017048163_2240edf76e_o.jpg",
    "id_image": "Butterfly_369880",
    "count_view": 0
  },
  {
    "link_thumb": "https://live.staticflickr.com/65535/50351834838_e6ecc34146_n.jpg",
    "id_album": "-462831703",
    "description": "Cat_453381",
    "title": "Cat_453381",
    "link_img": "https://live.staticflickr.com/65535/50351834838_5cb22716bd_o.jpg",
    "id_image": "Cat_453381",
    "count_view": 0
  },
  {
    "link_thumb": "https://live.staticflickr.com/65535/50020287801_e6d0ccd03c_n.jpg",
    "id_album": "-149330232",
    "description": "Dog_344046",
    "title": "Dog_344046",
    "link_img": "https://live.staticflickr.com/65535/50020287801_8fef517a11_o.jpg",
    "id_image": "Dog_344046",
    "count_view": 0
  },
  {
    "link_thumb": "https://live.staticflickr.com/65535/50351888663_889430e4bf_n.jpg",
    "id_album": "-462831703",
    "description": "Cat_523769",
    "title": "Cat_523769",
    "link_img": "https://live.staticflickr.com/65535/50351888663_41184d72e5_o.jpg",
    "id_image": "Cat_523769",
    "count_view": 0
  },
  {
    "link_thumb": "https://live.staticflickr.com/65535/50019976592_6ff86f316c_n.jpg",
    "id_album": "-1481843714",
    "description": "Cheetah_676393",
    "title": "Cheetah_676393",
    "link_img": "https://live.staticflickr.com/65535/50019976592_375a3e0146_o.jpg",
    "id_image": "Cheetah_676393",
    "count_view": 0
  },
  {
    "link_thumb": "https://live.staticflickr.com/65535/50016922078_4dfdf682f5_n.jpg",
    "id_album": "-1561645279",
    "description": "BlackPanther_327741",
    "title": "BlackPanther_327741",
    "link_img": "https://live.staticflickr.com/65535/50016922078_8f2f8ace85_o.jpg",
    "id_image": "BlackPanther_327741",
    "count_view": 0
  },
  {
    "link_thumb": "https://live.staticflickr.com/65535/50021643588_21b6f05ed2_n.jpg",
    "id_album": "-1720012921",
    "description": "Meerkat_428350",
    "title": "Meerkat_428350",
    "link_img": "https://live.staticflickr.com/65535/50021643588_b724dc1c1f_o.jpg",
    "id_image": "Meerkat_428350",
    "count_view": 0
  },
  {
    "link_thumb": "https://live.staticflickr.com/65535/50021515206_12d08e254c_n.jpg",
    "id_album": "-1933715543",
    "description": "Horse_423616",
    "title": "Horse_423616",
    "link_img": "https://live.staticflickr.com/65535/50021515206_ea1b020b88_o.jpg",
    "id_image": "Horse_423616",
    "count_view": 0
  },
  {
    "link_thumb": "https://live.staticflickr.com/65535/50020238307_aa371f7e4a_n.jpg",
    "id_album": "1903411565",
    "description": "Deer_201112",
    "title": "Deer_201112",
    "link_img": "https://live.staticflickr.com/65535/50020238307_007a800a4e_o.jpg",
    "id_image": "Deer_201112",
    "count_view": 0
  },
  {
    "link_thumb": "https://live.staticflickr.com/65535/50020400828_4ba6efc548_n.jpg",
    "id_album": "-128218148",
    "description": "Fox_322643",
    "title": "Fox_322643",
    "link_img": "https://live.staticflickr.com/65535/50020400828_f0f633aabc_o.jpg",
    "id_image": "Fox_322643",
    "count_view": 0
  },
  {
    "link_thumb": "https://live.staticflickr.com/65535/50017562456_b1068b04ca_n.jpg",
    "id_album": "-401151552",
    "description": "Butterfly_328022",
    "title": "Butterfly_328022",
    "link_img": "https://live.staticflickr.com/65535/50017562456_1f6ea5b1a1_o.jpg",
    "id_image": "Butterfly_328022",
    "count_view": 0
  },
  {
    "link_thumb": "https://live.staticflickr.com/65535/50019710827_6def389ba1_n.jpg",
    "id_album": "-462831705",
    "description": "Cat_91431",
    "title": "Cat_91431",
    "link_img": "https://live.staticflickr.com/65535/50019710827_53aeb09784_o.jpg",
    "id_image": "Cat_91431",
    "count_view": 0
  },
  {
    "link_thumb": "https://live.staticflickr.com/65535/50019159726_8e84aacd71_n.jpg",
    "id_album": "-462831702",
    "description": "Cat_423020",
    "title": "Cat_423020",
    "link_img": "https://live.staticflickr.com/65535/50019159726_9d666e0cfe_o.jpg",
    "id_image": "Cat_423020",
    "count_view": 0
  },
  {
    "link_thumb": "https://live.staticflickr.com/65535/50021118821_0833080e58_n.jpg",
    "id_album": "-462831704",
    "description": "Cat_569333",
    "title": "Cat_569333",
    "link_img": "https://live.staticflickr.com/65535/50021118821_b599569324_o.jpg",
    "id_image": "Cat_569333",
    "count_view": 0
  },
  {
    "link_thumb": "https://live.staticflickr.com/65535/50017539092_282c930280_n.jpg",
    "id_album": "-1846011410",
    "description": "Bird_367256",
    "title": "Bird_367256",
    "link_img": "https://live.staticflickr.com/65535/50017539092_9aaeece7c0_o.jpg",
    "id_image": "Bird_367256",
    "count_view": 0
  },
  {
    "link_thumb": "https://live.staticflickr.com/65535/50351902523_06c07386dc_n.jpg",
    "id_album": "-462831703",
    "description": "Cat_548758",
    "title": "Cat_548758",
    "link_img": "https://live.staticflickr.com/65535/50351902523_1d31d822bf_o.jpg",
    "id_image": "Cat_548758",
    "count_view": 0
  },
  {
    "link_thumb": "https://live.staticflickr.com/65535/50017850107_2124886f3e_n.jpg",
    "id_album": "-401151552",
    "description": "Butterfly_413735",
    "title": "Butterfly_413735",
    "link_img": "https://live.staticflickr.com/65535/50017850107_294dd69e5d_o.jpg",
    "id_image": "Butterfly_413735",
    "count_view": 0
  },
  {
    "link_thumb": "https://live.staticflickr.com/65535/50017360143_32c02025be_n.jpg",
    "id_album": "-462831705",
    "description": "Cat_236453",
    "title": "Cat_236453",
    "link_img": "https://live.staticflickr.com/65535/50017360143_58ea9f7ae1_o.jpg",
    "id_image": "Cat_236453",
    "count_view": 0
  },
  {
    "link_thumb": "https://live.staticflickr.com/65535/50024281272_6a38fedf6e_n.jpg",
    "id_album": "405170427",
    "description": "Tiger_1001193",
    "title": "Tiger_1001193",
    "link_img": "https://live.staticflickr.com/65535/50024281272_944082166c_o.jpg",
    "id_image": "Tiger_1001193",
    "count_view": 0
  },
  {
    "link_thumb": "https://live.staticflickr.com/65535/50019032993_a7e74384e7_n.jpg",
    "id_album": "-462831703",
    "description": "Cat_991678",
    "title": "Cat_991678",
    "link_img": "https://live.staticflickr.com/65535/50019032993_9e35a9eae2_o.jpg",
    "id_image": "Cat_991678",
    "count_view": 0
  },
  {
    "link_thumb": "https://live.staticflickr.com/65535/50020434258_8169eccd27_n.jpg",
    "id_album": "-128218148",
    "description": "Fox_558965",
    "title": "Fox_558965",
    "link_img": "https://live.staticflickr.com/65535/50020434258_c5cbc1f4ba_o.jpg",
    "id_image": "Fox_558965",
    "count_view": 0
  },
  {
    "link_thumb": "https://live.staticflickr.com/65535/50020499037_eec398c6f1_n.jpg",
    "id_album": "-149330232",
    "description": "Dog_323415",
    "title": "Dog_323415",
    "link_img": "https://live.staticflickr.com/65535/50020499037_9ba4d29a96_o.jpg",
    "id_image": "Dog_323415",
    "count_view": 0
  },
  {
    "link_thumb": "https://live.staticflickr.com/65535/50021880211_40ff9175f7_n.jpg",
    "id_album": "1918884325",
    "description": "Lemur_812197",
    "title": "Lemur_812197",
    "link_img": "https://live.staticflickr.com/65535/50021880211_342b266186_o.jpg",
    "id_image": "Lemur_812197",
    "count_view": 0
  },
  {
    "link_thumb": "https://live.staticflickr.com/65535/50022435332_c40060673e_n.jpg",
    "id_album": "-1173056085",
    "description": "Macaw_343851",
    "title": "Macaw_343851",
    "link_img": "https://live.staticflickr.com/65535/50022435332_42e799ef6a_o.jpg",
    "id_image": "Macaw_343851",
    "count_view": 0
  },
  {
    "link_thumb": "https://live.staticflickr.com/65535/50023720508_1780133774_n.jpg",
    "id_album": "-809392728",
    "description": "Titmouse_925209",
    "title": "Titmouse_925209",
    "link_img": "https://live.staticflickr.com/65535/50023720508_ba6048f541_o.jpg",
    "id_image": "Titmouse_925209",
    "count_view": 0
  },
  {
    "link_thumb": "https://live.staticflickr.com/65535/50016423363_b974f55898_n.jpg",
    "id_album": "390697200",
    "description": "AustralianShepherd_957122",
    "title": "AustralianShepherd_957122",
    "link_img": "https://live.staticflickr.com/65535/50016423363_873284b846_o.jpg",
    "id_image": "AustralianShepherd_957122",
    "count_view": 0
  },
  {
    "link_thumb": "https://live.staticflickr.com/65535/50020388642_50b1066ef3_n.jpg",
    "id_album": "-149330232",
    "description": "Dog_174865",
    "title": "Dog_174865",
    "link_img": "https://live.staticflickr.com/65535/50020388642_9943ae007b_o.jpg",
    "id_image": "Dog_174865",
    "count_view": 0
  },
  {
    "link_thumb": "https://live.staticflickr.com/65535/50016910148_227ea987a6_n.jpg",
    "id_album": "-1846011410",
    "description": "Bird_876630",
    "title": "Bird_876630",
    "link_img": "https://live.staticflickr.com/65535/50016910148_14f7189c95_o.jpg",
    "id_image": "Bird_876630",
    "count_view": 0
  },
  {
    "link_thumb": "https://live.staticflickr.com/65535/50020187741_d4ee81156e_n.jpg",
    "id_album": "-149330232",
    "description": "Dog_260271",
    "title": "Dog_260271",
    "link_img": "https://live.staticflickr.com/65535/50020187741_012323f3c4_o.jpg",
    "id_image": "Dog_260271",
    "count_view": 0
  },
  {
    "link_thumb": "https://live.staticflickr.com/65535/50016362153_2b489b29d7_n.jpg",
    "id_album": "523598895",
    "description": "Artistic_266058",
    "title": "Artistic_266058",
    "link_img": "https://live.staticflickr.com/65535/50016362153_17e72191d6_o.jpg",
    "id_image": "Artistic_266058",
    "count_view": 0
  },
  {
    "link_thumb": "https://live.staticflickr.com/65535/50018052447_47e7575edd_n.jpg",
    "id_album": "-462831705",
    "description": "Cat_161318",
    "title": "Cat_161318",
    "link_img": "https://live.staticflickr.com/65535/50018052447_b0290d5f86_o.jpg",
    "id_image": "Cat_161318",
    "count_view": 0
  },
  {
    "link_thumb": "https://live.staticflickr.com/65535/50021745752_c6f8485c62_n.jpg",
    "id_album": "-1933715543",
    "description": "Horse_342944",
    "title": "Horse_342944",
    "link_img": "https://live.staticflickr.com/65535/50021745752_d2005e6720_o.jpg",
    "id_image": "Horse_342944",
    "count_view": 0
  },
  {
    "link_thumb": "https://live.staticflickr.com/65535/50017727612_04186eb695_n.jpg",
    "id_album": "-530283314",
    "description": "BlueandyellowMacaw_534002",
    "title": "BlueandyellowMacaw_534002",
    "link_img": "https://live.staticflickr.com/65535/50017727612_d1f9acaba7_o.jpg",
    "id_image": "BlueandyellowMacaw_534002",
    "count_view": 0
  },
  {
    "link_thumb": "https://live.staticflickr.com/65535/50017501991_6601705921_n.jpg",
    "id_album": "782930701",
    "description": "BorderCollie_865609",
    "title": "BorderCollie_865609",
    "link_img": "https://live.staticflickr.com/65535/50017501991_6b69b47b73_o.jpg",
    "id_image": "BorderCollie_865609",
    "count_view": 0
  },
  {
    "link_thumb": "https://live.staticflickr.com/65535/50020891077_b7931f4703_n.jpg",
    "id_album": "-405058657",
    "description": "Dragonfly_612649",
    "title": "Dragonfly_612649",
    "link_img": "https://live.staticflickr.com/65535/50020891077_792f9431ef_o.jpg",
    "id_image": "Dragonfly_612649",
    "count_view": 0
  },
  {
    "link_thumb": "https://live.staticflickr.com/65535/50352661891_491f1c8e4e_n.jpg",
    "id_album": "-462831703",
    "description": "Cat_743762",
    "title": "Cat_743762",
    "link_img": "https://live.staticflickr.com/65535/50352661891_c993436b83_o.jpg",
    "id_image": "Cat_743762",
    "count_view": 0
  },
  {
    "link_thumb": "https://live.staticflickr.com/65535/50023035076_070bcb67cd_n.jpg",
    "id_album": "-353898617",
    "description": "Puppy_591924",
    "title": "Puppy_591924",
    "link_img": "https://live.staticflickr.com/65535/50023035076_6134090e0e_o.jpg",
    "id_image": "Puppy_591924",
    "count_view": 0
  },
  {
    "link_thumb": "https://live.staticflickr.com/65535/50022116642_c960c35db1_n.jpg",
    "id_album": "-1882491687",
    "description": "Ladybug_707156",
    "title": "Ladybug_707156",
    "link_img": "https://live.staticflickr.com/65535/50022116642_e7c97ba6c7_o.jpg",
    "id_image": "Ladybug_707156",
    "count_view": 0
  },
  {
    "link_thumb": "https://live.staticflickr.com/65535/50016887411_978e1851bf_n.jpg",
    "id_album": "523598895",
    "description": "Artistic_239471",
    "title": "Artistic_239471",
    "link_img": "https://live.staticflickr.com/65535/50016887411_74c941a092_o.jpg",
    "id_image": "Artistic_239471",
    "count_view": 0
  },
  {
    "link_thumb": "https://live.staticflickr.com/65535/50016961571_60d512d61d_n.jpg",
    "id_album": "231236068",
    "description": "BaldEagle_567262",
    "title": "BaldEagle_567262",
    "link_img": "https://live.staticflickr.com/65535/50016961571_79812e83f0_o.jpg",
    "id_image": "BaldEagle_567262",
    "count_view": 0
  },
  {
    "link_thumb": "https://live.staticflickr.com/65535/50018656973_23edcb01e4_n.jpg",
    "id_album": "-462831702",
    "description": "Cat_432481",
    "title": "Cat_432481",
    "link_img": "https://live.staticflickr.com/65535/50018656973_30601f2cab_o.jpg",
    "id_image": "Cat_432481",
    "count_view": 0
  },
  {
    "link_thumb": "https://live.staticflickr.com/65535/50023842886_5d351d9126_n.jpg",
    "id_album": "702283289",
    "description": "Squirrel_359866",
    "title": "Squirrel_359866",
    "link_img": "https://live.staticflickr.com/65535/50023842886_48d7aa73a6_o.jpg",
    "id_image": "Squirrel_359866",
    "count_view": 0
  },
  {
    "link_thumb": "https://live.staticflickr.com/65535/50017159883_576db0a3be_n.jpg",
    "id_album": "-401151552",
    "description": "Butterfly_879452",
    "title": "Butterfly_879452",
    "link_img": "https://live.staticflickr.com/65535/50017159883_56054d308f_o.jpg",
    "id_image": "Butterfly_879452",
    "count_view": 0
  },
  {
    "link_thumb": "https://live.staticflickr.com/65535/50020079918_a53554498d_n.jpg",
    "id_album": "-405058657",
    "description": "Dragonfly_347066",
    "title": "Dragonfly_347066",
    "link_img": "https://live.staticflickr.com/65535/50020079918_46cac1d22f_o.jpg",
    "id_image": "Dragonfly_347066",
    "count_view": 0
  },
  {
    "link_thumb": "https://live.staticflickr.com/65535/50020249976_c866172637_n.jpg",
    "id_album": "-149330232",
    "description": "Dog_330388",
    "title": "Dog_330388",
    "link_img": "https://live.staticflickr.com/65535/50020249976_419e90f885_o.jpg",
    "id_image": "Dog_330388",
    "count_view": 0
  },
  {
    "link_thumb": "https://live.staticflickr.com/65535/50020601897_16e8574336_n.jpg",
    "id_album": "-149330232",
    "description": "Dog_370685",
    "title": "Dog_370685",
    "link_img": "https://live.staticflickr.com/65535/50020601897_59b2fa1b77_o.jpg",
    "id_image": "Dog_370685",
    "count_view": 0
  },
  {
    "link_thumb": "https://live.staticflickr.com/65535/50016729728_5f88f6a590_n.jpg",
    "id_album": "-1846011410",
    "description": "Bird_344985",
    "title": "Bird_344985",
    "link_img": "https://live.staticflickr.com/65535/50016729728_df7aa556e2_o.jpg",
    "id_image": "Bird_344985",
    "count_view": 0
  },
  {
    "link_thumb": "https://live.staticflickr.com/65535/50022947558_d17daf3fbb_n.jpg",
    "id_album": "-755466332",
    "description": "Sheep_828192",
    "title": "Sheep_828192",
    "link_img": "https://live.staticflickr.com/65535/50022947558_38f578283c_o.jpg",
    "id_image": "Sheep_828192",
    "count_view": 0
  },
  {
    "link_thumb": "https://live.staticflickr.com/65535/50021663506_0018b0df9f_n.jpg",
    "id_album": "1658866795",
    "description": "Insect_322611",
    "title": "Insect_322611",
    "link_img": "https://live.staticflickr.com/65535/50021663506_8966d1c175_o.jpg",
    "id_image": "Insect_322611",
    "count_view": 0
  },
  {
    "link_thumb": "https://live.staticflickr.com/65535/50352678261_1b815cd157_n.jpg",
    "id_album": "-462831703",
    "description": "Cat_996814",
    "title": "Cat_996814",
    "link_img": "https://live.staticflickr.com/65535/50352678261_f2ee9b2a1a_o.jpg",
    "id_image": "Cat_996814",
    "count_view": 0
  },
  {
    "link_thumb": "https://live.staticflickr.com/65535/50020589312_d545beda55_n.jpg",
    "id_album": "-149330232",
    "description": "Dog_366555",
    "title": "Dog_366555",
    "link_img": "https://live.staticflickr.com/65535/50020589312_8121648ce2_o.jpg",
    "id_image": "Dog_366555",
    "count_view": 0
  },
  {
    "link_thumb": "https://live.staticflickr.com/65535/50021581842_dba55e31e9_n.jpg",
    "id_album": "713572662",
    "description": "Giraffe_523645",
    "title": "Giraffe_523645",
    "link_img": "https://live.staticflickr.com/65535/50021581842_c4fea439e4_o.jpg",
    "id_image": "Giraffe_523645",
    "count_view": 0
  },
  {
    "link_thumb": "https://live.staticflickr.com/65535/50018046627_e94d4abb5b_n.jpg",
    "id_album": "-462831705",
    "description": "Cat_150330",
    "title": "Cat_150330",
    "link_img": "https://live.staticflickr.com/65535/50018046627_94c8b0884f_o.jpg",
    "id_image": "Cat_150330",
    "count_view": 0
  },
  {
    "link_thumb": "https://live.staticflickr.com/65535/50019196861_fc2216cd36_n.jpg",
    "id_album": "-462831704",
    "description": "Cat_436161",
    "title": "Cat_436161",
    "link_img": "https://live.staticflickr.com/65535/50019196861_408f1f224b_o.jpg",
    "id_image": "Cat_436161",
    "count_view": 0
  },
  {
    "link_thumb": "https://live.staticflickr.com/65535/50016801533_63ca6c01e8_n.jpg",
    "id_album": "-1846011410",
    "description": "Bird_429631",
    "title": "Bird_429631",
    "link_img": "https://live.staticflickr.com/65535/50016801533_fa46944e47_o.jpg",
    "id_image": "Bird_429631",
    "count_view": 0
  },
  {
    "link_thumb": "https://live.staticflickr.com/65535/50019975171_44ae952ea8_n.jpg",
    "id_album": "1903411565",
    "description": "Deer_12396",
    "title": "Deer_12396",
    "link_img": "https://live.staticflickr.com/65535/50019975171_3197817eda_o.jpg",
    "id_image": "Deer_12396",
    "count_view": 0
  },
  {
    "link_thumb": "https://live.staticflickr.com/65535/50022545767_84875794ee_n.jpg",
    "id_album": "1957967135",
    "description": "Mouse_336444",
    "title": "Mouse_336444",
    "link_img": "https://live.staticflickr.com/65535/50022545767_6ef97e6b1a_o.jpg",
    "id_image": "Mouse_336444",
    "count_view": 0
  },
  {
    "link_thumb": "https://live.staticflickr.com/65535/50020999501_bdeeccf222_n.jpg",
    "id_album": "-128218148",
    "description": "Fox_746177",
    "title": "Fox_746177",
    "link_img": "https://live.staticflickr.com/65535/50020999501_6342efe9ab_o.jpg",
    "id_image": "Fox_746177",
    "count_view": 0
  },
  {
    "link_thumb": "https://live.staticflickr.com/65535/50017921742_d88efcedbb_n.jpg",
    "id_album": "-401151552",
    "description": "Butterfly_754619",
    "title": "Butterfly_754619",
    "link_img": "https://live.staticflickr.com/65535/50017921742_bf2f6b55bb_o.jpg",
    "id_image": "Butterfly_754619",
    "count_view": 0
  },
  {
    "link_thumb": "https://live.staticflickr.com/65535/50021826601_09411aa210_n.jpg",
    "id_album": "1307335982",
    "description": "LabradorRetriever_344258",
    "title": "LabradorRetriever_344258",
    "link_img": "https://live.staticflickr.com/65535/50021826601_6bef9c1760_o.jpg",
    "id_image": "LabradorRetriever_344258",
    "count_view": 0
  },
  {
    "link_thumb": "https://live.staticflickr.com/65535/50024258966_19d50ea914_n.jpg",
    "id_album": "-809392728",
    "description": "Titmouse_231227",
    "title": "Titmouse_231227",
    "link_img": "https://live.staticflickr.com/65535/50024258966_1b7ee3389a_o.jpg",
    "id_image": "Titmouse_231227",
    "count_view": 0
  },
  {
    "link_thumb": "https://live.staticflickr.com/65535/50016833996_559c320da7_n.jpg",
    "id_album": "-1741290715",
    "description": "Ant_407392",
    "title": "Ant_407392",
    "link_img": "https://live.staticflickr.com/65535/50016833996_d3df09b6ff_o.jpg",
    "id_image": "Ant_407392",
    "count_view": 0
  },
  {
    "link_thumb": "https://live.staticflickr.com/65535/50017167133_5a649b9180_n.jpg",
    "id_album": "-401151552",
    "description": "Butterfly_926292",
    "title": "Butterfly_926292",
    "link_img": "https://live.staticflickr.com/65535/50017167133_fce976e761_o.jpg",
    "id_image": "Butterfly_926292",
    "count_view": 0
  },
  {
    "link_thumb": "https://live.staticflickr.com/65535/50021809136_8632f77bf5_n.jpg",
    "id_album": "770105808",
    "description": "Kingfisher_794578",
    "title": "Kingfisher_794578",
    "link_img": "https://live.staticflickr.com/65535/50021809136_509540b486_o.jpg",
    "id_image": "Kingfisher_794578",
    "count_view": 0
  },
  {
    "link_thumb": "https://live.staticflickr.com/65535/50017514537_4e92118b5c_n.jpg",
    "id_album": "-1846011410",
    "description": "Bird_343799",
    "title": "Bird_343799",
    "link_img": "https://live.staticflickr.com/65535/50017514537_645181c7f1_o.jpg",
    "id_image": "Bird_343799",
    "count_view": 0
  },
  {
    "link_thumb": "https://live.staticflickr.com/65535/50017487681_386e9ba2a2_n.jpg",
    "id_album": "782930701",
    "description": "BorderCollie_713179",
    "title": "BorderCollie_713179",
    "link_img": "https://live.staticflickr.com/65535/50017487681_088f82e025_o.jpg",
    "id_image": "BorderCollie_713179",
    "count_view": 0
  },
  {
    "link_thumb": "https://live.staticflickr.com/65535/50020898196_f2bd159676_n.jpg",
    "id_album": "-1758557371",
    "description": "Flamingo_457989",
    "title": "Flamingo_457989",
    "link_img": "https://live.staticflickr.com/65535/50020898196_eb16ac4c85_o.jpg",
    "id_image": "Flamingo_457989",
    "count_view": 0
  },
  {
    "link_thumb": "https://live.staticflickr.com/65535/50021014726_769667c306_n.jpg",
    "id_album": "-128218148",
    "description": "Fox_870355",
    "title": "Fox_870355",
    "link_img": "https://live.staticflickr.com/65535/50021014726_2ca047fb39_o.jpg",
    "id_image": "Fox_870355",
    "count_view": 0
  },
  {
    "link_thumb": "https://live.staticflickr.com/65535/50019829583_290b8b1648_n.jpg",
    "id_album": "-149330231",
    "description": "Dog_383314",
    "title": "Dog_383314",
    "link_img": "https://live.staticflickr.com/65535/50019829583_4b8d34a103_o.jpg",
    "id_image": "Dog_383314",
    "count_view": 0
  },
  {
    "link_thumb": "https://live.staticflickr.com/65535/50022526086_67a606e82a_n.jpg",
    "id_album": "-358592519",
    "description": "Panda_361515",
    "title": "Panda_361515",
    "link_img": "https://live.staticflickr.com/65535/50022526086_2448430579_o.jpg",
    "id_image": "Panda_361515",
    "count_view": 0
  },
  {
    "link_thumb": "https://live.staticflickr.com/65535/50018069441_78ef8f5fda_n.jpg",
    "id_album": "-462831702",
    "description": "Cat_364782",
    "title": "Cat_364782",
    "link_img": "https://live.staticflickr.com/65535/50018069441_2a54a12fbd_o.jpg",
    "id_image": "Cat_364782",
    "count_view": 0
  },
  {
    "link_thumb": "https://live.staticflickr.com/65535/50021342042_cdac316fdd_n.jpg",
    "id_album": "844170697",
    "description": "Frog_953058",
    "title": "Frog_953058",
    "link_img": "https://live.staticflickr.com/65535/50021342042_22a88bf0b9_o.jpg",
    "id_image": "Frog_953058",
    "count_view": 0
  },
  {
    "link_thumb": "https://live.staticflickr.com/65535/50023022886_bbc190a8e4_n.jpg",
    "id_album": "-353898617",
    "description": "Puppy_559284",
    "title": "Puppy_559284",
    "link_img": "https://live.staticflickr.com/65535/50023022886_ea2522ea91_o.jpg",
    "id_image": "Puppy_559284",
    "count_view": 0
  },
  {
    "link_thumb": "https://live.staticflickr.com/65535/50017219102_6eff550a01_n.jpg",
    "id_album": "231236068",
    "description": "BaldEagle_436000",
    "title": "BaldEagle_436000",
    "link_img": "https://live.staticflickr.com/65535/50017219102_b82aaab4cf_o.jpg",
    "id_image": "BaldEagle_436000",
    "count_view": 0
  },
  {
    "link_thumb": "https://live.staticflickr.com/65535/50019604211_708dfeabcd_n.jpg",
    "id_album": "-420782796",
    "description": "Caterpillar_391705",
    "title": "Caterpillar_391705",
    "link_img": "https://live.staticflickr.com/65535/50019604211_e9d653754f_o.jpg",
    "id_image": "Caterpillar_391705",
    "count_view": 0
  },
  {
    "link_thumb": "https://live.staticflickr.com/65535/50351803163_11740d8172_n.jpg",
    "id_album": "-462831703",
    "description": "Cat_407994",
    "title": "Cat_407994",
    "link_img": "https://live.staticflickr.com/65535/50351803163_00b6964a25_o.jpg",
    "id_image": "Cat_407994",
    "count_view": 0
  },
  {
    "link_thumb": "https://live.staticflickr.com/65535/50352867062_643f5c42ba_n.jpg",
    "id_album": "-462831702",
    "description": "Cat_87851",
    "title": "Cat_87851",
    "link_img": "https://live.staticflickr.com/65535/50352867062_f2fc320b3e_o.jpg",
    "id_image": "Cat_87851",
    "count_view": 0
  },
  {
    "link_thumb": "https://live.staticflickr.com/65535/50024289416_28c75f08af_n.jpg",
    "id_album": "-1103743486",
    "description": "Toucan_986594",
    "title": "Toucan_986594",
    "link_img": "https://live.staticflickr.com/65535/50024289416_ee33b59591_o.jpg",
    "id_image": "Toucan_986594",
    "count_view": 0
  },
  {
    "link_thumb": "https://live.staticflickr.com/65535/50022936966_dcb823c976_n.jpg",
    "id_album": "-356780855",
    "description": "Puffin_921590",
    "title": "Puffin_921590",
    "link_img": "https://live.staticflickr.com/65535/50022936966_c2e6881fdf_o.jpg",
    "id_image": "Puffin_921590",
    "count_view": 0
  },
  {
    "link_thumb": "https://live.staticflickr.com/65535/50024316381_c5cb16341f_n.jpg",
    "id_album": "46520366",
    "description": "Turtle_451105",
    "title": "Turtle_451105",
    "link_img": "https://live.staticflickr.com/65535/50024316381_22189c0a7c_o.jpg",
    "id_image": "Turtle_451105",
    "count_view": 0
  },
  {
    "link_thumb": "https://live.staticflickr.com/65535/50023473477_f56a9bd6c8_n.jpg",
    "id_album": "332874268",
    "description": "RedPanda_635026",
    "title": "RedPanda_635026",
    "link_img": "https://live.staticflickr.com/65535/50023473477_c0ce0bb9fb_o.jpg",
    "id_image": "RedPanda_635026",
    "count_view": 0
  },
  {
    "link_thumb": "https://live.staticflickr.com/65535/50020270908_35dc563481_n.jpg",
    "id_album": "822895535",
    "description": "Falcon_233520",
    "title": "Falcon_233520",
    "link_img": "https://live.staticflickr.com/65535/50020270908_1126a273ab_o.jpg",
    "id_image": "Falcon_233520",
    "count_view": 0
  },
  {
    "link_thumb": "https://live.staticflickr.com/65535/50023529621_f083861f1f_n.jpg",
    "id_album": "-800019164",
    "description": "Snail_458271",
    "title": "Snail_458271",
    "link_img": "https://live.staticflickr.com/65535/50023529621_f286b85b86_o.jpg",
    "id_image": "Snail_458271",
    "count_view": 0
  },
  {
    "link_thumb": "https://live.staticflickr.com/65535/50023308028_09a61c1ed7_n.jpg",
    "id_album": "702283289",
    "description": "Squirrel_372147",
    "title": "Squirrel_372147",
    "link_img": "https://live.staticflickr.com/65535/50023308028_452df74563_o.jpg",
    "id_image": "Squirrel_372147",
    "count_view": 0
  },
  {
    "link_thumb": "https://live.staticflickr.com/65535/50017996511_90c409648c_n.jpg",
    "id_album": "-462831702",
    "description": "Cat_333651",
    "title": "Cat_333651",
    "link_img": "https://live.staticflickr.com/65535/50017996511_38167c226f_o.jpg",
    "id_image": "Cat_333651",
    "count_view": 0
  },
  {
    "link_thumb": "https://live.staticflickr.com/65535/50020180582_17b235d247_n.jpg",
    "id_album": "1273365283",
    "description": "Cute_276191",
    "title": "Cute_276191",
    "link_img": "https://live.staticflickr.com/65535/50020180582_72915be719_o.jpg",
    "id_image": "Cute_276191",
    "count_view": 0
  },
  {
    "link_thumb": "https://live.staticflickr.com/65535/50023016568_63b117d3fa_n.jpg",
    "id_album": "-1182356179",
    "description": "Snake_196111",
    "title": "Snake_196111",
    "link_img": "https://live.staticflickr.com/65535/50023016568_f125659333_o.jpg",
    "id_image": "Snake_196111",
    "count_view": 0
  },
  {
    "link_thumb": "https://live.staticflickr.com/65535/50021066833_5b54711880_n.jpg",
    "id_album": "2144294979",
    "description": "Hummingbird_402708",
    "title": "Hummingbird_402708",
    "link_img": "https://live.staticflickr.com/65535/50021066833_b08a8ffc29_o.jpg",
    "id_image": "Hummingbird_402708",
    "count_view": 0
  },
  {
    "link_thumb": "https://live.staticflickr.com/65535/50016373333_1b713397d1_n.jpg",
    "id_album": "523598895",
    "description": "Artistic_360516",
    "title": "Artistic_360516",
    "link_img": "https://live.staticflickr.com/65535/50016373333_802aecf79a_o.jpg",
    "id_image": "Artistic_360516",
    "count_view": 0
  },
  {
    "link_thumb": "https://live.staticflickr.com/65535/50019637651_cec2f9c5d4_n.jpg",
    "id_album": "-766919393",
    "description": "Chameleon_286526",
    "title": "Chameleon_286526",
    "link_img": "https://live.staticflickr.com/65535/50019637651_2f684cb235_o.jpg",
    "id_image": "Chameleon_286526",
    "count_view": 0
  },
  {
    "link_thumb": "https://live.staticflickr.com/65535/50021519457_7468a89282_n.jpg",
    "id_album": "-462831703",
    "description": "Cat_822954",
    "title": "Cat_822954",
    "link_img": "https://live.staticflickr.com/65535/50021519457_b3f92b0cb2_o.jpg",
    "id_image": "Cat_822954",
    "count_view": 0
  },
  {
    "link_thumb": "https://live.staticflickr.com/65535/50019560421_59abc59898_n.jpg",
    "id_album": "-462831703",
    "description": "Cat_986773",
    "title": "Cat_986773",
    "link_img": "https://live.staticflickr.com/65535/50019560421_555660d83c_o.jpg",
    "id_image": "Cat_986773",
    "count_view": 0
  },
  {
    "link_thumb": "https://live.staticflickr.com/65535/50017078321_2cc2633be9_n.jpg",
    "id_album": "-422187261",
    "description": "Bear_770870",
    "title": "Bear_770870",
    "link_img": "https://live.staticflickr.com/65535/50017078321_139e99c50b_o.jpg",
    "id_image": "Bear_770870",
    "count_view": 0
  },
  {
    "link_thumb": "https://live.staticflickr.com/65535/50022976901_10316f8321_n.jpg",
    "id_album": "-353898617",
    "description": "Puppy_367026",
    "title": "Puppy_367026",
    "link_img": "https://live.staticflickr.com/65535/50022976901_8d22402faf_o.jpg",
    "id_image": "Puppy_367026",
    "count_view": 0
  },
  {
    "link_thumb": "https://live.staticflickr.com/65535/50016991463_24f6c91c43_n.jpg",
    "id_album": "1696155652",
    "description": "Boxer_427205",
    "title": "Boxer_427205",
    "link_img": "https://live.staticflickr.com/65535/50016991463_e560fb1523_o.jpg",
    "id_image": "Boxer_427205",
    "count_view": 0
  },
  {
    "link_thumb": "https://live.staticflickr.com/65535/50021604627_6212acdfc9_n.jpg",
    "id_album": "2060159334",
    "description": "GoldenRetriever_572309",
    "title": "GoldenRetriever_572309",
    "link_img": "https://live.staticflickr.com/65535/50021604627_beeeaae8d3_o.jpg",
    "id_image": "GoldenRetriever_572309",
    "count_view": 0
  },
  {
    "link_thumb": "https://live.staticflickr.com/65535/50019417008_7dde9455ce_n.jpg",
    "id_album": "1273365283",
    "description": "Cute_86889",
    "title": "Cute_86889",
    "link_img": "https://live.staticflickr.com/65535/50019417008_0aed929f25_o.jpg",
    "id_image": "Cute_86889",
    "count_view": 0
  },
  {
    "link_thumb": "https://live.staticflickr.com/65535/50020451792_e395e58573_n.jpg",
    "id_album": "-149330232",
    "description": "Dog_264017",
    "title": "Dog_264017",
    "link_img": "https://live.staticflickr.com/65535/50020451792_af0b21f015_o.jpg",
    "id_image": "Dog_264017",
    "count_view": 0
  },
  {
    "link_thumb": "https://live.staticflickr.com/65535/50022071616_99b2f3922b_n.jpg",
    "id_album": "416744915",
    "description": "Lion_868338",
    "title": "Lion_868338",
    "link_img": "https://live.staticflickr.com/65535/50022071616_b10ef76ffd_o.jpg",
    "id_image": "Lion_868338",
    "count_view": 0
  },
  {
    "link_thumb": "https://live.staticflickr.com/65535/50017901687_0d24bb9481_n.jpg",
    "id_album": "-401151552",
    "description": "Butterfly_680715",
    "title": "Butterfly_680715",
    "link_img": "https://live.staticflickr.com/65535/50017901687_1b9267baea_o.jpg",
    "id_image": "Butterfly_680715",
    "count_view": 0
  },
  {
    "link_thumb": "https://live.staticflickr.com/65535/50021009846_1f9fd45411_n.jpg",
    "id_album": "-128218148",
    "description": "Fox_829906",
    "title": "Fox_829906",
    "link_img": "https://live.staticflickr.com/65535/50021009846_14b68ef790_o.jpg",
    "id_image": "Fox_829906",
    "count_view": 0
  },
  {
    "link_thumb": "https://live.staticflickr.com/65535/50018841248_ac5da8e3fc_n.jpg",
    "id_album": "-462831703",
    "description": "Cat_875432",
    "title": "Cat_875432",
    "link_img": "https://live.staticflickr.com/65535/50018841248_ddd98232e3_o.jpg",
    "id_image": "Cat_875432",
    "count_view": 0
  },
  {
    "link_thumb": "https://live.staticflickr.com/65535/50017174502_6c6e62bf3f_n.jpg",
    "id_album": "523598895",
    "description": "Artistic_699388",
    "title": "Artistic_699388",
    "link_img": "https://live.staticflickr.com/65535/50017174502_78d135eb6c_o.jpg",
    "id_image": "Artistic_699388",
    "count_view": 0
  },
  {
    "link_thumb": "https://live.staticflickr.com/65535/50017215662_0ff9a05a81_n.jpg",
    "id_album": "231236068",
    "description": "BaldEagle_366951",
    "title": "BaldEagle_366951",
    "link_img": "https://live.staticflickr.com/65535/50017215662_7401d97938_o.jpg",
    "id_image": "BaldEagle_366951",
    "count_view": 0
  },
  {
    "link_thumb": "https://live.staticflickr.com/65535/50020318846_f4eab24eaa_n.jpg",
    "id_album": "-149330232",
    "description": "Dog_360439",
    "title": "Dog_360439",
    "link_img": "https://live.staticflickr.com/65535/50020318846_c6f00d45aa_o.jpg",
    "id_image": "Dog_360439",
    "count_view": 0
  },
  {
    "link_thumb": "https://live.staticflickr.com/65535/50018328942_b859ed8847_n.jpg",
    "id_album": "-462831702",
    "description": "Cat_364309",
    "title": "Cat_364309",
    "link_img": "https://live.staticflickr.com/65535/50018328942_28574e5fae_o.jpg",
    "id_image": "Cat_364309",
    "count_view": 0
  },
  {
    "link_thumb": "https://live.staticflickr.com/65535/50019246176_d3343a13f8_n.jpg",
    "id_album": "-462831704",
    "description": "Cat_478874",
    "title": "Cat_478874",
    "link_img": "https://live.staticflickr.com/65535/50019246176_1049a07173_o.jpg",
    "id_image": "Cat_478874",
    "count_view": 0
  },
  {
    "link_thumb": "https://live.staticflickr.com/65535/50022217782_1b1dc0daf3_n.jpg",
    "id_album": "1392348450",
    "description": "Leopard_935251",
    "title": "Leopard_935251",
    "link_img": "https://live.staticflickr.com/65535/50022217782_b0c2dbdbc4_o.jpg",
    "id_image": "Leopard_935251",
    "count_view": 0
  },
  {
    "link_thumb": "https://live.staticflickr.com/65535/50352567272_59cbb706ca_n.jpg",
    "id_album": "-462831703",
    "description": "Cat_174327",
    "title": "Cat_174327",
    "link_img": "https://live.staticflickr.com/65535/50352567272_dc143100a5_o.jpg",
    "id_image": "Cat_174327",
    "count_view": 0
  },
  {
    "link_thumb": "https://live.staticflickr.com/65535/50017748607_8b60d9f608_n.jpg",
    "id_album": "782930701",
    "description": "BorderCollie_705489",
    "title": "BorderCollie_705489",
    "link_img": "https://live.staticflickr.com/65535/50017748607_fda237632b_o.jpg",
    "id_image": "BorderCollie_705489",
    "count_view": 0
  },
  {
    "link_thumb": "https://live.staticflickr.com/65535/50021229573_767cc7424a_n.jpg",
    "id_album": "1562047127",
    "description": "Jellyfish_688027",
    "title": "Jellyfish_688027",
    "link_img": "https://live.staticflickr.com/65535/50021229573_1871369f87_o.jpg",
    "id_image": "Jellyfish_688027",
    "count_view": 0
  },
  {
    "link_thumb": "https://live.staticflickr.com/65535/50022041873_b5edc5bb38_n.jpg",
    "id_album": "-801414987",
    "description": "Peacock_260620",
    "title": "Peacock_260620",
    "link_img": "https://live.staticflickr.com/65535/50022041873_efc53467eb_o.jpg",
    "id_image": "Peacock_260620",
    "count_view": 0
  },
  {
    "link_thumb": "https://live.staticflickr.com/65535/50017080386_72e28b2793_n.jpg",
    "id_album": "-422187261",
    "description": "Bear_782385",
    "title": "Bear_782385",
    "link_img": "https://live.staticflickr.com/65535/50017080386_8ac143cb58_o.jpg",
    "id_image": "Bear_782385",
    "count_view": 0
  },
  {
    "link_thumb": "https://live.staticflickr.com/65535/50023424731_a95dbf0e0f_n.jpg",
    "id_album": "1961094930",
    "description": "Seal_885076",
    "title": "Seal_885076",
    "link_img": "https://live.staticflickr.com/65535/50023424731_b49090f57a_o.jpg",
    "id_image": "Seal_885076",
    "count_view": 0
  },
  {
    "link_thumb": "https://live.staticflickr.com/65535/50021292763_b23b4b741f_n.jpg",
    "id_album": "1307335982",
    "description": "LabradorRetriever_875245",
    "title": "LabradorRetriever_875245",
    "link_img": "https://live.staticflickr.com/65535/50021292763_b6ee33534d_o.jpg",
    "id_image": "LabradorRetriever_875245",
    "count_view": 0
  },
  {
    "link_thumb": "https://live.staticflickr.com/65535/50017163438_1165cbcec4_n.jpg",
    "id_album": "-401151552",
    "description": "Butterfly_903462",
    "title": "Butterfly_903462",
    "link_img": "https://live.staticflickr.com/65535/50017163438_63d864d87e_o.jpg",
    "id_image": "Butterfly_903462",
    "count_view": 0
  },
  {
    "link_thumb": "https://live.staticflickr.com/65535/50022125747_2795f14676_n.jpg",
    "id_album": "-1882491687",
    "description": "Ladybug_986073",
    "title": "Ladybug_986073",
    "link_img": "https://live.staticflickr.com/65535/50022125747_b1e23a5d96_o.jpg",
    "id_image": "Ladybug_986073",
    "count_view": 0
  },
  {
    "link_thumb": "https://live.staticflickr.com/65535/50019425446_6bb4370c15_n.jpg",
    "id_album": "-462831703",
    "description": "Cat_904900",
    "title": "Cat_904900",
    "link_img": "https://live.staticflickr.com/65535/50019425446_827cc1fe8a_o.jpg",
    "id_image": "Cat_904900",
    "count_view": 0
  },
  {
    "link_thumb": "https://live.staticflickr.com/65535/50021420392_eb83d8c4aa_n.jpg",
    "id_album": "-462831704",
    "description": "Cat_684649",
    "title": "Cat_684649",
    "link_img": "https://live.staticflickr.com/65535/50021420392_067d7856b8_o.jpg",
    "id_image": "Cat_684649",
    "count_view": 0
  },
  {
    "link_thumb": "https://live.staticflickr.com/65535/50024083312_1d410c1c45_n.jpg",
    "id_album": "702283289",
    "description": "Squirrel_323654",
    "title": "Squirrel_323654",
    "link_img": "https://live.staticflickr.com/65535/50024083312_2cf985e45e_o.jpg",
    "id_image": "Squirrel_323654",
    "count_view": 0
  },
  {
    "link_thumb": "https://live.staticflickr.com/65535/50017428842_90d4875c65_n.jpg",
    "id_album": "1699594607",
    "description": "Bee_926244",
    "title": "Bee_926244",
    "link_img": "https://live.staticflickr.com/65535/50017428842_f3228ee48b_o.jpg",
    "id_image": "Bee_926244",
    "count_view": 0
  },
  {
    "link_thumb": "https://live.staticflickr.com/65535/50021655313_b3a6791d2b_n.jpg",
    "id_album": "-784970094",
    "description": "Monkey_258367",
    "title": "Monkey_258367",
    "link_img": "https://live.staticflickr.com/65535/50021655313_771f6a670e_o.jpg",
    "id_image": "Monkey_258367",
    "count_view": 0
  },
  {
    "link_thumb": "https://live.staticflickr.com/65535/50020728426_e9a636056b_n.jpg",
    "id_album": "1270947998",
    "description": "Elephant_105857",
    "title": "Elephant_105857",
    "link_img": "https://live.staticflickr.com/65535/50020728426_e6fd2d4da5_o.jpg",
    "id_image": "Elephant_105857",
    "count_view": 0
  },
  {
    "link_thumb": "https://live.staticflickr.com/65535/50021707187_30ec773dd4_n.jpg",
    "id_album": "-362549635",
    "description": "Hippo_573038",
    "title": "Hippo_573038",
    "link_img": "https://live.staticflickr.com/65535/50021707187_91ce3e0334_o.jpg",
    "id_image": "Hippo_573038",
    "count_view": 0
  },
  {
    "link_thumb": "https://live.staticflickr.com/65535/50017056973_2f406d99a6_n.jpg",
    "id_album": "-401151552",
    "description": "Butterfly_398727",
    "title": "Butterfly_398727",
    "link_img": "https://live.staticflickr.com/65535/50017056973_40ea48b5d2_o.jpg",
    "id_image": "Butterfly_398727",
    "count_view": 0
  },
  {
    "link_thumb": "https://live.staticflickr.com/65535/50022411257_0685c38c77_n.jpg",
    "id_album": "1894617400",
    "description": "Lynx_535235",
    "title": "Lynx_535235",
    "link_img": "https://live.staticflickr.com/65535/50022411257_d0c2549915_o.jpg",
    "id_image": "Lynx_535235",
    "count_view": 0
  },
  {
    "link_thumb": "https://live.staticflickr.com/65535/50019470348_177d2930a6_n.jpg",
    "id_album": "1903411565",
    "description": "Deer_383189",
    "title": "Deer_383189",
    "link_img": "https://live.staticflickr.com/65535/50019470348_896170f8a7_o.jpg",
    "id_image": "Deer_383189",
    "count_view": 0
  },
  {
    "link_thumb": "https://live.staticflickr.com/65535/50020814582_0d5ff6a60f_n.jpg",
    "id_album": "-149330231",
    "description": "Dog_997003",
    "title": "Dog_997003",
    "link_img": "https://live.staticflickr.com/65535/50020814582_f640756549_o.jpg",
    "id_image": "Dog_997003",
    "count_view": 0
  },
  {
    "link_thumb": "https://live.staticflickr.com/65535/50018015656_4accff0c93_n.jpg",
    "id_album": "-462831702",
    "description": "Cat_342729",
    "title": "Cat_342729",
    "link_img": "https://live.staticflickr.com/65535/50018015656_d55a104f8b_o.jpg",
    "id_image": "Cat_342729",
    "count_view": 0
  },
  {
    "link_thumb": "https://live.staticflickr.com/65535/50017180517_cedc31693c_n.jpg",
    "id_album": "523598895",
    "description": "Artistic_827391",
    "title": "Artistic_827391",
    "link_img": "https://live.staticflickr.com/65535/50017180517_fd0a6c34bb_o.jpg",
    "id_image": "Artistic_827391",
    "count_view": 0
  },
  {
    "link_thumb": "https://live.staticflickr.com/65535/50021357151_94ff6086e4_n.jpg",
    "id_album": "2060159334",
    "description": "GoldenRetriever_748150",
    "title": "GoldenRetriever_748150",
    "link_img": "https://live.staticflickr.com/65535/50021357151_46a1f97078_o.jpg",
    "id_image": "GoldenRetriever_748150",
    "count_view": 0
  },
  {
    "link_thumb": "https://live.staticflickr.com/65535/50021329423_49f2cb752c_n.jpg",
    "id_album": "1918884325",
    "description": "Lemur_277043",
    "title": "Lemur_277043",
    "link_img": "https://live.staticflickr.com/65535/50021329423_d867ed0f59_o.jpg",
    "id_image": "Lemur_277043",
    "count_view": 0
  },
  {
    "link_thumb": "https://live.staticflickr.com/65535/50020165836_56dba07706_n.jpg",
    "id_album": "-149330232",
    "description": "Dog_231925",
    "title": "Dog_231925",
    "link_img": "https://live.staticflickr.com/65535/50020165836_358aee4763_o.jpg",
    "id_image": "Dog_231925",
    "count_view": 0
  },
  {
    "link_thumb": "https://live.staticflickr.com/65535/50019718492_ef585cd8ae_n.jpg",
    "id_album": "-462831705",
    "description": "Cat_91515",
    "title": "Cat_91515",
    "link_img": "https://live.staticflickr.com/65535/50019718492_6276d3d2f0_o.jpg",
    "id_image": "Cat_91515",
    "count_view": 0
  },
  {
    "link_thumb": "https://live.staticflickr.com/65535/50022072148_5ae7d3f672_n.jpg",
    "id_album": "1146438617",
    "description": "Pelican_188204",
    "title": "Pelican_188204",
    "link_img": "https://live.staticflickr.com/65535/50022072148_604afcd813_o.jpg",
    "id_image": "Pelican_188204",
    "count_view": 0
  },
  {
    "link_thumb": "https://live.staticflickr.com/65535/50019637597_4fd3195322_n.jpg",
    "id_album": "-462831703",
    "description": "Cat_878001",
    "title": "Cat_878001",
    "link_img": "https://live.staticflickr.com/65535/50019637597_33e3ae1864_o.jpg",
    "id_image": "Cat_878001",
    "count_view": 0
  },
  {
    "link_thumb": "https://live.staticflickr.com/65535/50023183788_de8867e104_n.jpg",
    "id_album": "-1082521515",
    "description": "Spider_329148",
    "title": "Spider_329148",
    "link_img": "https://live.staticflickr.com/65535/50023183788_37d1d03439_o.jpg",
    "id_image": "Spider_329148",
    "count_view": 0
  },
  {
    "link_thumb": "https://live.staticflickr.com/65535/50017152293_1071930298_n.jpg",
    "id_album": "-401151552",
    "description": "Butterfly_857977",
    "title": "Butterfly_857977",
    "link_img": "https://live.staticflickr.com/65535/50017152293_93c0fa3915_o.jpg",
    "id_image": "Butterfly_857977",
    "count_view": 0
  },
  {
    "link_thumb": "https://live.staticflickr.com/65535/50019190353_fedb0de224_n.jpg",
    "id_album": "-1481843714",
    "description": "Cheetah_608926",
    "title": "Cheetah_608926",
    "link_img": "https://live.staticflickr.com/65535/50019190353_ca942a4549_o.jpg",
    "id_image": "Cheetah_608926",
    "count_view": 0
  },
  {
    "link_thumb": "https://live.staticflickr.com/65535/50020227388_df14c42c5f_n.jpg",
    "id_album": "1270947998",
    "description": "Elephant_464210",
    "title": "Elephant_464210",
    "link_img": "https://live.staticflickr.com/65535/50020227388_ba98c1c1aa_o.jpg",
    "id_image": "Elephant_464210",
    "count_view": 0
  },
  {
    "link_thumb": "https://live.staticflickr.com/65535/50021413878_b4ff1c5e33_n.jpg",
    "id_album": "1392348450",
    "description": "Leopard_895518",
    "title": "Leopard_895518",
    "link_img": "https://live.staticflickr.com/65535/50021413878_60919dcf38_o.jpg",
    "id_image": "Leopard_895518",
    "count_view": 0
  },
  {
    "link_thumb": "https://live.staticflickr.com/65535/50020598291_4cc5f8e6cf_n.jpg",
    "id_album": "-1859457960",
    "description": "Dove_499474",
    "title": "Dove_499474",
    "link_img": "https://live.staticflickr.com/65535/50020598291_322e6fc853_o.jpg",
    "id_image": "Dove_499474",
    "count_view": 0
  },
  {
    "link_thumb": "https://live.staticflickr.com/65535/50017933641_8f84340316_n.jpg",
    "id_album": "-462831702",
    "description": "Cat_277251",
    "title": "Cat_277251",
    "link_img": "https://live.staticflickr.com/65535/50017933641_afa3757e7d_o.jpg",
    "id_image": "Cat_277251",
    "count_view": 0
  },
  {
    "link_thumb": "https://live.staticflickr.com/65535/50021241196_064902829e_n.jpg",
    "id_album": "-462831703",
    "description": "Cat_779282",
    "title": "Cat_779282",
    "link_img": "https://live.staticflickr.com/65535/50021241196_7b0f4cfd18_o.jpg",
    "id_image": "Cat_779282",
    "count_view": 0
  },
  {
    "link_thumb": "https://live.staticflickr.com/65535/50021172652_f31b8ac1d1_n.jpg",
    "id_album": "-1694105481",
    "description": "Fly_322596",
    "title": "Fly_322596",
    "link_img": "https://live.staticflickr.com/65535/50021172652_95188be85d_o.jpg",
    "id_image": "Fly_322596",
    "count_view": 0
  },
  {
    "link_thumb": "https://live.staticflickr.com/65535/50019265293_f4d1f9992a_n.jpg",
    "id_album": "-1462118852",
    "description": "Corgi_749240",
    "title": "Corgi_749240",
    "link_img": "https://live.staticflickr.com/65535/50019265293_276a016308_o.jpg",
    "id_image": "Corgi_749240",
    "count_view": 0
  },
  {
    "link_thumb": "https://live.staticflickr.com/65535/50019735872_818ee1f4e4_n.jpg",
    "id_album": "-462831703",
    "description": "Cat_928532",
    "title": "Cat_928532",
    "link_img": "https://live.staticflickr.com/65535/50019735872_a3857ebd50_o.jpg",
    "id_image": "Cat_928532",
    "count_view": 0
  },
  {
    "link_thumb": "https://live.staticflickr.com/65535/50017618621_96356382e7_n.jpg",
    "id_album": "-401151552",
    "description": "Butterfly_521164",
    "title": "Butterfly_521164",
    "link_img": "https://live.staticflickr.com/65535/50017618621_2f80576c88_o.jpg",
    "id_image": "Butterfly_521164",
    "count_view": 0
  },
  {
    "link_thumb": "https://live.staticflickr.com/65535/50023362471_a7156000a5_n.jpg",
    "id_album": "1656131695",
    "description": "Seagull_407888",
    "title": "Seagull_407888",
    "link_img": "https://live.staticflickr.com/65535/50023362471_07c03b1e3a_o.jpg",
    "id_image": "Seagull_407888",
    "count_view": 0
  },
  {
    "link_thumb": "https://live.staticflickr.com/65535/50021643238_28071fa49e_n.jpg",
    "id_album": "-1720012921",
    "description": "Meerkat_415172",
    "title": "Meerkat_415172",
    "link_img": "https://live.staticflickr.com/65535/50021643238_de42c1889b_o.jpg",
    "id_image": "Meerkat_415172",
    "count_view": 0
  },
  {
    "link_thumb": "https://live.staticflickr.com/65535/50019967833_f3cc175c66_n.jpg",
    "id_album": "-149330231",
    "description": "Dog_735510",
    "title": "Dog_735510",
    "link_img": "https://live.staticflickr.com/65535/50019967833_b06825c777_o.jpg",
    "id_image": "Dog_735510",
    "count_view": 0
  },
  {
    "link_thumb": "https://live.staticflickr.com/65535/50021840643_08ac58166d_n.jpg",
    "id_album": "-1384601601",
    "description": "Owl_272220",
    "title": "Owl_272220",
    "link_img": "https://live.staticflickr.com/65535/50021840643_9877e4f917_o.jpg",
    "id_image": "Owl_272220",
    "count_view": 0
  },
  {
    "link_thumb": "https://live.staticflickr.com/65535/50021656933_99a8f00f37_n.jpg",
    "id_album": "-784970094",
    "description": "Monkey_311174",
    "title": "Monkey_311174",
    "link_img": "https://live.staticflickr.com/65535/50021656933_0fe486c54e_o.jpg",
    "id_image": "Monkey_311174",
    "count_view": 0
  },
  {
    "link_thumb": "https://live.staticflickr.com/65535/50019906808_a6de47c9b1_n.jpg",
    "id_album": "-149330231",
    "description": "Dog_492715",
    "title": "Dog_492715",
    "link_img": "https://live.staticflickr.com/65535/50019906808_199ac8662c_o.jpg",
    "id_image": "Dog_492715",
    "count_view": 0
  },
  {
    "link_thumb": "https://live.staticflickr.com/65535/50021586032_5470a64a4a_n.jpg",
    "id_album": "713572662",
    "description": "Giraffe_739178",
    "title": "Giraffe_739178",
    "link_img": "https://live.staticflickr.com/65535/50021586032_9543a8bdef_o.jpg",
    "id_image": "Giraffe_739178",
    "count_view": 0
  },
  {
    "link_thumb": "https://live.staticflickr.com/65535/50021760231_54134d8c3a_n.jpg",
    "id_album": "1562047127",
    "description": "Jellyfish_20403",
    "title": "Jellyfish_20403",
    "link_img": "https://live.staticflickr.com/65535/50021760231_85b91dd5ff_o.jpg",
    "id_image": "Jellyfish_20403",
    "count_view": 0
  },
  {
    "link_thumb": "https://live.staticflickr.com/65535/50016622303_08532699ef_n.jpg",
    "id_album": "1699594607",
    "description": "Bee_577968",
    "title": "Bee_577968",
    "link_img": "https://live.staticflickr.com/65535/50016622303_651c000f26_o.jpg",
    "id_image": "Bee_577968",
    "count_view": 0
  },
  {
    "link_thumb": "https://live.staticflickr.com/65535/50021993476_9a3dd1849d_n.jpg",
    "id_album": "416744915",
    "description": "Lion_348713",
    "title": "Lion_348713",
    "link_img": "https://live.staticflickr.com/65535/50021993476_fdeff597e6_o.jpg",
    "id_image": "Lion_348713",
    "count_view": 0
  },
  {
    "link_thumb": "https://live.staticflickr.com/65535/50020782317_705bbaeea2_n.jpg",
    "id_album": "-149330231",
    "description": "Dog_860391",
    "title": "Dog_860391",
    "link_img": "https://live.staticflickr.com/65535/50020782317_011d3b3100_o.jpg",
    "id_image": "Dog_860391",
    "count_view": 0
  },
  {
    "link_thumb": "https://live.staticflickr.com/65535/50023441982_b4cd5e901c_n.jpg",
    "id_album": "-1862965835",
    "description": "RedEyedTreeFrog_133046",
    "title": "RedEyedTreeFrog_133046",
    "link_img": "https://live.staticflickr.com/65535/50023441982_73a2179dd9_o.jpg",
    "id_image": "RedEyedTreeFrog_133046",
    "count_view": 0
  },
  {
    "link_thumb": "https://live.staticflickr.com/65535/50020519468_783a63989e_n.jpg",
    "id_album": "844170697",
    "description": "Frog_410293",
    "title": "Frog_410293",
    "link_img": "https://live.staticflickr.com/65535/50020519468_893393347b_o.jpg",
    "id_image": "Frog_410293",
    "count_view": 0
  },
  {
    "link_thumb": "https://live.staticflickr.com/65535/50020113933_661342b37d_n.jpg",
    "id_album": "1168627767",
    "description": "Duck_236094",
    "title": "Duck_236094",
    "link_img": "https://live.staticflickr.com/65535/50020113933_3d38ae4b25_o.jpg",
    "id_image": "Duck_236094",
    "count_view": 0
  },
  {
    "link_thumb": "https://live.staticflickr.com/65535/50018120351_66da59b326_n.jpg",
    "id_album": "-462831702",
    "description": "Cat_389944",
    "title": "Cat_389944",
    "link_img": "https://live.staticflickr.com/65535/50018120351_40181c4122_o.jpg",
    "id_image": "Cat_389944",
    "count_view": 0
  },
  {
    "link_thumb": "https://live.staticflickr.com/65535/50019789523_3d11b2a761_n.jpg",
    "id_album": "-149330232",
    "description": "Dog_363169",
    "title": "Dog_363169",
    "link_img": "https://live.staticflickr.com/65535/50019789523_fe058c9636_o.jpg",
    "id_image": "Dog_363169",
    "count_view": 0
  },
  {
    "link_thumb": "https://live.staticflickr.com/65535/50021228036_e4b09f6a4d_n.jpg",
    "id_album": "-462831703",
    "description": "Cat_749004",
    "title": "Cat_749004",
    "link_img": "https://live.staticflickr.com/65535/50021228036_3265753845_o.jpg",
    "id_image": "Cat_749004",
    "count_view": 0
  },
  {
    "link_thumb": "https://live.staticflickr.com/65535/50023801653_386b126769_n.jpg",
    "id_album": "410750612",
    "description": "Wasp_926262",
    "title": "Wasp_926262",
    "link_img": "https://live.staticflickr.com/65535/50023801653_272b2e128a_o.jpg",
    "id_image": "Wasp_926262",
    "count_view": 0
  },
  {
    "link_thumb": "https://live.staticflickr.com/65535/50017380453_2c72837332_n.jpg",
    "id_album": "-462831705",
    "description": "Cat_254786",
    "title": "Cat_254786",
    "link_img": "https://live.staticflickr.com/65535/50017380453_661ccf2e04_o.jpg",
    "id_image": "Cat_254786",
    "count_view": 0
  },
  {
    "link_thumb": "https://live.staticflickr.com/65535/50022788416_d7386c4566_n.jpg",
    "id_album": "1008910300",
    "description": "PolarBear_234620",
    "title": "PolarBear_234620",
    "link_img": "https://live.staticflickr.com/65535/50022788416_5d1e11a5ec_o.jpg",
    "id_image": "PolarBear_234620",
    "count_view": 0
  },
  {
    "link_thumb": "https://live.staticflickr.com/65535/50021486861_9f7edf1843_n.jpg",
    "id_album": "-1933715543",
    "description": "Horse_324809",
    "title": "Horse_324809",
    "link_img": "https://live.staticflickr.com/65535/50021486861_806e34d112_o.jpg",
    "id_image": "Horse_324809",
    "count_view": 0
  },
  {
    "link_thumb": "https://live.staticflickr.com/65535/50019656923_c2ebb7e311_n.jpg",
    "id_album": "-149330232",
    "description": "Dog_260634",
    "title": "Dog_260634",
    "link_img": "https://live.staticflickr.com/65535/50019656923_ecdbcf39b2_o.jpg",
    "id_image": "Dog_260634",
    "count_view": 0
  },
  {
    "link_thumb": "https://live.staticflickr.com/65535/50017536597_770ec1a9e9_n.jpg",
    "id_album": "-1846011410",
    "description": "Bird_364789",
    "title": "Bird_364789",
    "link_img": "https://live.staticflickr.com/65535/50017536597_6ec61e20c8_o.jpg",
    "id_image": "Bird_364789",
    "count_view": 0
  },
  {
    "link_thumb": "https://live.staticflickr.com/65535/50021031271_1cc04e13cb_n.jpg",
    "id_album": "-128218148",
    "description": "Fox_967112",
    "title": "Fox_967112",
    "link_img": "https://live.staticflickr.com/65535/50021031271_daf46fe8bd_o.jpg",
    "id_image": "Fox_967112",
    "count_view": 0
  },
  {
    "link_thumb": "https://live.staticflickr.com/65535/50022228922_e67c3f59be_n.jpg",
    "id_album": "416744915",
    "description": "Lion_195745",
    "title": "Lion_195745",
    "link_img": "https://live.staticflickr.com/65535/50022228922_a0d4b911b5_o.jpg",
    "id_image": "Lion_195745",
    "count_view": 0
  },
  {
    "link_thumb": "https://live.staticflickr.com/65535/50017703157_e9e256d307_n.jpg",
    "id_album": "-1846011410",
    "description": "Bird_935572",
    "title": "Bird_935572",
    "link_img": "https://live.staticflickr.com/65535/50017703157_1061d0faa7_o.jpg",
    "id_image": "Bird_935572",
    "count_view": 0
  },
  {
    "link_thumb": "https://live.staticflickr.com/65535/50022861736_33da29a800_n.jpg",
    "id_album": "1008910300",
    "description": "PolarBear_796454",
    "title": "PolarBear_796454",
    "link_img": "https://live.staticflickr.com/65535/50022861736_68c9f50bd6_o.jpg",
    "id_image": "PolarBear_796454",
    "count_view": 0
  },
  {
    "link_thumb": "https://live.staticflickr.com/65535/50021658567_101260c9a8_n.jpg",
    "id_album": "-1168906494",
    "description": "Grasshopper_788532",
    "title": "Grasshopper_788532",
    "link_img": "https://live.staticflickr.com/65535/50021658567_0d351cc457_o.jpg",
    "id_image": "Grasshopper_788532",
    "count_view": 0
  },
  {
    "link_thumb": "https://live.staticflickr.com/65535/50017802342_3f243c8e4c_n.jpg",
    "id_album": "-401151552",
    "description": "Butterfly_184614",
    "title": "Butterfly_184614",
    "link_img": "https://live.staticflickr.com/65535/50017802342_0be60164ab_o.jpg",
    "id_image": "Butterfly_184614",
    "count_view": 0
  },
  {
    "link_thumb": "https://live.staticflickr.com/65535/50017664096_dbf9e44e96_n.jpg",
    "id_album": "-401151552",
    "description": "Butterfly_773051",
    "title": "Butterfly_773051",
    "link_img": "https://live.staticflickr.com/65535/50017664096_a1b91f4c39_o.jpg",
    "id_image": "Butterfly_773051",
    "count_view": 0
  },
  {
    "link_thumb": "https://live.staticflickr.com/65535/50023641962_9da4f0c5f9_n.jpg",
    "id_album": "1656131695",
    "description": "Seagull_679671",
    "title": "Seagull_679671",
    "link_img": "https://live.staticflickr.com/65535/50023641962_5cb535cc83_o.jpg",
    "id_image": "Seagull_679671",
    "count_view": 0
  },
  {
    "link_thumb": "https://live.staticflickr.com/65535/50023906467_d12470f0b2_n.jpg",
    "id_album": "-1131363127",
    "description": "SnowLeopard_424690",
    "title": "SnowLeopard_424690",
    "link_img": "https://live.staticflickr.com/65535/50023906467_b16bb70377_o.jpg",
    "id_image": "SnowLeopard_424690",
    "count_view": 0
  },
  {
    "link_thumb": "https://live.staticflickr.com/65535/50017384633_30e2d63d7c_n.jpg",
    "id_album": "-462831705",
    "description": "Cat_261317",
    "title": "Cat_261317",
    "link_img": "https://live.staticflickr.com/65535/50017384633_78d0aa5961_o.jpg",
    "id_image": "Cat_261317",
    "count_view": 0
  },
  {
    "link_thumb": "https://live.staticflickr.com/65535/50023034167_a4fabbdd7c_n.jpg",
    "id_album": "1008910300",
    "description": "PolarBear_116464",
    "title": "PolarBear_116464",
    "link_img": "https://live.staticflickr.com/65535/50023034167_14d528ae01_o.jpg",
    "id_image": "PolarBear_116464",
    "count_view": 0
  },
  {
    "link_thumb": "https://live.staticflickr.com/65535/50021343231_82cf0e3e44_n.jpg",
    "id_album": "-804131074",
    "description": "Goat_598397",
    "title": "Goat_598397",
    "link_img": "https://live.staticflickr.com/65535/50021343231_bda607278b_o.jpg",
    "id_image": "Goat_598397",
    "count_view": 0
  },
  {
    "link_thumb": "https://live.staticflickr.com/65535/50020548352_8b2fe7fe5e_n.jpg",
    "id_album": "-149330232",
    "description": "Dog_345927",
    "title": "Dog_345927",
    "link_img": "https://live.staticflickr.com/65535/50020548352_dd2977fc51_o.jpg",
    "id_image": "Dog_345927",
    "count_view": 0
  },
  {
    "link_thumb": "https://live.staticflickr.com/65535/50020860992_a91764303d_n.jpg",
    "id_album": "-405058657",
    "description": "Dragonfly_110149",
    "title": "Dragonfly_110149",
    "link_img": "https://live.staticflickr.com/65535/50020860992_1f24b60c1f_o.jpg",
    "id_image": "Dragonfly_110149",
    "count_view": 0
  },
  {
    "link_thumb": "https://live.staticflickr.com/65535/50023253127_c1a6c758c0_n.jpg",
    "id_album": "-353898617",
    "description": "Puppy_432800",
    "title": "Puppy_432800",
    "link_img": "https://live.staticflickr.com/65535/50023253127_b675ff5bf8_o.jpg",
    "id_image": "Puppy_432800",
    "count_view": 0
  },
  {
    "link_thumb": "https://live.staticflickr.com/65535/50351922683_560763bb90_n.jpg",
    "id_album": "-462831703",
    "description": "Cat_594828",
    "title": "Cat_594828",
    "link_img": "https://live.staticflickr.com/65535/50351922683_49cd6072ee_o.jpg",
    "id_image": "Cat_594828",
    "count_view": 0
  },
  {
    "link_thumb": "https://live.staticflickr.com/65535/50023608852_17a1620a2a_n.jpg",
    "id_album": "1656131695",
    "description": "Seagull_302333",
    "title": "Seagull_302333",
    "link_img": "https://live.staticflickr.com/65535/50023608852_06975ef168_o.jpg",
    "id_image": "Seagull_302333",
    "count_view": 0
  },
  {
    "link_thumb": "https://live.staticflickr.com/65535/50017985941_7473eb723b_n.jpg",
    "id_album": "-462831702",
    "description": "Cat_329026",
    "title": "Cat_329026",
    "link_img": "https://live.staticflickr.com/65535/50017985941_d6794d6d5d_o.jpg",
    "id_image": "Cat_329026",
    "count_view": 0
  },
  {
    "link_thumb": "https://live.staticflickr.com/65535/50352799842_b50211c3bc_n.jpg",
    "id_album": "-462831703",
    "description": "Cat_678050",
    "title": "Cat_678050",
    "link_img": "https://live.staticflickr.com/65535/50352799842_97c36cd74a_o.jpg",
    "id_image": "Cat_678050",
    "count_view": 0
  },
  {
    "link_thumb": "https://live.staticflickr.com/65535/50352681876_ae1aa4deec_n.jpg",
    "id_album": "-462831702",
    "description": "Cat_113545",
    "title": "Cat_113545",
    "link_img": "https://live.staticflickr.com/65535/50352681876_36490d0f95_o.jpg",
    "id_image": "Cat_113545",
    "count_view": 0
  },
  {
    "link_thumb": "https://live.staticflickr.com/65535/50017198763_95ac452901_n.jpg",
    "id_album": "-1131161368",
    "description": "Camel_412134",
    "title": "Camel_412134",
    "link_img": "https://live.staticflickr.com/65535/50017198763_4d1d883d58_o.jpg",
    "id_image": "Camel_412134",
    "count_view": 0
  },
  {
    "link_thumb": "https://live.staticflickr.com/65535/50017175326_15cae06dd7_n.jpg",
    "id_album": "172748811",
    "description": "Beeeater_752026",
    "title": "Beeeater_752026",
    "link_img": "https://live.staticflickr.com/65535/50017175326_09155acacb_o.jpg",
    "id_image": "Beeeater_752026",
    "count_view": 0
  },
  {
    "link_thumb": "https://live.staticflickr.com/65535/50022504031_1f2deb2fb1_n.jpg",
    "id_album": "-1384601601",
    "description": "Owl_935178",
    "title": "Owl_935178",
    "link_img": "https://live.staticflickr.com/65535/50022504031_fd108851d7_o.jpg",
    "id_image": "Owl_935178",
    "count_view": 0
  },
  {
    "link_thumb": "https://live.staticflickr.com/65535/50024118252_cb2587e3f0_n.jpg",
    "id_album": "702283289",
    "description": "Squirrel_396282",
    "title": "Squirrel_396282",
    "link_img": "https://live.staticflickr.com/65535/50024118252_79528a75a0_o.jpg",
    "id_image": "Squirrel_396282",
    "count_view": 0
  },
  {
    "link_thumb": "https://live.staticflickr.com/65535/50017451437_501292c4be_n.jpg",
    "id_album": "-1846011410",
    "description": "Bird_102090",
    "title": "Bird_102090",
    "link_img": "https://live.staticflickr.com/65535/50017451437_1839884f93_o.jpg",
    "id_image": "Bird_102090",
    "count_view": 0
  },
  {
    "link_thumb": "https://live.staticflickr.com/65535/50017610528_43e8295ebb_n.jpg",
    "id_album": "-462831702",
    "description": "Cat_399852",
    "title": "Cat_399852",
    "link_img": "https://live.staticflickr.com/65535/50017610528_139748c7f2_o.jpg",
    "id_image": "Cat_399852",
    "count_view": 0
  },
  {
    "link_thumb": "https://live.staticflickr.com/65535/50017179741_e5599329cc_n.jpg",
    "id_album": "325287329",
    "description": "Beetle_24259",
    "title": "Beetle_24259",
    "link_img": "https://live.staticflickr.com/65535/50017179741_5ac014b071_o.jpg",
    "id_image": "Beetle_24259",
    "count_view": 0
  },
  {
    "link_thumb": "https://live.staticflickr.com/65535/50022469863_99ab76ea27_n.jpg",
    "id_album": "-353898617",
    "description": "Puppy_528608",
    "title": "Puppy_528608",
    "link_img": "https://live.staticflickr.com/65535/50022469863_85a467fa13_o.jpg",
    "id_image": "Puppy_528608",
    "count_view": 0
  },
  {
    "link_thumb": "https://live.staticflickr.com/65535/50016300688_437d36b547_n.jpg",
    "id_album": "-229810103",
    "description": "AmericanBison_981029",
    "title": "AmericanBison_981029",
    "link_img": "https://live.staticflickr.com/65535/50016300688_1f16ceed25_o.jpg",
    "id_image": "AmericanBison_981029",
    "count_view": 0
  },
  {
    "link_thumb": "https://live.staticflickr.com/65535/50022771698_c75b4a17e7_n.jpg",
    "id_album": "1926701726",
    "description": "Robin_712662",
    "title": "Robin_712662",
    "link_img": "https://live.staticflickr.com/65535/50022771698_a6ebf86d0b_o.jpg",
    "id_image": "Robin_712662",
    "count_view": 0
  },
  {
    "link_thumb": "https://live.staticflickr.com/65535/50018641578_ef18d23703_n.jpg",
    "id_album": "-462831702",
    "description": "Cat_426167",
    "title": "Cat_426167",
    "link_img": "https://live.staticflickr.com/65535/50018641578_fbf2e96226_o.jpg",
    "id_image": "Cat_426167",
    "count_view": 0
  },
  {
    "link_thumb": "https://live.staticflickr.com/65535/50016992066_3b96010c59_n.jpg",
    "id_album": "809937717",
    "description": "Beagle_686682",
    "title": "Beagle_686682",
    "link_img": "https://live.staticflickr.com/65535/50016992066_07b1d6bdd8_o.jpg",
    "id_image": "Beagle_686682",
    "count_view": 0
  },
  {
    "link_thumb": "https://live.staticflickr.com/65535/50352491376_dbb3b168ab_n.jpg",
    "id_album": "-462831703",
    "description": "Cat_393921",
    "title": "Cat_393921",
    "link_img": "https://live.staticflickr.com/65535/50352491376_dfe4532e02_o.jpg",
    "id_image": "Cat_393921",
    "count_view": 0
  },
  {
    "link_thumb": "https://live.staticflickr.com/65535/50021902746_71b2d5d1da_n.jpg",
    "id_album": "1392348450",
    "description": "Leopard_352236",
    "title": "Leopard_352236",
    "link_img": "https://live.staticflickr.com/65535/50021902746_c228d5219a_o.jpg",
    "id_image": "Leopard_352236",
    "count_view": 0
  },
  {
    "link_thumb": "https://live.staticflickr.com/65535/50024303737_05aa728e3b_n.jpg",
    "id_album": "405170427",
    "description": "Tiger_236807",
    "title": "Tiger_236807",
    "link_img": "https://live.staticflickr.com/65535/50024303737_c740435f94_o.jpg",
    "id_image": "Tiger_236807",
    "count_view": 0
  },
  {
    "link_thumb": "https://live.staticflickr.com/65535/50019822571_de36ca529a_n.jpg",
    "id_album": "-1868680171",
    "description": "Cougar_570430",
    "title": "Cougar_570430",
    "link_img": "https://live.staticflickr.com/65535/50019822571_3c8d257da5_o.jpg",
    "id_image": "Cougar_570430",
    "count_view": 0
  },
  {
    "link_thumb": "https://live.staticflickr.com/65535/50018094761_b2c4135171_n.jpg",
    "id_album": "-462831702",
    "description": "Cat_372143",
    "title": "Cat_372143",
    "link_img": "https://live.staticflickr.com/65535/50018094761_46b9ab7203_o.jpg",
    "id_image": "Cat_372143",
    "count_view": 0
  },
  {
    "link_thumb": "https://live.staticflickr.com/65535/50018118716_fb90d08f07_n.jpg",
    "id_album": "-462831702",
    "description": "Cat_387458",
    "title": "Cat_387458",
    "link_img": "https://live.staticflickr.com/65535/50018118716_232048b53e_o.jpg",
    "id_image": "Cat_387458",
    "count_view": 0
  },
  {
    "link_thumb": "https://live.staticflickr.com/65535/50019451081_4fba475209_n.jpg",
    "id_album": "-462831703",
    "description": "Cat_913950",
    "title": "Cat_913950",
    "link_img": "https://live.staticflickr.com/65535/50019451081_d6e2882980_o.jpg",
    "id_image": "Cat_913950",
    "count_view": 0
  },
  {
    "link_thumb": "https://live.staticflickr.com/65535/50022021877_9a4ee5c228_n.jpg",
    "id_album": "1562047127",
    "description": "Jellyfish_581448",
    "title": "Jellyfish_581448",
    "link_img": "https://live.staticflickr.com/65535/50022021877_38f3928f1b_o.jpg",
    "id_image": "Jellyfish_581448",
    "count_view": 0
  },
  {
    "link_thumb": "https://live.staticflickr.com/65535/50020483143_371a6657ba_n.jpg",
    "id_album": "-128218148",
    "description": "Fox_921763",
    "title": "Fox_921763",
    "link_img": "https://live.staticflickr.com/65535/50020483143_3a86ed776b_o.jpg",
    "id_image": "Fox_921763",
    "count_view": 0
  },
  {
    "link_thumb": "https://live.staticflickr.com/65535/50021575952_77ab0b1d84_n.jpg",
    "id_album": "713572662",
    "description": "Giraffe_361534",
    "title": "Giraffe_361534",
    "link_img": "https://live.staticflickr.com/65535/50021575952_5358be457b_o.jpg",
    "id_image": "Giraffe_361534",
    "count_view": 0
  },
  {
    "link_thumb": "https://live.staticflickr.com/65535/50017701362_4081c30246_n.jpg",
    "id_album": "-1846011410",
    "description": "Bird_922662",
    "title": "Bird_922662",
    "link_img": "https://live.staticflickr.com/65535/50017701362_3aa95d63e8_o.jpg",
    "id_image": "Bird_922662",
    "count_view": 0
  },
  {
    "link_thumb": "https://live.staticflickr.com/65535/50022061082_7d1f76ebd4_n.jpg",
    "id_album": "770105808",
    "description": "Kingfisher_597437",
    "title": "Kingfisher_597437",
    "link_img": "https://live.staticflickr.com/65535/50022061082_526bc01bfc_o.jpg",
    "id_image": "Kingfisher_597437",
    "count_view": 0
  },
  {
    "link_thumb": "https://live.staticflickr.com/65535/50017742636_2386f4dd82_n.jpg",
    "id_album": "-462831703",
    "description": "Cat_1002465",
    "title": "Cat_1002465",
    "link_img": "https://live.staticflickr.com/65535/50017742636_247cf22b27_o.jpg",
    "id_image": "Cat_1002465",
    "count_view": 0
  },
  {
    "link_thumb": "https://live.staticflickr.com/65535/50020143991_d8e8f7d765_n.jpg",
    "id_album": "-149330232",
    "description": "Dog_197406",
    "title": "Dog_197406",
    "link_img": "https://live.staticflickr.com/65535/50020143991_a3a9c0f0e1_o.jpg",
    "id_image": "Dog_197406",
    "count_view": 0
  },
  {
    "link_thumb": "https://live.staticflickr.com/65535/50021608908_2a1926f28e_n.jpg",
    "id_album": "1894617400",
    "description": "Lynx_531489",
    "title": "Lynx_531489",
    "link_img": "https://live.staticflickr.com/65535/50021608908_8a2f647047_o.jpg",
    "id_image": "Lynx_531489",
    "count_view": 0
  },
  {
    "link_thumb": "https://live.staticflickr.com/65535/50019653211_057c1affbc_n.jpg",
    "id_album": "-766919393",
    "description": "Chameleon_489571",
    "title": "Chameleon_489571",
    "link_img": "https://live.staticflickr.com/65535/50019653211_f6082354d4_o.jpg",
    "id_image": "Chameleon_489571",
    "count_view": 0
  },
  {
    "link_thumb": "https://live.staticflickr.com/65535/50017461008_766b54c21a_n.jpg",
    "id_album": "-462831702",
    "description": "Cat_330504",
    "title": "Cat_330504",
    "link_img": "https://live.staticflickr.com/65535/50017461008_b530fcab81_o.jpg",
    "id_image": "Cat_330504",
    "count_view": 0
  }
]