[
  {
    "link_thumb": "https://live.staticflickr.com/65535/50018153832_469f92c154_n.jpg",
    "id_album": "-462831705",
    "description": "Cat_239666",
    "title": "Cat_239666",
    "link_img": "https://live.staticflickr.com/65535/50018153832_324e94b570_o.jpg",
    "id_image": "Cat_239666",
    "count_view": 0
  },
  {
    "link_thumb": "https://live.staticflickr.com/65535/50018808043_c8df8b50c5_n.jpg",
    "id_album": "-462831703",
    "description": "Cat_864029",
    "title": "Cat_864029",
    "link_img": "https://live.staticflickr.com/65535/50018808043_a5fecf8149_o.jpg",
    "id_image": "Cat_864029",
    "count_view": 0
  },
  {
    "link_thumb": "https://live.staticflickr.com/65535/50020168503_83ab3ab5db_n.jpg",
    "id_album": "-39098563",
    "description": "Eagle_388516",
    "title": "Eagle_388516",
    "link_img": "https://live.staticflickr.com/65535/50020168503_e82f2feb79_o.jpg",
    "id_image": "Eagle_388516",
    "count_view": 0
  },
  {
    "link_thumb": "https://live.staticflickr.com/65535/50020282676_f9be9f8844_n.jpg",
    "id_album": "-149330232",
    "description": "Dog_342667",
    "title": "Dog_342667",
    "link_img": "https://live.staticflickr.com/65535/50020282676_e571c0ae8b_o.jpg",
    "id_image": "Dog_342667",
    "count_view": 0
  },
  {
    "link_thumb": "https://live.staticflickr.com/65535/50021510917_3c5ca55187_n.jpg",
    "id_album": "-462831703",
    "description": "Cat_802540",
    "title": "Cat_802540",
    "link_img": "https://live.staticflickr.com/65535/50021510917_f386a4b0b6_o.jpg",
    "id_image": "Cat_802540",
    "count_view": 0
  },
  {
    "link_thumb": "https://live.staticflickr.com/65535/50018214087_a965049af3_n.jpg",
    "id_album": "-462831702",
    "description": "Cat_309960",
    "title": "Cat_309960",
    "link_img": "https://live.staticflickr.com/65535/50018214087_74e6646dfe_o.jpg",
    "id_image": "Cat_309960",
    "count_view": 0
  },
  {
    "link_thumb": "https://live.staticflickr.com/65535/50352603797_8b82a7fac6_n.jpg",
    "id_album": "-462831703",
    "description": "Cat_255427",
    "title": "Cat_255427",
    "link_img": "https://live.staticflickr.com/65535/50352603797_5ac8a684de_o.jpg",
    "id_image": "Cat_255427",
    "count_view": 0
  },
  {
    "link_thumb": "https://live.staticflickr.com/65535/50021161856_19a2592152_n.jpg",
    "id_album": "-462831704",
    "description": "Cat_677061",
    "title": "Cat_677061",
    "link_img": "https://live.staticflickr.com/65535/50021161856_5dd42a6164_o.jpg",
    "id_image": "Cat_677061",
    "count_view": 0
  },
  {
    "link_thumb": "https://live.staticflickr.com/65535/50023468802_b1663b6e91_n.jpg",
    "id_album": "332874268",
    "description": "RedPanda_421962",
    "title": "RedPanda_421962",
    "link_img": "https://live.staticflickr.com/65535/50023468802_9b464cc585_o.jpg",
    "id_image": "RedPanda_421962",
    "count_view": 0
  },
  {
    "link_thumb": "https://live.staticflickr.com/65535/50023078841_f925d15988_n.jpg",
    "id_album": "470794721",
    "description": "Python_451677",
    "title": "Python_451677",
    "link_img": "https://live.staticflickr.com/65535/50023078841_5f6549d3b3_o.jpg",
    "id_image": "Python_451677",
    "count_view": 0
  },
  {
    "link_thumb": "https://live.staticflickr.com/65535/50021152696_35f666e6e0_n.jpg",
    "id_album": "-462831704",
    "description": "Cat_655407",
    "title": "Cat_655407",
    "link_img": "https://live.staticflickr.com/65535/50021152696_52915b52fd_o.jpg",
    "id_image": "Cat_655407",
    "count_view": 0
  },
  {
    "link_thumb": "https://live.staticflickr.com/65535/50016691243_4de9f4154d_n.jpg",
    "id_album": "-1846011410",
    "description": "Bird_230292",
    "title": "Bird_230292",
    "link_img": "https://live.staticflickr.com/65535/50016691243_ef49b30a3b_o.jpg",
    "id_image": "Bird_230292",
    "count_view": 0
  },
  {
    "link_thumb": "https://live.staticflickr.com/65535/50022140381_ba1aa102ba_n.jpg",
    "id_album": "1894617400",
    "description": "Lynx_383570",
    "title": "Lynx_383570",
    "link_img": "https://live.staticflickr.com/65535/50022140381_bda7623468_o.jpg",
    "id_image": "Lynx_383570",
    "count_view": 0
  },
  {
    "link_thumb": "https://live.staticflickr.com/65535/50020081232_86bd140fd1_n.jpg",
    "id_album": "-1868680171",
    "description": "Cougar_571555",
    "title": "Cougar_571555",
    "link_img": "https://live.staticflickr.com/65535/50020081232_716a247b94_o.jpg",
    "id_image": "Cougar_571555",
    "count_view": 0
  },
  {
    "link_thumb": "https://live.staticflickr.com/65535/50019234863_2d4e3e0e14_n.jpg",
    "id_album": "791455625",
    "description": "Chipmunk_591315",
    "title": "Chipmunk_591315",
    "link_img": "https://live.staticflickr.com/65535/50019234863_ba92f7afb5_o.jpg",
    "id_image": "Chipmunk_591315",
    "count_view": 0
  },
  {
    "link_thumb": "https://live.staticflickr.com/65535/50024820267_675b467cda_n.jpg",
    "id_album": "-709711865",
    "description": "Wolf_905985",
    "title": "Wolf_905985",
    "link_img": "https://live.staticflickr.com/65535/50024820267_e53f569c8c_o.jpg",
    "id_image": "Wolf_905985",
    "count_view": 0
  },
  {
    "link_thumb": "https://live.staticflickr.com/65535/50352770047_41e27f818d_n.jpg",
    "id_album": "-462831703",
    "description": "Cat_567471",
    "title": "Cat_567471",
    "link_img": "https://live.staticflickr.com/65535/50352770047_326bbf8225_o.jpg",
    "id_image": "Cat_567471",
    "count_view": 0
  },
  {
    "link_thumb": "https://live.staticflickr.com/65535/50022616703_ac6bb61a60_n.jpg",
    "id_album": "248289288",
    "description": "Raccoon_686499",
    "title": "Raccoon_686499",
    "link_img": "https://live.staticflickr.com/65535/50022616703_3c2c0d6b26_o.jpg",
    "id_image": "Raccoon_686499",
    "count_view": 0
  },
  {
    "link_thumb": "https://live.staticflickr.com/65535/50019748602_c06ed2e88b_n.jpg",
    "id_album": "-462831703",
    "description": "Cat_936873",
    "title": "Cat_936873",
    "link_img": "https://live.staticflickr.com/65535/50019748602_c165747e81_o.jpg",
    "id_image": "Cat_936873",
    "count_view": 0
  },
  {
    "link_thumb": "https://live.staticflickr.com/65535/50020995493_83bac62c5a_n.jpg",
    "id_album": "-1933715543",
    "description": "Horse_533618",
    "title": "Horse_533618",
    "link_img": "https://live.staticflickr.com/65535/50020995493_fe492c30bc_o.jpg",
    "id_image": "Horse_533618",
    "count_view": 0
  },
  {
    "link_thumb": "https://live.staticflickr.com/65535/50021535072_7f21dec292_n.jpg",
    "id_album": "-34696179",
    "description": "Gecko_887853",
    "title": "Gecko_887853",
    "link_img": "https://live.staticflickr.com/65535/50021535072_44ac73d0fc_o.jpg",
    "id_image": "Gecko_887853",
    "count_view": 0
  },
  {
    "link_thumb": "https://live.staticflickr.com/65535/50020187467_49915d896f_n.jpg",
    "id_album": "1273365283",
    "description": "Cute_277910",
    "title": "Cute_277910",
    "link_img": "https://live.staticflickr.com/65535/50020187467_85f5715ed3_o.jpg",
    "id_image": "Cute_277910",
    "count_view": 0
  },
  {
    "link_thumb": "https://live.staticflickr.com/65535/50022166216_fde3e9b8e0_n.jpg",
    "id_album": "1894617400",
    "description": "Lynx_902175",
    "title": "Lynx_902175",
    "link_img": "https://live.staticflickr.com/65535/50022166216_08f9644597_o.jpg",
    "id_image": "Lynx_902175",
    "count_view": 0
  },
  {
    "link_thumb": "https://live.staticflickr.com/65535/50352591566_3375586e5c_n.jpg",
    "id_album": "-462831703",
    "description": "Cat_530604",
    "title": "Cat_530604",
    "link_img": "https://live.staticflickr.com/65535/50352591566_d5f97505a6_o.jpg",
    "id_image": "Cat_530604",
    "count_view": 0
  },
  {
    "link_thumb": "https://live.staticflickr.com/65535/50017607838_f196d79637_n.jpg",
    "id_album": "-462831702",
    "description": "Cat_398816",
    "title": "Cat_398816",
    "link_img": "https://live.staticflickr.com/65535/50017607838_41dd866fd6_o.jpg",
    "id_image": "Cat_398816",
    "count_view": 0
  },
  {
    "link_thumb": "https://live.staticflickr.com/65535/50017639471_470f2c8bff_n.jpg",
    "id_album": "-401151552",
    "description": "Butterfly_665172",
    "title": "Butterfly_665172",
    "link_img": "https://live.staticflickr.com/65535/50017639471_68f92c8f04_o.jpg",
    "id_image": "Butterfly_665172",
    "count_view": 0
  },
  {
    "link_thumb": "https://live.staticflickr.com/65535/50018171142_d7aa43ff17_n.jpg",
    "id_album": "-462831705",
    "description": "Cat_261183",
    "title": "Cat_261183",
    "link_img": "https://live.staticflickr.com/65535/50018171142_13649e21c5_o.jpg",
    "id_image": "Cat_261183",
    "count_view": 0
  },
  {
    "link_thumb": "https://live.staticflickr.com/65535/50024250522_05570662ab_n.jpg",
    "id_album": "1244464375",
    "description": "Starfish_364306",
    "title": "Starfish_364306",
    "link_img": "https://live.staticflickr.com/65535/50024250522_97c518bfaf_o.jpg",
    "id_image": "Starfish_364306",
    "count_view": 0
  },
  {
    "link_thumb": "https://live.staticflickr.com/65535/50018206647_3fd567b2bf_n.jpg",
    "id_album": "-462831702",
    "description": "Cat_299447",
    "title": "Cat_299447",
    "link_img": "https://live.staticflickr.com/65535/50018206647_e76e0c9abb_o.jpg",
    "id_image": "Cat_299447",
    "count_view": 0
  },
  {
    "link_thumb": "https://live.staticflickr.com/65535/50021414372_117fd77e11_n.jpg",
    "id_album": "-462831704",
    "description": "Cat_676702",
    "title": "Cat_676702",
    "link_img": "https://live.staticflickr.com/65535/50021414372_30bcd14d27_o.jpg",
    "id_image": "Cat_676702",
    "count_view": 0
  },
  {
    "link_thumb": "https://live.staticflickr.com/65535/50017877176_a25f4f32e3_n.jpg",
    "id_album": "-462831705",
    "description": "Cat_229385",
    "title": "Cat_229385",
    "link_img": "https://live.staticflickr.com/65535/50017877176_b56babe3eb_o.jpg",
    "id_image": "Cat_229385",
    "count_view": 0
  },
  {
    "link_thumb": "https://live.staticflickr.com/65535/50021962671_315bac76e5_n.jpg",
    "id_album": "1392348450",
    "description": "Leopard_983683",
    "title": "Leopard_983683",
    "link_img": "https://live.staticflickr.com/65535/50021962671_5bc3669c79_o.jpg",
    "id_image": "Leopard_983683",
    "count_view": 0
  },
  {
    "link_thumb": "https://live.staticflickr.com/65535/50351812808_c91c9c8a6f_n.jpg",
    "id_album": "-462831703",
    "description": "Cat_423516",
    "title": "Cat_423516",
    "link_img": "https://live.staticflickr.com/65535/50351812808_b6d44f0903_o.jpg",
    "id_image": "Cat_423516",
    "count_view": 0
  },
  {
    "link_thumb": "https://live.staticflickr.com/65535/50017620002_b4720fe96a_n.jpg",
    "id_album": "-1846011410",
    "description": "Bird_533734",
    "title": "Bird_533734",
    "link_img": "https://live.staticflickr.com/65535/50017620002_0683d67748_o.jpg",
    "id_image": "Bird_533734",
    "count_view": 0
  },
  {
    "link_thumb": "https://live.staticflickr.com/65535/50021409526_9f68fb36e2_n.jpg",
    "id_album": "82558972",
    "description": "GuineaPig_667921",
    "title": "GuineaPig_667921",
    "link_img": "https://live.staticflickr.com/65535/50021409526_fb3d813635_o.jpg",
    "id_image": "GuineaPig_667921",
    "count_view": 0
  },
  {
    "link_thumb": "https://live.staticflickr.com/65535/50017481833_3f6a342ce2_n.jpg",
    "id_album": "-462831702",
    "description": "Cat_339425",
    "title": "Cat_339425",
    "link_img": "https://live.staticflickr.com/65535/50017481833_58fca2b3b1_o.jpg",
    "id_image": "Cat_339425",
    "count_view": 0
  },
  {
    "link_thumb": "https://live.staticflickr.com/65535/50020878496_3223c2e8ac_n.jpg",
    "id_album": "-1118073211",
    "description": "Fish_863780",
    "title": "Fish_863780",
    "link_img": "https://live.staticflickr.com/65535/50020878496_892ed404e5_o.jpg",
    "id_image": "Fish_863780",
    "count_view": 0
  },
  {
    "link_thumb": "https://live.staticflickr.com/65535/50016972808_ae2bd2324c_n.jpg",
    "id_album": "782930701",
    "description": "BorderCollie_853258",
    "title": "BorderCollie_853258",
    "link_img": "https://live.staticflickr.com/65535/50016972808_3b66929052_o.jpg",
    "id_image": "BorderCollie_853258",
    "count_view": 0
  },
  {
    "link_thumb": "https://live.staticflickr.com/65535/50019902212_dfa0894c10_n.jpg",
    "id_album": "-766919393",
    "description": "Chameleon_387843",
    "title": "Chameleon_387843",
    "link_img": "https://live.staticflickr.com/65535/50019902212_39aff431d6_o.jpg",
    "id_image": "Chameleon_387843",
    "count_view": 0
  },
  {
    "link_thumb": "https://live.staticflickr.com/65535/50016303608_993016a176_n.jpg",
    "id_album": "-1741290715",
    "description": "Ant_387606",
    "title": "Ant_387606",
    "link_img": "https://live.staticflickr.com/65535/50016303608_514d2d888d_o.jpg",
    "id_image": "Ant_387606",
    "count_view": 0
  },
  {
    "link_thumb": "https://live.staticflickr.com/65535/50024245477_200ee7b1ba_n.jpg",
    "id_album": "702283289",
    "description": "Squirrel_994117",
    "title": "Squirrel_994117",
    "link_img": "https://live.staticflickr.com/65535/50024245477_de221d8ba0_o.jpg",
    "id_image": "Squirrel_994117",
    "count_view": 0
  },
  {
    "link_thumb": "https://live.staticflickr.com/65535/50019777007_347a728041_n.jpg",
    "id_album": "-462831703",
    "description": "Cat_957953",
    "title": "Cat_957953",
    "link_img": "https://live.staticflickr.com/65535/50019777007_f52304e504_o.jpg",
    "id_image": "Cat_957953",
    "count_view": 0
  },
  {
    "link_thumb": "https://live.staticflickr.com/65535/50017498777_85f5d67a78_n.jpg",
    "id_album": "-1846011410",
    "description": "Bird_324885",
    "title": "Bird_324885",
    "link_img": "https://live.staticflickr.com/65535/50017498777_7280648a6e_o.jpg",
    "id_image": "Bird_324885",
    "count_view": 0
  },
  {
    "link_thumb": "https://live.staticflickr.com/65535/50024000643_a1b8505e17_n.jpg",
    "id_album": "-709711865",
    "description": "Wolf_776552",
    "title": "Wolf_776552",
    "link_img": "https://live.staticflickr.com/65535/50024000643_0523e760e6_o.jpg",
    "id_image": "Wolf_776552",
    "count_view": 0
  },
  {
    "link_thumb": "https://live.staticflickr.com/65535/50020191076_9d74d936ae_n.jpg",
    "id_album": "-149330232",
    "description": "Dog_263323",
    "title": "Dog_263323",
    "link_img": "https://live.staticflickr.com/65535/50020191076_5f2a6d67ac_o.jpg",
    "id_image": "Dog_263323",
    "count_view": 0
  },
  {
    "link_thumb": "https://live.staticflickr.com/65535/50017197688_ff2285609e_n.jpg",
    "id_album": "-1131161368",
    "description": "Camel_368692",
    "title": "Camel_368692",
    "link_img": "https://live.staticflickr.com/65535/50017197688_72e264c25b_o.jpg",
    "id_image": "Camel_368692",
    "count_view": 0
  },
  {
    "link_thumb": "https://live.staticflickr.com/65535/50017171773_53d3a78d8c_n.jpg",
    "id_album": "-401151552",
    "description": "Butterfly_926514",
    "title": "Butterfly_926514",
    "link_img": "https://live.staticflickr.com/65535/50017171773_5ee87a4c3f_o.jpg",
    "id_image": "Butterfly_926514",
    "count_view": 0
  },
  {
    "link_thumb": "https://live.staticflickr.com/65535/50017712311_275cb5d32e_n.jpg",
    "id_album": "-401151552",
    "description": "Butterfly_931136",
    "title": "Butterfly_931136",
    "link_img": "https://live.staticflickr.com/65535/50017712311_0a4cf10ddd_o.jpg",
    "id_image": "Butterfly_931136",
    "count_view": 0
  },
  {
    "link_thumb": "https://live.staticflickr.com/65535/50021887936_e22967980e_n.jpg",
    "id_album": "1392348450",
    "description": "Leopard_209946",
    "title": "Leopard_209946",
    "link_img": "https://live.staticflickr.com/65535/50021887936_cca7931fa7_o.jpg",
    "id_image": "Leopard_209946",
    "count_view": 0
  },
  {
    "link_thumb": "https://live.staticflickr.com/65535/50021106267_9c88d470d5_n.jpg",
    "id_album": "-1118073211",
    "description": "Fish_4180",
    "title": "Fish_4180",
    "link_img": "https://live.staticflickr.com/65535/50021106267_878974d893_o.jpg",
    "id_image": "Fish_4180",
    "count_view": 0
  },
  {
    "link_thumb": "https://live.staticflickr.com/65535/50021116098_d13c381e90_n.jpg",
    "id_album": "1658866795",
    "description": "Insect_207691",
    "title": "Insect_207691",
    "link_img": "https://live.staticflickr.com/65535/50021116098_0193e7e33c_o.jpg",
    "id_image": "Insect_207691",
    "count_view": 0
  },
  {
    "link_thumb": "https://live.staticflickr.com/65535/50018080166_dfc8bbfa83_n.jpg",
    "id_album": "-462831702",
    "description": "Cat_368053",
    "title": "Cat_368053",
    "link_img": "https://live.staticflickr.com/65535/50018080166_69f42d21cf_o.jpg",
    "id_image": "Cat_368053",
    "count_view": 0
  },
  {
    "link_thumb": "https://live.staticflickr.com/65535/50016288443_c9ac318fc9_n.jpg",
    "id_album": "-1473450542",
    "description": "Alpaca_548386",
    "title": "Alpaca_548386",
    "link_img": "https://live.staticflickr.com/65535/50016288443_8b47d2c5e7_o.jpg",
    "id_image": "Alpaca_548386",
    "count_view": 0
  },
  {
    "link_thumb": "https://live.staticflickr.com/65535/50020162318_6e0b2ae375_n.jpg",
    "id_album": "-39098563",
    "description": "Eagle_354726",
    "title": "Eagle_354726",
    "link_img": "https://live.staticflickr.com/65535/50020162318_6dca30f32c_o.jpg",
    "id_image": "Eagle_354726",
    "count_view": 0
  },
  {
    "link_thumb": "https://live.staticflickr.com/65535/50020434738_ebd46ba2a0_n.jpg",
    "id_album": "-128218148",
    "description": "Fox_558989",
    "title": "Fox_558989",
    "link_img": "https://live.staticflickr.com/65535/50020434738_41aa9967ba_o.jpg",
    "id_image": "Fox_558989",
    "count_view": 0
  },
  {
    "link_thumb": "https://live.staticflickr.com/65535/50019424547_0b8167f908_n.jpg",
    "id_album": "-462831702",
    "description": "Cat_425299",
    "title": "Cat_425299",
    "link_img": "https://live.staticflickr.com/65535/50019424547_1b58532edb_o.jpg",
    "id_image": "Cat_425299",
    "count_view": 0
  },
  {
    "link_thumb": "https://live.staticflickr.com/65535/50022608508_3a79769990_n.jpg",
    "id_album": "248289288",
    "description": "Raccoon_556321",
    "title": "Raccoon_556321",
    "link_img": "https://live.staticflickr.com/65535/50022608508_0397e02eb3_o.jpg",
    "id_image": "Raccoon_556321",
    "count_view": 0
  },
  {
    "link_thumb": "https://live.staticflickr.com/65535/50018075207_50eb7b9dbe_n.jpg",
    "id_album": "-462831705",
    "description": "Cat_175979",
    "title": "Cat_175979",
    "link_img": "https://live.staticflickr.com/65535/50018075207_eb3ecfb90c_o.jpg",
    "id_image": "Cat_175979",
    "count_view": 0
  },
  {
    "link_thumb": "https://live.staticflickr.com/65535/50017343283_8d90bc1cb1_n.jpg",
    "id_album": "-462831705",
    "description": "Cat_220446",
    "title": "Cat_220446",
    "link_img": "https://live.staticflickr.com/65535/50017343283_bfc8f16125_o.jpg",
    "id_image": "Cat_220446",
    "count_view": 0
  },
  {
    "link_thumb": "https://live.staticflickr.com/65535/50019190321_75390538e9_n.jpg",
    "id_album": "-462831702",
    "description": "Cat_433166",
    "title": "Cat_433166",
    "link_img": "https://live.staticflickr.com/65535/50019190321_15aa7b4ec0_o.jpg",
    "id_image": "Cat_433166",
    "count_view": 0
  },
  {
    "link_thumb": "https://live.staticflickr.com/65535/50020919372_4bcb89e6f3_n.jpg",
    "id_album": "1168627767",
    "description": "Duck_504764",
    "title": "Duck_504764",
    "link_img": "https://live.staticflickr.com/65535/50020919372_464b2c7727_o.jpg",
    "id_image": "Duck_504764",
    "count_view": 0
  },
  {
    "link_thumb": "https://live.staticflickr.com/65535/50023132637_de221d6fbe_n.jpg",
    "id_album": "1008910300",
    "description": "PolarBear_966223",
    "title": "PolarBear_966223",
    "link_img": "https://live.staticflickr.com/65535/50023132637_56640f884b_o.jpg",
    "id_image": "PolarBear_966223",
    "count_view": 0
  },
  {
    "link_thumb": "https://live.staticflickr.com/65535/50023018701_d6d6368764_n.jpg",
    "id_album": "-353898617",
    "description": "Puppy_548556",
    "title": "Puppy_548556",
    "link_img": "https://live.staticflickr.com/65535/50023018701_79b50428e4_o.jpg",
    "id_image": "Puppy_548556",
    "count_view": 0
  },
  {
    "link_thumb": "https://live.staticflickr.com/65535/50020646382_1174b7b331_n.jpg",
    "id_album": "-149330231",
    "description": "Dog_409493",
    "title": "Dog_409493",
    "link_img": "https://live.staticflickr.com/65535/50020646382_2d0c95577b_o.jpg",
    "id_image": "Dog_409493",
    "count_view": 0
  },
  {
    "link_thumb": "https://live.staticflickr.com/65535/50022374208_e3dfdfef8e_n.jpg",
    "id_album": "-356780855",
    "description": "Puffin_409618",
    "title": "Puffin_409618",
    "link_img": "https://live.staticflickr.com/65535/50022374208_5d20bbcd49_o.jpg",
    "id_image": "Puffin_409618",
    "count_view": 0
  },
  {
    "link_thumb": "https://live.staticflickr.com/65535/50021569167_9c78a9ea48_n.jpg",
    "id_album": "-405626519",
    "description": "GermanShepherd_990250",
    "title": "GermanShepherd_990250",
    "link_img": "https://live.staticflickr.com/65535/50021569167_e301310524_o.jpg",
    "id_image": "GermanShepherd_990250",
    "count_view": 0
  },
  {
    "link_thumb": "https://live.staticflickr.com/65535/50022767098_4127762a72_n.jpg",
    "id_album": "1926701726",
    "description": "Robin_455644",
    "title": "Robin_455644",
    "link_img": "https://live.staticflickr.com/65535/50022767098_2849a2f6ec_o.jpg",
    "id_image": "Robin_455644",
    "count_view": 0
  },
  {
    "link_thumb": "https://live.staticflickr.com/65535/50018126922_0b3204f06f_n.jpg",
    "id_album": "-462831705",
    "description": "Cat_217358",
    "title": "Cat_217358",
    "link_img": "https://live.staticflickr.com/65535/50018126922_431fb891ee_o.jpg",
    "id_image": "Cat_217358",
    "count_view": 0
  },
  {
    "link_thumb": "https://live.staticflickr.com/65535/50021442908_089affa876_n.jpg",
    "id_album": "416744915",
    "description": "Lion_275661",
    "title": "Lion_275661",
    "link_img": "https://live.staticflickr.com/65535/50021442908_bb27b7c205_o.jpg",
    "id_image": "Lion_275661",
    "count_view": 0
  },
  {
    "link_thumb": "https://live.staticflickr.com/65535/50017077608_498b84cf4f_n.jpg",
    "id_album": "-401151552",
    "description": "Butterfly_457325",
    "title": "Butterfly_457325",
    "link_img": "https://live.staticflickr.com/65535/50017077608_2ed80146bc_o.jpg",
    "id_image": "Butterfly_457325",
    "count_view": 0
  },
  {
    "link_thumb": "https://live.staticflickr.com/65535/50017212657_e5e71235ea_n.jpg",
    "id_album": "231236068",
    "description": "BaldEagle_175690",
    "title": "BaldEagle_175690",
    "link_img": "https://live.staticflickr.com/65535/50017212657_f722dc225b_o.jpg",
    "id_image": "BaldEagle_175690",
    "count_view": 0
  },
  {
    "link_thumb": "https://live.staticflickr.com/65535/50017780202_1cc9f40cc8_n.jpg",
    "id_album": "1696155652",
    "description": "Boxer_525491",
    "title": "Boxer_525491",
    "link_img": "https://live.staticflickr.com/65535/50017780202_864de13cbb_o.jpg",
    "id_image": "Boxer_525491",
    "count_view": 0
  },
  {
    "link_thumb": "https://live.staticflickr.com/65535/50020582607_3f16bee76a_n.jpg",
    "id_album": "-149330232",
    "description": "Dog_364763",
    "title": "Dog_364763",
    "link_img": "https://live.staticflickr.com/65535/50020582607_535e238513_o.jpg",
    "id_image": "Dog_364763",
    "count_view": 0
  },
  {
    "link_thumb": "https://live.staticflickr.com/65535/50016489163_d97d2775f0_n.jpg",
    "id_album": "-422187261",
    "description": "Bear_279314",
    "title": "Bear_279314",
    "link_img": "https://live.staticflickr.com/65535/50016489163_f91589a495_o.jpg",
    "id_image": "Bear_279314",
    "count_view": 0
  },
  {
    "link_thumb": "https://live.staticflickr.com/65535/50019990731_f9e853321d_n.jpg",
    "id_album": "1903411565",
    "description": "Deer_325718",
    "title": "Deer_325718",
    "link_img": "https://live.staticflickr.com/65535/50019990731_62fee6ded7_o.jpg",
    "id_image": "Deer_325718",
    "count_view": 0
  },
  {
    "link_thumb": "https://live.staticflickr.com/65535/50017301991_64f6dc2000_n.jpg",
    "id_album": "-1846011410",
    "description": "Bird_397398",
    "title": "Bird_397398",
    "link_img": "https://live.staticflickr.com/65535/50017301991_54842df547_o.jpg",
    "id_image": "Bird_397398",
    "count_view": 0
  },
  {
    "link_thumb": "https://live.staticflickr.com/65535/50017399047_ed9a45ebe0_n.jpg",
    "id_album": "1699594607",
    "description": "Bee_439749",
    "title": "Bee_439749",
    "link_img": "https://live.staticflickr.com/65535/50017399047_6c5038ce63_o.jpg",
    "id_image": "Bee_439749",
    "count_view": 0
  },
  {
    "link_thumb": "https://live.staticflickr.com/65535/50023228871_f6eb6f1732_n.jpg",
    "id_album": "332874268",
    "description": "RedPanda_727584",
    "title": "RedPanda_727584",
    "link_img": "https://live.staticflickr.com/65535/50023228871_f29e0450ae_o.jpg",
    "id_image": "RedPanda_727584",
    "count_view": 0
  },
  {
    "link_thumb": "https://live.staticflickr.com/65535/50017921257_9bc88cf1ce_n.jpg",
    "id_album": "-401151552",
    "description": "Butterfly_753040",
    "title": "Butterfly_753040",
    "link_img": "https://live.staticflickr.com/65535/50017921257_147f30fe2e_o.jpg",
    "id_image": "Butterfly_753040",
    "count_view": 0
  },
  {
    "link_thumb": "https://live.staticflickr.com/65535/50019942318_f10e76b704_n.jpg",
    "id_album": "-149330231",
    "description": "Dog_669851",
    "title": "Dog_669851",
    "link_img": "https://live.staticflickr.com/65535/50019942318_124ed6aee2_o.jpg",
    "id_image": "Dog_669851",
    "count_view": 0
  },
  {
    "link_thumb": "https://live.staticflickr.com/65535/50023440011_fe83ebfefd_n.jpg",
    "id_album": "-1596347105",
    "description": "Shark_3543",
    "title": "Shark_3543",
    "link_img": "https://live.staticflickr.com/65535/50023440011_4ddd8914f7_o.jpg",
    "id_image": "Shark_3543",
    "count_view": 0
  },
  {
    "link_thumb": "https://live.staticflickr.com/65535/50021292858_4fff780163_n.jpg",
    "id_album": "1307335982",
    "description": "LabradorRetriever_875246",
    "title": "LabradorRetriever_875246",
    "link_img": "https://live.staticflickr.com/65535/50021292858_07a3878582_o.jpg",
    "id_image": "LabradorRetriever_875246",
    "count_view": 0
  },
  {
    "link_thumb": "https://live.staticflickr.com/65535/50021469027_ddb176e34e_n.jpg",
    "id_album": "-462831703",
    "description": "Cat_736968",
    "title": "Cat_736968",
    "link_img": "https://live.staticflickr.com/65535/50021469027_134f157a4f_o.jpg",
    "id_image": "Cat_736968",
    "count_view": 0
  },
  {
    "link_thumb": "https://live.staticflickr.com/65535/50020539836_a0f5a74e0d_n.jpg",
    "id_album": "-149330231",
    "description": "Dog_901709",
    "title": "Dog_901709",
    "link_img": "https://live.staticflickr.com/65535/50020539836_e7234f7efe_o.jpg",
    "id_image": "Dog_901709",
    "count_view": 0
  },
  {
    "link_thumb": "https://live.staticflickr.com/65535/50021813906_d1867ccdfe_n.jpg",
    "id_album": "770105808",
    "description": "Kingfisher_935986",
    "title": "Kingfisher_935986",
    "link_img": "https://live.staticflickr.com/65535/50021813906_eaf48e9554_o.jpg",
    "id_image": "Kingfisher_935986",
    "count_view": 0
  },
  {
    "link_thumb": "https://live.staticflickr.com/65535/50019791263_b63f3792d5_n.jpg",
    "id_album": "-149330232",
    "description": "Dog_364183",
    "title": "Dog_364183",
    "link_img": "https://live.staticflickr.com/65535/50019791263_69c53df6bd_o.jpg",
    "id_image": "Dog_364183",
    "count_view": 0
  },
  {
    "link_thumb": "https://live.staticflickr.com/65535/50021006646_a347325df7_n.jpg",
    "id_album": "-128218148",
    "description": "Fox_793318",
    "title": "Fox_793318",
    "link_img": "https://live.staticflickr.com/65535/50021006646_6d88dafb69_o.jpg",
    "id_image": "Fox_793318",
    "count_view": 0
  },
  {
    "link_thumb": "https://live.staticflickr.com/65535/50020049582_58f3f18c07_n.jpg",
    "id_album": "-1462118852",
    "description": "Corgi_369051",
    "title": "Corgi_369051",
    "link_img": "https://live.staticflickr.com/65535/50020049582_a3f272d3f6_o.jpg",
    "id_image": "Corgi_369051",
    "count_view": 0
  },
  {
    "link_thumb": "https://live.staticflickr.com/65535/50019398098_2c3fe2f485_n.jpg",
    "id_album": "1273365283",
    "description": "Cute_277822",
    "title": "Cute_277822",
    "link_img": "https://live.staticflickr.com/65535/50019398098_841a8278b9_o.jpg",
    "id_image": "Cute_277822",
    "count_view": 0
  },
  {
    "link_thumb": "https://live.staticflickr.com/65535/50023331707_47d8df1f92_n.jpg",
    "id_album": "-353898617",
    "description": "Puppy_980997",
    "title": "Puppy_980997",
    "link_img": "https://live.staticflickr.com/65535/50023331707_97f5718160_o.jpg",
    "id_image": "Puppy_980997",
    "count_view": 0
  },
  {
    "link_thumb": "https://live.staticflickr.com/65535/50024548392_0741094b44_n.jpg",
    "id_album": "-1103743486",
    "description": "Toucan_976125",
    "title": "Toucan_976125",
    "link_img": "https://live.staticflickr.com/65535/50024548392_673740339a_o.jpg",
    "id_image": "Toucan_976125",
    "count_view": 0
  },
  {
    "link_thumb": "https://live.staticflickr.com/65535/50023306337_81bf866d35_n.jpg",
    "id_album": "-353898617",
    "description": "Puppy_683727",
    "title": "Puppy_683727",
    "link_img": "https://live.staticflickr.com/65535/50023306337_d26283084f_o.jpg",
    "id_image": "Puppy_683727",
    "count_view": 0
  },
  {
    "link_thumb": "https://live.staticflickr.com/65535/50017618242_7b368e0d87_n.jpg",
    "id_album": "-1846011410",
    "description": "Bird_525231",
    "title": "Bird_525231",
    "link_img": "https://live.staticflickr.com/65535/50017618242_72df385ce7_o.jpg",
    "id_image": "Bird_525231",
    "count_view": 0
  },
  {
    "link_thumb": "https://live.staticflickr.com/65535/50017741016_6d8d013a69_n.jpg",
    "id_album": "-462831703",
    "description": "Cat_1001121",
    "title": "Cat_1001121",
    "link_img": "https://live.staticflickr.com/65535/50017741016_3cc07dc380_o.jpg",
    "id_image": "Cat_1001121",
    "count_view": 0
  },
  {
    "link_thumb": "https://live.staticflickr.com/65535/50023448818_42caa8d77a_n.jpg",
    "id_album": "1244464375",
    "description": "Starfish_420235",
    "title": "Starfish_420235",
    "link_img": "https://live.staticflickr.com/65535/50023448818_4247dd02bd_o.jpg",
    "id_image": "Starfish_420235",
    "count_view": 0
  },
  {
    "link_thumb": "https://live.staticflickr.com/65535/50021819871_6ff915b3e9_n.jpg",
    "id_album": "771796001",
    "description": "Koala_592044",
    "title": "Koala_592044",
    "link_img": "https://live.staticflickr.com/65535/50021819871_591403224a_o.jpg",
    "id_image": "Koala_592044",
    "count_view": 0
  },
  {
    "link_thumb": "https://live.staticflickr.com/65535/50022148613_948b4f3205_n.jpg",
    "id_album": "392248205",
    "description": "Penguin_367232",
    "title": "Penguin_367232",
    "link_img": "https://live.staticflickr.com/65535/50022148613_d6d130edd0_o.jpg",
    "id_image": "Penguin_367232",
    "count_view": 0
  },
  {
    "link_thumb": "https://live.staticflickr.com/65535/50017053548_6c285bbb42_n.jpg",
    "id_album": "-401151552",
    "description": "Butterfly_386780",
    "title": "Butterfly_386780",
    "link_img": "https://live.staticflickr.com/65535/50017053548_cc71f17c44_o.jpg",
    "id_image": "Butterfly_386780",
    "count_view": 0
  },
  {
    "link_thumb": "https://live.staticflickr.com/65535/50022545392_0bdc62e7e0_n.jpg",
    "id_album": "1957967135",
    "description": "Mouse_276217",
    "title": "Mouse_276217",
    "link_img": "https://live.staticflickr.com/65535/50022545392_e37de35af3_o.jpg",
    "id_image": "Mouse_276217",
    "count_view": 0
  },
  {
    "link_thumb": "https://live.staticflickr.com/65535/50017102552_c7356dcf2b_n.jpg",
    "id_album": "-834314226",
    "description": "ArcticFox_309920",
    "title": "ArcticFox_309920",
    "link_img": "https://live.staticflickr.com/65535/50017102552_8bd5c903b2_o.jpg",
    "id_image": "ArcticFox_309920",
    "count_view": 0
  },
  {
    "link_thumb": "https://live.staticflickr.com/65535/50021109321_b6d11cf7ab_n.jpg",
    "id_album": "-462831704",
    "description": "Cat_550990",
    "title": "Cat_550990",
    "link_img": "https://live.staticflickr.com/65535/50021109321_a24d8a9492_o.jpg",
    "id_image": "Cat_550990",
    "count_view": 0
  },
  {
    "link_thumb": "https://live.staticflickr.com/65535/50022324042_cb3977aae9_n.jpg",
    "id_album": "416744915",
    "description": "Lion_828653",
    "title": "Lion_828653",
    "link_img": "https://live.staticflickr.com/65535/50022324042_0ac6782c40_o.jpg",
    "id_image": "Lion_828653",
    "count_view": 0
  },
  {
    "link_thumb": "https://live.staticflickr.com/65535/50021185151_6c9fa4c2bb_n.jpg",
    "id_album": "-462831704",
    "description": "Cat_704476",
    "title": "Cat_704476",
    "link_img": "https://live.staticflickr.com/65535/50021185151_64723c1ef9_o.jpg",
    "id_image": "Cat_704476",
    "count_view": 0
  },
  {
    "link_thumb": "https://live.staticflickr.com/65535/50021355077_4befe65c85_n.jpg",
    "id_album": "-462831704",
    "description": "Cat_543745",
    "title": "Cat_543745",
    "link_img": "https://live.staticflickr.com/65535/50021355077_e6539c3c62_o.jpg",
    "id_image": "Cat_543745",
    "count_view": 0
  },
  {
    "link_thumb": "https://live.staticflickr.com/65535/50018217727_613e7a3d2c_n.jpg",
    "id_album": "-462831702",
    "description": "Cat_312850",
    "title": "Cat_312850",
    "link_img": "https://live.staticflickr.com/65535/50018217727_0071e2d174_o.jpg",
    "id_image": "Cat_312850",
    "count_view": 0
  },
  {
    "link_thumb": "https://live.staticflickr.com/65535/50018011837_431605d1cd_n.jpg",
    "id_album": "-462831705",
    "description": "Cat_110517",
    "title": "Cat_110517",
    "link_img": "https://live.staticflickr.com/65535/50018011837_e09a9f3f61_o.jpg",
    "id_image": "Cat_110517",
    "count_view": 0
  },
  {
    "link_thumb": "https://live.staticflickr.com/65535/50019649363_e1ae7f9056_n.jpg",
    "id_album": "-149330232",
    "description": "Dog_249782",
    "title": "Dog_249782",
    "link_img": "https://live.staticflickr.com/65535/50019649363_d608c1a313_o.jpg",
    "id_image": "Dog_249782",
    "count_view": 0
  },
  {
    "link_thumb": "https://live.staticflickr.com/65535/50017970611_dd9c7cae95_n.jpg",
    "id_album": "-462831702",
    "description": "Cat_324802",
    "title": "Cat_324802",
    "link_img": "https://live.staticflickr.com/65535/50017970611_44966809b3_o.jpg",
    "id_image": "Cat_324802",
    "count_view": 0
  },
  {
    "link_thumb": "https://live.staticflickr.com/65535/50020127053_c017700316_n.jpg",
    "id_album": "1168627767",
    "description": "Duck_444384",
    "title": "Duck_444384",
    "link_img": "https://live.staticflickr.com/65535/50020127053_2980a78b9c_o.jpg",
    "id_image": "Duck_444384",
    "count_view": 0
  },
  {
    "link_thumb": "https://live.staticflickr.com/65535/50021143903_95a8763404_n.jpg",
    "id_album": "1658866795",
    "description": "Insect_404388",
    "title": "Insect_404388",
    "link_img": "https://live.staticflickr.com/65535/50021143903_ab35549d1b_o.jpg",
    "id_image": "Insect_404388",
    "count_view": 0
  },
  {
    "link_thumb": "https://live.staticflickr.com/65535/50020712628_e7da9a4d43_n.jpg",
    "id_album": "-462831703",
    "description": "Cat_795416",
    "title": "Cat_795416",
    "link_img": "https://live.staticflickr.com/65535/50020712628_ca073b1ed6_o.jpg",
    "id_image": "Cat_795416",
    "count_view": 0
  },
  {
    "link_thumb": "https://live.staticflickr.com/65535/50017822456_49504392f1_n.jpg",
    "id_album": "-462831705",
    "description": "Cat_181063",
    "title": "Cat_181063",
    "link_img": "https://live.staticflickr.com/65535/50017822456_88451f354e_o.jpg",
    "id_image": "Cat_181063",
    "count_view": 0
  },
  {
    "link_thumb": "https://live.staticflickr.com/65535/50017600153_cc9f3577a6_n.jpg",
    "id_album": "-462831702",
    "description": "Cat_394741",
    "title": "Cat_394741",
    "link_img": "https://live.staticflickr.com/65535/50017600153_5a90d78d73_o.jpg",
    "id_image": "Cat_394741",
    "count_view": 0
  },
  {
    "link_thumb": "https://live.staticflickr.com/65535/50016720793_64fc8f8cb9_n.jpg",
    "id_album": "-1846011410",
    "description": "Bird_336438",
    "title": "Bird_336438",
    "link_img": "https://live.staticflickr.com/65535/50016720793_90557bc09f_o.jpg",
    "id_image": "Bird_336438",
    "count_view": 0
  },
  {
    "link_thumb": "https://live.staticflickr.com/65535/50019488528_de26e2c0a0_n.jpg",
    "id_album": "1903411565",
    "description": "Deer_523579",
    "title": "Deer_523579",
    "link_img": "https://live.staticflickr.com/65535/50019488528_9cda0ec848_o.jpg",
    "id_image": "Deer_523579",
    "count_view": 0
  },
  {
    "link_thumb": "https://live.staticflickr.com/65535/50017084986_770b359880_n.jpg",
    "id_album": "-422187261",
    "description": "Bear_811543",
    "title": "Bear_811543",
    "link_img": "https://live.staticflickr.com/65535/50017084986_e170e38abf_o.jpg",
    "id_image": "Bear_811543",
    "count_view": 0
  },
  {
    "link_thumb": "https://live.staticflickr.com/65535/50019899163_13760d0e06_n.jpg",
    "id_album": "-149330231",
    "description": "Dog_464842",
    "title": "Dog_464842",
    "link_img": "https://live.staticflickr.com/65535/50019899163_03f215377f_o.jpg",
    "id_image": "Dog_464842",
    "count_view": 0
  },
  {
    "link_thumb": "https://live.staticflickr.com/65535/50020190767_fe085943c6_n.jpg",
    "id_album": "1273365283",
    "description": "Cute_312431",
    "title": "Cute_312431",
    "link_img": "https://live.staticflickr.com/65535/50020190767_9991da6fce_o.jpg",
    "id_image": "Cute_312431",
    "count_view": 0
  },
  {
    "link_thumb": "https://live.staticflickr.com/65535/50020506441_a9e79598f9_n.jpg",
    "id_album": "-149330231",
    "description": "Dog_749868",
    "title": "Dog_749868",
    "link_img": "https://live.staticflickr.com/65535/50020506441_c39a8a1eda_o.jpg",
    "id_image": "Dog_749868",
    "count_view": 0
  },
  {
    "link_thumb": "https://live.staticflickr.com/65535/50021605137_cc69bfcccb_n.jpg",
    "id_album": "2060159334",
    "description": "GoldenRetriever_650766",
    "title": "GoldenRetriever_650766",
    "link_img": "https://live.staticflickr.com/65535/50021605137_9c54d5eb1e_o.jpg",
    "id_image": "GoldenRetriever_650766",
    "count_view": 0
  },
  {
    "link_thumb": "https://live.staticflickr.com/65535/50021355677_e2769df874_n.jpg",
    "id_album": "-462831704",
    "description": "Cat_543909",
    "title": "Cat_543909",
    "link_img": "https://live.staticflickr.com/65535/50021355677_a971f7129a_o.jpg",
    "id_image": "Cat_543909",
    "count_view": 0
  },
  {
    "link_thumb": "https://live.staticflickr.com/65535/50352461116_f6d248e80a_n.jpg",
    "id_album": "-462831703",
    "description": "Cat_356861",
    "title": "Cat_356861",
    "link_img": "https://live.staticflickr.com/65535/50352461116_8e301ed020_o.jpg",
    "id_image": "Cat_356861",
    "count_view": 0
  },
  {
    "link_thumb": "https://live.staticflickr.com/65535/50351935758_7ebd2985f7_n.jpg",
    "id_album": "-462831703",
    "description": "Cat_650950",
    "title": "Cat_650950",
    "link_img": "https://live.staticflickr.com/65535/50351935758_d124b9c68b_o.jpg",
    "id_image": "Cat_650950",
    "count_view": 0
  },
  {
    "link_thumb": "https://live.staticflickr.com/65535/50020514571_95eaaa966b_n.jpg",
    "id_album": "-149330231",
    "description": "Dog_791168",
    "title": "Dog_791168",
    "link_img": "https://live.staticflickr.com/65535/50020514571_db71295428_o.jpg",
    "id_image": "Dog_791168",
    "count_view": 0
  },
  {
    "link_thumb": "https://live.staticflickr.com/65535/50352644396_a5c78b6f17_n.jpg",
    "id_album": "-462831703",
    "description": "Cat_682991",
    "title": "Cat_682991",
    "link_img": "https://live.staticflickr.com/65535/50352644396_a06632eaa6_o.jpg",
    "id_image": "Cat_682991",
    "count_view": 0
  },
  {
    "link_thumb": "https://live.staticflickr.com/65535/50017596587_57ebc4b73e_n.jpg",
    "id_album": "-1846011410",
    "description": "Bird_439366",
    "title": "Bird_439366",
    "link_img": "https://live.staticflickr.com/65535/50017596587_7631370f61_o.jpg",
    "id_image": "Bird_439366",
    "count_view": 0
  },
  {
    "link_thumb": "https://live.staticflickr.com/65535/50024504346_b4c2c57c96_n.jpg",
    "id_album": "-709711865",
    "description": "Wolf_461730",
    "title": "Wolf_461730",
    "link_img": "https://live.staticflickr.com/65535/50024504346_4696d0a2d2_o.jpg",
    "id_image": "Wolf_461730",
    "count_view": 0
  },
  {
    "link_thumb": "https://live.staticflickr.com/65535/50019663913_1d758c0f36_n.jpg",
    "id_album": "-149330232",
    "description": "Dog_264779",
    "title": "Dog_264779",
    "link_img": "https://live.staticflickr.com/65535/50019663913_7314635a21_o.jpg",
    "id_image": "Dog_264779",
    "count_view": 0
  },
  {
    "link_thumb": "https://live.staticflickr.com/65535/50019926836_a0121641dc_n.jpg",
    "id_album": "1273365283",
    "description": "Cute_277724",
    "title": "Cute_277724",
    "link_img": "https://live.staticflickr.com/65535/50019926836_3361fc6530_o.jpg",
    "id_image": "Cute_277724",
    "count_view": 0
  },
  {
    "link_thumb": "https://live.staticflickr.com/65535/50021403103_f34878c8a6_n.jpg",
    "id_album": "1392348450",
    "description": "Leopard_710848",
    "title": "Leopard_710848",
    "link_img": "https://live.staticflickr.com/65535/50021403103_def5022d82_o.jpg",
    "id_image": "Leopard_710848",
    "count_view": 0
  },
  {
    "link_thumb": "https://live.staticflickr.com/65535/50018252197_7536360e07_n.jpg",
    "id_album": "-462831702",
    "description": "Cat_332167",
    "title": "Cat_332167",
    "link_img": "https://live.staticflickr.com/65535/50018252197_2ee37b7c7d_o.jpg",
    "id_image": "Cat_332167",
    "count_view": 0
  },
  {
    "link_thumb": "https://live.staticflickr.com/65535/50022409453_023ccdf8d8_n.jpg",
    "id_album": "-1431524681",
    "description": "Pug_570930",
    "title": "Pug_570930",
    "link_img": "https://live.staticflickr.com/65535/50022409453_e1b3f442f9_o.jpg",
    "id_image": "Pug_570930",
    "count_view": 0
  },
  {
    "link_thumb": "https://live.staticflickr.com/65535/50021109283_0b33bf3daf_n.jpg",
    "id_album": "-737856092",
    "description": "Iguana_541247",
    "title": "Iguana_541247",
    "link_img": "https://live.staticflickr.com/65535/50021109283_920ca8d80e_o.jpg",
    "id_image": "Iguana_541247",
    "count_view": 0
  },
  {
    "link_thumb": "https://live.staticflickr.com/65535/50018046156_8ede3a7bc7_n.jpg",
    "id_album": "-462831702",
    "description": "Cat_357819",
    "title": "Cat_357819",
    "link_img": "https://live.staticflickr.com/65535/50018046156_baaf083591_o.jpg",
    "id_image": "Cat_357819",
    "count_view": 0
  },
  {
    "link_thumb": "https://live.staticflickr.com/65535/50016685638_c3e8aa0272_n.jpg",
    "id_album": "-1846011410",
    "description": "Bird_209185",
    "title": "Bird_209185",
    "link_img": "https://live.staticflickr.com/65535/50016685638_3930097c37_o.jpg",
    "id_image": "Bird_209185",
    "count_view": 0
  },
  {
    "link_thumb": "https://live.staticflickr.com/65535/50021184778_a8723c2340_n.jpg",
    "id_album": "-843028318",
    "description": "Jaguar_451568",
    "title": "Jaguar_451568",
    "link_img": "https://live.staticflickr.com/65535/50021184778_1d4f473293_o.jpg",
    "id_image": "Jaguar_451568",
    "count_view": 0
  },
  {
    "link_thumb": "https://live.staticflickr.com/65535/50020423983_53d1741477_n.jpg",
    "id_album": "-128218148",
    "description": "Fox_442221",
    "title": "Fox_442221",
    "link_img": "https://live.staticflickr.com/65535/50020423983_449906e35b_o.jpg",
    "id_image": "Fox_442221",
    "count_view": 0
  },
  {
    "link_thumb": "https://live.staticflickr.com/65535/50017568451_055c81876f_n.jpg",
    "id_album": "-401151552",
    "description": "Butterfly_355990",
    "title": "Butterfly_355990",
    "link_img": "https://live.staticflickr.com/65535/50017568451_5258304568_o.jpg",
    "id_image": "Butterfly_355990",
    "count_view": 0
  },
  {
    "link_thumb": "https://live.staticflickr.com/65535/50352600262_257cfd1de3_n.jpg",
    "id_album": "-462831703",
    "description": "Cat_247385",
    "title": "Cat_247385",
    "link_img": "https://live.staticflickr.com/65535/50352600262_0e014f19bf_o.jpg",
    "id_image": "Cat_247385",
    "count_view": 0
  },
  {
    "link_thumb": "https://live.staticflickr.com/65535/50017595346_61f7500a24_n.jpg",
    "id_album": "-401151552",
    "description": "Butterfly_434239",
    "title": "Butterfly_434239",
    "link_img": "https://live.staticflickr.com/65535/50017595346_49a74c0870_o.jpg",
    "id_image": "Butterfly_434239",
    "count_view": 0
  },
  {
    "link_thumb": "https://live.staticflickr.com/65535/50017007411_664f2c6e5f_n.jpg",
    "id_album": "-422187261",
    "description": "Bear_203667",
    "title": "Bear_203667",
    "link_img": "https://live.staticflickr.com/65535/50017007411_4d990068b2_o.jpg",
    "id_image": "Bear_203667",
    "count_view": 0
  },
  {
    "link_thumb": "https://live.staticflickr.com/65535/50021839901_6e41561dc8_n.jpg",
    "id_album": "-1882491687",
    "description": "Ladybug_211401",
    "title": "Ladybug_211401",
    "link_img": "https://live.staticflickr.com/65535/50021839901_f19670e4f7_o.jpg",
    "id_image": "Ladybug_211401",
    "count_view": 0
  },
  {
    "link_thumb": "https://live.staticflickr.com/65535/50023304187_2b6c7ae790_n.jpg",
    "id_album": "-353898617",
    "description": "Puppy_678244",
    "title": "Puppy_678244",
    "link_img": "https://live.staticflickr.com/65535/50023304187_a09df26022_o.jpg",
    "id_image": "Puppy_678244",
    "count_view": 0
  },
  {
    "link_thumb": "https://live.staticflickr.com/65535/50352861657_78480c1c4c_n.jpg",
    "id_album": "-462831702",
    "description": "Cat_5712",
    "title": "Cat_5712",
    "link_img": "https://live.staticflickr.com/65535/50352861657_1d957461de_o.jpg",
    "id_image": "Cat_5712",
    "count_view": 0
  },
  {
    "link_thumb": "https://live.staticflickr.com/65535/50022340646_795593c5d3_n.jpg",
    "id_album": "1015034486",
    "description": "Muteswan_898485",
    "title": "Muteswan_898485",
    "link_img": "https://live.staticflickr.com/65535/50022340646_a58b515682_o.jpg",
    "id_image": "Muteswan_898485",
    "count_view": 0
  },
  {
    "link_thumb": "https://live.staticflickr.com/65535/50017201038_57f1f60cf5_n.jpg",
    "id_album": "-1131161368",
    "description": "Camel_885051",
    "title": "Camel_885051",
    "link_img": "https://live.staticflickr.com/65535/50017201038_2ef19a8431_o.jpg",
    "id_image": "Camel_885051",
    "count_view": 0
  },
  {
    "link_thumb": "https://live.staticflickr.com/65535/50020072422_af6e2ba111_n.jpg",
    "id_album": "-1868680171",
    "description": "Cougar_392796",
    "title": "Cougar_392796",
    "link_img": "https://live.staticflickr.com/65535/50020072422_e9da24ed8a_o.jpg",
    "id_image": "Cougar_392796",
    "count_view": 0
  },
  {
    "link_thumb": "https://live.staticflickr.com/65535/50021110846_264dacec83_n.jpg",
    "id_album": "-462831704",
    "description": "Cat_553675",
    "title": "Cat_553675",
    "link_img": "https://live.staticflickr.com/65535/50021110846_db6e8366fb_o.jpg",
    "id_image": "Cat_553675",
    "count_view": 0
  },
  {
    "link_thumb": "https://live.staticflickr.com/65535/50020739393_91738ee47c_n.jpg",
    "id_album": "-34696179",
    "description": "Gecko_836013",
    "title": "Gecko_836013",
    "link_img": "https://live.staticflickr.com/65535/50020739393_7c37cbb4df_o.jpg",
    "id_image": "Gecko_836013",
    "count_view": 0
  },
  {
    "link_thumb": "https://live.staticflickr.com/65535/50020891728_f0d5fb23bb_n.jpg",
    "id_album": "1469520430",
    "description": "Hedgehog_592713",
    "title": "Hedgehog_592713",
    "link_img": "https://live.staticflickr.com/65535/50020891728_ff57d33ae5_o.jpg",
    "id_image": "Hedgehog_592713",
    "count_view": 0
  },
  {
    "link_thumb": "https://live.staticflickr.com/65535/50023077763_ebfc28e720_n.jpg",
    "id_album": "-1131363127",
    "description": "SnowLeopard_235713",
    "title": "SnowLeopard_235713",
    "link_img": "https://live.staticflickr.com/65535/50023077763_5c652be980_o.jpg",
    "id_image": "SnowLeopard_235713",
    "count_view": 0
  },
  {
    "link_thumb": "https://live.staticflickr.com/65535/50020623388_e604797ed5_n.jpg",
    "id_album": "-462831704",
    "description": "Cat_682896",
    "title": "Cat_682896",
    "link_img": "https://live.staticflickr.com/65535/50020623388_6f7fe3921f_o.jpg",
    "id_image": "Cat_682896",
    "count_view": 0
  },
  {
    "link_thumb": "https://live.staticflickr.com/65535/50018281647_a765185051_n.jpg",
    "id_album": "-462831702",
    "description": "Cat_346058",
    "title": "Cat_346058",
    "link_img": "https://live.staticflickr.com/65535/50018281647_971bc7985c_o.jpg",
    "id_image": "Cat_346058",
    "count_view": 0
  },
  {
    "link_thumb": "https://live.staticflickr.com/65535/50017389488_f35e1a3402_n.jpg",
    "id_album": "-462831705",
    "description": "Cat_26499",
    "title": "Cat_26499",
    "link_img": "https://live.staticflickr.com/65535/50017389488_d52fee2ee0_o.jpg",
    "id_image": "Cat_26499",
    "count_view": 0
  },
  {
    "link_thumb": "https://live.staticflickr.com/65535/50021197941_95af91d906_n.jpg",
    "id_album": "-462831704",
    "description": "Cat_715502",
    "title": "Cat_715502",
    "link_img": "https://live.staticflickr.com/65535/50021197941_5eccfbf4cb_o.jpg",
    "id_image": "Cat_715502",
    "count_view": 0
  },
  {
    "link_thumb": "https://live.staticflickr.com/65535/50016628333_ee92beeeed_n.jpg",
    "id_album": "1699594607",
    "description": "Bee_691699",
    "title": "Bee_691699",
    "link_img": "https://live.staticflickr.com/65535/50016628333_f4cb84919a_o.jpg",
    "id_image": "Bee_691699",
    "count_view": 0
  },
  {
    "link_thumb": "https://live.staticflickr.com/65535/50017196857_5acd35718d_n.jpg",
    "id_album": "390697200",
    "description": "AustralianShepherd_777584",
    "title": "AustralianShepherd_777584",
    "link_img": "https://live.staticflickr.com/65535/50017196857_c94d35dcf7_o.jpg",
    "id_image": "AustralianShepherd_777584",
    "count_view": 0
  },
  {
    "link_thumb": "https://live.staticflickr.com/65535/50020399612_64ba6d594a_n.jpg",
    "id_album": "-149330232",
    "description": "Dog_194064",
    "title": "Dog_194064",
    "link_img": "https://live.staticflickr.com/65535/50020399612_d6b3344002_o.jpg",
    "id_image": "Dog_194064",
    "count_view": 0
  },
  {
    "link_thumb": "https://live.staticflickr.com/65535/50024476201_a838747428_n.jpg",
    "id_album": "-709711865",
    "description": "Wolf_329792",
    "title": "Wolf_329792",
    "link_img": "https://live.staticflickr.com/65535/50024476201_e0aceabeae_o.jpg",
    "id_image": "Wolf_329792",
    "count_view": 0
  },
  {
    "link_thumb": "https://live.staticflickr.com/65535/50017970722_104043497e_n.jpg",
    "id_album": "-401151552",
    "description": "Butterfly_927170",
    "title": "Butterfly_927170",
    "link_img": "https://live.staticflickr.com/65535/50017970722_3074db24ea_o.jpg",
    "id_image": "Butterfly_927170",
    "count_view": 0
  },
  {
    "link_thumb": "https://live.staticflickr.com/65535/50024429736_bca919ff54_n.jpg",
    "id_album": "766572659",
    "description": "WhiteTiger_274807",
    "title": "WhiteTiger_274807",
    "link_img": "https://live.staticflickr.com/65535/50024429736_f6290152d0_o.jpg",
    "id_image": "WhiteTiger_274807",
    "count_view": 0
  },
  {
    "link_thumb": "https://live.staticflickr.com/65535/50024483182_807652004d_n.jpg",
    "id_album": "405170427",
    "description": "Tiger_855113",
    "title": "Tiger_855113",
    "link_img": "https://live.staticflickr.com/65535/50024483182_47655a20e9_o.jpg",
    "id_image": "Tiger_855113",
    "count_view": 0
  },
  {
    "link_thumb": "https://live.staticflickr.com/65535/50020242617_d4ef341a2a_n.jpg",
    "id_album": "1903411565",
    "description": "Deer_270314",
    "title": "Deer_270314",
    "link_img": "https://live.staticflickr.com/65535/50020242617_d8838d172c_o.jpg",
    "id_image": "Deer_270314",
    "count_view": 0
  },
  {
    "link_thumb": "https://live.staticflickr.com/65535/50017249872_54b6a167f3_n.jpg",
    "id_album": "809937717",
    "description": "Beagle_583167",
    "title": "Beagle_583167",
    "link_img": "https://live.staticflickr.com/65535/50017249872_0791d3f181_o.jpg",
    "id_image": "Beagle_583167",
    "count_view": 0
  },
  {
    "link_thumb": "https://live.staticflickr.com/65535/50022091137_6ec2036a8d_n.jpg",
    "id_album": "1307335982",
    "description": "LabradorRetriever_881441",
    "title": "LabradorRetriever_881441",
    "link_img": "https://live.staticflickr.com/65535/50022091137_b3d3d6846b_o.jpg",
    "id_image": "LabradorRetriever_881441",
    "count_view": 0
  },
  {
    "link_thumb": "https://live.staticflickr.com/65535/50024408282_133f099fa9_n.jpg",
    "id_album": "405170427",
    "description": "Tiger_518992",
    "title": "Tiger_518992",
    "link_img": "https://live.staticflickr.com/65535/50024408282_f3926b5d9e_o.jpg",
    "id_image": "Tiger_518992",
    "count_view": 0
  },
  {
    "link_thumb": "https://live.staticflickr.com/65535/50021238461_e8ac30aebd_n.jpg",
    "id_album": "-462831703",
    "description": "Cat_775633",
    "title": "Cat_775633",
    "link_img": "https://live.staticflickr.com/65535/50021238461_0c1c136431_o.jpg",
    "id_image": "Cat_775633",
    "count_view": 0
  },
  {
    "link_thumb": "https://live.staticflickr.com/65535/50020730463_8d94f4b67d_n.jpg",
    "id_album": "-462831703",
    "description": "Cat_835693",
    "title": "Cat_835693",
    "link_img": "https://live.staticflickr.com/65535/50020730463_cf88b12a8c_o.jpg",
    "id_image": "Cat_835693",
    "count_view": 0
  },
  {
    "link_thumb": "https://live.staticflickr.com/65535/50017293098_1887e5738d_n.jpg",
    "id_album": "-462831705",
    "description": "Cat_181046",
    "title": "Cat_181046",
    "link_img": "https://live.staticflickr.com/65535/50017293098_1c49458b82_o.jpg",
    "id_image": "Cat_181046",
    "count_view": 0
  },
  {
    "link_thumb": "https://live.staticflickr.com/65535/50352861552_bb1117ecb5_n.jpg",
    "id_album": "-462831702",
    "description": "Cat_51953",
    "title": "Cat_51953",
    "link_img": "https://live.staticflickr.com/65535/50352861552_07e0d3994a_o.jpg",
    "id_image": "Cat_51953",
    "count_view": 0
  },
  {
    "link_thumb": "https://live.staticflickr.com/65535/50022421222_0f292f9f9a_n.jpg",
    "id_album": "1894617400",
    "description": "Lynx_784109",
    "title": "Lynx_784109",
    "link_img": "https://live.staticflickr.com/65535/50022421222_49dd44740e_o.jpg",
    "id_image": "Lynx_784109",
    "count_view": 0
  },
  {
    "link_thumb": "https://live.staticflickr.com/65535/50023401042_57ff55a79b_n.jpg",
    "id_album": "248289288",
    "description": "Raccoon_383191",
    "title": "Raccoon_383191",
    "link_img": "https://live.staticflickr.com/65535/50023401042_86bb16c679_o.jpg",
    "id_image": "Raccoon_383191",
    "count_view": 0
  },
  {
    "link_thumb": "https://live.staticflickr.com/65535/50017860377_c4ca9d685e_n.jpg",
    "id_album": "-401151552",
    "description": "Butterfly_441675",
    "title": "Butterfly_441675",
    "link_img": "https://live.staticflickr.com/65535/50017860377_b5e7a62932_o.jpg",
    "id_image": "Butterfly_441675",
    "count_view": 0
  },
  {
    "link_thumb": "https://live.staticflickr.com/65535/50017790007_6c86398620_n.jpg",
    "id_album": "368532157",
    "description": "Bulldog_854532",
    "title": "Bulldog_854532",
    "link_img": "https://live.staticflickr.com/65535/50017790007_dd75bf7402_o.jpg",
    "id_image": "Bulldog_854532",
    "count_view": 0
  },
  {
    "link_thumb": "https://live.staticflickr.com/65535/50018645408_753239764d_n.jpg",
    "id_album": "-462831702",
    "description": "Cat_427147",
    "title": "Cat_427147",
    "link_img": "https://live.staticflickr.com/65535/50018645408_cb4d8e1a1d_o.jpg",
    "id_image": "Cat_427147",
    "count_view": 0
  },
  {
    "link_thumb": "https://live.staticflickr.com/65535/50021099451_fb2600422f_n.jpg",
    "id_album": "-462831704",
    "description": "Cat_542310",
    "title": "Cat_542310",
    "link_img": "https://live.staticflickr.com/65535/50021099451_c049484aee_o.jpg",
    "id_image": "Cat_542310",
    "count_view": 0
  },
  {
    "link_thumb": "https://live.staticflickr.com/65535/50021880152_379659201c_n.jpg",
    "id_album": "-712553376",
    "description": "Husky_275610",
    "title": "Husky_275610",
    "link_img": "https://live.staticflickr.com/65535/50021880152_6fd78e87e1_o.jpg",
    "id_image": "Husky_275610",
    "count_view": 0
  },
  {
    "link_thumb": "https://live.staticflickr.com/65535/50021630696_f257a0087f_n.jpg",
    "id_album": "-712553376",
    "description": "Husky_365161",
    "title": "Husky_365161",
    "link_img": "https://live.staticflickr.com/65535/50021630696_89660aa9fc_o.jpg",
    "id_image": "Husky_365161",
    "count_view": 0
  },
  {
    "link_thumb": "https://live.staticflickr.com/65535/50020279983_c47b0fa980_n.jpg",
    "id_album": "822895535",
    "description": "Falcon_543243",
    "title": "Falcon_543243",
    "link_img": "https://live.staticflickr.com/65535/50020279983_69bb29e0df_o.jpg",
    "id_image": "Falcon_543243",
    "count_view": 0
  },
  {
    "link_thumb": "https://live.staticflickr.com/65535/50022016101_a38a424b3c_n.jpg",
    "id_album": "416744915",
    "description": "Lion_427475",
    "title": "Lion_427475",
    "link_img": "https://live.staticflickr.com/65535/50022016101_f829487ca6_o.jpg",
    "id_image": "Lion_427475",
    "count_view": 0
  },
  {
    "link_thumb": "https://live.staticflickr.com/65535/50020537258_152e71259f_n.jpg",
    "id_album": "844170697",
    "description": "Frog_863207",
    "title": "Frog_863207",
    "link_img": "https://live.staticflickr.com/65535/50020537258_d0a7274a80_o.jpg",
    "id_image": "Frog_863207",
    "count_view": 0
  },
  {
    "link_thumb": "https://live.staticflickr.com/65535/50017078067_a53e1cacdf_n.jpg",
    "id_album": "-1473450542",
    "description": "Alpaca_548387",
    "title": "Alpaca_548387",
    "link_img": "https://live.staticflickr.com/65535/50017078067_640ddf9d0a_o.jpg",
    "id_image": "Alpaca_548387",
    "count_view": 0
  },
  {
    "link_thumb": "https://live.staticflickr.com/65535/50021203453_3c967a36a9_n.jpg",
    "id_album": "665694624",
    "description": "JapaneseMacaque_332056",
    "title": "JapaneseMacaque_332056",
    "link_img": "https://live.staticflickr.com/65535/50021203453_5649b62615_o.jpg",
    "id_image": "JapaneseMacaque_332056",
    "count_view": 0
  },
  {
    "link_thumb": "https://live.staticflickr.com/65535/50017545611_b7cd36e38d_n.jpg",
    "id_album": "-401151552",
    "description": "Butterfly_219442",
    "title": "Butterfly_219442",
    "link_img": "https://live.staticflickr.com/65535/50017545611_eccb2690e6_o.jpg",
    "id_image": "Butterfly_219442",
    "count_view": 0
  },
  {
    "link_thumb": "https://live.staticflickr.com/65535/50017511916_c6ee67105d_n.jpg",
    "id_album": "782930701",
    "description": "BorderCollie_935981",
    "title": "BorderCollie_935981",
    "link_img": "https://live.staticflickr.com/65535/50017511916_090216e41e_o.jpg",
    "id_image": "BorderCollie_935981",
    "count_view": 0
  },
  {
    "link_thumb": "https://live.staticflickr.com/65535/50018417557_1debab3a64_n.jpg",
    "id_album": "-462831702",
    "description": "Cat_409010",
    "title": "Cat_409010",
    "link_img": "https://live.staticflickr.com/65535/50018417557_1efde058ba_o.jpg",
    "id_image": "Cat_409010",
    "count_view": 0
  },
  {
    "link_thumb": "https://live.staticflickr.com/65535/50021510167_986777c5fa_n.jpg",
    "id_album": "-462831703",
    "description": "Cat_800556",
    "title": "Cat_800556",
    "link_img": "https://live.staticflickr.com/65535/50021510167_93285e9c05_o.jpg",
    "id_image": "Cat_800556",
    "count_view": 0
  },
  {
    "link_thumb": "https://live.staticflickr.com/65535/50022094367_c3fd2ef27d_n.jpg",
    "id_album": "-1882491687",
    "description": "Ladybug_118822",
    "title": "Ladybug_118822",
    "link_img": "https://live.staticflickr.com/65535/50022094367_ed9616b44a_o.jpg",
    "id_image": "Ladybug_118822",
    "count_view": 0
  },
  {
    "link_thumb": "https://live.staticflickr.com/65535/50018772738_a270b68155_n.jpg",
    "id_album": "-462831704",
    "description": "Cat_534102",
    "title": "Cat_534102",
    "link_img": "https://live.staticflickr.com/65535/50018772738_eacf12c493_o.jpg",
    "id_image": "Cat_534102",
    "count_view": 0
  },
  {
    "link_thumb": "https://live.staticflickr.com/65535/50020835048_1067ba45d0_n.jpg",
    "id_album": "-975314166",
    "description": "Goldfish_364852",
    "title": "Goldfish_364852",
    "link_img": "https://live.staticflickr.com/65535/50020835048_d1d9d3d198_o.jpg",
    "id_image": "Goldfish_364852",
    "count_view": 0
  },
  {
    "link_thumb": "https://live.staticflickr.com/65535/50017122986_fa29bf26d2_n.jpg",
    "id_album": "1699594607",
    "description": "Bee_322589",
    "title": "Bee_322589",
    "link_img": "https://live.staticflickr.com/65535/50017122986_317375c44a_o.jpg",
    "id_image": "Bee_322589",
    "count_view": 0
  },
  {
    "link_thumb": "https://live.staticflickr.com/65535/50017390243_74056b1abf_n.jpg",
    "id_album": "-462831705",
    "description": "Cat_265679",
    "title": "Cat_265679",
    "link_img": "https://live.staticflickr.com/65535/50017390243_ce94b7ebaf_o.jpg",
    "id_image": "Cat_265679",
    "count_view": 0
  },
  {
    "link_thumb": "https://live.staticflickr.com/65535/50023437423_270ecf32df_n.jpg",
    "id_album": "702283289",
    "description": "Squirrel_978000",
    "title": "Squirrel_978000",
    "link_img": "https://live.staticflickr.com/65535/50023437423_c10497e5dc_o.jpg",
    "id_image": "Squirrel_978000",
    "count_view": 0
  },
  {
    "link_thumb": "https://live.staticflickr.com/65535/50352575562_f413d66cda_n.jpg",
    "id_album": "-462831703",
    "description": "Cat_191493",
    "title": "Cat_191493",
    "link_img": "https://live.staticflickr.com/65535/50352575562_d753413343_o.jpg",
    "id_image": "Cat_191493",
    "count_view": 0
  },
  {
    "link_thumb": "https://live.staticflickr.com/65535/50024243716_3af7f296c2_n.jpg",
    "id_album": "405170427",
    "description": "Tiger_923376",
    "title": "Tiger_923376",
    "link_img": "https://live.staticflickr.com/65535/50024243716_eb734a6b66_o.jpg",
    "id_image": "Tiger_923376",
    "count_view": 0
  },
  {
    "link_thumb": "https://live.staticflickr.com/65535/50024022756_be910b8ce3_n.jpg",
    "id_album": "405170427",
    "description": "Tiger_102314",
    "title": "Tiger_102314",
    "link_img": "https://live.staticflickr.com/65535/50024022756_cd88a0d454_o.jpg",
    "id_image": "Tiger_102314",
    "count_view": 0
  },
  {
    "link_thumb": "https://live.staticflickr.com/65535/50022933418_c8ef4175fa_n.jpg",
    "id_album": "-755466332",
    "description": "Sheep_363527",
    "title": "Sheep_363527",
    "link_img": "https://live.staticflickr.com/65535/50022933418_e973d0eb26_o.jpg",
    "id_image": "Sheep_363527",
    "count_view": 0
  },
  {
    "link_thumb": "https://live.staticflickr.com/65535/50020196473_5209e57744_n.jpg",
    "id_album": "1270947998",
    "description": "Elephant_116596",
    "title": "Elephant_116596",
    "link_img": "https://live.staticflickr.com/65535/50020196473_4655654667_o.jpg",
    "id_image": "Elephant_116596",
    "count_view": 0
  },
  {
    "link_thumb": "https://live.staticflickr.com/65535/50023525786_517770df38_n.jpg",
    "id_album": "-800019164",
    "description": "Snail_433645",
    "title": "Snail_433645",
    "link_img": "https://live.staticflickr.com/65535/50023525786_72e8ea61e0_o.jpg",
    "id_image": "Snail_433645",
    "count_view": 0
  },
  {
    "link_thumb": "https://live.staticflickr.com/65535/50021092127_bcb3ce3a2c_n.jpg",
    "id_album": "-1118073211",
    "description": "Fish_326574",
    "title": "Fish_326574",
    "link_img": "https://live.staticflickr.com/65535/50021092127_4d393a20f4_o.jpg",
    "id_image": "Fish_326574",
    "count_view": 0
  },
  {
    "link_thumb": "https://live.staticflickr.com/65535/50017040188_887ef02b3a_n.jpg",
    "id_album": "-401151552",
    "description": "Butterfly_346506",
    "title": "Butterfly_346506",
    "link_img": "https://live.staticflickr.com/65535/50017040188_1665b63fec_o.jpg",
    "id_image": "Butterfly_346506",
    "count_view": 0
  },
  {
    "link_thumb": "https://live.staticflickr.com/65535/50019748741_9bd999bdc7_n.jpg",
    "id_album": "1949822052",
    "description": "Chimpanzee_705352",
    "title": "Chimpanzee_705352",
    "link_img": "https://live.staticflickr.com/65535/50019748741_1f7a615039_o.jpg",
    "id_image": "Chimpanzee_705352",
    "count_view": 0
  },
  {
    "link_thumb": "https://live.staticflickr.com/65535/50351723843_487eb97d11_n.jpg",
    "id_album": "-462831703",
    "description": "Cat_204419",
    "title": "Cat_204419",
    "link_img": "https://live.staticflickr.com/65535/50351723843_b72e2aae2e_o.jpg",
    "id_image": "Cat_204419",
    "count_view": 0
  },
  {
    "link_thumb": "https://live.staticflickr.com/65535/50024549907_ff4f9951e9_n.jpg",
    "id_album": "901523298",
    "description": "TreeFrog_384727",
    "title": "TreeFrog_384727",
    "link_img": "https://live.staticflickr.com/65535/50024549907_7d1d8c6648_o.jpg",
    "id_image": "TreeFrog_384727",
    "count_view": 0
  },
  {
    "link_thumb": "https://live.staticflickr.com/65535/50023699227_619c0ecb34_n.jpg",
    "id_album": "-1596347105",
    "description": "Shark_381010",
    "title": "Shark_381010",
    "link_img": "https://live.staticflickr.com/65535/50023699227_bcb9e5ecb8_o.jpg",
    "id_image": "Shark_381010",
    "count_view": 0
  },
  {
    "link_thumb": "https://live.staticflickr.com/65535/50017792066_0bd1033e9e_n.jpg",
    "id_album": "-462831705",
    "description": "Cat_161706",
    "title": "Cat_161706",
    "link_img": "https://live.staticflickr.com/65535/50017792066_0caee81637_o.jpg",
    "id_image": "Cat_161706",
    "count_view": 0
  },
  {
    "link_thumb": "https://live.staticflickr.com/65535/50352628472_29ea4c6491_n.jpg",
    "id_album": "-462831703",
    "description": "Cat_365188",
    "title": "Cat_365188",
    "link_img": "https://live.staticflickr.com/65535/50352628472_f050000ac4_o.jpg",
    "id_image": "Cat_365188",
    "count_view": 0
  },
  {
    "link_thumb": "https://live.staticflickr.com/65535/50021838896_92f9076b04_n.jpg",
    "id_album": "-1882491687",
    "description": "Ladybug_133231",
    "title": "Ladybug_133231",
    "link_img": "https://live.staticflickr.com/65535/50021838896_5467c0544e_o.jpg",
    "id_image": "Ladybug_133231",
    "count_view": 0
  },
  {
    "link_thumb": "https://live.staticflickr.com/65535/50020816527_b7ea1aff14_n.jpg",
    "id_album": "-54509188",
    "description": "Dolphin_106489",
    "title": "Dolphin_106489",
    "link_img": "https://live.staticflickr.com/65535/50020816527_b450e20efe_o.jpg",
    "id_image": "Dolphin_106489",
    "count_view": 0
  },
  {
    "link_thumb": "https://live.staticflickr.com/65535/50021383736_e719670b0f_n.jpg",
    "id_album": "-817970789",
    "description": "Goose_462114",
    "title": "Goose_462114",
    "link_img": "https://live.staticflickr.com/65535/50021383736_68a1f7e39b_o.jpg",
    "id_image": "Goose_462114",
    "count_view": 0
  },
  {
    "link_thumb": "https://live.staticflickr.com/65535/50023639958_818dc918cf_n.jpg",
    "id_album": "405170427",
    "description": "Tiger_607654",
    "title": "Tiger_607654",
    "link_img": "https://live.staticflickr.com/65535/50023639958_831681c416_o.jpg",
    "id_image": "Tiger_607654",
    "count_view": 0
  },
  {
    "link_thumb": "https://live.staticflickr.com/65535/50019889203_cf33e1ae51_n.jpg",
    "id_album": "-149330231",
    "description": "Dog_454421",
    "title": "Dog_454421",
    "link_img": "https://live.staticflickr.com/65535/50019889203_91ec7f2690_o.jpg",
    "id_image": "Dog_454421",
    "count_view": 0
  },
  {
    "link_thumb": "https://live.staticflickr.com/65535/50017920742_d8f2a57720_n.jpg",
    "id_album": "-401151552",
    "description": "Butterfly_747008",
    "title": "Butterfly_747008",
    "link_img": "https://live.staticflickr.com/65535/50017920742_b317b96730_o.jpg",
    "id_image": "Butterfly_747008",
    "count_view": 0
  },
  {
    "link_thumb": "https://live.staticflickr.com/65535/50017211372_3a44ab8839_n.jpg",
    "id_album": "390697200",
    "description": "AustralianShepherd_992217",
    "title": "AustralianShepherd_992217",
    "link_img": "https://live.staticflickr.com/65535/50017211372_4d6424e4f2_o.jpg",
    "id_image": "AustralianShepherd_992217",
    "count_view": 0
  },
  {
    "link_thumb": "https://live.staticflickr.com/65535/50018035616_752e085195_n.jpg",
    "id_album": "-462831702",
    "description": "Cat_352334",
    "title": "Cat_352334",
    "link_img": "https://live.staticflickr.com/65535/50018035616_d00c22c692_o.jpg",
    "id_image": "Cat_352334",
    "count_view": 0
  },
  {
    "link_thumb": "https://live.staticflickr.com/65535/50019611051_c55082e5a5_n.jpg",
    "id_album": "-420782796",
    "description": "Caterpillar_659841",
    "title": "Caterpillar_659841",
    "link_img": "https://live.staticflickr.com/65535/50019611051_87e9dab294_o.jpg",
    "id_image": "Caterpillar_659841",
    "count_view": 0
  },
  {
    "link_thumb": "https://live.staticflickr.com/65535/50017496876_888ca82ca6_n.jpg",
    "id_album": "782930701",
    "description": "BorderCollie_833738",
    "title": "BorderCollie_833738",
    "link_img": "https://live.staticflickr.com/65535/50017496876_1628c148b2_o.jpg",
    "id_image": "BorderCollie_833738",
    "count_view": 0
  },
  {
    "link_thumb": "https://live.staticflickr.com/65535/50021090976_dec16249de_n.jpg",
    "id_album": "-34696179",
    "description": "Gecko_349291",
    "title": "Gecko_349291",
    "link_img": "https://live.staticflickr.com/65535/50021090976_34e4794227_o.jpg",
    "id_image": "Gecko_349291",
    "count_view": 0
  },
  {
    "link_thumb": "https://live.staticflickr.com/65535/50017628211_66171c3e47_n.jpg",
    "id_album": "-401151552",
    "description": "Butterfly_570109",
    "title": "Butterfly_570109",
    "link_img": "https://live.staticflickr.com/65535/50017628211_95ff6e18f1_o.jpg",
    "id_image": "Butterfly_570109",
    "count_view": 0
  },
  {
    "link_thumb": "https://live.staticflickr.com/65535/50017949172_8d7cfaf2d4_n.jpg",
    "id_album": "-401151552",
    "description": "Butterfly_887719",
    "title": "Butterfly_887719",
    "link_img": "https://live.staticflickr.com/65535/50017949172_edcf72452b_o.jpg",
    "id_image": "Butterfly_887719",
    "count_view": 0
  },
  {
    "link_thumb": "https://live.staticflickr.com/65535/50020546623_25bc987b30_n.jpg",
    "id_album": "844170697",
    "description": "Frog_986598",
    "title": "Frog_986598",
    "link_img": "https://live.staticflickr.com/65535/50020546623_79cf7e8844_o.jpg",
    "id_image": "Frog_986598",
    "count_view": 0
  },
  {
    "link_thumb": "https://live.staticflickr.com/65535/50016731728_a309548173_n.jpg",
    "id_album": "-1846011410",
    "description": "Bird_347095",
    "title": "Bird_347095",
    "link_img": "https://live.staticflickr.com/65535/50016731728_0fe0293b10_o.jpg",
    "id_image": "Bird_347095",
    "count_view": 0
  },
  {
    "link_thumb": "https://live.staticflickr.com/65535/50017506003_1de9e18630_n.jpg",
    "id_album": "-462831702",
    "description": "Cat_351034",
    "title": "Cat_351034",
    "link_img": "https://live.staticflickr.com/65535/50017506003_9121e32fd4_o.jpg",
    "id_image": "Cat_351034",
    "count_view": 0
  },
  {
    "link_thumb": "https://live.staticflickr.com/65535/50020370671_1102de1082_n.jpg",
    "id_album": "-149330231",
    "description": "Dog_393378",
    "title": "Dog_393378",
    "link_img": "https://live.staticflickr.com/65535/50020370671_e76bfd896e_o.jpg",
    "id_image": "Dog_393378",
    "count_view": 0
  },
  {
    "link_thumb": "https://live.staticflickr.com/65535/50021079961_89865e5e3d_n.jpg",
    "id_album": "844170697",
    "description": "Frog_855135",
    "title": "Frog_855135",
    "link_img": "https://live.staticflickr.com/65535/50021079961_ebeac0cd8b_o.jpg",
    "id_image": "Frog_855135",
    "count_view": 0
  },
  {
    "link_thumb": "https://live.staticflickr.com/65535/50022146632_98677ac1d1_n.jpg",
    "id_album": "1392348450",
    "description": "Leopard_237685",
    "title": "Leopard_237685",
    "link_img": "https://live.staticflickr.com/65535/50022146632_ae3b9c61c8_o.jpg",
    "id_image": "Leopard_237685",
    "count_view": 0
  },
  {
    "link_thumb": "https://live.staticflickr.com/65535/50020494861_bdc5231b34_n.jpg",
    "id_album": "-149330231",
    "description": "Dog_719411",
    "title": "Dog_719411",
    "link_img": "https://live.staticflickr.com/65535/50020494861_729b595edc_o.jpg",
    "id_image": "Dog_719411",
    "count_view": 0
  },
  {
    "link_thumb": "https://live.staticflickr.com/65535/50019118143_fdcffc7741_n.jpg",
    "id_album": "-766919393",
    "description": "Chameleon_414753",
    "title": "Chameleon_414753",
    "link_img": "https://live.staticflickr.com/65535/50019118143_bef03cfa28_o.jpg",
    "id_image": "Chameleon_414753",
    "count_view": 0
  },
  {
    "link_thumb": "https://live.staticflickr.com/65535/50017588133_7194268da7_n.jpg",
    "id_album": "-462831702",
    "description": "Cat_386717",
    "title": "Cat_386717",
    "link_img": "https://live.staticflickr.com/65535/50017588133_ab61ca353b_o.jpg",
    "id_image": "Cat_386717",
    "count_view": 0
  },
  {
    "link_thumb": "https://live.staticflickr.com/65535/50021098833_637fb15c5b_n.jpg",
    "id_album": "-712553376",
    "description": "Husky_867694",
    "title": "Husky_867694",
    "link_img": "https://live.staticflickr.com/65535/50021098833_c93ec52f77_o.jpg",
    "id_image": "Husky_867694",
    "count_view": 0
  },
  {
    "link_thumb": "https://live.staticflickr.com/65535/50019714717_362584aba5_n.jpg",
    "id_album": "-462831703",
    "description": "Cat_914759",
    "title": "Cat_914759",
    "link_img": "https://live.staticflickr.com/65535/50019714717_208f151f64_o.jpg",
    "id_image": "Cat_914759",
    "count_view": 0
  },
  {
    "link_thumb": "https://live.staticflickr.com/65535/50021650411_bf9caeb78e_n.jpg",
    "id_album": "-737856092",
    "description": "Iguana_425216",
    "title": "Iguana_425216",
    "link_img": "https://live.staticflickr.com/65535/50021650411_a7349926cb_o.jpg",
    "id_image": "Iguana_425216",
    "count_view": 0
  },
  {
    "link_thumb": "https://live.staticflickr.com/65535/50017876162_b16de1f2a8_n.jpg",
    "id_album": "-401151552",
    "description": "Butterfly_504762",
    "title": "Butterfly_504762",
    "link_img": "https://live.staticflickr.com/65535/50017876162_b9818ffb3b_o.jpg",
    "id_image": "Butterfly_504762",
    "count_view": 0
  },
  {
    "link_thumb": "https://live.staticflickr.com/65535/50020595676_95c0652508_n.jpg",
    "id_album": "-1859457960",
    "description": "Dove_336371",
    "title": "Dove_336371",
    "link_img": "https://live.staticflickr.com/65535/50020595676_f927dbfbb8_o.jpg",
    "id_image": "Dove_336371",
    "count_view": 0
  },
  {
    "link_thumb": "https://live.staticflickr.com/65535/50352412201_b500c3effb_n.jpg",
    "id_album": "-462831703",
    "description": "Cat_184985",
    "title": "Cat_184985",
    "link_img": "https://live.staticflickr.com/65535/50352412201_92c26c46d4_o.jpg",
    "id_image": "Cat_184985",
    "count_view": 0
  },
  {
    "link_thumb": "https://live.staticflickr.com/65535/50020151442_ae32410d24_n.jpg",
    "id_album": "1475096665",
    "description": "Crocodile_438148",
    "title": "Crocodile_438148",
    "link_img": "https://live.staticflickr.com/65535/50020151442_66b663df77_o.jpg",
    "id_image": "Crocodile_438148",
    "count_view": 0
  },
  {
    "link_thumb": "https://live.staticflickr.com/65535/50022439027_02f89a2fcf_n.jpg",
    "id_album": "-1173056085",
    "description": "Macaw_597032",
    "title": "Macaw_597032",
    "link_img": "https://live.staticflickr.com/65535/50022439027_8abfa4fc2a_o.jpg",
    "id_image": "Macaw_597032",
    "count_view": 0
  },
  {
    "link_thumb": "https://live.staticflickr.com/65535/50019190353_fedb0de224_n.jpg",
    "id_album": "-1481843714",
    "description": "Cheetah_608926",
    "title": "Cheetah_608926",
    "link_img": "https://live.staticflickr.com/65535/50019190353_ca942a4549_o.jpg",
    "id_image": "Cheetah_608926",
    "count_view": 0
  },
  {
    "link_thumb": "https://live.staticflickr.com/65535/50017893286_003c9252ca_n.jpg",
    "id_album": "-462831705",
    "description": "Cat_239109",
    "title": "Cat_239109",
    "link_img": "https://live.staticflickr.com/65535/50017893286_64522496c5_o.jpg",
    "id_image": "Cat_239109",
    "count_view": 0
  },
  {
    "link_thumb": "https://live.staticflickr.com/65535/50023988036_312eb2e9e7_n.jpg",
    "id_album": "1244464375",
    "description": "Starfish_206147",
    "title": "Starfish_206147",
    "link_img": "https://live.staticflickr.com/65535/50023988036_c01e7bc1ff_o.jpg",
    "id_image": "Starfish_206147",
    "count_view": 0
  },
  {
    "link_thumb": "https://live.staticflickr.com/65535/50020736342_63d5b23931_n.jpg",
    "id_album": "-149330231",
    "description": "Dog_684060",
    "title": "Dog_684060",
    "link_img": "https://live.staticflickr.com/65535/50020736342_da010ccebe_o.jpg",
    "id_image": "Dog_684060",
    "count_view": 0
  },
  {
    "link_thumb": "https://live.staticflickr.com/65535/50352005818_b5f2e716af_n.jpg",
    "id_album": "-462831702",
    "description": "Cat_64039",
    "title": "Cat_64039",
    "link_img": "https://live.staticflickr.com/65535/50352005818_67496333b1_o.jpg",
    "id_image": "Cat_64039",
    "count_view": 0
  },
  {
    "link_thumb": "https://live.staticflickr.com/65535/50022038587_2203024e20_n.jpg",
    "id_album": "1562047127",
    "description": "Jellyfish_825876",
    "title": "Jellyfish_825876",
    "link_img": "https://live.staticflickr.com/65535/50022038587_18b69ab93b_o.jpg",
    "id_image": "Jellyfish_825876",
    "count_view": 0
  },
  {
    "link_thumb": "https://live.staticflickr.com/65535/50019366176_6cfc96e7a5_n.jpg",
    "id_album": "-462831703",
    "description": "Cat_873743",
    "title": "Cat_873743",
    "link_img": "https://live.staticflickr.com/65535/50019366176_87d7601cf3_o.jpg",
    "id_image": "Cat_873743",
    "count_view": 0
  },
  {
    "link_thumb": "https://live.staticflickr.com/65535/50021030561_24f81a2efc_n.jpg",
    "id_album": "-128218148",
    "description": "Fox_956635",
    "title": "Fox_956635",
    "link_img": "https://live.staticflickr.com/65535/50021030561_bcfed6bdc2_o.jpg",
    "id_image": "Fox_956635",
    "count_view": 0
  },
  {
    "link_thumb": "https://live.staticflickr.com/65535/50017647381_5f1614a2c5_n.jpg",
    "id_album": "-401151552",
    "description": "Butterfly_702758",
    "title": "Butterfly_702758",
    "link_img": "https://live.staticflickr.com/65535/50017647381_8828b6283d_o.jpg",
    "id_image": "Butterfly_702758",
    "count_view": 0
  },
  {
    "link_thumb": "https://live.staticflickr.com/65535/50022528323_8d530c3b71_n.jpg",
    "id_album": "-353898617",
    "description": "Puppy_908720",
    "title": "Puppy_908720",
    "link_img": "https://live.staticflickr.com/65535/50022528323_724ccf69d0_o.jpg",
    "id_image": "Puppy_908720",
    "count_view": 0
  },
  {
    "link_thumb": "https://live.staticflickr.com/65535/50016877296_f4edf66493_n.jpg",
    "id_album": "523598895",
    "description": "Artistic_191122",
    "title": "Artistic_191122",
    "link_img": "https://live.staticflickr.com/65535/50016877296_bd84bf1ba6_o.jpg",
    "id_image": "Artistic_191122",
    "count_view": 0
  },
  {
    "link_thumb": "https://live.staticflickr.com/65535/50017021738_aec7439c88_n.jpg",
    "id_album": "-401151552",
    "description": "Butterfly_234453",
    "title": "Butterfly_234453",
    "link_img": "https://live.staticflickr.com/65535/50017021738_ddfa5cd2bc_o.jpg",
    "id_image": "Butterfly_234453",
    "count_view": 0
  },
  {
    "link_thumb": "https://live.staticflickr.com/65535/50021368838_f1760c3ace_n.jpg",
    "id_album": "1392348450",
    "description": "Leopard_373221",
    "title": "Leopard_373221",
    "link_img": "https://live.staticflickr.com/65535/50021368838_9fde49ce42_o.jpg",
    "id_image": "Leopard_373221",
    "count_view": 0
  },
  {
    "link_thumb": "https://live.staticflickr.com/65535/50020900722_3a9fb36872_n.jpg",
    "id_album": "1168627767",
    "description": "Duck_121836",
    "title": "Duck_121836",
    "link_img": "https://live.staticflickr.com/65535/50020900722_f9319b1be2_o.jpg",
    "id_image": "Duck_121836",
    "count_view": 0
  },
  {
    "link_thumb": "https://live.staticflickr.com/65535/50021420741_18da9f6581_n.jpg",
    "id_album": "-1513987841",
    "description": "Hawk_390402",
    "title": "Hawk_390402",
    "link_img": "https://live.staticflickr.com/65535/50021420741_3a11cfb952_o.jpg",
    "id_image": "Hawk_390402",
    "count_view": 0
  },
  {
    "link_thumb": "https://live.staticflickr.com/65535/50017054896_132bb3f913_n.jpg",
    "id_album": "-422187261",
    "description": "Bear_535220",
    "title": "Bear_535220",
    "link_img": "https://live.staticflickr.com/65535/50017054896_f0aaecfe6d_o.jpg",
    "id_image": "Bear_535220",
    "count_view": 0
  },
  {
    "link_thumb": "https://live.staticflickr.com/65535/50018122592_0b50199028_n.jpg",
    "id_album": "-462831705",
    "description": "Cat_215132",
    "title": "Cat_215132",
    "link_img": "https://live.staticflickr.com/65535/50018122592_590ca33ffc_o.jpg",
    "id_image": "Cat_215132",
    "count_view": 0
  },
  {
    "link_thumb": "https://live.staticflickr.com/65535/50017357022_fd959cfcfd_n.jpg",
    "id_album": "-422187261",
    "description": "Bear_877699",
    "title": "Bear_877699",
    "link_img": "https://live.staticflickr.com/65535/50017357022_0a45949c2e_o.jpg",
    "id_image": "Bear_877699",
    "count_view": 0
  },
  {
    "link_thumb": "https://live.staticflickr.com/65535/50017590991_329b040ca9_n.jpg",
    "id_album": "-401151552",
    "description": "Butterfly_423096",
    "title": "Butterfly_423096",
    "link_img": "https://live.staticflickr.com/65535/50017590991_bcbedd7213_o.jpg",
    "id_image": "Butterfly_423096",
    "count_view": 0
  },
  {
    "link_thumb": "https://live.staticflickr.com/65535/50017794631_94eefdee41_n.jpg",
    "id_album": "-462831705",
    "description": "Cat_166134",
    "title": "Cat_166134",
    "link_img": "https://live.staticflickr.com/65535/50017794631_8cc359a37f_o.jpg",
    "id_image": "Cat_166134",
    "count_view": 0
  },
  {
    "link_thumb": "https://live.staticflickr.com/65535/50017825852_622ef4c988_n.jpg",
    "id_album": "-401151552",
    "description": "Butterfly_339363",
    "title": "Butterfly_339363",
    "link_img": "https://live.staticflickr.com/65535/50017825852_763d993e8a_o.jpg",
    "id_image": "Butterfly_339363",
    "count_view": 0
  },
  {
    "link_thumb": "https://live.staticflickr.com/65535/50022484608_f1ffd2ecea_n.jpg",
    "id_album": "-353898617",
    "description": "Puppy_587411",
    "title": "Puppy_587411",
    "link_img": "https://live.staticflickr.com/65535/50022484608_94bfcf966b_o.jpg",
    "id_image": "Puppy_587411",
    "count_view": 0
  },
  {
    "link_thumb": "https://live.staticflickr.com/65535/50016348738_218589ac77_n.jpg",
    "id_album": "523598895",
    "description": "Artistic_182403",
    "title": "Artistic_182403",
    "link_img": "https://live.staticflickr.com/65535/50016348738_f6c2ae89a9_o.jpg",
    "id_image": "Artistic_182403",
    "count_view": 0
  },
  {
    "link_thumb": "https://live.staticflickr.com/65535/50020158217_a36f0e675a_n.jpg",
    "id_album": "1475096665",
    "description": "Crocodile_848283",
    "title": "Crocodile_848283",
    "link_img": "https://live.staticflickr.com/65535/50020158217_e0ee1ca5c3_o.jpg",
    "id_image": "Crocodile_848283",
    "count_view": 0
  },
  {
    "link_thumb": "https://live.staticflickr.com/65535/50017603061_bcf016334b_n.jpg",
    "id_album": "-401151552",
    "description": "Butterfly_456732",
    "title": "Butterfly_456732",
    "link_img": "https://live.staticflickr.com/65535/50017603061_b7880e6189_o.jpg",
    "id_image": "Butterfly_456732",
    "count_view": 0
  },
  {
    "link_thumb": "https://live.staticflickr.com/65535/50024021062_a2e016d0f0_n.jpg",
    "id_album": "-1082521515",
    "description": "Spider_431241",
    "title": "Spider_431241",
    "link_img": "https://live.staticflickr.com/65535/50024021062_185a335f13_o.jpg",
    "id_image": "Spider_431241",
    "count_view": 0
  },
  {
    "link_thumb": "https://live.staticflickr.com/65535/50017780891_6f4767fa42_n.jpg",
    "id_album": "-462831705",
    "description": "Cat_144315",
    "title": "Cat_144315",
    "link_img": "https://live.staticflickr.com/65535/50017780891_c9bf137a59_o.jpg",
    "id_image": "Cat_144315",
    "count_view": 0
  },
  {
    "link_thumb": "https://live.staticflickr.com/65535/50022407677_35c412e294_n.jpg",
    "id_album": "1894617400",
    "description": "Lynx_439385",
    "title": "Lynx_439385",
    "link_img": "https://live.staticflickr.com/65535/50022407677_61e2591055_o.jpg",
    "id_image": "Lynx_439385",
    "count_view": 0
  },
  {
    "link_thumb": "https://live.staticflickr.com/65535/50020772597_affce1de82_n.jpg",
    "id_album": "-149330231",
    "description": "Dog_803453",
    "title": "Dog_803453",
    "link_img": "https://live.staticflickr.com/65535/50020772597_179914ca5b_o.jpg",
    "id_image": "Dog_803453",
    "count_view": 0
  },
  {
    "link_thumb": "https://live.staticflickr.com/65535/50021648042_a6a219c896_n.jpg",
    "id_album": "1950225324",
    "description": "Gorilla_596662",
    "title": "Gorilla_596662",
    "link_img": "https://live.staticflickr.com/65535/50021648042_4a73c4923f_o.jpg",
    "id_image": "Gorilla_596662",
    "count_view": 0
  },
  {
    "link_thumb": "https://live.staticflickr.com/65535/50024563457_405960f717_n.jpg",
    "id_album": "46520366",
    "description": "Turtle_328161",
    "title": "Turtle_328161",
    "link_img": "https://live.staticflickr.com/65535/50024563457_975d3f77ee_o.jpg",
    "id_image": "Turtle_328161",
    "count_view": 0
  },
  {
    "link_thumb": "https://live.staticflickr.com/65535/50017801192_2cc9f981b2_n.jpg",
    "id_album": "-401151552",
    "description": "Butterfly_171857",
    "title": "Butterfly_171857",
    "link_img": "https://live.staticflickr.com/65535/50017801192_442853d988_o.jpg",
    "id_image": "Butterfly_171857",
    "count_view": 0
  },
  {
    "link_thumb": "https://live.staticflickr.com/65535/50018617053_75dc43cbd1_n.jpg",
    "id_album": "-462831702",
    "description": "Cat_414935",
    "title": "Cat_414935",
    "link_img": "https://live.staticflickr.com/65535/50018617053_aed23b6117_o.jpg",
    "id_image": "Cat_414935",
    "count_view": 0
  },
  {
    "link_thumb": "https://live.staticflickr.com/65535/50021274811_89306b26c7_n.jpg",
    "id_album": "-462831703",
    "description": "Cat_878527",
    "title": "Cat_878527",
    "link_img": "https://live.staticflickr.com/65535/50021274811_c19c2817cc_o.jpg",
    "id_image": "Cat_878527",
    "count_view": 0
  },
  {
    "link_thumb": "https://live.staticflickr.com/65535/50023267147_d5f3d26a33_n.jpg",
    "id_album": "-353898617",
    "description": "Puppy_523342",
    "title": "Puppy_523342",
    "link_img": "https://live.staticflickr.com/65535/50023267147_a9850ed889_o.jpg",
    "id_image": "Puppy_523342",
    "count_view": 0
  },
  {
    "link_thumb": "https://live.staticflickr.com/65535/50017682001_157739c43b_n.jpg",
    "id_album": "-401151552",
    "description": "Butterfly_864172",
    "title": "Butterfly_864172",
    "link_img": "https://live.staticflickr.com/65535/50017682001_954ef56584_o.jpg",
    "id_image": "Butterfly_864172",
    "count_view": 0
  },
  {
    "link_thumb": "https://live.staticflickr.com/65535/50352596617_7d56549221_n.jpg",
    "id_album": "-462831703",
    "description": "Cat_240603",
    "title": "Cat_240603",
    "link_img": "https://live.staticflickr.com/65535/50352596617_19f33473a6_o.jpg",
    "id_image": "Cat_240603",
    "count_view": 0
  },
  {
    "link_thumb": "https://live.staticflickr.com/65535/50020607498_1803e1c320_n.jpg",
    "id_album": "-462831704",
    "description": "Cat_650924",
    "title": "Cat_650924",
    "link_img": "https://live.staticflickr.com/65535/50020607498_8a6982045e_o.jpg",
    "id_image": "Cat_650924",
    "count_view": 0
  },
  {
    "link_thumb": "https://live.staticflickr.com/65535/50022553016_f167cf0c09_n.jpg",
    "id_album": "-358592519",
    "description": "Panda_928498",
    "title": "Panda_928498",
    "link_img": "https://live.staticflickr.com/65535/50022553016_9a48f10640_o.jpg",
    "id_image": "Panda_928498",
    "count_view": 0
  },
  {
    "link_thumb": "https://live.staticflickr.com/65535/50022000097_abaf6ae90c_n.jpg",
    "id_album": "665694624",
    "description": "JapaneseMacaque_201130",
    "title": "JapaneseMacaque_201130",
    "link_img": "https://live.staticflickr.com/65535/50022000097_6e53e0a251_o.jpg",
    "id_image": "JapaneseMacaque_201130",
    "count_view": 0
  },
  {
    "link_thumb": "https://live.staticflickr.com/65535/50020113178_838290862d_n.jpg",
    "id_album": "1168627767",
    "description": "Duck_217494",
    "title": "Duck_217494",
    "link_img": "https://live.staticflickr.com/65535/50020113178_bf90a35e72_o.jpg",
    "id_image": "Duck_217494",
    "count_view": 0
  },
  {
    "link_thumb": "https://live.staticflickr.com/65535/50020816676_843532b5cb_n.jpg",
    "id_album": "822895535",
    "description": "Falcon_556309",
    "title": "Falcon_556309",
    "link_img": "https://live.staticflickr.com/65535/50020816676_426758f4c0_o.jpg",
    "id_image": "Falcon_556309",
    "count_view": 0
  },
  {
    "link_thumb": "https://live.staticflickr.com/65535/50022542708_0fa1914c6b_n.jpg",
    "id_album": "470794721",
    "description": "Python_877332",
    "title": "Python_877332",
    "link_img": "https://live.staticflickr.com/65535/50022542708_ec33e87508_o.jpg",
    "id_image": "Python_877332",
    "count_view": 0
  },
  {
    "link_thumb": "https://live.staticflickr.com/65535/50352751967_172f659878_n.jpg",
    "id_album": "-462831703",
    "description": "Cat_533991",
    "title": "Cat_533991",
    "link_img": "https://live.staticflickr.com/65535/50352751967_7ff1a359ef_o.jpg",
    "id_image": "Cat_533991",
    "count_view": 0
  },
  {
    "link_thumb": "https://live.staticflickr.com/65535/50017173607_cd51fda72e_n.jpg",
    "id_album": "523598895",
    "description": "Artistic_652679",
    "title": "Artistic_652679",
    "link_img": "https://live.staticflickr.com/65535/50017173607_3b98cf7064_o.jpg",
    "id_image": "Artistic_652679",
    "count_view": 0
  },
  {
    "link_thumb": "https://live.staticflickr.com/65535/50019465798_943f4e2b68_n.jpg",
    "id_album": "1903411565",
    "description": "Deer_355230",
    "title": "Deer_355230",
    "link_img": "https://live.staticflickr.com/65535/50019465798_c811e0f746_o.jpg",
    "id_image": "Deer_355230",
    "count_view": 0
  },
  {
    "link_thumb": "https://live.staticflickr.com/65535/50020421526_62115f5d6e_n.jpg",
    "id_album": "-149330231",
    "description": "Dog_455509",
    "title": "Dog_455509",
    "link_img": "https://live.staticflickr.com/65535/50020421526_7a6dea05e6_o.jpg",
    "id_image": "Dog_455509",
    "count_view": 0
  },
  {
    "link_thumb": "https://live.staticflickr.com/65535/50016577658_dcf5b89d1c_n.jpg",
    "id_album": "-422187261",
    "description": "Bear_929280",
    "title": "Bear_929280",
    "link_img": "https://live.staticflickr.com/65535/50016577658_79e602208e_o.jpg",
    "id_image": "Bear_929280",
    "count_view": 0
  },
  {
    "link_thumb": "https://live.staticflickr.com/65535/50020399193_ee9ebc8720_n.jpg",
    "id_album": "-128218148",
    "description": "Fox_279539",
    "title": "Fox_279539",
    "link_img": "https://live.staticflickr.com/65535/50020399193_9a6bf609e8_o.jpg",
    "id_image": "Fox_279539",
    "count_view": 0
  },
  {
    "link_thumb": "https://live.staticflickr.com/65535/50023545776_3dfee0b33e_n.jpg",
    "id_album": "-800019164",
    "description": "Snail_808157",
    "title": "Snail_808157",
    "link_img": "https://live.staticflickr.com/65535/50023545776_a77fa3b104_o.jpg",
    "id_image": "Snail_808157",
    "count_view": 0
  },
  {
    "link_thumb": "https://live.staticflickr.com/65535/50020570038_3db045f2cd_n.jpg",
    "id_album": "-462831704",
    "description": "Cat_555323",
    "title": "Cat_555323",
    "link_img": "https://live.staticflickr.com/65535/50020570038_90ea5f6235_o.jpg",
    "id_image": "Cat_555323",
    "count_view": 0
  },
  {
    "link_thumb": "https://live.staticflickr.com/65535/50020457522_c60e409bac_n.jpg",
    "id_album": "-149330232",
    "description": "Dog_267894",
    "title": "Dog_267894",
    "link_img": "https://live.staticflickr.com/65535/50020457522_21cd64af63_o.jpg",
    "id_image": "Dog_267894",
    "count_view": 0
  },
  {
    "link_thumb": "https://live.staticflickr.com/65535/50021486302_7d916399b3_n.jpg",
    "id_album": "-462831703",
    "description": "Cat_765981",
    "title": "Cat_765981",
    "link_img": "https://live.staticflickr.com/65535/50021486302_0878b1631c_o.jpg",
    "id_image": "Cat_765981",
    "count_view": 0
  },
  {
    "link_thumb": "https://live.staticflickr.com/65535/50020146176_4bff6f2292_n.jpg",
    "id_album": "-149330232",
    "description": "Dog_203965",
    "title": "Dog_203965",
    "link_img": "https://live.staticflickr.com/65535/50020146176_0b390453eb_o.jpg",
    "id_image": "Dog_203965",
    "count_view": 0
  },
  {
    "link_thumb": "https://live.staticflickr.com/65535/50017075031_08e9bc732c_n.jpg",
    "id_album": "-422187261",
    "description": "Bear_732408",
    "title": "Bear_732408",
    "link_img": "https://live.staticflickr.com/65535/50017075031_783e227dc2_o.jpg",
    "id_image": "Bear_732408",
    "count_view": 0
  },
  {
    "link_thumb": "https://live.staticflickr.com/65535/50022405632_7ac48f21ec_n.jpg",
    "id_album": "1894617400",
    "description": "Lynx_426090",
    "title": "Lynx_426090",
    "link_img": "https://live.staticflickr.com/65535/50022405632_e5380e7054_o.jpg",
    "id_image": "Lynx_426090",
    "count_view": 0
  },
  {
    "link_thumb": "https://live.staticflickr.com/65535/50017035868_500ac23a3d_n.jpg",
    "id_album": "-401151552",
    "description": "Butterfly_327702",
    "title": "Butterfly_327702",
    "link_img": "https://live.staticflickr.com/65535/50017035868_7474741333_o.jpg",
    "id_image": "Butterfly_327702",
    "count_view": 0
  },
  {
    "link_thumb": "https://live.staticflickr.com/65535/50022189883_b9391b46a9_n.jpg",
    "id_album": "392248205",
    "description": "Penguin_95850",
    "title": "Penguin_95850",
    "link_img": "https://live.staticflickr.com/65535/50022189883_47ca802f72_o.jpg",
    "id_image": "Penguin_95850",
    "count_view": 0
  },
  {
    "link_thumb": "https://live.staticflickr.com/65535/50020212098_08d7763551_n.jpg",
    "id_album": "1270947998",
    "description": "Elephant_351041",
    "title": "Elephant_351041",
    "link_img": "https://live.staticflickr.com/65535/50020212098_4c858ffcbf_o.jpg",
    "id_image": "Elephant_351041",
    "count_view": 0
  },
  {
    "link_thumb": "https://live.staticflickr.com/65535/50352649392_8c4bf3357c_n.jpg",
    "id_album": "-462831703",
    "description": "Cat_393377",
    "title": "Cat_393377",
    "link_img": "https://live.staticflickr.com/65535/50352649392_4506b94213_o.jpg",
    "id_image": "Cat_393377",
    "count_view": 0
  },
  {
    "link_thumb": "https://live.staticflickr.com/65535/50020824872_39997e106f_n.jpg",
    "id_album": "-54509188",
    "description": "Dolphin_341937",
    "title": "Dolphin_341937",
    "link_img": "https://live.staticflickr.com/65535/50020824872_d5991a18d4_o.jpg",
    "id_image": "Dolphin_341937",
    "count_view": 0
  },
  {
    "link_thumb": "https://live.staticflickr.com/65535/50021814001_75a8c0786d_n.jpg",
    "id_album": "770105808",
    "description": "Kingfisher_937963",
    "title": "Kingfisher_937963",
    "link_img": "https://live.staticflickr.com/65535/50021814001_68f1281e8a_o.jpg",
    "id_image": "Kingfisher_937963",
    "count_view": 0
  },
  {
    "link_thumb": "https://live.staticflickr.com/65535/50020810748_ca4e35473b_n.jpg",
    "id_album": "2060159334",
    "description": "GoldenRetriever_651000",
    "title": "GoldenRetriever_651000",
    "link_img": "https://live.staticflickr.com/65535/50020810748_df2884c2ac_o.jpg",
    "id_image": "GoldenRetriever_651000",
    "count_view": 0
  }
]