[
  {
    "link_thumb": "https://live.staticflickr.com/65535/50019820751_8f03686796_n.jpg",
    "id_album": "-1868680171",
    "description": "Cougar_529273",
    "title": "Cougar_529273",
    "link_img": "https://live.staticflickr.com/65535/50019820751_b90ed11a2b_o.jpg",
    "id_image": "Cougar_529273",
    "count_view": 0
  },
  {
    "link_thumb": "https://live.staticflickr.com/65535/50017808846_9878756be0_n.jpg",
    "id_album": "-462831705",
    "description": "Cat_171430",
    "title": "Cat_171430",
    "link_img": "https://live.staticflickr.com/65535/50017808846_50fbb4d4fd_o.jpg",
    "id_image": "Cat_171430",
    "count_view": 0
  },
  {
    "link_thumb": "https://live.staticflickr.com/65535/50019664032_9a39b83f53_n.jpg",
    "id_album": "-462831703",
    "description": "Cat_897344",
    "title": "Cat_897344",
    "link_img": "https://live.staticflickr.com/65535/50019664032_2f9124503b_o.jpg",
    "id_image": "Cat_897344",
    "count_view": 0
  },
  {
    "link_thumb": "https://live.staticflickr.com/65535/50023851913_a30310da95_n.jpg",
    "id_album": "786934945",
    "description": "Whale_342086",
    "title": "Whale_342086",
    "link_img": "https://live.staticflickr.com/65535/50023851913_e666c20a56_o.jpg",
    "id_image": "Whale_342086",
    "count_view": 0
  },
  {
    "link_thumb": "https://live.staticflickr.com/65535/50019074463_2e7f229ee5_n.jpg",
    "id_album": "-420782796",
    "description": "Caterpillar_391764",
    "title": "Caterpillar_391764",
    "link_img": "https://live.staticflickr.com/65535/50019074463_3c19d338cd_o.jpg",
    "id_image": "Caterpillar_391764",
    "count_view": 0
  },
  {
    "link_thumb": "https://live.staticflickr.com/65535/50021292968_b9308a9652_n.jpg",
    "id_album": "1307335982",
    "description": "LabradorRetriever_875991",
    "title": "LabradorRetriever_875991",
    "link_img": "https://live.staticflickr.com/65535/50021292968_c5c89015c8_o.jpg",
    "id_image": "LabradorRetriever_875991",
    "count_view": 0
  },
  {
    "link_thumb": "https://live.staticflickr.com/65535/50020148157_62f78795b5_n.jpg",
    "id_album": "1475096665",
    "description": "Crocodile_378778",
    "title": "Crocodile_378778",
    "link_img": "https://live.staticflickr.com/65535/50020148157_2d0f991c13_o.jpg",
    "id_image": "Crocodile_378778",
    "count_view": 0
  },
  {
    "link_thumb": "https://live.staticflickr.com/65535/50019237428_37550f25e6_n.jpg",
    "id_album": "791455625",
    "description": "Chipmunk_684748",
    "title": "Chipmunk_684748",
    "link_img": "https://live.staticflickr.com/65535/50019237428_e8af2e00f8_o.jpg",
    "id_image": "Chipmunk_684748",
    "count_view": 0
  },
  {
    "link_thumb": "https://live.staticflickr.com/65535/50022649228_8c82b08c98_n.jpg",
    "id_album": "-1862965835",
    "description": "RedEyedTreeFrog_602797",
    "title": "RedEyedTreeFrog_602797",
    "link_img": "https://live.staticflickr.com/65535/50022649228_ecd40a514d_o.jpg",
    "id_image": "RedEyedTreeFrog_602797",
    "count_view": 0
  },
  {
    "link_thumb": "https://live.staticflickr.com/65535/50018210637_69d61aec99_n.jpg",
    "id_album": "-462831702",
    "description": "Cat_305837",
    "title": "Cat_305837",
    "link_img": "https://live.staticflickr.com/65535/50018210637_73a5ca3fba_o.jpg",
    "id_image": "Cat_305837",
    "count_view": 0
  },
  {
    "link_thumb": "https://live.staticflickr.com/65535/50022495543_35203c4521_n.jpg",
    "id_album": "-353898617",
    "description": "Puppy_593450",
    "title": "Puppy_593450",
    "link_img": "https://live.staticflickr.com/65535/50022495543_081dbf224b_o.jpg",
    "id_image": "Puppy_593450",
    "count_view": 0
  },
  {
    "link_thumb": "https://live.staticflickr.com/65535/50023466152_a21ba2c369_n.jpg",
    "id_album": "332874268",
    "description": "RedPanda_370118",
    "title": "RedPanda_370118",
    "link_img": "https://live.staticflickr.com/65535/50023466152_7877624b1b_o.jpg",
    "id_image": "RedPanda_370118",
    "count_view": 0
  },
  {
    "link_thumb": "https://live.staticflickr.com/65535/50021873697_29d0bd4af2_n.jpg",
    "id_album": "2144294979",
    "description": "Hummingbird_801202",
    "title": "Hummingbird_801202",
    "link_img": "https://live.staticflickr.com/65535/50021873697_d7ec164333_o.jpg",
    "id_image": "Hummingbird_801202",
    "count_view": 0
  },
  {
    "link_thumb": "https://live.staticflickr.com/65535/50017479843_dd256c189b_n.jpg",
    "id_album": "-462831702",
    "description": "Cat_337923",
    "title": "Cat_337923",
    "link_img": "https://live.staticflickr.com/65535/50017479843_dcda23c1b0_o.jpg",
    "id_image": "Cat_337923",
    "count_view": 0
  },
  {
    "link_thumb": "https://live.staticflickr.com/65535/50017697097_f8f24fb5ff_n.jpg",
    "id_album": "-1846011410",
    "description": "Bird_876633",
    "title": "Bird_876633",
    "link_img": "https://live.staticflickr.com/65535/50017697097_e38f13d753_o.jpg",
    "id_image": "Bird_876633",
    "count_view": 0
  },
  {
    "link_thumb": "https://live.staticflickr.com/65535/50023360197_26312aebc3_n.jpg",
    "id_album": "-1940643173",
    "description": "Rabbit_396349",
    "title": "Rabbit_396349",
    "link_img": "https://live.staticflickr.com/65535/50023360197_e7ecfd28b0_o.jpg",
    "id_image": "Rabbit_396349",
    "count_view": 0
  },
  {
    "link_thumb": "https://live.staticflickr.com/65535/50021867291_0543e47031_n.jpg",
    "id_album": "-1882491687",
    "description": "Ladybug_881458",
    "title": "Ladybug_881458",
    "link_img": "https://live.staticflickr.com/65535/50021867291_198f9ce0e6_o.jpg",
    "id_image": "Ladybug_881458",
    "count_view": 0
  },
  {
    "link_thumb": "https://live.staticflickr.com/65535/50019188603_c311ec131e_n.jpg",
    "id_album": "-1481843714",
    "description": "Cheetah_571373",
    "title": "Cheetah_571373",
    "link_img": "https://live.staticflickr.com/65535/50019188603_3104b5dfbf_o.jpg",
    "id_image": "Cheetah_571373",
    "count_view": 0
  },
  {
    "link_thumb": "https://live.staticflickr.com/65535/50020769111_13fc3fea6b_n.jpg",
    "id_album": "1270947998",
    "description": "Elephant_558758",
    "title": "Elephant_558758",
    "link_img": "https://live.staticflickr.com/65535/50020769111_1fee0f3e67_o.jpg",
    "id_image": "Elephant_558758",
    "count_view": 0
  },
  {
    "link_thumb": "https://live.staticflickr.com/65535/50021639896_c3b15bf342_n.jpg",
    "id_album": "-712553376",
    "description": "Husky_716882",
    "title": "Husky_716882",
    "link_img": "https://live.staticflickr.com/65535/50021639896_5588434bb9_o.jpg",
    "id_image": "Husky_716882",
    "count_view": 0
  },
  {
    "link_thumb": "https://live.staticflickr.com/65535/50020877422_e24eabc433_n.jpg",
    "id_album": "-405058657",
    "description": "Dragonfly_408042",
    "title": "Dragonfly_408042",
    "link_img": "https://live.staticflickr.com/65535/50020877422_dedb9e0224_o.jpg",
    "id_image": "Dragonfly_408042",
    "count_view": 0
  },
  {
    "link_thumb": "https://live.staticflickr.com/65535/50022151202_e372383cb3_n.jpg",
    "id_album": "1392348450",
    "description": "Leopard_278287",
    "title": "Leopard_278287",
    "link_img": "https://live.staticflickr.com/65535/50022151202_8717336ff5_o.jpg",
    "id_image": "Leopard_278287",
    "count_view": 0
  },
  {
    "link_thumb": "https://live.staticflickr.com/65535/50017971091_2a4fa348b6_n.jpg",
    "id_album": "-462831702",
    "description": "Cat_324818",
    "title": "Cat_324818",
    "link_img": "https://live.staticflickr.com/65535/50017971091_eef6ee8469_o.jpg",
    "id_image": "Cat_324818",
    "count_view": 0
  },
  {
    "link_thumb": "https://live.staticflickr.com/65535/50020537258_152e71259f_n.jpg",
    "id_album": "844170697",
    "description": "Frog_863207",
    "title": "Frog_863207",
    "link_img": "https://live.staticflickr.com/65535/50020537258_d0a7274a80_o.jpg",
    "id_image": "Frog_863207",
    "count_view": 0
  },
  {
    "link_thumb": "https://live.staticflickr.com/65535/50017227728_708ef9f260_n.jpg",
    "id_album": "-462831705",
    "description": "Cat_112696",
    "title": "Cat_112696",
    "link_img": "https://live.staticflickr.com/65535/50017227728_99ea59b102_o.jpg",
    "id_image": "Cat_112696",
    "count_view": 0
  },
  {
    "link_thumb": "https://live.staticflickr.com/65535/50024484701_7f576e2752_n.jpg",
    "id_album": "-709711865",
    "description": "Wolf_351446",
    "title": "Wolf_351446",
    "link_img": "https://live.staticflickr.com/65535/50024484701_187ac8cea5_o.jpg",
    "id_image": "Wolf_351446",
    "count_view": 0
  },
  {
    "link_thumb": "https://live.staticflickr.com/65535/50021863626_237490c426_n.jpg",
    "id_album": "-1882491687",
    "description": "Ladybug_774225",
    "title": "Ladybug_774225",
    "link_img": "https://live.staticflickr.com/65535/50021863626_abef9fc48e_o.jpg",
    "id_image": "Ladybug_774225",
    "count_view": 0
  },
  {
    "link_thumb": "https://live.staticflickr.com/65535/50017529998_d24d5d0fdd_n.jpg",
    "id_album": "-462831702",
    "description": "Cat_361863",
    "title": "Cat_361863",
    "link_img": "https://live.staticflickr.com/65535/50017529998_9d084f4cf5_o.jpg",
    "id_image": "Cat_361863",
    "count_view": 0
  },
  {
    "link_thumb": "https://live.staticflickr.com/65535/50022826467_6a1ea956c4_n.jpg",
    "id_album": "405592235",
    "description": "Parrot_421939",
    "title": "Parrot_421939",
    "link_img": "https://live.staticflickr.com/65535/50022826467_e75c53a44f_o.jpg",
    "id_image": "Parrot_421939",
    "count_view": 0
  },
  {
    "link_thumb": "https://live.staticflickr.com/65535/50023987286_aa7b583647_n.jpg",
    "id_album": "1244464375",
    "description": "Starfish_109992",
    "title": "Starfish_109992",
    "link_img": "https://live.staticflickr.com/65535/50023987286_f864ac0529_o.jpg",
    "id_image": "Starfish_109992",
    "count_view": 0
  },
  {
    "link_thumb": "https://live.staticflickr.com/65535/50020276738_744078fd7c_n.jpg",
    "id_album": "822895535",
    "description": "Falcon_425704",
    "title": "Falcon_425704",
    "link_img": "https://live.staticflickr.com/65535/50020276738_aaa5f69ce4_o.jpg",
    "id_image": "Falcon_425704",
    "count_view": 0
  },
  {
    "link_thumb": "https://live.staticflickr.com/65535/50019887393_9523b8c8ec_n.jpg",
    "id_album": "-149330231",
    "description": "Dog_449509",
    "title": "Dog_449509",
    "link_img": "https://live.staticflickr.com/65535/50019887393_f99186b598_o.jpg",
    "id_image": "Dog_449509",
    "count_view": 0
  },
  {
    "link_thumb": "https://live.staticflickr.com/65535/50023908453_8283a5890a_n.jpg",
    "id_album": "766572659",
    "description": "WhiteTiger_929033",
    "title": "WhiteTiger_929033",
    "link_img": "https://live.staticflickr.com/65535/50023908453_79e6f8495b_o.jpg",
    "id_image": "WhiteTiger_929033",
    "count_view": 0
  },
  {
    "link_thumb": "https://live.staticflickr.com/65535/50020514571_95eaaa966b_n.jpg",
    "id_album": "-149330231",
    "description": "Dog_791168",
    "title": "Dog_791168",
    "link_img": "https://live.staticflickr.com/65535/50020514571_db71295428_o.jpg",
    "id_image": "Dog_791168",
    "count_view": 0
  },
  {
    "link_thumb": "https://live.staticflickr.com/65535/50019906126_1ea1b0a8df_n.jpg",
    "id_album": "-392100404",
    "description": "Crow_458660",
    "title": "Crow_458660",
    "link_img": "https://live.staticflickr.com/65535/50019906126_990c31b3ba_o.jpg",
    "id_image": "Crow_458660",
    "count_view": 0
  },
  {
    "link_thumb": "https://live.staticflickr.com/65535/50021412871_01e716858a_n.jpg",
    "id_album": "109779448",
    "description": "Hare_357945",
    "title": "Hare_357945",
    "link_img": "https://live.staticflickr.com/65535/50021412871_4023164ee6_o.jpg",
    "id_image": "Hare_357945",
    "count_view": 0
  },
  {
    "link_thumb": "https://live.staticflickr.com/65535/50021241556_8bf3634829_n.jpg",
    "id_album": "-462831703",
    "description": "Cat_779299",
    "title": "Cat_779299",
    "link_img": "https://live.staticflickr.com/65535/50021241556_25e9a41c41_o.jpg",
    "id_image": "Cat_779299",
    "count_view": 0
  },
  {
    "link_thumb": "https://live.staticflickr.com/65535/50017117913_bfee550406_n.jpg",
    "id_album": "-401151552",
    "description": "Butterfly_691002",
    "title": "Butterfly_691002",
    "link_img": "https://live.staticflickr.com/65535/50017117913_a8da328fc8_o.jpg",
    "id_image": "Butterfly_691002",
    "count_view": 0
  },
  {
    "link_thumb": "https://live.staticflickr.com/65535/50021865726_9929405c07_n.jpg",
    "id_album": "-1882491687",
    "description": "Ladybug_812277",
    "title": "Ladybug_812277",
    "link_img": "https://live.staticflickr.com/65535/50021865726_816fbc190f_o.jpg",
    "id_image": "Ladybug_812277",
    "count_view": 0
  },
  {
    "link_thumb": "https://live.staticflickr.com/65535/50351848643_d5fb1aea0e_n.jpg",
    "id_album": "-462831703",
    "description": "Cat_462085",
    "title": "Cat_462085",
    "link_img": "https://live.staticflickr.com/65535/50351848643_7296269db4_o.jpg",
    "id_image": "Cat_462085",
    "count_view": 0
  },
  {
    "link_thumb": "https://live.staticflickr.com/65535/50017519611_144b601ba9_n.jpg",
    "id_album": "1696155652",
    "description": "Boxer_726415",
    "title": "Boxer_726415",
    "link_img": "https://live.staticflickr.com/65535/50017519611_84d8d61748_o.jpg",
    "id_image": "Boxer_726415",
    "count_view": 0
  },
  {
    "link_thumb": "https://live.staticflickr.com/65535/50019965188_f31a10d728_n.jpg",
    "id_album": "-149330231",
    "description": "Dog_729980",
    "title": "Dog_729980",
    "link_img": "https://live.staticflickr.com/65535/50019965188_52f649f260_o.jpg",
    "id_image": "Dog_729980",
    "count_view": 0
  },
  {
    "link_thumb": "https://live.staticflickr.com/65535/50023603998_c966c7f1b5_n.jpg",
    "id_album": "405170427",
    "description": "Tiger_524464",
    "title": "Tiger_524464",
    "link_img": "https://live.staticflickr.com/65535/50023603998_b0d26be65a_o.jpg",
    "id_image": "Tiger_524464",
    "count_view": 0
  },
  {
    "link_thumb": "https://live.staticflickr.com/65535/50020061327_08d60ca64b_n.jpg",
    "id_album": "-1868680171",
    "description": "Cougar_245474",
    "title": "Cougar_245474",
    "link_img": "https://live.staticflickr.com/65535/50020061327_8425b20078_o.jpg",
    "id_image": "Cougar_245474",
    "count_view": 0
  },
  {
    "link_thumb": "https://live.staticflickr.com/65535/50021405457_50aee6f49a_n.jpg",
    "id_album": "-462831704",
    "description": "Cat_652427",
    "title": "Cat_652427",
    "link_img": "https://live.staticflickr.com/65535/50021405457_3400d3c4cb_o.jpg",
    "id_image": "Cat_652427",
    "count_view": 0
  },
  {
    "link_thumb": "https://live.staticflickr.com/65535/50017875492_6cbb876888_n.jpg",
    "id_album": "-401151552",
    "description": "Butterfly_500044",
    "title": "Butterfly_500044",
    "link_img": "https://live.staticflickr.com/65535/50017875492_820e15e914_o.jpg",
    "id_image": "Butterfly_500044",
    "count_view": 0
  },
  {
    "link_thumb": "https://live.staticflickr.com/65535/50022399158_7e4f3dbe35_n.jpg",
    "id_album": "-1431524681",
    "description": "Pug_310596",
    "title": "Pug_310596",
    "link_img": "https://live.staticflickr.com/65535/50022399158_d7a70e5ba7_o.jpg",
    "id_image": "Pug_310596",
    "count_view": 0
  },
  {
    "link_thumb": "https://live.staticflickr.com/65535/50021408196_68e05264f4_n.jpg",
    "id_album": "82558972",
    "description": "GuineaPig_409816",
    "title": "GuineaPig_409816",
    "link_img": "https://live.staticflickr.com/65535/50021408196_bedf5830c0_o.jpg",
    "id_image": "GuineaPig_409816",
    "count_view": 0
  },
  {
    "link_thumb": "https://live.staticflickr.com/65535/50017607838_f196d79637_n.jpg",
    "id_album": "-462831702",
    "description": "Cat_398816",
    "title": "Cat_398816",
    "link_img": "https://live.staticflickr.com/65535/50017607838_41dd866fd6_o.jpg",
    "id_image": "Cat_398816",
    "count_view": 0
  },
  {
    "link_thumb": "https://live.staticflickr.com/65535/50021746702_10bba0cf45_n.jpg",
    "id_album": "-1933715543",
    "description": "Horse_344399",
    "title": "Horse_344399",
    "link_img": "https://live.staticflickr.com/65535/50021746702_db934381e3_o.jpg",
    "id_image": "Horse_344399",
    "count_view": 0
  },
  {
    "link_thumb": "https://live.staticflickr.com/65535/50017959841_6ef15a75c7_n.jpg",
    "id_album": "-462831702",
    "description": "Cat_315355",
    "title": "Cat_315355",
    "link_img": "https://live.staticflickr.com/65535/50017959841_24fd830184_o.jpg",
    "id_image": "Cat_315355",
    "count_view": 0
  },
  {
    "link_thumb": "https://live.staticflickr.com/65535/50022632112_d351fcc46a_n.jpg",
    "id_album": "106807275",
    "description": "Otter_808528",
    "title": "Otter_808528",
    "link_img": "https://live.staticflickr.com/65535/50022632112_5d68fce037_o.jpg",
    "id_image": "Otter_808528",
    "count_view": 0
  },
  {
    "link_thumb": "https://live.staticflickr.com/65535/50018088311_571ec0b4bb_n.jpg",
    "id_album": "-462831702",
    "description": "Cat_369461",
    "title": "Cat_369461",
    "link_img": "https://live.staticflickr.com/65535/50018088311_e7cf321d8d_o.jpg",
    "id_image": "Cat_369461",
    "count_view": 0
  },
  {
    "link_thumb": "https://live.staticflickr.com/65535/50021892021_251efebd2e_n.jpg",
    "id_album": "1392348450",
    "description": "Leopard_243148",
    "title": "Leopard_243148",
    "link_img": "https://live.staticflickr.com/65535/50021892021_140731d3cd_o.jpg",
    "id_image": "Leopard_243148",
    "count_view": 0
  },
  {
    "link_thumb": "https://live.staticflickr.com/65535/50352472291_d867d2fe0f_n.jpg",
    "id_album": "-462831703",
    "description": "Cat_365267",
    "title": "Cat_365267",
    "link_img": "https://live.staticflickr.com/65535/50352472291_2f26f359c1_o.jpg",
    "id_image": "Cat_365267",
    "count_view": 0
  },
  {
    "link_thumb": "https://live.staticflickr.com/65535/50017357022_fd959cfcfd_n.jpg",
    "id_album": "-422187261",
    "description": "Bear_877699",
    "title": "Bear_877699",
    "link_img": "https://live.staticflickr.com/65535/50017357022_0a45949c2e_o.jpg",
    "id_image": "Bear_877699",
    "count_view": 0
  },
  {
    "link_thumb": "https://live.staticflickr.com/65535/50021221471_4a3ffd5255_n.jpg",
    "id_album": "-462831703",
    "description": "Cat_741658",
    "title": "Cat_741658",
    "link_img": "https://live.staticflickr.com/65535/50021221471_81c75a4628_o.jpg",
    "id_image": "Cat_741658",
    "count_view": 0
  },
  {
    "link_thumb": "https://live.staticflickr.com/65535/50020504018_49d23783d5_n.jpg",
    "id_album": "704811092",
    "description": "FrenchBulldog_779230",
    "title": "FrenchBulldog_779230",
    "link_img": "https://live.staticflickr.com/65535/50020504018_ee8de7f9dc_o.jpg",
    "id_image": "FrenchBulldog_779230",
    "count_view": 0
  },
  {
    "link_thumb": "https://live.staticflickr.com/65535/50023360732_9ddc3eae0d_n.jpg",
    "id_album": "-1940643173",
    "description": "Rabbit_406313",
    "title": "Rabbit_406313",
    "link_img": "https://live.staticflickr.com/65535/50023360732_82f0558f10_o.jpg",
    "id_image": "Rabbit_406313",
    "count_view": 0
  },
  {
    "link_thumb": "https://live.staticflickr.com/65535/50022210297_c0571806b8_n.jpg",
    "id_album": "1392348450",
    "description": "Leopard_85923",
    "title": "Leopard_85923",
    "link_img": "https://live.staticflickr.com/65535/50022210297_33bb91213c_o.jpg",
    "id_image": "Leopard_85923",
    "count_view": 0
  },
  {
    "link_thumb": "https://live.staticflickr.com/65535/50018255567_237d6ea224_n.jpg",
    "id_album": "-462831702",
    "description": "Cat_333621",
    "title": "Cat_333621",
    "link_img": "https://live.staticflickr.com/65535/50018255567_1a4557bde5_o.jpg",
    "id_image": "Cat_333621",
    "count_view": 0
  },
  {
    "link_thumb": "https://live.staticflickr.com/65535/50021832071_75568a75d8_n.jpg",
    "id_album": "1307335982",
    "description": "LabradorRetriever_734383",
    "title": "LabradorRetriever_734383",
    "link_img": "https://live.staticflickr.com/65535/50021832071_b95c2f6aa8_o.jpg",
    "id_image": "LabradorRetriever_734383",
    "count_view": 0
  },
  {
    "link_thumb": "https://live.staticflickr.com/65535/50017130962_ca34a8e5a7_n.jpg",
    "id_album": "523598895",
    "description": "Artistic_154628",
    "title": "Artistic_154628",
    "link_img": "https://live.staticflickr.com/65535/50017130962_4ba1d0da46_o.jpg",
    "id_image": "Artistic_154628",
    "count_view": 0
  },
  {
    "link_thumb": "https://live.staticflickr.com/65535/50020473231_63d1cd862d_n.jpg",
    "id_album": "-149330231",
    "description": "Dog_657422",
    "title": "Dog_657422",
    "link_img": "https://live.staticflickr.com/65535/50020473231_e51ae33f54_o.jpg",
    "id_image": "Dog_657422",
    "count_view": 0
  },
  {
    "link_thumb": "https://live.staticflickr.com/65535/50021616342_a631092448_n.jpg",
    "id_album": "2060159334",
    "description": "GoldenRetriever_864309",
    "title": "GoldenRetriever_864309",
    "link_img": "https://live.staticflickr.com/65535/50021616342_312406da14_o.jpg",
    "id_image": "GoldenRetriever_864309",
    "count_view": 0
  },
  {
    "link_thumb": "https://live.staticflickr.com/65535/50020187171_b66c31645c_n.jpg",
    "id_album": "-149330232",
    "description": "Dog_258370",
    "title": "Dog_258370",
    "link_img": "https://live.staticflickr.com/65535/50020187171_3ef3515637_o.jpg",
    "id_image": "Dog_258370",
    "count_view": 0
  },
  {
    "link_thumb": "https://live.staticflickr.com/65535/50016422578_f92ef835f0_n.jpg",
    "id_album": "390697200",
    "description": "AustralianShepherd_941357",
    "title": "AustralianShepherd_941357",
    "link_img": "https://live.staticflickr.com/65535/50016422578_8c64ffef73_o.jpg",
    "id_image": "AustralianShepherd_941357",
    "count_view": 0
  },
  {
    "link_thumb": "https://live.staticflickr.com/65535/50022918778_2a333627d4_n.jpg",
    "id_album": "-1596347105",
    "description": "Shark_787530",
    "title": "Shark_787530",
    "link_img": "https://live.staticflickr.com/65535/50022918778_72fb444a0c_o.jpg",
    "id_image": "Shark_787530",
    "count_view": 0
  },
  {
    "link_thumb": "https://live.staticflickr.com/65535/50023389438_cc7b44b2b4_n.jpg",
    "id_album": "702283289",
    "description": "Squirrel_741564",
    "title": "Squirrel_741564",
    "link_img": "https://live.staticflickr.com/65535/50023389438_322fc60089_o.jpg",
    "id_image": "Squirrel_741564",
    "count_view": 0
  },
  {
    "link_thumb": "https://live.staticflickr.com/65535/50021569167_9c78a9ea48_n.jpg",
    "id_album": "-405626519",
    "description": "GermanShepherd_990250",
    "title": "GermanShepherd_990250",
    "link_img": "https://live.staticflickr.com/65535/50021569167_e301310524_o.jpg",
    "id_image": "GermanShepherd_990250",
    "count_view": 0
  },
  {
    "link_thumb": "https://live.staticflickr.com/65535/50023316353_e85bc0f004_n.jpg",
    "id_album": "702283289",
    "description": "Squirrel_396325",
    "title": "Squirrel_396325",
    "link_img": "https://live.staticflickr.com/65535/50023316353_f76ee61256_o.jpg",
    "id_image": "Squirrel_396325",
    "count_view": 0
  },
  {
    "link_thumb": "https://live.staticflickr.com/65535/50020510052_9f90bf0726_n.jpg",
    "id_album": "-149330232",
    "description": "Dog_331108",
    "title": "Dog_331108",
    "link_img": "https://live.staticflickr.com/65535/50020510052_7c51ab80e3_o.jpg",
    "id_image": "Dog_331108",
    "count_view": 0
  },
  {
    "link_thumb": "https://live.staticflickr.com/65535/50017988271_bd2bfa3360_n.jpg",
    "id_album": "-462831702",
    "description": "Cat_330063",
    "title": "Cat_330063",
    "link_img": "https://live.staticflickr.com/65535/50017988271_2ec8c6bcf4_o.jpg",
    "id_image": "Cat_330063",
    "count_view": 0
  },
  {
    "link_thumb": "https://live.staticflickr.com/65535/50021428816_d5e502b2cb_n.jpg",
    "id_album": "1469520430",
    "description": "Hedgehog_337305",
    "title": "Hedgehog_337305",
    "link_img": "https://live.staticflickr.com/65535/50021428816_492ee341bf_o.jpg",
    "id_image": "Hedgehog_337305",
    "count_view": 0
  },
  {
    "link_thumb": "https://live.staticflickr.com/65535/50021318618_ef3f133c80_n.jpg",
    "id_album": "-1882491687",
    "description": "Ladybug_698063",
    "title": "Ladybug_698063",
    "link_img": "https://live.staticflickr.com/65535/50021318618_dd45b9d7d5_o.jpg",
    "id_image": "Ladybug_698063",
    "count_view": 0
  },
  {
    "link_thumb": "https://live.staticflickr.com/65535/50022345561_30d2b4216c_n.jpg",
    "id_album": "588679857",
    "description": "Orangutan_251044",
    "title": "Orangutan_251044",
    "link_img": "https://live.staticflickr.com/65535/50022345561_92080210ce_o.jpg",
    "id_image": "Orangutan_251044",
    "count_view": 0
  },
  {
    "link_thumb": "https://live.staticflickr.com/65535/50021723281_3b2a6fff95_n.jpg",
    "id_album": "-843028318",
    "description": "Jaguar_388798",
    "title": "Jaguar_388798",
    "link_img": "https://live.staticflickr.com/65535/50021723281_6c5b102124_o.jpg",
    "id_image": "Jaguar_388798",
    "count_view": 0
  },
  {
    "link_thumb": "https://live.staticflickr.com/65535/50020869091_d7059ddca0_n.jpg",
    "id_album": "-1118073211",
    "description": "Fish_607734",
    "title": "Fish_607734",
    "link_img": "https://live.staticflickr.com/65535/50020869091_a5b97fba4f_o.jpg",
    "id_image": "Fish_607734",
    "count_view": 0
  },
  {
    "link_thumb": "https://live.staticflickr.com/65535/50017506168_d9ca6801c4_n.jpg",
    "id_album": "-462831702",
    "description": "Cat_351312",
    "title": "Cat_351312",
    "link_img": "https://live.staticflickr.com/65535/50017506168_3dc2d70b92_o.jpg",
    "id_image": "Cat_351312",
    "count_view": 0
  },
  {
    "link_thumb": "https://live.staticflickr.com/65535/50017465766_0c90e879db_n.jpg",
    "id_album": "-530283314",
    "description": "BlueandyellowMacaw_456735",
    "title": "BlueandyellowMacaw_456735",
    "link_img": "https://live.staticflickr.com/65535/50017465766_1beb6d5637_o.jpg",
    "id_image": "BlueandyellowMacaw_456735",
    "count_view": 0
  },
  {
    "link_thumb": "https://live.staticflickr.com/65535/50017682001_157739c43b_n.jpg",
    "id_album": "-401151552",
    "description": "Butterfly_864172",
    "title": "Butterfly_864172",
    "link_img": "https://live.staticflickr.com/65535/50017682001_954ef56584_o.jpg",
    "id_image": "Butterfly_864172",
    "count_view": 0
  },
  {
    "link_thumb": "https://live.staticflickr.com/65535/50024509401_62e1a5f4ff_n.jpg",
    "id_album": "-709711865",
    "description": "Wolf_505488",
    "title": "Wolf_505488",
    "link_img": "https://live.staticflickr.com/65535/50024509401_a8f54f981d_o.jpg",
    "id_image": "Wolf_505488",
    "count_view": 0
  },
  {
    "link_thumb": "https://live.staticflickr.com/65535/50019332496_74da525a79_n.jpg",
    "id_album": "-462831703",
    "description": "Cat_860916",
    "title": "Cat_860916",
    "link_img": "https://live.staticflickr.com/65535/50019332496_3a8915a1b5_o.jpg",
    "id_image": "Cat_860916",
    "count_view": 0
  },
  {
    "link_thumb": "https://live.staticflickr.com/65535/50022273361_2155a074b7_n.jpg",
    "id_album": "1610416937",
    "description": "Moth_169522",
    "title": "Moth_169522",
    "link_img": "https://live.staticflickr.com/65535/50022273361_bd66e17085_o.jpg",
    "id_image": "Moth_169522",
    "count_view": 0
  },
  {
    "link_thumb": "https://live.staticflickr.com/65535/50020254757_eae61e030b_n.jpg",
    "id_album": "1903411565",
    "description": "Deer_360784",
    "title": "Deer_360784",
    "link_img": "https://live.staticflickr.com/65535/50020254757_4e38be4755_o.jpg",
    "id_image": "Deer_360784",
    "count_view": 0
  },
  {
    "link_thumb": "https://live.staticflickr.com/65535/50021844096_f702e53206_n.jpg",
    "id_album": "-1882491687",
    "description": "Ladybug_347506",
    "title": "Ladybug_347506",
    "link_img": "https://live.staticflickr.com/65535/50021844096_c922b6b0c7_o.jpg",
    "id_image": "Ladybug_347506",
    "count_view": 0
  },
  {
    "link_thumb": "https://live.staticflickr.com/65535/50017742356_d095f26958_n.jpg",
    "id_album": "-462831703",
    "description": "Cat_1002236",
    "title": "Cat_1002236",
    "link_img": "https://live.staticflickr.com/65535/50017742356_81e635c4a4_o.jpg",
    "id_image": "Cat_1002236",
    "count_view": 0
  },
  {
    "link_thumb": "https://live.staticflickr.com/65535/50019580622_dc4b781aec_n.jpg",
    "id_album": "-462831703",
    "description": "Cat_853684",
    "title": "Cat_853684",
    "link_img": "https://live.staticflickr.com/65535/50019580622_a7b7db34fa_o.jpg",
    "id_image": "Cat_853684",
    "count_view": 0
  },
  {
    "link_thumb": "https://live.staticflickr.com/65535/50021347826_cf92a19b98_n.jpg",
    "id_album": "2060159334",
    "description": "GoldenRetriever_432581",
    "title": "GoldenRetriever_432581",
    "link_img": "https://live.staticflickr.com/65535/50021347826_87b16e33a8_o.jpg",
    "id_image": "GoldenRetriever_432581",
    "count_view": 0
  },
  {
    "link_thumb": "https://live.staticflickr.com/65535/50024234336_737227de4f_n.jpg",
    "id_album": "405170427",
    "description": "Tiger_899928",
    "title": "Tiger_899928",
    "link_img": "https://live.staticflickr.com/65535/50024234336_981c20c79b_o.jpg",
    "id_image": "Tiger_899928",
    "count_view": 0
  },
  {
    "link_thumb": "https://live.staticflickr.com/65535/50019425547_1834539910_n.jpg",
    "id_album": "-462831702",
    "description": "Cat_425362",
    "title": "Cat_425362",
    "link_img": "https://live.staticflickr.com/65535/50019425547_73b7ed786f_o.jpg",
    "id_image": "Cat_425362",
    "count_view": 0
  },
  {
    "link_thumb": "https://live.staticflickr.com/65535/50021961912_a50272d59b_n.jpg",
    "id_album": "1658866795",
    "description": "Insect_585773",
    "title": "Insect_585773",
    "link_img": "https://live.staticflickr.com/65535/50021961912_7c9100541c_o.jpg",
    "id_image": "Insect_585773",
    "count_view": 0
  },
  {
    "link_thumb": "https://live.staticflickr.com/65535/50021646201_f4ef706e2b_n.jpg",
    "id_album": "-737856092",
    "description": "Iguana_271561",
    "title": "Iguana_271561",
    "link_img": "https://live.staticflickr.com/65535/50021646201_07ea67429a_o.jpg",
    "id_image": "Iguana_271561",
    "count_view": 0
  },
  {
    "link_thumb": "https://live.staticflickr.com/65535/50016839296_16cf3978ee_n.jpg",
    "id_album": "-1741290715",
    "description": "Ant_610078",
    "title": "Ant_610078",
    "link_img": "https://live.staticflickr.com/65535/50016839296_4e3b067de3_o.jpg",
    "id_image": "Ant_610078",
    "count_view": 0
  },
  {
    "link_thumb": "https://live.staticflickr.com/65535/50021629238_1818570908_n.jpg",
    "id_album": "1894617400",
    "description": "Lynx_970715",
    "title": "Lynx_970715",
    "link_img": "https://live.staticflickr.com/65535/50021629238_755a7d4eaa_o.jpg",
    "id_image": "Lynx_970715",
    "count_view": 0
  },
  {
    "link_thumb": "https://live.staticflickr.com/65535/50022993002_2da8261c65_n.jpg",
    "id_album": "-1431786825",
    "description": "Pig_115554",
    "title": "Pig_115554",
    "link_img": "https://live.staticflickr.com/65535/50022993002_5e2d694737_o.jpg",
    "id_image": "Pig_115554",
    "count_view": 0
  },
  {
    "link_thumb": "https://live.staticflickr.com/65535/50019466088_22d1b598eb_n.jpg",
    "id_album": "1903411565",
    "description": "Deer_355998",
    "title": "Deer_355998",
    "link_img": "https://live.staticflickr.com/65535/50019466088_4eaa91c8d8_o.jpg",
    "id_image": "Deer_355998",
    "count_view": 0
  },
  {
    "link_thumb": "https://live.staticflickr.com/65535/50018328942_b859ed8847_n.jpg",
    "id_album": "-462831702",
    "description": "Cat_364309",
    "title": "Cat_364309",
    "link_img": "https://live.staticflickr.com/65535/50018328942_28574e5fae_o.jpg",
    "id_image": "Cat_364309",
    "count_view": 0
  },
  {
    "link_thumb": "https://live.staticflickr.com/65535/50018384632_18c5578d7c_n.jpg",
    "id_album": "-462831702",
    "description": "Cat_391113",
    "title": "Cat_391113",
    "link_img": "https://live.staticflickr.com/65535/50018384632_7e411e58f6_o.jpg",
    "id_image": "Cat_391113",
    "count_view": 0
  },
  {
    "link_thumb": "https://live.staticflickr.com/65535/50020729608_50f6e70ed7_n.jpg",
    "id_album": "-462831703",
    "description": "Cat_833424",
    "title": "Cat_833424",
    "link_img": "https://live.staticflickr.com/65535/50020729608_991e92d127_o.jpg",
    "id_image": "Cat_833424",
    "count_view": 0
  },
  {
    "link_thumb": "https://live.staticflickr.com/65535/50019966851_664d866c4f_n.jpg",
    "id_album": "-1783645069",
    "description": "Dalmatian_665845",
    "title": "Dalmatian_665845",
    "link_img": "https://live.staticflickr.com/65535/50019966851_b4d3877b3d_o.jpg",
    "id_image": "Dalmatian_665845",
    "count_view": 0
  },
  {
    "link_thumb": "https://live.staticflickr.com/65535/50020752563_36562b99df_n.jpg",
    "id_album": "-405626519",
    "description": "GermanShepherd_673387",
    "title": "GermanShepherd_673387",
    "link_img": "https://live.staticflickr.com/65535/50020752563_637bc2a169_o.jpg",
    "id_image": "GermanShepherd_673387",
    "count_view": 0
  },
  {
    "link_thumb": "https://live.staticflickr.com/65535/50021766206_783fedcf4c_n.jpg",
    "id_album": "1562047127",
    "description": "Jellyfish_476553",
    "title": "Jellyfish_476553",
    "link_img": "https://live.staticflickr.com/65535/50021766206_7cc72e38a2_o.jpg",
    "id_image": "Jellyfish_476553",
    "count_view": 0
  },
  {
    "link_thumb": "https://live.staticflickr.com/65535/50018212017_ecee6cd433_n.jpg",
    "id_album": "-462831702",
    "description": "Cat_308425",
    "title": "Cat_308425",
    "link_img": "https://live.staticflickr.com/65535/50018212017_e80bb3086c_o.jpg",
    "id_image": "Cat_308425",
    "count_view": 0
  },
  {
    "link_thumb": "https://live.staticflickr.com/65535/50020686763_aa6fa8c732_n.jpg",
    "id_album": "-462831703",
    "description": "Cat_753393",
    "title": "Cat_753393",
    "link_img": "https://live.staticflickr.com/65535/50020686763_34046fa7cf_o.jpg",
    "id_image": "Cat_753393",
    "count_view": 0
  },
  {
    "link_thumb": "https://live.staticflickr.com/65535/50017089906_14a29617a4_n.jpg",
    "id_album": "-422187261",
    "description": "Bear_860902",
    "title": "Bear_860902",
    "link_img": "https://live.staticflickr.com/65535/50017089906_81cc9f2229_o.jpg",
    "id_image": "Bear_860902",
    "count_view": 0
  },
  {
    "link_thumb": "https://live.staticflickr.com/65535/50022089861_00547106d4_n.jpg",
    "id_album": "416744915",
    "description": "Lion_953665",
    "title": "Lion_953665",
    "link_img": "https://live.staticflickr.com/65535/50022089861_f439fb44c7_o.jpg",
    "id_image": "Lion_953665",
    "count_view": 0
  },
  {
    "link_thumb": "https://live.staticflickr.com/65535/50019251323_2b798fc69f_n.jpg",
    "id_album": "643379324",
    "description": "Clownfish_341650",
    "title": "Clownfish_341650",
    "link_img": "https://live.staticflickr.com/65535/50019251323_8a2733595f_o.jpg",
    "id_image": "Clownfish_341650",
    "count_view": 0
  },
  {
    "link_thumb": "https://live.staticflickr.com/65535/50020581132_e4d257eb95_n.jpg",
    "id_album": "-149330232",
    "description": "Dog_364184",
    "title": "Dog_364184",
    "link_img": "https://live.staticflickr.com/65535/50020581132_1b4053ee5b_o.jpg",
    "id_image": "Dog_364184",
    "count_view": 0
  },
  {
    "link_thumb": "https://live.staticflickr.com/65535/50022318563_5340898b4e_n.jpg",
    "id_album": "1008910300",
    "description": "PolarBear_828424",
    "title": "PolarBear_828424",
    "link_img": "https://live.staticflickr.com/65535/50022318563_652556ec53_o.jpg",
    "id_image": "PolarBear_828424",
    "count_view": 0
  },
  {
    "link_thumb": "https://live.staticflickr.com/65535/50019871293_0f54cbb265_n.jpg",
    "id_album": "-149330231",
    "description": "Dog_424057",
    "title": "Dog_424057",
    "link_img": "https://live.staticflickr.com/65535/50019871293_9972c94abb_o.jpg",
    "id_image": "Dog_424057",
    "count_view": 0
  },
  {
    "link_thumb": "https://live.staticflickr.com/65535/50019774618_c7bb1700ce_n.jpg",
    "id_album": "-149330232",
    "description": "Dog_354482",
    "title": "Dog_354482",
    "link_img": "https://live.staticflickr.com/65535/50019774618_2f11fa6943_o.jpg",
    "id_image": "Dog_354482",
    "count_view": 0
  },
  {
    "link_thumb": "https://live.staticflickr.com/65535/50020787552_d0b21072be_n.jpg",
    "id_album": "-149330231",
    "description": "Dog_875872",
    "title": "Dog_875872",
    "link_img": "https://live.staticflickr.com/65535/50020787552_db3372aa3b_o.jpg",
    "id_image": "Dog_875872",
    "count_view": 0
  },
  {
    "link_thumb": "https://live.staticflickr.com/65535/50021761651_3eee42f84f_n.jpg",
    "id_album": "1562047127",
    "description": "Jellyfish_244151",
    "title": "Jellyfish_244151",
    "link_img": "https://live.staticflickr.com/65535/50021761651_261792a4fe_o.jpg",
    "id_image": "Jellyfish_244151",
    "count_view": 0
  },
  {
    "link_thumb": "https://live.staticflickr.com/65535/50020676656_84450183c0_n.jpg",
    "id_album": "1168627767",
    "description": "Duck_881274",
    "title": "Duck_881274",
    "link_img": "https://live.staticflickr.com/65535/50020676656_b1eded5e25_o.jpg",
    "id_image": "Duck_881274",
    "count_view": 0
  },
  {
    "link_thumb": "https://live.staticflickr.com/65535/50017222483_322daa6dbe_n.jpg",
    "id_album": "-462831705",
    "description": "Cat_109812",
    "title": "Cat_109812",
    "link_img": "https://live.staticflickr.com/65535/50017222483_614233ccda_o.jpg",
    "id_image": "Cat_109812",
    "count_view": 0
  },
  {
    "link_thumb": "https://live.staticflickr.com/65535/50017280053_bba0279b2f_n.jpg",
    "id_album": "-462831705",
    "description": "Cat_169806",
    "title": "Cat_169806",
    "link_img": "https://live.staticflickr.com/65535/50017280053_2661003ba7_o.jpg",
    "id_image": "Cat_169806",
    "count_view": 0
  },
  {
    "link_thumb": "https://live.staticflickr.com/65535/50021109478_8e60eff587_n.jpg",
    "id_album": "-737856092",
    "description": "Iguana_553679",
    "title": "Iguana_553679",
    "link_img": "https://live.staticflickr.com/65535/50021109478_9b62f53aa1_o.jpg",
    "id_image": "Iguana_553679",
    "count_view": 0
  },
  {
    "link_thumb": "https://live.staticflickr.com/65535/50023331082_74656e149a_n.jpg",
    "id_album": "-353898617",
    "description": "Puppy_967927",
    "title": "Puppy_967927",
    "link_img": "https://live.staticflickr.com/65535/50023331082_cacf608e9c_o.jpg",
    "id_image": "Puppy_967927",
    "count_view": 0
  },
  {
    "link_thumb": "https://live.staticflickr.com/65535/50017144382_5b18e0d290_n.jpg",
    "id_album": "523598895",
    "description": "Artistic_229143",
    "title": "Artistic_229143",
    "link_img": "https://live.staticflickr.com/65535/50017144382_e88a097d08_o.jpg",
    "id_image": "Artistic_229143",
    "count_view": 0
  },
  {
    "link_thumb": "https://live.staticflickr.com/65535/50017975842_3897557a06_n.jpg",
    "id_album": "-401151552",
    "description": "Butterfly_938200",
    "title": "Butterfly_938200",
    "link_img": "https://live.staticflickr.com/65535/50017975842_f40c40b5e7_o.jpg",
    "id_image": "Butterfly_938200",
    "count_view": 0
  },
  {
    "link_thumb": "https://live.staticflickr.com/65535/50352493886_2bb8267496_n.jpg",
    "id_album": "-462831703",
    "description": "Cat_394173",
    "title": "Cat_394173",
    "link_img": "https://live.staticflickr.com/65535/50352493886_83ebb7caf4_o.jpg",
    "id_image": "Cat_394173",
    "count_view": 0
  },
  {
    "link_thumb": "https://live.staticflickr.com/65535/50020022971_05ec02eded_n.jpg",
    "id_album": "1903411565",
    "description": "Deer_548657",
    "title": "Deer_548657",
    "link_img": "https://live.staticflickr.com/65535/50020022971_e5abe939a1_o.jpg",
    "id_image": "Deer_548657",
    "count_view": 0
  },
  {
    "link_thumb": "https://live.staticflickr.com/65535/50024232857_bdf5c1e3b8_n.jpg",
    "id_album": "702283289",
    "description": "Squirrel_925234",
    "title": "Squirrel_925234",
    "link_img": "https://live.staticflickr.com/65535/50024232857_3dd77be527_o.jpg",
    "id_image": "Squirrel_925234",
    "count_view": 0
  },
  {
    "link_thumb": "https://live.staticflickr.com/65535/50017897566_aa3c5a84c1_n.jpg",
    "id_album": "-462831705",
    "description": "Cat_241962",
    "title": "Cat_241962",
    "link_img": "https://live.staticflickr.com/65535/50017897566_f668124d82_o.jpg",
    "id_image": "Cat_241962",
    "count_view": 0
  },
  {
    "link_thumb": "https://live.staticflickr.com/65535/50017650971_0f89fe2928_n.jpg",
    "id_album": "-401151552",
    "description": "Butterfly_708179",
    "title": "Butterfly_708179",
    "link_img": "https://live.staticflickr.com/65535/50017650971_9136f3fcf4_o.jpg",
    "id_image": "Butterfly_708179",
    "count_view": 0
  },
  {
    "link_thumb": "https://live.staticflickr.com/65535/50020236856_1b68c11f39_n.jpg",
    "id_album": "-149330232",
    "description": "Dog_323371",
    "title": "Dog_323371",
    "link_img": "https://live.staticflickr.com/65535/50020236856_4a94e7a8d9_o.jpg",
    "id_image": "Dog_323371",
    "count_view": 0
  },
  {
    "link_thumb": "https://live.staticflickr.com/65535/50020257172_6d3aa84933_n.jpg",
    "id_album": "1903411565",
    "description": "Deer_373052",
    "title": "Deer_373052",
    "link_img": "https://live.staticflickr.com/65535/50020257172_cdf45f4f23_o.jpg",
    "id_image": "Deer_373052",
    "count_view": 0
  },
  {
    "link_thumb": "https://live.staticflickr.com/65535/50022660978_64d8aff13c_n.jpg",
    "id_album": "332874268",
    "description": "RedPanda_324841",
    "title": "RedPanda_324841",
    "link_img": "https://live.staticflickr.com/65535/50022660978_7cd2ae88a6_o.jpg",
    "id_image": "RedPanda_324841",
    "count_view": 0
  },
  {
    "link_thumb": "https://live.staticflickr.com/65535/50016708738_5fff773471_n.jpg",
    "id_album": "-1846011410",
    "description": "Bird_312842",
    "title": "Bird_312842",
    "link_img": "https://live.staticflickr.com/65535/50016708738_f041029d17_o.jpg",
    "id_image": "Bird_312842",
    "count_view": 0
  },
  {
    "link_thumb": "https://live.staticflickr.com/65535/50022659958_c6d645e9b9_n.jpg",
    "id_album": "332874268",
    "description": "RedPanda_276225",
    "title": "RedPanda_276225",
    "link_img": "https://live.staticflickr.com/65535/50022659958_6f9067b87a_o.jpg",
    "id_image": "RedPanda_276225",
    "count_view": 0
  },
  {
    "link_thumb": "https://live.staticflickr.com/65535/50352458351_037a7fe0ba_n.jpg",
    "id_album": "-462831703",
    "description": "Cat_346340",
    "title": "Cat_346340",
    "link_img": "https://live.staticflickr.com/65535/50352458351_d56670165f_o.jpg",
    "id_image": "Cat_346340",
    "count_view": 0
  },
  {
    "link_thumb": "https://live.staticflickr.com/65535/50020215557_2f31343d7a_n.jpg",
    "id_album": "1831085598",
    "description": "Dachshund_806009",
    "title": "Dachshund_806009",
    "link_img": "https://live.staticflickr.com/65535/50020215557_b24332d97a_o.jpg",
    "id_image": "Dachshund_806009",
    "count_view": 0
  },
  {
    "link_thumb": "https://live.staticflickr.com/65535/50021924137_15381c4815_n.jpg",
    "id_album": "1658866795",
    "description": "Insect_392847",
    "title": "Insect_392847",
    "link_img": "https://live.staticflickr.com/65535/50021924137_defb3671d7_o.jpg",
    "id_image": "Insect_392847",
    "count_view": 0
  },
  {
    "link_thumb": "https://live.staticflickr.com/65535/50021270903_d29bf0cff2_n.jpg",
    "id_album": "770105808",
    "description": "Kingfisher_917176",
    "title": "Kingfisher_917176",
    "link_img": "https://live.staticflickr.com/65535/50021270903_fbda9959e4_o.jpg",
    "id_image": "Kingfisher_917176",
    "count_view": 0
  },
  {
    "link_thumb": "https://live.staticflickr.com/65535/50019858576_0e1bfc0de7_n.jpg",
    "id_album": "-2144640780",
    "description": "Cow_750725",
    "title": "Cow_750725",
    "link_img": "https://live.staticflickr.com/65535/50019858576_0babb72a85_o.jpg",
    "id_image": "Cow_750725",
    "count_view": 0
  },
  {
    "link_thumb": "https://live.staticflickr.com/65535/50024116011_15b037b217_n.jpg",
    "id_album": "405170427",
    "description": "Tiger_399126",
    "title": "Tiger_399126",
    "link_img": "https://live.staticflickr.com/65535/50024116011_5d6f51ba9b_o.jpg",
    "id_image": "Tiger_399126",
    "count_view": 0
  },
  {
    "link_thumb": "https://live.staticflickr.com/65535/50019605838_93fa948fd3_n.jpg",
    "id_album": "-149330232",
    "description": "Dog_184566",
    "title": "Dog_184566",
    "link_img": "https://live.staticflickr.com/65535/50019605838_53965dd024_o.jpg",
    "id_image": "Dog_184566",
    "count_view": 0
  },
  {
    "link_thumb": "https://live.staticflickr.com/65535/50021075056_6ebba333b9_n.jpg",
    "id_album": "844170697",
    "description": "Frog_743820",
    "title": "Frog_743820",
    "link_img": "https://live.staticflickr.com/65535/50021075056_2d29f375ba_o.jpg",
    "id_image": "Frog_743820",
    "count_view": 0
  },
  {
    "link_thumb": "https://live.staticflickr.com/65535/50021630392_c91627fa2a_n.jpg",
    "id_album": "-975314166",
    "description": "Goldfish_347316",
    "title": "Goldfish_347316",
    "link_img": "https://live.staticflickr.com/65535/50021630392_d23ca4f7e9_o.jpg",
    "id_image": "Goldfish_347316",
    "count_view": 0
  },
  {
    "link_thumb": "https://live.staticflickr.com/65535/50020429847_5681ae77d1_n.jpg",
    "id_album": "-149330232",
    "description": "Dog_240649",
    "title": "Dog_240649",
    "link_img": "https://live.staticflickr.com/65535/50020429847_0e46fdcd92_o.jpg",
    "id_image": "Dog_240649",
    "count_view": 0
  },
  {
    "link_thumb": "https://live.staticflickr.com/65535/50022216367_888cd8f0b8_n.jpg",
    "id_album": "1392348450",
    "description": "Leopard_923985",
    "title": "Leopard_923985",
    "link_img": "https://live.staticflickr.com/65535/50022216367_dab51db3d8_o.jpg",
    "id_image": "Leopard_923985",
    "count_view": 0
  },
  {
    "link_thumb": "https://live.staticflickr.com/65535/50018227347_b09be0efcb_n.jpg",
    "id_album": "-462831702",
    "description": "Cat_323685",
    "title": "Cat_323685",
    "link_img": "https://live.staticflickr.com/65535/50018227347_f8ff8e9837_o.jpg",
    "id_image": "Cat_323685",
    "count_view": 0
  },
  {
    "link_thumb": "https://live.staticflickr.com/65535/50020062217_1b3a6d00bd_n.jpg",
    "id_album": "-1868680171",
    "description": "Cougar_276227",
    "title": "Cougar_276227",
    "link_img": "https://live.staticflickr.com/65535/50020062217_baa96c711d_o.jpg",
    "id_image": "Cougar_276227",
    "count_view": 0
  },
  {
    "link_thumb": "https://live.staticflickr.com/65535/50018766703_cde0decee4_n.jpg",
    "id_album": "-462831704",
    "description": "Cat_530687",
    "title": "Cat_530687",
    "link_img": "https://live.staticflickr.com/65535/50018766703_58b1d6b697_o.jpg",
    "id_image": "Cat_530687",
    "count_view": 0
  },
  {
    "link_thumb": "https://live.staticflickr.com/65535/50021836536_55b4478e10_n.jpg",
    "id_album": "1307335982",
    "description": "LabradorRetriever_904213",
    "title": "LabradorRetriever_904213",
    "link_img": "https://live.staticflickr.com/65535/50021836536_67afb6da85_o.jpg",
    "id_image": "LabradorRetriever_904213",
    "count_view": 0
  },
  {
    "link_thumb": "https://live.staticflickr.com/65535/50020210421_bf8502d507_n.jpg",
    "id_album": "-149330232",
    "description": "Dog_275600",
    "title": "Dog_275600",
    "link_img": "https://live.staticflickr.com/65535/50020210421_a1debc2312_o.jpg",
    "id_image": "Dog_275600",
    "count_view": 0
  },
  {
    "link_thumb": "https://live.staticflickr.com/65535/50020517003_e639405fca_n.jpg",
    "id_album": "844170697",
    "description": "Frog_390889",
    "title": "Frog_390889",
    "link_img": "https://live.staticflickr.com/65535/50020517003_6b9cbe0c65_o.jpg",
    "id_image": "Frog_390889",
    "count_view": 0
  },
  {
    "link_thumb": "https://live.staticflickr.com/65535/50017233546_397c77bed9_n.jpg",
    "id_album": "-1846011410",
    "description": "Bird_309785",
    "title": "Bird_309785",
    "link_img": "https://live.staticflickr.com/65535/50017233546_2091c1548e_o.jpg",
    "id_image": "Bird_309785",
    "count_view": 0
  },
  {
    "link_thumb": "https://live.staticflickr.com/65535/50020931282_c587684799_n.jpg",
    "id_album": "1168627767",
    "description": "Duck_859697",
    "title": "Duck_859697",
    "link_img": "https://live.staticflickr.com/65535/50020931282_9da9e2fc3f_o.jpg",
    "id_image": "Duck_859697",
    "count_view": 0
  },
  {
    "link_thumb": "https://live.staticflickr.com/65535/50017853282_64bbfb0ceb_n.jpg",
    "id_album": "-401151552",
    "description": "Butterfly_425062",
    "title": "Butterfly_425062",
    "link_img": "https://live.staticflickr.com/65535/50017853282_544c7124df_o.jpg",
    "id_image": "Butterfly_425062",
    "count_view": 0
  },
  {
    "link_thumb": "https://live.staticflickr.com/65535/50020232328_7343a91db3_n.jpg",
    "id_album": "1270947998",
    "description": "Elephant_527970",
    "title": "Elephant_527970",
    "link_img": "https://live.staticflickr.com/65535/50020232328_4121d84e7a_o.jpg",
    "id_image": "Elephant_527970",
    "count_view": 0
  },
  {
    "link_thumb": "https://live.staticflickr.com/65535/50021143882_525486f16e_n.jpg",
    "id_album": "-1758557371",
    "description": "Flamingo_390681",
    "title": "Flamingo_390681",
    "link_img": "https://live.staticflickr.com/65535/50021143882_fab5476ed4_o.jpg",
    "id_image": "Flamingo_390681",
    "count_view": 0
  },
  {
    "link_thumb": "https://live.staticflickr.com/65535/50019207673_5346e5ede4_n.jpg",
    "id_album": "-1481843714",
    "description": "Cheetah_931260",
    "title": "Cheetah_931260",
    "link_img": "https://live.staticflickr.com/65535/50019207673_f268e6dbbf_o.jpg",
    "id_image": "Cheetah_931260",
    "count_view": 0
  },
  {
    "link_thumb": "https://live.staticflickr.com/65535/50021079423_cfaf48cc7d_n.jpg",
    "id_album": "2144294979",
    "description": "Hummingbird_836054",
    "title": "Hummingbird_836054",
    "link_img": "https://live.staticflickr.com/65535/50021079423_55d70806c3_o.jpg",
    "id_image": "Hummingbird_836054",
    "count_view": 0
  },
  {
    "link_thumb": "https://live.staticflickr.com/65535/50021419158_d5fb1dd1da_n.jpg",
    "id_album": "1392348450",
    "description": "Leopard_941337",
    "title": "Leopard_941337",
    "link_img": "https://live.staticflickr.com/65535/50021419158_a42183f63c_o.jpg",
    "id_image": "Leopard_941337",
    "count_view": 0
  },
  {
    "link_thumb": "https://live.staticflickr.com/65535/50020714693_c5987b5274_n.jpg",
    "id_album": "-462831703",
    "description": "Cat_800041",
    "title": "Cat_800041",
    "link_img": "https://live.staticflickr.com/65535/50020714693_840521b6f1_o.jpg",
    "id_image": "Cat_800041",
    "count_view": 0
  },
  {
    "link_thumb": "https://live.staticflickr.com/65535/50352632726_6d840c683c_n.jpg",
    "id_album": "-462831703",
    "description": "Cat_650942",
    "title": "Cat_650942",
    "link_img": "https://live.staticflickr.com/65535/50352632726_e93c1dedfd_o.jpg",
    "id_image": "Cat_650942",
    "count_view": 0
  },
  {
    "link_thumb": "https://live.staticflickr.com/65535/50020011097_f82de77255_n.jpg",
    "id_album": "791455625",
    "description": "Chipmunk_166579",
    "title": "Chipmunk_166579",
    "link_img": "https://live.staticflickr.com/65535/50020011097_b12de1ba82_o.jpg",
    "id_image": "Chipmunk_166579",
    "count_view": 0
  },
  {
    "link_thumb": "https://live.staticflickr.com/65535/50019264263_93108c9c99_n.jpg",
    "id_album": "-1462118852",
    "description": "Corgi_576679",
    "title": "Corgi_576679",
    "link_img": "https://live.staticflickr.com/65535/50019264263_8f56bf7b2d_o.jpg",
    "id_image": "Corgi_576679",
    "count_view": 0
  },
  {
    "link_thumb": "https://live.staticflickr.com/65535/50018899768_e886e1feab_n.jpg",
    "id_album": "-462831703",
    "description": "Cat_906456",
    "title": "Cat_906456",
    "link_img": "https://live.staticflickr.com/65535/50018899768_eb07957503_o.jpg",
    "id_image": "Cat_906456",
    "count_view": 0
  },
  {
    "link_thumb": "https://live.staticflickr.com/65535/50018789833_90e40e2f49_n.jpg",
    "id_album": "-462831703",
    "description": "Cat_850872",
    "title": "Cat_850872",
    "link_img": "https://live.staticflickr.com/65535/50018789833_125b1835d3_o.jpg",
    "id_image": "Cat_850872",
    "count_view": 0
  },
  {
    "link_thumb": "https://live.staticflickr.com/65535/50022601146_c84375bc21_n.jpg",
    "id_album": "-801414987",
    "description": "Peacock_708736",
    "title": "Peacock_708736",
    "link_img": "https://live.staticflickr.com/65535/50022601146_6d883e9730_o.jpg",
    "id_image": "Peacock_708736",
    "count_view": 0
  },
  {
    "link_thumb": "https://live.staticflickr.com/65535/50020751607_0f7f72a8bf_n.jpg",
    "id_album": "-149330231",
    "description": "Dog_722662",
    "title": "Dog_722662",
    "link_img": "https://live.staticflickr.com/65535/50020751607_654346e8f8_o.jpg",
    "id_image": "Dog_722662",
    "count_view": 0
  },
  {
    "link_thumb": "https://live.staticflickr.com/65535/50023684442_b27ec67e5b_n.jpg",
    "id_album": "-1596347105",
    "description": "Shark_168044",
    "title": "Shark_168044",
    "link_img": "https://live.staticflickr.com/65535/50023684442_4b95e230d8_o.jpg",
    "id_image": "Shark_168044",
    "count_view": 0
  },
  {
    "link_thumb": "https://live.staticflickr.com/65535/50019183516_cbc2d67e0c_n.jpg",
    "id_album": "-462831702",
    "description": "Cat_431090",
    "title": "Cat_431090",
    "link_img": "https://live.staticflickr.com/65535/50019183516_0a1829684f_o.jpg",
    "id_image": "Cat_431090",
    "count_view": 0
  },
  {
    "link_thumb": "https://live.staticflickr.com/65535/50019896517_6b4a8e59e8_n.jpg",
    "id_album": "-766919393",
    "description": "Chameleon_328497",
    "title": "Chameleon_328497",
    "link_img": "https://live.staticflickr.com/65535/50019896517_79813a36d1_o.jpg",
    "id_image": "Chameleon_328497",
    "count_view": 0
  },
  {
    "link_thumb": "https://live.staticflickr.com/65535/50017748607_8b60d9f608_n.jpg",
    "id_album": "782930701",
    "description": "BorderCollie_705489",
    "title": "BorderCollie_705489",
    "link_img": "https://live.staticflickr.com/65535/50017748607_fda237632b_o.jpg",
    "id_image": "BorderCollie_705489",
    "count_view": 0
  },
  {
    "link_thumb": "https://live.staticflickr.com/65535/50023573642_f4ba325811_n.jpg",
    "id_album": "1926701726",
    "description": "Robin_733559",
    "title": "Robin_733559",
    "link_img": "https://live.staticflickr.com/65535/50023573642_1288d5f4b7_o.jpg",
    "id_image": "Robin_733559",
    "count_view": 0
  },
  {
    "link_thumb": "https://live.staticflickr.com/65535/50021224771_cec434dc5b_n.jpg",
    "id_album": "-462831703",
    "description": "Cat_744443",
    "title": "Cat_744443",
    "link_img": "https://live.staticflickr.com/65535/50021224771_e48e78e920_o.jpg",
    "id_image": "Cat_744443",
    "count_view": 0
  },
  {
    "link_thumb": "https://live.staticflickr.com/65535/50020104038_4548d057dd_n.jpg",
    "id_album": "-405058657",
    "description": "Dragonfly_718379",
    "title": "Dragonfly_718379",
    "link_img": "https://live.staticflickr.com/65535/50020104038_6b3e583e25_o.jpg",
    "id_image": "Dragonfly_718379",
    "count_view": 0
  },
  {
    "link_thumb": "https://live.staticflickr.com/65535/50017849157_bcf0aa921b_n.jpg",
    "id_album": "-401151552",
    "description": "Butterfly_411528",
    "title": "Butterfly_411528",
    "link_img": "https://live.staticflickr.com/65535/50017849157_21d2cfb05e_o.jpg",
    "id_image": "Butterfly_411528",
    "count_view": 0
  },
  {
    "link_thumb": "https://live.staticflickr.com/65535/50019414031_fe9da9358f_n.jpg",
    "id_album": "-462831703",
    "description": "Cat_900486",
    "title": "Cat_900486",
    "link_img": "https://live.staticflickr.com/65535/50019414031_0ccd6aa7f2_o.jpg",
    "id_image": "Cat_900486",
    "count_view": 0
  },
  {
    "link_thumb": "https://live.staticflickr.com/65535/50022167081_2ef667f59a_n.jpg",
    "id_album": "1894617400",
    "description": "Lynx_915712",
    "title": "Lynx_915712",
    "link_img": "https://live.staticflickr.com/65535/50022167081_26f37603ff_o.jpg",
    "id_image": "Lynx_915712",
    "count_view": 0
  },
  {
    "link_thumb": "https://live.staticflickr.com/65535/50022941983_91f3a68fc6_n.jpg",
    "id_album": "-755466332",
    "description": "Sheep_688895",
    "title": "Sheep_688895",
    "link_img": "https://live.staticflickr.com/65535/50022941983_2235cc7b96_o.jpg",
    "id_image": "Sheep_688895",
    "count_view": 0
  },
  {
    "link_thumb": "https://live.staticflickr.com/65535/50019996412_e4ca7c7df7_n.jpg",
    "id_album": "1949822052",
    "description": "Chimpanzee_185215",
    "title": "Chimpanzee_185215",
    "link_img": "https://live.staticflickr.com/65535/50019996412_a3b856427d_o.jpg",
    "id_image": "Chimpanzee_185215",
    "count_view": 0
  },
  {
    "link_thumb": "https://live.staticflickr.com/65535/50017563048_ee69d213d2_n.jpg",
    "id_album": "-462831702",
    "description": "Cat_370178",
    "title": "Cat_370178",
    "link_img": "https://live.staticflickr.com/65535/50017563048_75efb5ba7e_o.jpg",
    "id_image": "Cat_370178",
    "count_view": 0
  },
  {
    "link_thumb": "https://live.staticflickr.com/65535/50022005066_a041bf0349_n.jpg",
    "id_album": "416744915",
    "description": "Lion_384597",
    "title": "Lion_384597",
    "link_img": "https://live.staticflickr.com/65535/50022005066_047cdb24d2_o.jpg",
    "id_image": "Lion_384597",
    "count_view": 0
  },
  {
    "link_thumb": "https://live.staticflickr.com/65535/50352782867_0b30f5bafc_n.jpg",
    "id_album": "-462831703",
    "description": "Cat_598399",
    "title": "Cat_598399",
    "link_img": "https://live.staticflickr.com/65535/50352782867_e19dd5d7f1_o.jpg",
    "id_image": "Cat_598399",
    "count_view": 0
  },
  {
    "link_thumb": "https://live.staticflickr.com/65535/50021189613_2c28117fd2_n.jpg",
    "id_album": "-843028318",
    "description": "Jaguar_544074",
    "title": "Jaguar_544074",
    "link_img": "https://live.staticflickr.com/65535/50021189613_c7573ff696_o.jpg",
    "id_image": "Jaguar_544074",
    "count_view": 0
  },
  {
    "link_thumb": "https://live.staticflickr.com/65535/50022893486_c2a74627af_n.jpg",
    "id_album": "191452764",
    "description": "PrayingMantis_552768",
    "title": "PrayingMantis_552768",
    "link_img": "https://live.staticflickr.com/65535/50022893486_907ef76d22_o.jpg",
    "id_image": "PrayingMantis_552768",
    "count_view": 0
  },
  {
    "link_thumb": "https://live.staticflickr.com/65535/50020965406_e573851c7a_n.jpg",
    "id_album": "-128218148",
    "description": "Fox_430759",
    "title": "Fox_430759",
    "link_img": "https://live.staticflickr.com/65535/50020965406_d18e086828_o.jpg",
    "id_image": "Fox_430759",
    "count_view": 0
  },
  {
    "link_thumb": "https://live.staticflickr.com/65535/50017985842_0f4cdac4d4_n.jpg",
    "id_album": "-1131161368",
    "description": "Camel_334552",
    "title": "Camel_334552",
    "link_img": "https://live.staticflickr.com/65535/50017985842_4abff42fff_o.jpg",
    "id_image": "Camel_334552",
    "count_view": 0
  },
  {
    "link_thumb": "https://live.staticflickr.com/65535/50016828881_108f96ecde_n.jpg",
    "id_album": "-229810103",
    "description": "AmericanBison_829903",
    "title": "AmericanBison_829903",
    "link_img": "https://live.staticflickr.com/65535/50016828881_45a697a156_o.jpg",
    "id_image": "AmericanBison_829903",
    "count_view": 0
  },
  {
    "link_thumb": "https://live.staticflickr.com/65535/50023696586_d4d8376ed7_n.jpg",
    "id_album": "1933547265",
    "description": "SnowyOwl_983684",
    "title": "SnowyOwl_983684",
    "link_img": "https://live.staticflickr.com/65535/50023696586_0432c20cf1_o.jpg",
    "id_image": "SnowyOwl_983684",
    "count_view": 0
  },
  {
    "link_thumb": "https://live.staticflickr.com/65535/50023746118_0fe6c9d5db_n.jpg",
    "id_album": "901523298",
    "description": "TreeFrog_391693",
    "title": "TreeFrog_391693",
    "link_img": "https://live.staticflickr.com/65535/50023746118_31e7a2999f_o.jpg",
    "id_image": "TreeFrog_391693",
    "count_view": 0
  },
  {
    "link_thumb": "https://live.staticflickr.com/65535/50020945932_2969fa9649_n.jpg",
    "id_album": "-39098563",
    "description": "Eagle_324889",
    "title": "Eagle_324889",
    "link_img": "https://live.staticflickr.com/65535/50020945932_fd98711bb1_o.jpg",
    "id_image": "Eagle_324889",
    "count_view": 0
  },
  {
    "link_thumb": "https://live.staticflickr.com/65535/50020483563_6984e51188_n.jpg",
    "id_album": "-128218148",
    "description": "Fox_922541",
    "title": "Fox_922541",
    "link_img": "https://live.staticflickr.com/65535/50020483563_c4a0762792_o.jpg",
    "id_image": "Fox_922541",
    "count_view": 0
  },
  {
    "link_thumb": "https://live.staticflickr.com/65535/50016873636_7a2ffe5a71_n.jpg",
    "id_album": "523598895",
    "description": "Artistic_169047",
    "title": "Artistic_169047",
    "link_img": "https://live.staticflickr.com/65535/50016873636_5343d4f2bd_o.jpg",
    "id_image": "Artistic_169047",
    "count_view": 0
  },
  {
    "link_thumb": "https://live.staticflickr.com/65535/50016925198_0cb7021365_n.jpg",
    "id_album": "-1561645279",
    "description": "BlackPanther_383357",
    "title": "BlackPanther_383357",
    "link_img": "https://live.staticflickr.com/65535/50016925198_5387bb16c8_o.jpg",
    "id_image": "BlackPanther_383357",
    "count_view": 0
  },
  {
    "link_thumb": "https://live.staticflickr.com/65535/50352432116_ea52b217c9_n.jpg",
    "id_album": "-462831703",
    "description": "Cat_229670",
    "title": "Cat_229670",
    "link_img": "https://live.staticflickr.com/65535/50352432116_76034a1ff9_o.jpg",
    "id_image": "Cat_229670",
    "count_view": 0
  },
  {
    "link_thumb": "https://live.staticflickr.com/65535/50023308028_09a61c1ed7_n.jpg",
    "id_album": "702283289",
    "description": "Squirrel_372147",
    "title": "Squirrel_372147",
    "link_img": "https://live.staticflickr.com/65535/50023308028_452df74563_o.jpg",
    "id_image": "Squirrel_372147",
    "count_view": 0
  },
  {
    "link_thumb": "https://live.staticflickr.com/65535/50021877536_87fca084cd_n.jpg",
    "id_album": "1918884325",
    "description": "Lemur_709343",
    "title": "Lemur_709343",
    "link_img": "https://live.staticflickr.com/65535/50021877536_38021f6d7d_o.jpg",
    "id_image": "Lemur_709343",
    "count_view": 0
  },
  {
    "link_thumb": "https://live.staticflickr.com/65535/50020053761_5175a1972a_n.jpg",
    "id_album": "1903411565",
    "description": "Deer_794904",
    "title": "Deer_794904",
    "link_img": "https://live.staticflickr.com/65535/50020053761_a8259afb6d_o.jpg",
    "id_image": "Deer_794904",
    "count_view": 0
  },
  {
    "link_thumb": "https://live.staticflickr.com/65535/50023234792_7cc6e16a95_n.jpg",
    "id_album": "-353898617",
    "description": "Puppy_370521",
    "title": "Puppy_370521",
    "link_img": "https://live.staticflickr.com/65535/50023234792_84fb04ddeb_o.jpg",
    "id_image": "Puppy_370521",
    "count_view": 0
  },
  {
    "link_thumb": "https://live.staticflickr.com/65535/50020364126_06aa96017a_n.jpg",
    "id_album": "-149330231",
    "description": "Dog_386669",
    "title": "Dog_386669",
    "link_img": "https://live.staticflickr.com/65535/50020364126_233f977d62_o.jpg",
    "id_image": "Dog_386669",
    "count_view": 0
  },
  {
    "link_thumb": "https://live.staticflickr.com/65535/50024300166_5d6e9bc56e_n.jpg",
    "id_album": "46520366",
    "description": "Turtle_212191",
    "title": "Turtle_212191",
    "link_img": "https://live.staticflickr.com/65535/50024300166_1d026a8604_o.jpg",
    "id_image": "Turtle_212191",
    "count_view": 0
  },
  {
    "link_thumb": "https://live.staticflickr.com/65535/50017130143_5d8bcec238_n.jpg",
    "id_album": "-401151552",
    "description": "Butterfly_729853",
    "title": "Butterfly_729853",
    "link_img": "https://live.staticflickr.com/65535/50017130143_c551109723_o.jpg",
    "id_image": "Butterfly_729853",
    "count_view": 0
  },
  {
    "link_thumb": "https://live.staticflickr.com/65535/50020742727_bdc3eaa931_n.jpg",
    "id_album": "-149330231",
    "description": "Dog_700091",
    "title": "Dog_700091",
    "link_img": "https://live.staticflickr.com/65535/50020742727_720efe6718_o.jpg",
    "id_image": "Dog_700091",
    "count_view": 0
  },
  {
    "link_thumb": "https://live.staticflickr.com/65535/50019578657_2b9bb0f81a_n.jpg",
    "id_album": "-462831703",
    "description": "Cat_852188",
    "title": "Cat_852188",
    "link_img": "https://live.staticflickr.com/65535/50019578657_1a45b0b475_o.jpg",
    "id_image": "Cat_852188",
    "count_view": 0
  },
  {
    "link_thumb": "https://live.staticflickr.com/65535/50020467551_eefbe9e7be_n.jpg",
    "id_album": "-149330231",
    "description": "Dog_599132",
    "title": "Dog_599132",
    "link_img": "https://live.staticflickr.com/65535/50020467551_511ce92dcc_o.jpg",
    "id_image": "Dog_599132",
    "count_view": 0
  },
  {
    "link_thumb": "https://live.staticflickr.com/65535/50020045842_d72a99c31a_n.jpg",
    "id_album": "643379324",
    "description": "Clownfish_866208",
    "title": "Clownfish_866208",
    "link_img": "https://live.staticflickr.com/65535/50020045842_8fd283e41a_o.jpg",
    "id_image": "Clownfish_866208",
    "count_view": 0
  },
  {
    "link_thumb": "https://live.staticflickr.com/65535/50020055132_b81a0c8494_n.jpg",
    "id_album": "-1462118852",
    "description": "Corgi_879225",
    "title": "Corgi_879225",
    "link_img": "https://live.staticflickr.com/65535/50020055132_411558ef47_o.jpg",
    "id_image": "Corgi_879225",
    "count_view": 0
  },
  {
    "link_thumb": "https://live.staticflickr.com/65535/50020578047_6ebc499b64_n.jpg",
    "id_album": "-149330232",
    "description": "Dog_362282",
    "title": "Dog_362282",
    "link_img": "https://live.staticflickr.com/65535/50020578047_9c249dc768_o.jpg",
    "id_image": "Dog_362282",
    "count_view": 0
  },
  {
    "link_thumb": "https://live.staticflickr.com/65535/50021426986_e66164d6a3_n.jpg",
    "id_album": "-1513987841",
    "description": "Hawk_860894",
    "title": "Hawk_860894",
    "link_img": "https://live.staticflickr.com/65535/50021426986_dae178cf0e_o.jpg",
    "id_image": "Hawk_860894",
    "count_view": 0
  },
  {
    "link_thumb": "https://live.staticflickr.com/65535/50022133152_d32322640f_n.jpg",
    "id_album": "1918884325",
    "description": "Lemur_683766",
    "title": "Lemur_683766",
    "link_img": "https://live.staticflickr.com/65535/50022133152_a42e00f18c_o.jpg",
    "id_image": "Lemur_683766",
    "count_view": 0
  },
  {
    "link_thumb": "https://live.staticflickr.com/65535/50017226211_5741955622_n.jpg",
    "id_album": "-1846011410",
    "description": "Bird_275200",
    "title": "Bird_275200",
    "link_img": "https://live.staticflickr.com/65535/50017226211_bbd2bc817e_o.jpg",
    "id_image": "Bird_275200",
    "count_view": 0
  },
  {
    "link_thumb": "https://live.staticflickr.com/65535/50022190098_f5dd369762_n.jpg",
    "id_album": "392248205",
    "description": "Penguin_965306",
    "title": "Penguin_965306",
    "link_img": "https://live.staticflickr.com/65535/50022190098_64e8bd0961_o.jpg",
    "id_image": "Penguin_965306",
    "count_view": 0
  },
  {
    "link_thumb": "https://live.staticflickr.com/65535/50020761048_63958b021b_n.jpg",
    "id_album": "-405626519",
    "description": "GermanShepherd_805218",
    "title": "GermanShepherd_805218",
    "link_img": "https://live.staticflickr.com/65535/50020761048_b3cc729e28_o.jpg",
    "id_image": "GermanShepherd_805218",
    "count_view": 0
  },
  {
    "link_thumb": "https://live.staticflickr.com/65535/50021058457_2736f4249b_n.jpg",
    "id_album": "1270947998",
    "description": "Elephant_921195",
    "title": "Elephant_921195",
    "link_img": "https://live.staticflickr.com/65535/50021058457_404ffba7c8_o.jpg",
    "id_image": "Elephant_921195",
    "count_view": 0
  },
  {
    "link_thumb": "https://live.staticflickr.com/65535/50020780927_a86436945a_n.jpg",
    "id_album": "-149330231",
    "description": "Dog_856030",
    "title": "Dog_856030",
    "link_img": "https://live.staticflickr.com/65535/50020780927_25fd9b62b8_o.jpg",
    "id_image": "Dog_856030",
    "count_view": 0
  },
  {
    "link_thumb": "https://live.staticflickr.com/65535/50021594653_54959dd054_n.jpg",
    "id_album": "1894617400",
    "description": "Lynx_358871",
    "title": "Lynx_358871",
    "link_img": "https://live.staticflickr.com/65535/50021594653_584509625e_o.jpg",
    "id_image": "Lynx_358871",
    "count_view": 0
  },
  {
    "link_thumb": "https://live.staticflickr.com/65535/50019481382_6480a3c5d4_n.jpg",
    "id_album": "-462831704",
    "description": "Cat_454172",
    "title": "Cat_454172",
    "link_img": "https://live.staticflickr.com/65535/50019481382_29ac990dd3_o.jpg",
    "id_image": "Cat_454172",
    "count_view": 0
  },
  {
    "link_thumb": "https://live.staticflickr.com/65535/50021134208_58b19efcbc_n.jpg",
    "id_album": "1658866795",
    "description": "Insect_403427",
    "title": "Insect_403427",
    "link_img": "https://live.staticflickr.com/65535/50021134208_d2e36764b9_o.jpg",
    "id_image": "Insect_403427",
    "count_view": 0
  },
  {
    "link_thumb": "https://live.staticflickr.com/65535/50017398343_72b49c1572_n.jpg",
    "id_album": "-462831705",
    "description": "Cat_274265",
    "title": "Cat_274265",
    "link_img": "https://live.staticflickr.com/65535/50017398343_deb1cfbceb_o.jpg",
    "id_image": "Cat_274265",
    "count_view": 0
  },
  {
    "link_thumb": "https://live.staticflickr.com/65535/50021897691_ab3345c358_n.jpg",
    "id_album": "1392348450",
    "description": "Leopard_332033",
    "title": "Leopard_332033",
    "link_img": "https://live.staticflickr.com/65535/50021897691_b090f091d0_o.jpg",
    "id_image": "Leopard_332033",
    "count_view": 0
  },
  {
    "link_thumb": "https://live.staticflickr.com/65535/50016839036_28548f0be5_n.jpg",
    "id_album": "-1741290715",
    "description": "Ant_610075",
    "title": "Ant_610075",
    "link_img": "https://live.staticflickr.com/65535/50016839036_f6f185414c_o.jpg",
    "id_image": "Ant_610075",
    "count_view": 0
  },
  {
    "link_thumb": "https://live.staticflickr.com/65535/50022754382_bd34432986_n.jpg",
    "id_album": "-1384601601",
    "description": "Owl_90098",
    "title": "Owl_90098",
    "link_img": "https://live.staticflickr.com/65535/50022754382_606ab3c779_o.jpg",
    "id_image": "Owl_90098",
    "count_view": 0
  },
  {
    "link_thumb": "https://live.staticflickr.com/65535/50020067032_4088a4269a_n.jpg",
    "id_album": "-1868680171",
    "description": "Cougar_370158",
    "title": "Cougar_370158",
    "link_img": "https://live.staticflickr.com/65535/50020067032_6fc66cc775_o.jpg",
    "id_image": "Cougar_370158",
    "count_view": 0
  },
  {
    "link_thumb": "https://live.staticflickr.com/65535/50017194096_0784c15373_n.jpg",
    "id_album": "-1846011410",
    "description": "Bird_115119",
    "title": "Bird_115119",
    "link_img": "https://live.staticflickr.com/65535/50017194096_7de599eb02_o.jpg",
    "id_image": "Bird_115119",
    "count_view": 0
  },
  {
    "link_thumb": "https://live.staticflickr.com/65535/50020933153_54990473e2_n.jpg",
    "id_album": "-1933715543",
    "description": "Horse_257816",
    "title": "Horse_257816",
    "link_img": "https://live.staticflickr.com/65535/50020933153_5a11a1b33d_o.jpg",
    "id_image": "Horse_257816",
    "count_view": 0
  },
  {
    "link_thumb": "https://live.staticflickr.com/65535/50022014827_eed3aed3a3_n.jpg",
    "id_album": "1562047127",
    "description": "Jellyfish_235371",
    "title": "Jellyfish_235371",
    "link_img": "https://live.staticflickr.com/65535/50022014827_d1b63a1c6b_o.jpg",
    "id_image": "Jellyfish_235371",
    "count_view": 0
  },
  {
    "link_thumb": "https://live.staticflickr.com/65535/50021608247_89dc39343f_n.jpg",
    "id_album": "2060159334",
    "description": "GoldenRetriever_657519",
    "title": "GoldenRetriever_657519",
    "link_img": "https://live.staticflickr.com/65535/50021608247_0da13b0b82_o.jpg",
    "id_image": "GoldenRetriever_657519",
    "count_view": 0
  },
  {
    "link_thumb": "https://live.staticflickr.com/65535/50021401801_6e1b74aeb3_n.jpg",
    "id_album": "-1168906494",
    "description": "Grasshopper_434418",
    "title": "Grasshopper_434418",
    "link_img": "https://live.staticflickr.com/65535/50021401801_d31039b9cc_o.jpg",
    "id_image": "Grasshopper_434418",
    "count_view": 0
  },
  {
    "link_thumb": "https://live.staticflickr.com/65535/50018148087_583060df51_n.jpg",
    "id_album": "-462831705",
    "description": "Cat_236454",
    "title": "Cat_236454",
    "link_img": "https://live.staticflickr.com/65535/50018148087_50573167f6_o.jpg",
    "id_image": "Cat_236454",
    "count_view": 0
  },
  {
    "link_thumb": "https://live.staticflickr.com/65535/50021993033_5c3a3fa09c_n.jpg",
    "id_album": "-358592519",
    "description": "Panda_430719",
    "title": "Panda_430719",
    "link_img": "https://live.staticflickr.com/65535/50021993033_2383c97a05_o.jpg",
    "id_image": "Panda_430719",
    "count_view": 0
  },
  {
    "link_thumb": "https://live.staticflickr.com/65535/50018884623_e0f0933d9f_n.jpg",
    "id_album": "-462831703",
    "description": "Cat_900499",
    "title": "Cat_900499",
    "link_img": "https://live.staticflickr.com/65535/50018884623_774d7caa7e_o.jpg",
    "id_image": "Cat_900499",
    "count_view": 0
  },
  {
    "link_thumb": "https://live.staticflickr.com/65535/50021381136_4b412f0b13_n.jpg",
    "id_album": "-817970789",
    "description": "Goose_351474",
    "title": "Goose_351474",
    "link_img": "https://live.staticflickr.com/65535/50021381136_f539afe358_o.jpg",
    "id_image": "Goose_351474",
    "count_view": 0
  },
  {
    "link_thumb": "https://live.staticflickr.com/65535/50023218812_fd78af54e5_n.jpg",
    "id_album": "-353898617",
    "description": "Puppy_352318",
    "title": "Puppy_352318",
    "link_img": "https://live.staticflickr.com/65535/50023218812_1e17ed3ede_o.jpg",
    "id_image": "Puppy_352318",
    "count_view": 0
  },
  {
    "link_thumb": "https://live.staticflickr.com/65535/50020505308_0b28bfb0dc_n.jpg",
    "id_album": "704811092",
    "description": "FrenchBulldog_978440",
    "title": "FrenchBulldog_978440",
    "link_img": "https://live.staticflickr.com/65535/50020505308_f46d45c104_o.jpg",
    "id_image": "FrenchBulldog_978440",
    "count_view": 0
  },
  {
    "link_thumb": "https://live.staticflickr.com/65535/50021757782_47744af48b_n.jpg",
    "id_album": "-1933715543",
    "description": "Horse_370082",
    "title": "Horse_370082",
    "link_img": "https://live.staticflickr.com/65535/50021757782_a110800d73_o.jpg",
    "id_image": "Horse_370082",
    "count_view": 0
  },
  {
    "link_thumb": "https://live.staticflickr.com/65535/50020897658_d8de80a70a_n.jpg",
    "id_album": "1469520430",
    "description": "Hedgehog_882330",
    "title": "Hedgehog_882330",
    "link_img": "https://live.staticflickr.com/65535/50020897658_7c09034cf4_o.jpg",
    "id_image": "Hedgehog_882330",
    "count_view": 0
  },
  {
    "link_thumb": "https://live.staticflickr.com/65535/50017993931_1cf8f8cfeb_n.jpg",
    "id_album": "-462831702",
    "description": "Cat_333079",
    "title": "Cat_333079",
    "link_img": "https://live.staticflickr.com/65535/50017993931_8d94c40010_o.jpg",
    "id_image": "Cat_333079",
    "count_view": 0
  },
  {
    "link_thumb": "https://live.staticflickr.com/65535/50023483042_416292eec8_n.jpg",
    "id_album": "332874268",
    "description": "RedPanda_682193",
    "title": "RedPanda_682193",
    "link_img": "https://live.staticflickr.com/65535/50023483042_fd9884d167_o.jpg",
    "id_image": "RedPanda_682193",
    "count_view": 0
  },
  {
    "link_thumb": "https://live.staticflickr.com/65535/50017273382_db88231c99_n.jpg",
    "id_album": "-422187261",
    "description": "Bear_245455",
    "title": "Bear_245455",
    "link_img": "https://live.staticflickr.com/65535/50017273382_3855fddaa9_o.jpg",
    "id_image": "Bear_245455",
    "count_view": 0
  },
  {
    "link_thumb": "https://live.staticflickr.com/65535/50022435332_c40060673e_n.jpg",
    "id_album": "-1173056085",
    "description": "Macaw_343851",
    "title": "Macaw_343851",
    "link_img": "https://live.staticflickr.com/65535/50022435332_42e799ef6a_o.jpg",
    "id_image": "Macaw_343851",
    "count_view": 0
  },
  {
    "link_thumb": "https://live.staticflickr.com/65535/50023921036_b78f878063_n.jpg",
    "id_album": "702283289",
    "description": "Squirrel_680539",
    "title": "Squirrel_680539",
    "link_img": "https://live.staticflickr.com/65535/50023921036_5d590a123f_o.jpg",
    "id_image": "Squirrel_680539",
    "count_view": 0
  },
  {
    "link_thumb": "https://live.staticflickr.com/65535/50021601582_14c74f454b_n.jpg",
    "id_album": "2060159334",
    "description": "GoldenRetriever_393373",
    "title": "GoldenRetriever_393373",
    "link_img": "https://live.staticflickr.com/65535/50021601582_fd4eb21699_o.jpg",
    "id_image": "GoldenRetriever_393373",
    "count_view": 0
  },
  {
    "link_thumb": "https://live.staticflickr.com/65535/50019253671_d9636629e9_n.jpg",
    "id_album": "-462831704",
    "description": "Cat_488904",
    "title": "Cat_488904",
    "link_img": "https://live.staticflickr.com/65535/50019253671_485a577277_o.jpg",
    "id_image": "Cat_488904",
    "count_view": 0
  },
  {
    "link_thumb": "https://live.staticflickr.com/65535/50017372677_785eb63fd8_n.jpg",
    "id_album": "-422187261",
    "description": "Bear_973753",
    "title": "Bear_973753",
    "link_img": "https://live.staticflickr.com/65535/50017372677_3064eedbc5_o.jpg",
    "id_image": "Bear_973753",
    "count_view": 0
  },
  {
    "link_thumb": "https://live.staticflickr.com/65535/50022550036_67b62fb3f0_n.jpg",
    "id_album": "-358592519",
    "description": "Panda_808239",
    "title": "Panda_808239",
    "link_img": "https://live.staticflickr.com/65535/50022550036_81ab1b3793_o.jpg",
    "id_image": "Panda_808239",
    "count_view": 0
  },
  {
    "link_thumb": "https://live.staticflickr.com/65535/50021169092_56378ae440_n.jpg",
    "id_album": "-1758557371",
    "description": "Flamingo_872264",
    "title": "Flamingo_872264",
    "link_img": "https://live.staticflickr.com/65535/50021169092_f0c4579183_o.jpg",
    "id_image": "Flamingo_872264",
    "count_view": 0
  },
  {
    "link_thumb": "https://live.staticflickr.com/65535/50352477471_2e299d476d_n.jpg",
    "id_album": "-462831703",
    "description": "Cat_373177",
    "title": "Cat_373177",
    "link_img": "https://live.staticflickr.com/65535/50352477471_738864ac66_o.jpg",
    "id_image": "Cat_373177",
    "count_view": 0
  },
  {
    "link_thumb": "https://live.staticflickr.com/65535/50019576998_9a7f9dc3ee_n.jpg",
    "id_album": "297232732",
    "description": "Dinosaur_915126",
    "title": "Dinosaur_915126",
    "link_img": "https://live.staticflickr.com/65535/50019576998_9f3d18a100_o.jpg",
    "id_image": "Dinosaur_915126",
    "count_view": 0
  },
  {
    "link_thumb": "https://live.staticflickr.com/65535/50023236642_996b01fe4d_n.jpg",
    "id_album": "-353898617",
    "description": "Puppy_371093",
    "title": "Puppy_371093",
    "link_img": "https://live.staticflickr.com/65535/50023236642_80ebdac38f_o.jpg",
    "id_image": "Puppy_371093",
    "count_view": 0
  },
  {
    "link_thumb": "https://live.staticflickr.com/65535/50017418701_bdb153d8ed_n.jpg",
    "id_album": "-1846011410",
    "description": "Bird_743814",
    "title": "Bird_743814",
    "link_img": "https://live.staticflickr.com/65535/50017418701_670775195f_o.jpg",
    "id_image": "Bird_743814",
    "count_view": 0
  },
  {
    "link_thumb": "https://live.staticflickr.com/65535/50020492516_8050e4e877_n.jpg",
    "id_album": "-149330231",
    "description": "Dog_715294",
    "title": "Dog_715294",
    "link_img": "https://live.staticflickr.com/65535/50020492516_c3720ca64b_o.jpg",
    "id_image": "Dog_715294",
    "count_view": 0
  },
  {
    "link_thumb": "https://live.staticflickr.com/65535/50023091606_4d2affff30_n.jpg",
    "id_album": "-1940643173",
    "description": "Rabbit_266510",
    "title": "Rabbit_266510",
    "link_img": "https://live.staticflickr.com/65535/50023091606_cb2d22dd79_o.jpg",
    "id_image": "Rabbit_266510",
    "count_view": 0
  },
  {
    "link_thumb": "https://live.staticflickr.com/65535/50023241763_6660c24fe6_n.jpg",
    "id_album": "-1082521515",
    "description": "Spider_614709",
    "title": "Spider_614709",
    "link_img": "https://live.staticflickr.com/65535/50023241763_c2aef6b54c_o.jpg",
    "id_image": "Spider_614709",
    "count_view": 0
  },
  {
    "link_thumb": "https://live.staticflickr.com/65535/50017956362_7df0b90cc2_n.jpg",
    "id_album": "-401151552",
    "description": "Butterfly_926317",
    "title": "Butterfly_926317",
    "link_img": "https://live.staticflickr.com/65535/50017956362_11470c47ba_o.jpg",
    "id_image": "Butterfly_926317",
    "count_view": 0
  }
]