[
  {
    "link_thumb": "https://live.staticflickr.com/65535/50020533193_256a94afe8_n.jpg",
    "id_album": "844170697",
    "description": "Frog_803350",
    "title": "Frog_803350",
    "link_img": "https://live.staticflickr.com/65535/50020533193_4a58b8711c_o.jpg",
    "id_image": "Frog_803350",
    "count_view": 0
  },
  {
    "link_thumb": "https://live.staticflickr.com/65535/50020533313_d4bb62eb88_n.jpg",
    "id_album": "844170697",
    "description": "Frog_803352",
    "title": "Frog_803352",
    "link_img": "https://live.staticflickr.com/65535/50020533313_08365c66dc_o.jpg",
    "id_image": "Frog_803352",
    "count_view": 0
  },
  {
    "link_thumb": "https://live.staticflickr.com/65535/50021076156_72c91d195c_n.jpg",
    "id_album": "844170697",
    "description": "Frog_806095",
    "title": "Frog_806095",
    "link_img": "https://live.staticflickr.com/65535/50021076156_da8ca7cbf8_o.jpg",
    "id_image": "Frog_806095",
    "count_view": 0
  },
  {
    "link_thumb": "https://live.staticflickr.com/65535/50020533588_4f5ef70237_n.jpg",
    "id_album": "844170697",
    "description": "Frog_808479",
    "title": "Frog_808479",
    "link_img": "https://live.staticflickr.com/65535/50020533588_0ef242172f_o.jpg",
    "id_image": "Frog_808479",
    "count_view": 0
  },
  {
    "link_thumb": "https://live.staticflickr.com/65535/50021076466_51ddc082bc_n.jpg",
    "id_album": "844170697",
    "description": "Frog_81305",
    "title": "Frog_81305",
    "link_img": "https://live.staticflickr.com/65535/50021076466_702e537851_o.jpg",
    "id_image": "Frog_81305",
    "count_view": 0
  },
  {
    "link_thumb": "https://live.staticflickr.com/65535/50020533808_d7dc2a31e0_n.jpg",
    "id_album": "844170697",
    "description": "Frog_81306",
    "title": "Frog_81306",
    "link_img": "https://live.staticflickr.com/65535/50020533808_99febccffb_o.jpg",
    "id_image": "Frog_81306",
    "count_view": 0
  },
  {
    "link_thumb": "https://live.staticflickr.com/65535/50021076671_4c5eb7bb03_n.jpg",
    "id_album": "844170697",
    "description": "Frog_81307",
    "title": "Frog_81307",
    "link_img": "https://live.staticflickr.com/65535/50021076671_75efa5bd09_o.jpg",
    "id_image": "Frog_81307",
    "count_view": 0
  },
  {
    "link_thumb": "https://live.staticflickr.com/65535/50020534003_9c5b8fc33b_n.jpg",
    "id_album": "844170697",
    "description": "Frog_81308",
    "title": "Frog_81308",
    "link_img": "https://live.staticflickr.com/65535/50020534003_559c16f78f_o.jpg",
    "id_image": "Frog_81308",
    "count_view": 0
  },
  {
    "link_thumb": "https://live.staticflickr.com/65535/50021330187_96cd07f27b_n.jpg",
    "id_album": "844170697",
    "description": "Frog_81309",
    "title": "Frog_81309",
    "link_img": "https://live.staticflickr.com/65535/50021330187_f02f70d459_o.jpg",
    "id_image": "Frog_81309",
    "count_view": 0
  },
  {
    "link_thumb": "https://live.staticflickr.com/65535/50021077051_ab116f45b6_n.jpg",
    "id_album": "844170697",
    "description": "Frog_81314",
    "title": "Frog_81314",
    "link_img": "https://live.staticflickr.com/65535/50021077051_89a7f1693e_o.jpg",
    "id_image": "Frog_81314",
    "count_view": 0
  },
  {
    "link_thumb": "https://live.staticflickr.com/65535/50021330432_b658305488_n.jpg",
    "id_album": "844170697",
    "description": "Frog_81318",
    "title": "Frog_81318",
    "link_img": "https://live.staticflickr.com/65535/50021330432_51a8398768_o.jpg",
    "id_image": "Frog_81318",
    "count_view": 0
  },
  {
    "link_thumb": "https://live.staticflickr.com/65535/50021077291_0f36e291a8_n.jpg",
    "id_album": "844170697",
    "description": "Frog_81336",
    "title": "Frog_81336",
    "link_img": "https://live.staticflickr.com/65535/50021077291_493547d930_o.jpg",
    "id_image": "Frog_81336",
    "count_view": 0
  },
  {
    "link_thumb": "https://live.staticflickr.com/65535/50021077421_b0f9ddc50c_n.jpg",
    "id_album": "844170697",
    "description": "Frog_813986",
    "title": "Frog_813986",
    "link_img": "https://live.staticflickr.com/65535/50021077421_27d58afb84_o.jpg",
    "id_image": "Frog_813986",
    "count_view": 0
  },
  {
    "link_thumb": "https://live.staticflickr.com/65535/50021330912_edd251714f_n.jpg",
    "id_album": "844170697",
    "description": "Frog_816134",
    "title": "Frog_816134",
    "link_img": "https://live.staticflickr.com/65535/50021330912_1eec7117be_o.jpg",
    "id_image": "Frog_816134",
    "count_view": 0
  },
  {
    "link_thumb": "https://live.staticflickr.com/65535/50021330982_a5c5e943e6_n.jpg",
    "id_album": "844170697",
    "description": "Frog_819339",
    "title": "Frog_819339",
    "link_img": "https://live.staticflickr.com/65535/50021330982_870fa1929a_o.jpg",
    "id_image": "Frog_819339",
    "count_view": 0
  },
  {
    "link_thumb": "https://live.staticflickr.com/65535/50021331102_9d415ef81f_n.jpg",
    "id_album": "844170697",
    "description": "Frog_821508",
    "title": "Frog_821508",
    "link_img": "https://live.staticflickr.com/65535/50021331102_e33394309a_o.jpg",
    "id_image": "Frog_821508",
    "count_view": 0
  },
  {
    "link_thumb": "https://live.staticflickr.com/65535/50020535133_57eeb19742_n.jpg",
    "id_album": "844170697",
    "description": "Frog_821509",
    "title": "Frog_821509",
    "link_img": "https://live.staticflickr.com/65535/50020535133_925d5c1bb9_o.jpg",
    "id_image": "Frog_821509",
    "count_view": 0
  },
  {
    "link_thumb": "https://live.staticflickr.com/65535/50020535203_51dd917a41_n.jpg",
    "id_album": "844170697",
    "description": "Frog_821944",
    "title": "Frog_821944",
    "link_img": "https://live.staticflickr.com/65535/50020535203_a12b70029f_o.jpg",
    "id_image": "Frog_821944",
    "count_view": 0
  },
  {
    "link_thumb": "https://live.staticflickr.com/65535/50021331457_159ef70442_n.jpg",
    "id_album": "844170697",
    "description": "Frog_821945",
    "title": "Frog_821945",
    "link_img": "https://live.staticflickr.com/65535/50021331457_c48aa1f9a2_o.jpg",
    "id_image": "Frog_821945",
    "count_view": 0
  },
  {
    "link_thumb": "https://live.staticflickr.com/65535/50021078236_d5908458ca_n.jpg",
    "id_album": "844170697",
    "description": "Frog_821954",
    "title": "Frog_821954",
    "link_img": "https://live.staticflickr.com/65535/50021078236_ef641b92d8_o.jpg",
    "id_image": "Frog_821954",
    "count_view": 0
  },
  {
    "link_thumb": "https://live.staticflickr.com/65535/50021331657_d4eea52937_n.jpg",
    "id_album": "844170697",
    "description": "Frog_824759",
    "title": "Frog_824759",
    "link_img": "https://live.staticflickr.com/65535/50021331657_be29844331_o.jpg",
    "id_image": "Frog_824759",
    "count_view": 0
  },
  {
    "link_thumb": "https://live.staticflickr.com/65535/50021078471_415d80b069_n.jpg",
    "id_album": "844170697",
    "description": "Frog_827612",
    "title": "Frog_827612",
    "link_img": "https://live.staticflickr.com/65535/50021078471_f6223be9bc_o.jpg",
    "id_image": "Frog_827612",
    "count_view": 0
  },
  {
    "link_thumb": "https://live.staticflickr.com/65535/50020535683_b38cbd3334_n.jpg",
    "id_album": "844170697",
    "description": "Frog_831458",
    "title": "Frog_831458",
    "link_img": "https://live.staticflickr.com/65535/50020535683_dc028be045_o.jpg",
    "id_image": "Frog_831458",
    "count_view": 0
  },
  {
    "link_thumb": "https://live.staticflickr.com/65535/50020535738_eb92e36c1a_n.jpg",
    "id_album": "844170697",
    "description": "Frog_835679",
    "title": "Frog_835679",
    "link_img": "https://live.staticflickr.com/65535/50020535738_d116b37f70_o.jpg",
    "id_image": "Frog_835679",
    "count_view": 0
  },
  {
    "link_thumb": "https://live.staticflickr.com/65535/50021332122_6fb69d17e1_n.jpg",
    "id_album": "844170697",
    "description": "Frog_841926",
    "title": "Frog_841926",
    "link_img": "https://live.staticflickr.com/65535/50021332122_5c2baca66a_o.jpg",
    "id_image": "Frog_841926",
    "count_view": 0
  },
  {
    "link_thumb": "https://live.staticflickr.com/65535/50021078951_89e822ee91_n.jpg",
    "id_album": "844170697",
    "description": "Frog_843013",
    "title": "Frog_843013",
    "link_img": "https://live.staticflickr.com/65535/50021078951_8a3053b1da_o.jpg",
    "id_image": "Frog_843013",
    "count_view": 0
  },
  {
    "link_thumb": "https://live.staticflickr.com/65535/50020536033_ff13369201_n.jpg",
    "id_album": "844170697",
    "description": "Frog_845420",
    "title": "Frog_845420",
    "link_img": "https://live.staticflickr.com/65535/50020536033_03f4e08847_o.jpg",
    "id_image": "Frog_845420",
    "count_view": 0
  },
  {
    "link_thumb": "https://live.staticflickr.com/65535/50021079211_27781534bd_n.jpg",
    "id_album": "844170697",
    "description": "Frog_846803",
    "title": "Frog_846803",
    "link_img": "https://live.staticflickr.com/65535/50021079211_9c2bdc32d3_o.jpg",
    "id_image": "Frog_846803",
    "count_view": 0
  },
  {
    "link_thumb": "https://live.staticflickr.com/65535/50020536303_2129d6c4c9_n.jpg",
    "id_album": "844170697",
    "description": "Frog_846816",
    "title": "Frog_846816",
    "link_img": "https://live.staticflickr.com/65535/50020536303_f0e6766262_o.jpg",
    "id_image": "Frog_846816",
    "count_view": 0
  },
  {
    "link_thumb": "https://live.staticflickr.com/65535/50020536433_f4a387a839_n.jpg",
    "id_album": "844170697",
    "description": "Frog_851652",
    "title": "Frog_851652",
    "link_img": "https://live.staticflickr.com/65535/50020536433_df1a92bd19_o.jpg",
    "id_image": "Frog_851652",
    "count_view": 0
  },
  {
    "link_thumb": "https://live.staticflickr.com/65535/50021079586_36c5915c16_n.jpg",
    "id_album": "844170697",
    "description": "Frog_852403",
    "title": "Frog_852403",
    "link_img": "https://live.staticflickr.com/65535/50021079586_d6c2b15aaf_o.jpg",
    "id_image": "Frog_852403",
    "count_view": 0
  },
  {
    "link_thumb": "https://live.staticflickr.com/65535/50021079741_2a7835f063_n.jpg",
    "id_album": "844170697",
    "description": "Frog_852589",
    "title": "Frog_852589",
    "link_img": "https://live.staticflickr.com/65535/50021079741_a7cab01d7c_o.jpg",
    "id_image": "Frog_852589",
    "count_view": 0
  },
  {
    "link_thumb": "https://live.staticflickr.com/65535/50021079961_89865e5e3d_n.jpg",
    "id_album": "844170697",
    "description": "Frog_855135",
    "title": "Frog_855135",
    "link_img": "https://live.staticflickr.com/65535/50021079961_ebeac0cd8b_o.jpg",
    "id_image": "Frog_855135",
    "count_view": 0
  },
  {
    "link_thumb": "https://live.staticflickr.com/65535/50021333312_3e6ab362ea_n.jpg",
    "id_album": "844170697",
    "description": "Frog_856968",
    "title": "Frog_856968",
    "link_img": "https://live.staticflickr.com/65535/50021333312_7e5381ba9d_o.jpg",
    "id_image": "Frog_856968",
    "count_view": 0
  },
  {
    "link_thumb": "https://live.staticflickr.com/65535/50021080196_3a289bc2d9_n.jpg",
    "id_album": "844170697",
    "description": "Frog_858400",
    "title": "Frog_858400",
    "link_img": "https://live.staticflickr.com/65535/50021080196_5f5a496020_o.jpg",
    "id_image": "Frog_858400",
    "count_view": 0
  },
  {
    "link_thumb": "https://live.staticflickr.com/65535/50020537258_152e71259f_n.jpg",
    "id_album": "844170697",
    "description": "Frog_863207",
    "title": "Frog_863207",
    "link_img": "https://live.staticflickr.com/65535/50020537258_d0a7274a80_o.jpg",
    "id_image": "Frog_863207",
    "count_view": 0
  },
  {
    "link_thumb": "https://live.staticflickr.com/65535/50020537393_86a09b358b_n.jpg",
    "id_album": "844170697",
    "description": "Frog_863208",
    "title": "Frog_863208",
    "link_img": "https://live.staticflickr.com/65535/50020537393_94b0ffc8a6_o.jpg",
    "id_image": "Frog_863208",
    "count_view": 0
  },
  {
    "link_thumb": "https://live.staticflickr.com/65535/50021333832_8580dd507f_n.jpg",
    "id_album": "844170697",
    "description": "Frog_863397",
    "title": "Frog_863397",
    "link_img": "https://live.staticflickr.com/65535/50021333832_8f4a350bb7_o.jpg",
    "id_image": "Frog_863397",
    "count_view": 0
  },
  {
    "link_thumb": "https://live.staticflickr.com/65535/50021334042_8bff3c8171_n.jpg",
    "id_album": "844170697",
    "description": "Frog_865076",
    "title": "Frog_865076",
    "link_img": "https://live.staticflickr.com/65535/50021334042_6a861b11aa_o.jpg",
    "id_image": "Frog_865076",
    "count_view": 0
  },
  {
    "link_thumb": "https://live.staticflickr.com/65535/50021080946_7da61b6442_n.jpg",
    "id_album": "844170697",
    "description": "Frog_865637",
    "title": "Frog_865637",
    "link_img": "https://live.staticflickr.com/65535/50021080946_c93cd97a05_o.jpg",
    "id_image": "Frog_865637",
    "count_view": 0
  },
  {
    "link_thumb": "https://live.staticflickr.com/65535/50020537993_ab70275c85_n.jpg",
    "id_album": "844170697",
    "description": "Frog_865790",
    "title": "Frog_865790",
    "link_img": "https://live.staticflickr.com/65535/50020537993_0786be3126_o.jpg",
    "id_image": "Frog_865790",
    "count_view": 0
  },
  {
    "link_thumb": "https://live.staticflickr.com/65535/50020538118_b8974b8a51_n.jpg",
    "id_album": "844170697",
    "description": "Frog_871655",
    "title": "Frog_871655",
    "link_img": "https://live.staticflickr.com/65535/50020538118_fbcbfc1836_o.jpg",
    "id_image": "Frog_871655",
    "count_view": 0
  },
  {
    "link_thumb": "https://live.staticflickr.com/65535/50021334497_70c7bb1d73_n.jpg",
    "id_album": "844170697",
    "description": "Frog_871895",
    "title": "Frog_871895",
    "link_img": "https://live.staticflickr.com/65535/50021334497_18ae713ed1_o.jpg",
    "id_image": "Frog_871895",
    "count_view": 0
  },
  {
    "link_thumb": "https://live.staticflickr.com/65535/50021334647_899394487f_n.jpg",
    "id_album": "844170697",
    "description": "Frog_873762",
    "title": "Frog_873762",
    "link_img": "https://live.staticflickr.com/65535/50021334647_2a2e6fa5c1_o.jpg",
    "id_image": "Frog_873762",
    "count_view": 0
  },
  {
    "link_thumb": "https://live.staticflickr.com/65535/50020538508_6f8b093213_n.jpg",
    "id_album": "844170697",
    "description": "Frog_874629",
    "title": "Frog_874629",
    "link_img": "https://live.staticflickr.com/65535/50020538508_797f12543a_o.jpg",
    "id_image": "Frog_874629",
    "count_view": 0
  },
  {
    "link_thumb": "https://live.staticflickr.com/65535/50021081696_c6378dbf6b_n.jpg",
    "id_album": "844170697",
    "description": "Frog_876947",
    "title": "Frog_876947",
    "link_img": "https://live.staticflickr.com/65535/50021081696_c8e443d86b_o.jpg",
    "id_image": "Frog_876947",
    "count_view": 0
  },
  {
    "link_thumb": "https://live.staticflickr.com/65535/50021081806_800fa9109b_n.jpg",
    "id_album": "844170697",
    "description": "Frog_878404",
    "title": "Frog_878404",
    "link_img": "https://live.staticflickr.com/65535/50021081806_54def20e9c_o.jpg",
    "id_image": "Frog_878404",
    "count_view": 0
  },
  {
    "link_thumb": "https://live.staticflickr.com/65535/50021081931_e4d503cf82_n.jpg",
    "id_album": "844170697",
    "description": "Frog_878869",
    "title": "Frog_878869",
    "link_img": "https://live.staticflickr.com/65535/50021081931_74037941a9_o.jpg",
    "id_image": "Frog_878869",
    "count_view": 0
  },
  {
    "link_thumb": "https://live.staticflickr.com/65535/50021082056_03c41cb56d_n.jpg",
    "id_album": "844170697",
    "description": "Frog_881522",
    "title": "Frog_881522",
    "link_img": "https://live.staticflickr.com/65535/50021082056_e6daca7740_o.jpg",
    "id_image": "Frog_881522",
    "count_view": 0
  },
  {
    "link_thumb": "https://live.staticflickr.com/65535/50021335397_43d141ca10_n.jpg",
    "id_album": "844170697",
    "description": "Frog_881936",
    "title": "Frog_881936",
    "link_img": "https://live.staticflickr.com/65535/50021335397_f718b4cb31_o.jpg",
    "id_image": "Frog_881936",
    "count_view": 0
  },
  {
    "link_thumb": "https://live.staticflickr.com/65535/50021082336_2c10aa99dc_n.jpg",
    "id_album": "844170697",
    "description": "Frog_882164",
    "title": "Frog_882164",
    "link_img": "https://live.staticflickr.com/65535/50021082336_212bd77a6f_o.jpg",
    "id_image": "Frog_882164",
    "count_view": 0
  },
  {
    "link_thumb": "https://live.staticflickr.com/65535/50020539393_5b80052fd3_n.jpg",
    "id_album": "844170697",
    "description": "Frog_883336",
    "title": "Frog_883336",
    "link_img": "https://live.staticflickr.com/65535/50020539393_43ab77a934_o.jpg",
    "id_image": "Frog_883336",
    "count_view": 0
  },
  {
    "link_thumb": "https://live.staticflickr.com/65535/50021335747_e791501e53_n.jpg",
    "id_album": "844170697",
    "description": "Frog_88334",
    "title": "Frog_88334",
    "link_img": "https://live.staticflickr.com/65535/50021335747_f93e4c6d7e_o.jpg",
    "id_image": "Frog_88334",
    "count_view": 0
  },
  {
    "link_thumb": "https://live.staticflickr.com/65535/50020539658_76e0bc2fa5_n.jpg",
    "id_album": "844170697",
    "description": "Frog_883781",
    "title": "Frog_883781",
    "link_img": "https://live.staticflickr.com/65535/50020539658_b65248ff9d_o.jpg",
    "id_image": "Frog_883781",
    "count_view": 0
  },
  {
    "link_thumb": "https://live.staticflickr.com/65535/50021336077_7cf2b5f53d_n.jpg",
    "id_album": "844170697",
    "description": "Frog_887843",
    "title": "Frog_887843",
    "link_img": "https://live.staticflickr.com/65535/50021336077_5aef103543_o.jpg",
    "id_image": "Frog_887843",
    "count_view": 0
  },
  {
    "link_thumb": "https://live.staticflickr.com/65535/50021083201_2935108aac_n.jpg",
    "id_album": "844170697",
    "description": "Frog_893991",
    "title": "Frog_893991",
    "link_img": "https://live.staticflickr.com/65535/50021083201_8332a7303d_o.jpg",
    "id_image": "Frog_893991",
    "count_view": 0
  },
  {
    "link_thumb": "https://live.staticflickr.com/65535/50021083351_6885728560_n.jpg",
    "id_album": "844170697",
    "description": "Frog_896686",
    "title": "Frog_896686",
    "link_img": "https://live.staticflickr.com/65535/50021083351_47712c4bd9_o.jpg",
    "id_image": "Frog_896686",
    "count_view": 0
  },
  {
    "link_thumb": "https://live.staticflickr.com/65535/50021336492_acabd278cd_n.jpg",
    "id_album": "844170697",
    "description": "Frog_897924",
    "title": "Frog_897924",
    "link_img": "https://live.staticflickr.com/65535/50021336492_ff53500eea_o.jpg",
    "id_image": "Frog_897924",
    "count_view": 0
  },
  {
    "link_thumb": "https://live.staticflickr.com/65535/50021083561_94ac52b8bf_n.jpg",
    "id_album": "844170697",
    "description": "Frog_898837",
    "title": "Frog_898837",
    "link_img": "https://live.staticflickr.com/65535/50021083561_fc528a94ed_o.jpg",
    "id_image": "Frog_898837",
    "count_view": 0
  },
  {
    "link_thumb": "https://live.staticflickr.com/65535/50021083641_ebce1a3f61_n.jpg",
    "id_album": "844170697",
    "description": "Frog_898839",
    "title": "Frog_898839",
    "link_img": "https://live.staticflickr.com/65535/50021083641_381088b792_o.jpg",
    "id_image": "Frog_898839",
    "count_view": 0
  },
  {
    "link_thumb": "https://live.staticflickr.com/65535/50021083776_61b97de205_n.jpg",
    "id_album": "844170697",
    "description": "Frog_899259",
    "title": "Frog_899259",
    "link_img": "https://live.staticflickr.com/65535/50021083776_b9aed285e0_o.jpg",
    "id_image": "Frog_899259",
    "count_view": 0
  },
  {
    "link_thumb": "https://live.staticflickr.com/65535/50020540643_4b1259248e_n.jpg",
    "id_album": "844170697",
    "description": "Frog_902731",
    "title": "Frog_902731",
    "link_img": "https://live.staticflickr.com/65535/50020540643_af9ded8819_o.jpg",
    "id_image": "Frog_902731",
    "count_view": 0
  },
  {
    "link_thumb": "https://live.staticflickr.com/65535/50021084016_9a71e181e4_n.jpg",
    "id_album": "844170697",
    "description": "Frog_904059",
    "title": "Frog_904059",
    "link_img": "https://live.staticflickr.com/65535/50021084016_df0f061e4a_o.jpg",
    "id_image": "Frog_904059",
    "count_view": 0
  },
  {
    "link_thumb": "https://live.staticflickr.com/65535/50021337172_1648af3076_n.jpg",
    "id_album": "844170697",
    "description": "Frog_905069",
    "title": "Frog_905069",
    "link_img": "https://live.staticflickr.com/65535/50021337172_511391e90c_o.jpg",
    "id_image": "Frog_905069",
    "count_view": 0
  },
  {
    "link_thumb": "https://live.staticflickr.com/65535/50021084231_6b70e08e62_n.jpg",
    "id_album": "844170697",
    "description": "Frog_906450",
    "title": "Frog_906450",
    "link_img": "https://live.staticflickr.com/65535/50021084231_a6968c1439_o.jpg",
    "id_image": "Frog_906450",
    "count_view": 0
  },
  {
    "link_thumb": "https://live.staticflickr.com/65535/50020541088_884fccf98c_n.jpg",
    "id_album": "844170697",
    "description": "Frog_909399",
    "title": "Frog_909399",
    "link_img": "https://live.staticflickr.com/65535/50020541088_b4d963faa0_o.jpg",
    "id_image": "Frog_909399",
    "count_view": 0
  },
  {
    "link_thumb": "https://live.staticflickr.com/65535/50020541208_b402be985a_n.jpg",
    "id_album": "844170697",
    "description": "Frog_910695",
    "title": "Frog_910695",
    "link_img": "https://live.staticflickr.com/65535/50020541208_90acb987dd_o.jpg",
    "id_image": "Frog_910695",
    "count_view": 0
  },
  {
    "link_thumb": "https://live.staticflickr.com/65535/50020541343_0d3e030078_n.jpg",
    "id_album": "844170697",
    "description": "Frog_911133",
    "title": "Frog_911133",
    "link_img": "https://live.staticflickr.com/65535/50020541343_94f20592ec_o.jpg",
    "id_image": "Frog_911133",
    "count_view": 0
  },
  {
    "link_thumb": "https://live.staticflickr.com/65535/50020541463_939b23e04c_n.jpg",
    "id_album": "844170697",
    "description": "Frog_911226",
    "title": "Frog_911226",
    "link_img": "https://live.staticflickr.com/65535/50020541463_4c6a96bfb2_o.jpg",
    "id_image": "Frog_911226",
    "count_view": 0
  },
  {
    "link_thumb": "https://live.staticflickr.com/65535/50020541558_0be1fe3f3b_n.jpg",
    "id_album": "844170697",
    "description": "Frog_911513",
    "title": "Frog_911513",
    "link_img": "https://live.staticflickr.com/65535/50020541558_0bf78eabb0_o.jpg",
    "id_image": "Frog_911513",
    "count_view": 0
  },
  {
    "link_thumb": "https://live.staticflickr.com/65535/50020541688_993a326b04_n.jpg",
    "id_album": "844170697",
    "description": "Frog_913138",
    "title": "Frog_913138",
    "link_img": "https://live.staticflickr.com/65535/50020541688_151447ddf5_o.jpg",
    "id_image": "Frog_913138",
    "count_view": 0
  },
  {
    "link_thumb": "https://live.staticflickr.com/65535/50020541803_87450bc2f9_n.jpg",
    "id_album": "844170697",
    "description": "Frog_913690",
    "title": "Frog_913690",
    "link_img": "https://live.staticflickr.com/65535/50020541803_54fc7534bd_o.jpg",
    "id_image": "Frog_913690",
    "count_view": 0
  },
  {
    "link_thumb": "https://live.staticflickr.com/65535/50021085101_348dec81f2_n.jpg",
    "id_album": "844170697",
    "description": "Frog_915536",
    "title": "Frog_915536",
    "link_img": "https://live.staticflickr.com/65535/50021085101_1965edb263_o.jpg",
    "id_image": "Frog_915536",
    "count_view": 0
  },
  {
    "link_thumb": "https://live.staticflickr.com/65535/50021085231_ec2530e824_n.jpg",
    "id_album": "844170697",
    "description": "Frog_917711",
    "title": "Frog_917711",
    "link_img": "https://live.staticflickr.com/65535/50021085231_1be93f172f_o.jpg",
    "id_image": "Frog_917711",
    "count_view": 0
  },
  {
    "link_thumb": "https://live.staticflickr.com/65535/50021085346_d308060f7c_n.jpg",
    "id_album": "844170697",
    "description": "Frog_918412",
    "title": "Frog_918412",
    "link_img": "https://live.staticflickr.com/65535/50021085346_ae2533ea49_o.jpg",
    "id_image": "Frog_918412",
    "count_view": 0
  },
  {
    "link_thumb": "https://live.staticflickr.com/65535/50021338592_0c245d1027_n.jpg",
    "id_album": "844170697",
    "description": "Frog_918628",
    "title": "Frog_918628",
    "link_img": "https://live.staticflickr.com/65535/50021338592_c1920fc388_o.jpg",
    "id_image": "Frog_918628",
    "count_view": 0
  },
  {
    "link_thumb": "https://live.staticflickr.com/65535/50020542368_c4c4815531_n.jpg",
    "id_album": "844170697",
    "description": "Frog_920555",
    "title": "Frog_920555",
    "link_img": "https://live.staticflickr.com/65535/50020542368_e4474b07ff_o.jpg",
    "id_image": "Frog_920555",
    "count_view": 0
  },
  {
    "link_thumb": "https://live.staticflickr.com/65535/50021338837_2374b7132b_n.jpg",
    "id_album": "844170697",
    "description": "Frog_920943",
    "title": "Frog_920943",
    "link_img": "https://live.staticflickr.com/65535/50021338837_f51b9bb7c1_o.jpg",
    "id_image": "Frog_920943",
    "count_view": 0
  },
  {
    "link_thumb": "https://live.staticflickr.com/65535/50021338972_dcc8ffef0e_n.jpg",
    "id_album": "844170697",
    "description": "Frog_921300",
    "title": "Frog_921300",
    "link_img": "https://live.staticflickr.com/65535/50021338972_1d1a2aaf73_o.jpg",
    "id_image": "Frog_921300",
    "count_view": 0
  },
  {
    "link_thumb": "https://live.staticflickr.com/65535/50021085951_a4f7f91eb8_n.jpg",
    "id_album": "844170697",
    "description": "Frog_921302",
    "title": "Frog_921302",
    "link_img": "https://live.staticflickr.com/65535/50021085951_c5af5b46a0_o.jpg",
    "id_image": "Frog_921302",
    "count_view": 0
  },
  {
    "link_thumb": "https://live.staticflickr.com/65535/50020542858_e0ca3f28e9_n.jpg",
    "id_album": "844170697",
    "description": "Frog_921486",
    "title": "Frog_921486",
    "link_img": "https://live.staticflickr.com/65535/50020542858_f98ded48e6_o.jpg",
    "id_image": "Frog_921486",
    "count_view": 0
  },
  {
    "link_thumb": "https://live.staticflickr.com/65535/50021339342_99c92335cb_n.jpg",
    "id_album": "844170697",
    "description": "Frog_922356",
    "title": "Frog_922356",
    "link_img": "https://live.staticflickr.com/65535/50021339342_b1e4b2d7e7_o.jpg",
    "id_image": "Frog_922356",
    "count_view": 0
  },
  {
    "link_thumb": "https://live.staticflickr.com/65535/50021086211_812f1329d5_n.jpg",
    "id_album": "844170697",
    "description": "Frog_924326",
    "title": "Frog_924326",
    "link_img": "https://live.staticflickr.com/65535/50021086211_575f486444_o.jpg",
    "id_image": "Frog_924326",
    "count_view": 0
  },
  {
    "link_thumb": "https://live.staticflickr.com/65535/50020543168_ea9ca363a4_n.jpg",
    "id_album": "844170697",
    "description": "Frog_926480",
    "title": "Frog_926480",
    "link_img": "https://live.staticflickr.com/65535/50020543168_84c4f32074_o.jpg",
    "id_image": "Frog_926480",
    "count_view": 0
  },
  {
    "link_thumb": "https://live.staticflickr.com/65535/50020543268_161e8fa58d_n.jpg",
    "id_album": "844170697",
    "description": "Frog_927164",
    "title": "Frog_927164",
    "link_img": "https://live.staticflickr.com/65535/50020543268_d223714558_o.jpg",
    "id_image": "Frog_927164",
    "count_view": 0
  },
  {
    "link_thumb": "https://live.staticflickr.com/65535/50020543373_1d8c5ea29a_n.jpg",
    "id_album": "844170697",
    "description": "Frog_927367",
    "title": "Frog_927367",
    "link_img": "https://live.staticflickr.com/65535/50020543373_454fc4ee3b_o.jpg",
    "id_image": "Frog_927367",
    "count_view": 0
  },
  {
    "link_thumb": "https://live.staticflickr.com/65535/50021086606_e9f030a510_n.jpg",
    "id_album": "844170697",
    "description": "Frog_931138",
    "title": "Frog_931138",
    "link_img": "https://live.staticflickr.com/65535/50021086606_aed13af429_o.jpg",
    "id_image": "Frog_931138",
    "count_view": 0
  },
  {
    "link_thumb": "https://live.staticflickr.com/65535/50021340032_5cf987ca7b_n.jpg",
    "id_album": "844170697",
    "description": "Frog_932078",
    "title": "Frog_932078",
    "link_img": "https://live.staticflickr.com/65535/50021340032_a01d3b42d2_o.jpg",
    "id_image": "Frog_932078",
    "count_view": 0
  },
  {
    "link_thumb": "https://live.staticflickr.com/65535/50021086911_968327a6c3_n.jpg",
    "id_album": "844170697",
    "description": "Frog_932166",
    "title": "Frog_932166",
    "link_img": "https://live.staticflickr.com/65535/50021086911_bfbdcfed83_o.jpg",
    "id_image": "Frog_932166",
    "count_view": 0
  },
  {
    "link_thumb": "https://live.staticflickr.com/65535/50021087036_abbf8e9432_n.jpg",
    "id_album": "844170697",
    "description": "Frog_938881",
    "title": "Frog_938881",
    "link_img": "https://live.staticflickr.com/65535/50021087036_ee5cf8d004_o.jpg",
    "id_image": "Frog_938881",
    "count_view": 0
  },
  {
    "link_thumb": "https://live.staticflickr.com/65535/50021340407_36390cdc68_n.jpg",
    "id_album": "844170697",
    "description": "Frog_940130",
    "title": "Frog_940130",
    "link_img": "https://live.staticflickr.com/65535/50021340407_77de53339f_o.jpg",
    "id_image": "Frog_940130",
    "count_view": 0
  },
  {
    "link_thumb": "https://live.staticflickr.com/65535/50020544043_5f8cefbde3_n.jpg",
    "id_album": "844170697",
    "description": "Frog_940132",
    "title": "Frog_940132",
    "link_img": "https://live.staticflickr.com/65535/50020544043_1164a596bb_o.jpg",
    "id_image": "Frog_940132",
    "count_view": 0
  },
  {
    "link_thumb": "https://live.staticflickr.com/65535/50021340597_3fa7ddf9e5_n.jpg",
    "id_album": "844170697",
    "description": "Frog_940133",
    "title": "Frog_940133",
    "link_img": "https://live.staticflickr.com/65535/50021340597_efbc935956_o.jpg",
    "id_image": "Frog_940133",
    "count_view": 0
  },
  {
    "link_thumb": "https://live.staticflickr.com/65535/50021087341_35c09454c6_n.jpg",
    "id_album": "844170697",
    "description": "Frog_940135",
    "title": "Frog_940135",
    "link_img": "https://live.staticflickr.com/65535/50021087341_1552e7d4d8_o.jpg",
    "id_image": "Frog_940135",
    "count_view": 0
  },
  {
    "link_thumb": "https://live.staticflickr.com/65535/50021087441_59f10ca341_n.jpg",
    "id_album": "844170697",
    "description": "Frog_940163",
    "title": "Frog_940163",
    "link_img": "https://live.staticflickr.com/65535/50021087441_a1e83be611_o.jpg",
    "id_image": "Frog_940163",
    "count_view": 0
  },
  {
    "link_thumb": "https://live.staticflickr.com/65535/50021087511_b525c592ef_n.jpg",
    "id_album": "844170697",
    "description": "Frog_940393",
    "title": "Frog_940393",
    "link_img": "https://live.staticflickr.com/65535/50021087511_e860e1f399_o.jpg",
    "id_image": "Frog_940393",
    "count_view": 0
  },
  {
    "link_thumb": "https://live.staticflickr.com/65535/50021341037_edf485c746_n.jpg",
    "id_album": "844170697",
    "description": "Frog_94259",
    "title": "Frog_94259",
    "link_img": "https://live.staticflickr.com/65535/50021341037_0b87da89e4_o.jpg",
    "id_image": "Frog_94259",
    "count_view": 0
  },
  {
    "link_thumb": "https://live.staticflickr.com/65535/50020544753_a810400d7b_n.jpg",
    "id_album": "844170697",
    "description": "Frog_94263",
    "title": "Frog_94263",
    "link_img": "https://live.staticflickr.com/65535/50020544753_82cb36db56_o.jpg",
    "id_image": "Frog_94263",
    "count_view": 0
  },
  {
    "link_thumb": "https://live.staticflickr.com/65535/50021087946_867634013d_n.jpg",
    "id_album": "844170697",
    "description": "Frog_942848",
    "title": "Frog_942848",
    "link_img": "https://live.staticflickr.com/65535/50021087946_5defec01a5_o.jpg",
    "id_image": "Frog_942848",
    "count_view": 0
  },
  {
    "link_thumb": "https://live.staticflickr.com/65535/50020544988_0f79795200_n.jpg",
    "id_album": "844170697",
    "description": "Frog_943823",
    "title": "Frog_943823",
    "link_img": "https://live.staticflickr.com/65535/50020544988_1efd2e5fcd_o.jpg",
    "id_image": "Frog_943823",
    "count_view": 0
  },
  {
    "link_thumb": "https://live.staticflickr.com/65535/50020545138_8fcc629a58_n.jpg",
    "id_album": "844170697",
    "description": "Frog_945066",
    "title": "Frog_945066",
    "link_img": "https://live.staticflickr.com/65535/50020545138_95a08cbcc7_o.jpg",
    "id_image": "Frog_945066",
    "count_view": 0
  },
  {
    "link_thumb": "https://live.staticflickr.com/65535/50020545258_fd3b043ffb_n.jpg",
    "id_album": "844170697",
    "description": "Frog_945456",
    "title": "Frog_945456",
    "link_img": "https://live.staticflickr.com/65535/50020545258_771bb15010_o.jpg",
    "id_image": "Frog_945456",
    "count_view": 0
  },
  {
    "link_thumb": "https://live.staticflickr.com/65535/50021341727_49b8614100_n.jpg",
    "id_album": "844170697",
    "description": "Frog_946417",
    "title": "Frog_946417",
    "link_img": "https://live.staticflickr.com/65535/50021341727_ed894eafd2_o.jpg",
    "id_image": "Frog_946417",
    "count_view": 0
  },
  {
    "link_thumb": "https://live.staticflickr.com/65535/50020545568_7c3d0ee806_n.jpg",
    "id_album": "844170697",
    "description": "Frog_948872",
    "title": "Frog_948872",
    "link_img": "https://live.staticflickr.com/65535/50020545568_ba19c1797b_o.jpg",
    "id_image": "Frog_948872",
    "count_view": 0
  },
  {
    "link_thumb": "https://live.staticflickr.com/65535/50020545683_059d382700_n.jpg",
    "id_album": "844170697",
    "description": "Frog_951101",
    "title": "Frog_951101",
    "link_img": "https://live.staticflickr.com/65535/50020545683_4a9a1953e4_o.jpg",
    "id_image": "Frog_951101",
    "count_view": 0
  },
  {
    "link_thumb": "https://live.staticflickr.com/65535/50021342042_cdac316fdd_n.jpg",
    "id_album": "844170697",
    "description": "Frog_953058",
    "title": "Frog_953058",
    "link_img": "https://live.staticflickr.com/65535/50021342042_22a88bf0b9_o.jpg",
    "id_image": "Frog_953058",
    "count_view": 0
  },
  {
    "link_thumb": "https://live.staticflickr.com/65535/50021088841_97c6c3b738_n.jpg",
    "id_album": "844170697",
    "description": "Frog_957939",
    "title": "Frog_957939",
    "link_img": "https://live.staticflickr.com/65535/50021088841_cedb913dc7_o.jpg",
    "id_image": "Frog_957939",
    "count_view": 0
  },
  {
    "link_thumb": "https://live.staticflickr.com/65535/50021342257_227160d9c4_n.jpg",
    "id_album": "844170697",
    "description": "Frog_968524",
    "title": "Frog_968524",
    "link_img": "https://live.staticflickr.com/65535/50021342257_9b64cf1ef5_o.jpg",
    "id_image": "Frog_968524",
    "count_view": 0
  },
  {
    "link_thumb": "https://live.staticflickr.com/65535/50021089081_b661cecb67_n.jpg",
    "id_album": "844170697",
    "description": "Frog_974209",
    "title": "Frog_974209",
    "link_img": "https://live.staticflickr.com/65535/50021089081_ec104aaafd_o.jpg",
    "id_image": "Frog_974209",
    "count_view": 0
  },
  {
    "link_thumb": "https://live.staticflickr.com/65535/50020546193_06dfc1e573_n.jpg",
    "id_album": "844170697",
    "description": "Frog_983086",
    "title": "Frog_983086",
    "link_img": "https://live.staticflickr.com/65535/50020546193_0ecb71fa7b_o.jpg",
    "id_image": "Frog_983086",
    "count_view": 0
  },
  {
    "link_thumb": "https://live.staticflickr.com/65535/50021342617_995bb841b4_n.jpg",
    "id_album": "844170697",
    "description": "Frog_984018",
    "title": "Frog_984018",
    "link_img": "https://live.staticflickr.com/65535/50021342617_8680322724_o.jpg",
    "id_image": "Frog_984018",
    "count_view": 0
  },
  {
    "link_thumb": "https://live.staticflickr.com/65535/50020546378_9317fb74cb_n.jpg",
    "id_album": "844170697",
    "description": "Frog_984669",
    "title": "Frog_984669",
    "link_img": "https://live.staticflickr.com/65535/50020546378_bf24508f58_o.jpg",
    "id_image": "Frog_984669",
    "count_view": 0
  },
  {
    "link_thumb": "https://live.staticflickr.com/65535/50021089586_5e26962dac_n.jpg",
    "id_album": "844170697",
    "description": "Frog_986592",
    "title": "Frog_986592",
    "link_img": "https://live.staticflickr.com/65535/50021089586_21563da887_o.jpg",
    "id_image": "Frog_986592",
    "count_view": 0
  },
  {
    "link_thumb": "https://live.staticflickr.com/65535/50020546533_2c1400f6e7_n.jpg",
    "id_album": "844170697",
    "description": "Frog_986595",
    "title": "Frog_986595",
    "link_img": "https://live.staticflickr.com/65535/50020546533_e956c94dc3_o.jpg",
    "id_image": "Frog_986595",
    "count_view": 0
  },
  {
    "link_thumb": "https://live.staticflickr.com/65535/50020546623_25bc987b30_n.jpg",
    "id_album": "844170697",
    "description": "Frog_986598",
    "title": "Frog_986598",
    "link_img": "https://live.staticflickr.com/65535/50020546623_79cf7e8844_o.jpg",
    "id_image": "Frog_986598",
    "count_view": 0
  },
  {
    "link_thumb": "https://live.staticflickr.com/65535/50021089846_f24bfd37b6_n.jpg",
    "id_album": "844170697",
    "description": "Frog_987662",
    "title": "Frog_987662",
    "link_img": "https://live.staticflickr.com/65535/50021089846_309a789436_o.jpg",
    "id_image": "Frog_987662",
    "count_view": 0
  },
  {
    "link_thumb": "https://live.staticflickr.com/65535/50021343222_cc60534f78_n.jpg",
    "id_album": "844170697",
    "description": "Frog_987663",
    "title": "Frog_987663",
    "link_img": "https://live.staticflickr.com/65535/50021343222_8036696cd0_o.jpg",
    "id_image": "Frog_987663",
    "count_view": 0
  }
]